{
  "_id": "MVbXYal4w0UE5RR5",
  "name": "Shadowfire Creature",
  "permission": {
    "default": 0
  },
  "type": "feat",
  "data": {
    "description": {
      "value": "<p><strong>Acquired/Inherited Template</strong>&nbsp;Inherited<br><strong>Simple Template</strong>&nbsp;No<br><strong>Usable with Summons&nbsp;</strong>No<br><br>Created through rituals that suffused elemental fire with the dark corruption of shadow, shadowfire creatures were spawned from the evil cult led by Yarrix (see page 103). Cruelly transformed from their true forms by their ancient creators, they flicker between existence and nothingness, reality and oblivion, feeding on pain and flame and the screams of those who dare stand against them.<br><br>“Shadowfire creature” is an inherited template that can be applied to any creature that has the shadow creature template (Pathfinder RPG Bestiary 4&nbsp;238) and 5 or more Hit Dice, referred to hereafter as the base creature. It retains all the special abilities of the base creature, except as noted here.<br><br><strong>CR:</strong> Same as the base creature + 1.<br><br><strong>Type:</strong> The shadowfire creature gains the elemental and fire subtypes if it does not already have them. Do not recalculate the creature’s base attack bonus, saves, or skill ranks.<br><br><strong>Defensive Abilities:</strong> A shadowfire creature gains immunity to fire and cold, and loses any vulnerability it has to fire or cold. In addition, a shadowfire creature gains the following defensive abilities.<br><br><em>Fire Absorption (Su): </em>A shadowfire creature regains 1 hit point for each point of fire damage it would take from normal fire, a flaming weapon, or magical fire were it not immune. Any hit points gained above the shadowfire creature’s full normal hit point total are temporary hit points that disappear after 5 minutes.<br><br><em>Incorporeal Step (Su):</em> When a shadowfire creature moves, it gains the incorporeal subtype and special ability, including a deflection bonus to AC equal to its Charisma bonus. It loses the incorporeal subtype and special ability when it stops moving.<br><br><strong>Special Attacks:</strong> A shadowfire creature gains the following special attack.<br><br><em>Shadow Touch (Su): </em>A shadowfire creature’s touch chills the target and saps away its life energy. All of a shadowfire creature’s slam attacks and attacks with natural weapons deal an additional 1d6 points of negative energy damage to living creatures.<br><br><strong>Spell-Like Abilities:</strong> A shadowfire creature can use the&nbsp;shadow step&nbsp;spell (Pathfinder RPG Ultimate Magic&nbsp;237) as a spell-like ability once per day, with a caster level equal to its Hit Dice. If it has 11 or more Hit Dice, it can instead use this ability three times per day.<br><br><strong>Ability Scores:</strong> Str +2, Dex +2, Cha +4.</p>",
      "chat": "",
      "unidentified": ""
    },
    "tags": [],
    "activation": {
      "cost": 1,
      "type": ""
    },
    "unchainedAction": {
      "activation": {
        "cost": 1,
        "type": ""
      }
    },
    "duration": {
      "value": null,
      "units": ""
    },
    "target": {
      "value": ""
    },
    "range": {
      "value": null,
      "units": "",
      "maxIncrements": 1,
      "minValue": null,
      "minUnits": "",
      "long": null
    },
    "uses": {
      "value": 0,
      "max": 0,
      "per": null,
      "autoDeductCharges": true,
      "autoDeductChargesCost": "1"
    },
    "measureTemplate": {
      "type": "",
      "size": "0",
      "overrideColor": false,
      "customColor": "",
      "overrideTexture": false,
      "customTexture": ""
    },
    "attackName": "",
    "actionType": "",
    "attackBonus": "",
    "critConfirmBonus": "",
    "damage": {
      "parts": [],
      "critParts": [],
      "nonCritParts": []
    },
    "attackParts": [],
    "formula": "",
    "ability": {
      "attack": null,
      "damage": null,
      "damageMult": 1,
      "critRange": 20,
      "critMult": 2
    },
    "save": {
      "dc": 0,
      "type": "",
      "description": ""
    },
    "effectNotes": "",
    "attackNotes": "",
    "soundEffect": "",
    "changes": [
      {
        "_id": "4tyt2cd3",
        "formula": "2",
        "operator": "+",
        "target": "ability",
        "subTarget": "str",
        "modifier": "untyped",
        "priority": 0,
        "value": 0
      },
      {
        "_id": "o9pe953v",
        "formula": "2",
        "operator": "+",
        "target": "ability",
        "subTarget": "dex",
        "modifier": "untyped",
        "priority": 0,
        "value": 0
      },
      {
        "_id": "hwjcbs24",
        "formula": "4",
        "operator": "+",
        "target": "ability",
        "subTarget": "cha",
        "modifier": "untyped",
        "priority": 0,
        "value": 0
      }
    ],
    "changeFlags": {
      "loseDexToAC": false,
      "noStr": false,
      "noDex": false,
      "oneInt": false,
      "oneWis": false,
      "oneCha": false,
      "noEncumbrance": false,
      "mediumArmorFullSpeed": false,
      "heavyArmorFullSpeed": false
    },
    "contextNotes": [],
    "links": {
      "children": [],
      "charges": []
    },
    "tag": "",
    "useCustomTag": false,
    "armorProf": {
      "value": [],
      "custom": ""
    },
    "weaponProf": {
      "value": [],
      "custom": ""
    },
    "featType": "template",
    "associations": {
      "classes": []
    },
    "showInQuickbar": false,
    "nonlethal": false,
    "abilityType": "none",
    "crOffset": "1",
    "attack": {
      "parts": []
    }
  },
  "flags": {},
  "img": "systems/pf1/icons/skills/violet_07.jpg",
  "effects": []
}