{
  "_id": "igK1cFB7k8PWa6eB",
  "name": "Blowgun Dart",
  "permission": {
    "default": 0
  },
  "type": "loot",
  "data": {
    "description": {
      "value": "<p><em>These light darts have tiny grooves behind the tips.</em></p>\n<p>A character can apply poison to a blowgun dart without risk of poisoning himself.</p>",
      "chat": "",
      "unidentified": ""
    },
    "tags": [],
    "quantity": 1,
    "weight": 0,
    "price": 0.5,
    "identified": true,
    "hp": {
      "max": 1,
      "value": 1
    },
    "hardness": 5,
    "carried": true,
    "unidentified": {
      "price": 0.05,
      "name": ""
    },
    "identifiedName": "Blowgun Dart",
    "cl": 0,
    "aura": {
      "custom": false,
      "school": ""
    },
    "changes": [],
    "changeFlags": {
      "loseDexToAC": false,
      "noStr": false,
      "noDex": false,
      "oneInt": false,
      "oneWis": false,
      "oneCha": false,
      "noEncumbrance": false,
      "mediumArmorFullSpeed": false,
      "heavyArmorFullSpeed": false
    },
    "contextNotes": [],
    "links": {
      "children": []
    },
    "subType": "ammo",
    "equipped": false,
    "damage": {
      "parts": [],
      "critParts": []
    }
  },
  "flags": {},
  "img": "systems/pf1/icons/items/weapons/blowgun-darts.png",
  "effects": []
}