{
  "_id": "ZDzIeyL6Zc9M6xq5",
  "name": "Dwarven Maulaxe",
  "permission": {
    "default": 0
  },
  "type": "weapon",
  "data": {
    "description": {
      "value": "<p><em>This versatile weapon appears like a heavy-headed axe, but a skilled wielder can strike equally well with its chopping edge as with the forged sledge that backs the blade.</em></p>\n<p>A dwarven maulaxe is a martial weapon for dwarves and an exotic weapon for members of other races. It is not a double weapon, and any enchantments applied to the weapon operate normally regardless of which part of the weapon’s head is used to deliver the blow, except for enhancements that apply only to blunt or sharp weapons. Such enhancements apply only to attacks dealing the appropriate type of damage.</p>",
      "chat": "",
      "unidentified": ""
    },
    "tags": [],
    "quantity": 1,
    "weight": 5,
    "price": 25,
    "identified": true,
    "hp": {
      "max": 2,
      "value": 2
    },
    "hardness": 5,
    "carried": true,
    "unidentified": {
      "price": 0,
      "name": ""
    },
    "identifiedName": "",
    "cl": 0,
    "aura": {
      "custom": false,
      "school": ""
    },
    "changes": [],
    "changeFlags": {
      "loseDexToAC": false,
      "noStr": false,
      "noDex": false,
      "oneInt": false,
      "oneWis": false,
      "oneCha": false,
      "noEncumbrance": false,
      "mediumArmorFullSpeed": false,
      "heavyArmorFullSpeed": false
    },
    "contextNotes": [],
    "links": {
      "children": []
    },
    "equipped": true,
    "masterwork": false,
    "weaponType": "exotic",
    "weaponSubtype": "light",
    "properties": {
      "blc": false,
      "brc": false,
      "dbl": false,
      "dis": false,
      "fin": false,
      "frg": false,
      "imp": false,
      "mnk": false,
      "nnl": false,
      "prf": false,
      "rch": false,
      "thr": true,
      "trp": false
    },
    "enh": null,
    "weaponData": {
      "damageRoll": "1d6",
      "damageType": "B or S",
      "critRange": "20",
      "critMult": "3",
      "range": 10,
      "attackFormula": "",
      "damageFormula": "",
      "size": "med",
      "maxRangeIncrements": 5
    },
    "broken": false,
    "bonus": {
      "value": 0,
      "_deprecated": true
    },
    "damageType": {
      "value": "",
      "_deprecated": true
    },
    "damage2": {
      "value": "",
      "_deprecated": true
    },
    "damage2Type": {
      "value": "",
      "_deprecated": true
    },
    "damage": {
      "parts": []
    },
    "uses": {
      "value": 0,
      "max": 0
    }
  },
  "flags": {},
  "img": "systems/pf1/icons/items/weapons/maulaxe-dwarven.png",
  "effects": []
}