{
  "_id": "5GqOcC49oDGe7VRH",
  "name": "Estoc",
  "permission": {
    "default": 0
  },
  "type": "weapon",
  "data": {
    "description": {
      "value": "<p><em>An estoc is a sword about as long as a&nbsp;<a href=\"https://www.d20pfsrd.com/equipment/weapons/weapon-descriptions/sword-bastard\">bastard sword</a>, but designed exclusively for thrusting attacks. Its “blade” is a steel spike with a triangular, square, or hexagonal cross-section.</em></p>\n<p>Like the bastard sword, an estoc requires special training to use it one handed, but it can also be wielded as a two-handed martial weapon.</p>\n<p>When you wield an estoc with one hand, treat it as a one-handed weapon; when you wield an estoc with two hands, treat it as a two-handed weapon. If you can use the estoc proficiently with one hand, you can also use the&nbsp;<a href=\"https://www.d20pfsrd.com/feats/combat-feats/weapon-finesse-combat\">Weapon Finesse</a>&nbsp;feat to apply your&nbsp;<a href=\"https://www.d20pfsrd.com/basics-ability-scores/ability-scores#TOC-Dexterity-Dex-\">Dexterity</a>&nbsp;modifier instead of your&nbsp;<a href=\"https://www.d20pfsrd.com/basics-ability-scores/ability-scores#TOC-Strength-Str-\">Strength</a>&nbsp;modifier on&nbsp;<a href=\"https://www.d20pfsrd.com/gamemastering/combat#TOC-Attack-Roll\">attack rolls</a>&nbsp;when wielding an estoc sized for you with one or two hands, even though it isn’t a light weapon.</p>",
      "chat": "",
      "unidentified": ""
    },
    "tags": [],
    "quantity": 1,
    "weight": 4,
    "price": 50,
    "identified": true,
    "hp": {
      "max": 5,
      "value": 5
    },
    "hardness": 10,
    "carried": true,
    "unidentified": {
      "price": 0,
      "name": ""
    },
    "identifiedName": "",
    "cl": 0,
    "aura": {
      "custom": false,
      "school": ""
    },
    "changes": [],
    "changeFlags": {
      "loseDexToAC": false,
      "noStr": false,
      "noDex": false,
      "oneInt": false,
      "oneWis": false,
      "oneCha": false,
      "noEncumbrance": false,
      "mediumArmorFullSpeed": false,
      "heavyArmorFullSpeed": false
    },
    "contextNotes": [],
    "links": {
      "children": []
    },
    "equipped": true,
    "masterwork": false,
    "weaponType": "exotic",
    "weaponSubtype": "1h",
    "properties": {
      "blc": false,
      "brc": false,
      "dbl": false,
      "dis": false,
      "fin": false,
      "frg": false,
      "imp": false,
      "mnk": false,
      "nnl": false,
      "prf": false,
      "rch": false,
      "thr": false,
      "trp": false
    },
    "enh": null,
    "weaponData": {
      "damageRoll": "2d4",
      "damageType": "P",
      "critRange": "18",
      "critMult": "2",
      "range": null,
      "attackFormula": "",
      "damageFormula": "",
      "size": "med",
      "maxRangeIncrements": 1
    },
    "broken": false,
    "bonus": {
      "value": 0,
      "_deprecated": true
    },
    "damageType": {
      "value": "",
      "_deprecated": true
    },
    "damage2": {
      "value": "",
      "_deprecated": true
    },
    "damage2Type": {
      "value": "",
      "_deprecated": true
    },
    "damage": {
      "parts": []
    }
  },
  "flags": {},
  "img": "systems/pf1/icons/items/weapons/estoc.PNG",
  "effects": []
}