{
  "_id": "c2cwyWi0Jn5PMggb",
  "name": "Mancatcher",
  "permission": {
    "default": 0
  },
  "type": "weapon",
  "data": {
    "description": {
      "value": "<p><em>This polearm consists of two curved metal bands that close around a target when you attack, allowing you to bind an opponent.</em></p>\n<p>A mancatcher is built to capture a creature of a particular size category (such as Small or Medium) and doesn’t work on creatures of the wrong size. Make a touch attack to hit an opponent and a combat maneuver check to grapple him (without the –4 penalty for not having two hands free); success means you and the target are grappled. Once the target is grappled, you can perform a move or damage grapple action against him.</p>\n<p>The mancatcher has hardness 10 and 5 hit points; breaking it requires a DC 26 Strength check.</p>\n<p>If you drop the mancatcher, the target can free himself as a standard action.</p>",
      "chat": "",
      "unidentified": ""
    },
    "tags": [],
    "quantity": 1,
    "weight": 10,
    "price": 15,
    "identified": true,
    "hp": {
      "max": 10,
      "value": 10
    },
    "hardness": 5,
    "carried": true,
    "unidentified": {
      "price": 0,
      "name": ""
    },
    "identifiedName": "Mancatcher",
    "cl": 0,
    "aura": {
      "custom": false,
      "school": ""
    },
    "changes": [],
    "changeFlags": {
      "loseDexToAC": false,
      "noStr": false,
      "noDex": false,
      "oneInt": false,
      "oneWis": false,
      "oneCha": false,
      "noEncumbrance": false,
      "mediumArmorFullSpeed": false,
      "heavyArmorFullSpeed": false
    },
    "contextNotes": [],
    "links": {
      "children": []
    },
    "equipped": true,
    "masterwork": false,
    "weaponType": "exotic",
    "weaponSubtype": "2h",
    "properties": {
      "blc": false,
      "brc": false,
      "dbl": false,
      "dis": false,
      "fin": false,
      "frg": false,
      "imp": false,
      "mnk": false,
      "nnl": false,
      "prf": false,
      "rch": true,
      "thr": false,
      "trp": false,
      "grp": true,
      "snd": false
    },
    "enh": null,
    "weaponData": {
      "damageRoll": "1d2",
      "damageType": "P",
      "critRange": "20",
      "critMult": "2",
      "range": null,
      "attackFormula": "",
      "damageFormula": "",
      "size": "med",
      "maxRangeIncrements": 1
    },
    "broken": false,
    "bonus": {
      "value": 0,
      "_deprecated": true
    },
    "damageType": {
      "value": "",
      "_deprecated": true
    },
    "damage2": {
      "value": "",
      "_deprecated": true
    },
    "damage2Type": {
      "value": "",
      "_deprecated": true
    },
    "damage": {
      "parts": []
    }
  },
  "flags": {},
  "img": "systems/pf1/icons/items/weapons/mancatcher.png",
  "effects": []
}