{
  "_id": "6oevs2mE3QqqQEAK",
  "name": "Net",
  "permission": {
    "default": 0
  },
  "type": "weapon",
  "data": {
    "description": {
      "value": "<p>When you throw a net, you make a ranged touch attack against your target. A net’s maximum range is 10 feet. If you hit, the target is&nbsp;<a href=\"https://www.d20pfsrd.com/gamemastering/conditions#TOC-Entangled\" rel=\"nofollow\">entangled</a>.</p>\n<p>If you control the trailing rope by succeeding on an opposed&nbsp;<a href=\"https://www.d20pfsrd.com/basics-ability-scores/ability-scores#TOC-Strength-Str-\" rel=\"nofollow\">Strength</a>&nbsp;check while holding it, the entangled creature can move only within the limits that the rope allows. If the entangled creature attempts to cast a spell, it must make a concentration check with a DC of 15 + the spell’s level or be unable to cast the spell.</p>\n<p>An entangled creature can escape with a DC 20 Escape Artist check (a full-round action). The net has 5 hit points and can be burst with a DC 25 Strength check (also a full-round action). A net is useful only against creatures within one size category of you.</p>\n<p>A net must be folded to be thrown effectively. The first time you throw your net in a fight, you make a normal ranged touch attack roll. After the net is unfolded, you take a –4 penalty on attack rolls with it. It takes 2 rounds for a proficient user to fold a net and twice that long for a non-proficient one to do so.</p>",
      "chat": "",
      "unidentified": ""
    },
    "tags": [],
    "quantity": 1,
    "weight": 6,
    "price": 20,
    "identified": true,
    "hp": {
      "max": 5,
      "value": 5
    },
    "hardness": 2,
    "carried": true,
    "unidentified": {
      "price": 0,
      "name": ""
    },
    "identifiedName": "",
    "cl": 0,
    "aura": {
      "custom": false,
      "school": ""
    },
    "changes": [],
    "changeFlags": {
      "loseDexToAC": false,
      "noStr": false,
      "noDex": false,
      "oneInt": false,
      "oneWis": false,
      "oneCha": false,
      "noEncumbrance": false,
      "mediumArmorFullSpeed": false,
      "heavyArmorFullSpeed": false
    },
    "contextNotes": [],
    "links": {
      "children": []
    },
    "equipped": true,
    "masterwork": false,
    "weaponType": "exotic",
    "weaponSubtype": "ranged",
    "properties": {
      "blc": false,
      "brc": false,
      "dbl": false,
      "dis": false,
      "fin": false,
      "frg": false,
      "imp": false,
      "mnk": false,
      "nnl": false,
      "prf": false,
      "rch": false,
      "thr": true,
      "trp": false
    },
    "enh": null,
    "weaponData": {
      "damageRoll": "",
      "damageType": "",
      "critRange": "20",
      "critMult": "2",
      "range": 10,
      "attackFormula": "",
      "damageFormula": "",
      "size": "med",
      "maxRangeIncrements": 5
    },
    "broken": false,
    "bonus": {
      "value": 0,
      "_deprecated": true
    },
    "damageType": {
      "value": "",
      "_deprecated": true
    },
    "damage2": {
      "value": "",
      "_deprecated": true
    },
    "damage2Type": {
      "value": "",
      "_deprecated": true
    },
    "damage": {
      "parts": []
    },
    "uses": {
      "value": 0,
      "max": 0
    }
  },
  "flags": {},
  "img": "systems/pf1/icons/items/weapons/net.png",
  "effects": []
}