{
  "_id": "nq0b69zA7Q35n0oE",
  "name": "Sea-Knife",
  "permission": {
    "default": 0
  },
  "type": "weapon",
  "data": {
    "description": {
      "value": "<p><em>A sea-knife is a long-handled weapon with a short blade. It is designed to be strapped to the ankle or foot of the wielder, pointing downward and jutting out beyond the wearer’s leg.</em></p>\n<p>A sea-knife can be used as a light melee weapon when the wielder is swimming, flying, or&nbsp;<a href=\"https://www.d20pfsrd.com/gamemastering/conditions#TOC-Prone\">prone</a>. This allows the wielder to use a two-handed weapon, or wield a weapon with one hand and carry a shield, and still make off-hand attacks with the sea-knife. Attacks made with a sea-knife take a –2 circumstance penalty on&nbsp;<a href=\"https://www.d20pfsrd.com/gamemastering/combat#TOC-Attack-Roll\">attack rolls</a>&nbsp;in addition to all other attack penalties.</p>\n<p>Donning or removing a sea-knife is a&nbsp;<a href=\"https://www.d20pfsrd.com/gamemastering/combat#TOC-Full-Round-Actions\">full-round action</a>.</p>\n<p>The wearer cannot use a leg with a sea-knife strapped to it for walking or running.</p>",
      "chat": "",
      "unidentified": ""
    },
    "tags": [],
    "quantity": 1,
    "weight": 1,
    "price": 8,
    "identified": true,
    "hp": {
      "max": 2,
      "value": 2
    },
    "hardness": 10,
    "carried": true,
    "unidentified": {
      "price": 0,
      "name": ""
    },
    "identifiedName": "",
    "cl": 0,
    "aura": {
      "custom": false,
      "school": ""
    },
    "changes": [],
    "changeFlags": {
      "loseDexToAC": false,
      "noStr": false,
      "noDex": false,
      "oneInt": false,
      "oneWis": false,
      "oneCha": false,
      "noEncumbrance": false,
      "mediumArmorFullSpeed": false,
      "heavyArmorFullSpeed": false
    },
    "contextNotes": [],
    "links": {
      "children": []
    },
    "equipped": true,
    "masterwork": false,
    "weaponType": "martial",
    "weaponSubtype": "light",
    "properties": {
      "blc": false,
      "brc": false,
      "dbl": false,
      "dis": false,
      "fin": false,
      "frg": false,
      "imp": false,
      "mnk": false,
      "nnl": false,
      "prf": false,
      "rch": false,
      "thr": false,
      "trp": false
    },
    "enh": null,
    "weaponData": {
      "damageRoll": "1d4",
      "damageType": "S",
      "critRange": "19",
      "critMult": "2",
      "range": null,
      "attackFormula": "",
      "damageFormula": "",
      "size": "med",
      "maxRangeIncrements": 1
    },
    "broken": false,
    "bonus": {
      "value": 0,
      "_deprecated": true
    },
    "damageType": {
      "value": "",
      "_deprecated": true
    },
    "damage2": {
      "value": "",
      "_deprecated": true
    },
    "damage2Type": {
      "value": "",
      "_deprecated": true
    },
    "damage": {
      "parts": []
    }
  },
  "flags": {},
  "img": "systems/pf1/icons/items/weapons/sea-knife.png",
  "effects": []
}