{
  "_id": "qozwdcnkxulxsepe",
  "name": "Acid",
  "permission": {
    "default": 0
  },
  "type": "loot",
  "data": {
    "description": {
      "value": "\r\n<p class=\"source\"><b>Source</b> <a title=\"PZO1110\" href=\"http://www.amazon.com/gp/product/1601251505/ref=as_li_qf_sp_asin_il_tl?ie=UTF8&amp;camp=1789&amp;creative=9325&amp;creativeASIN=1601251505&amp;linkCode=as2&amp;tag=httpwwwd20pfs-20\" target=\"_blank\" rel=\"noopener\">PZO1110</a></p>\r\n<p>You can throw a flask of acid as a <a href=\"https://www.d20pfsrd.com/gamemastering/combat#TOC-Throw-Splash-Weapon\">splash weapon</a> with a range increment of 10 feet.</p>\r\n<p>A direct hit deals 1d6 points of acid damage. Every creature within 5 feet of the point where the acid hits takes 1 point of acid damage from the splash.</p>\r\n<p>Craft (alchemy) DC: 15</p>\r\n<p class=\"header\">Alchemical Power Component</p>\r\n<p class=\"source\"><b>Source</b> <a title=\"PZO9410\" href=\"http://www.amazon.com/gp/product/1601252226/ref=as_li_qf_sp_asin_il_tl?ie=UTF8&amp;camp=1789&amp;creative=9325&amp;creativeASIN=1601252226&amp;linkCode=as2&amp;tag=httpwwwd20pfs-20\" target=\"_blank\" rel=\"noopener\">PZO9410</a></p>\r\n<p>A common flask of acid has many uses as an alchemical power component, particularly with attack spells.</p>\r\n<ul>\r\n<li><a class=\"spell\" href=\"https://www.d20pfsrd.com/magic/all-spells/a/acid-arrow\">Acid Arrow</a> (M): The spell's acid lasts 1 round longer than normal.</li>\r\n<li><a class=\"spell\" href=\"https://www.d20pfsrd.com/magic/all-spells/a/acid-fog\">Acid Fog</a> (M): The fog's radius and height increase by 5 feet.</li>\r\n<li><a class=\"spell\" href=\"https://www.d20pfsrd.com/magic/all-spells/a/acid-splash\">Acid Splash</a> (F): The spell deals +1 point of damage.</li>\r\n<li><a class=\"spell\" href=\"https://www.d20pfsrd.com/magic/all-spells/a/acid-splash\">Acid Splash</a> (M): The spell lasts 1 round longer than normal.</li>\r\n<li><a class=\"spell\" href=\"https://www.d20pfsrd.com/magic/all-spells/d/dispel-magic\">Dispel Magic</a> (M): Using acid as a material component while attempting to dispel or <a href=\"https://www.d20pfsrd.com/magic#TOC-Counterspells\">counterspell</a> a spell or effect with the earth subtype gives you a +2 bonus on your dispel check. This bonus applies whether you are using <a class=\"spell\" href=\"https://www.d20pfsrd.com/magic/all-spells/d/dispel-magic\">dispel magic</a>, <a class=\"spell\" href=\"https://www.d20pfsrd.com/magic/all-spells/d/dispel-magic\">greater dispel magic</a>, or some other spell that you can use for counterspelling (for example, if you have the <a href=\"https://www.d20pfsrd.com/feats/general-feats/improved-counterspell\">Improved Counterspell</a> feat).</li>\r\n<li><a class=\"spell\" href=\"https://www.d20pfsrd.com/magic/all-spells/g/grease\">Grease</a> (M): The grease is acidic and deals 1 point of acid damage per round to any creature in the area or holding the greased object.</li>\r\n<li><a class=\"spell\" href=\"https://www.d20pfsrd.com/magic/all-spells/w/wall-of-ice\">Wall of Ice</a> (M): For each flask of acid used as a power component, you may designate one 10-foot square of ice wall that, if <a href=\"https://www.d20pfsrd.com/gamemastering/conditions#TOC-Broken\">broken</a> through, deals 1d6 acid damage in addition to the normal cold damage.</li>\r\n</ul>\r\n",
      "chat": "",
      "unidentified": ""
    },
    "tags": [],
    "quantity": 1,
    "weight": 1,
    "price": 10,
    "identified": true,
    "hp": {
      "max": 10,
      "value": 10
    },
    "hardness": 0,
    "carried": true,
    "unidentified": {
      "price": 0,
      "name": ""
    },
    "identifiedName": "",
    "cl": 0,
    "aura": {
      "custom": false,
      "school": ""
    },
    "changes": [],
    "changeFlags": {
      "loseDexToAC": false,
      "noStr": false,
      "noDex": false,
      "oneInt": false,
      "oneWis": false,
      "oneCha": false,
      "noEncumbrance": false,
      "mediumArmorFullSpeed": false,
      "heavyArmorFullSpeed": false
    },
    "contextNotes": [],
    "links": {
      "children": []
    },
    "tag": "",
    "useCustomTag": false,
    "subType": "gear",
    "equipped": false,
    "damage": {
      "parts": []
    }
  },
  "flags": {},
  "img": "systems/pf1/icons/items/inventory/dice.jpg",
  "effects": []
}