{
  "_id": "wktvdbrytslfplpq",
  "name": "Cap, Tinker's",
  "permission": {
    "default": 0
  },
  "type": "loot",
  "data": {
    "description": {
      "value": "\r\n<p class=\"source\"><b>Source</b>: <a title=\"PZO9430\" href=\"http://www.amazon.com/gp/product/1601255101/ref=as_li_qf_sp_asin_il_tl?ie=UTF8&amp;camp=1789&amp;creative=9325&amp;creativeASIN=1601255101&amp;linkCode=as2&amp;tag=httpwwwd20pfs-20\" target=\"_blank\" rel=\"noopener\">PZO9430</a></p>\r\n<p><b>Price</b> 200 gp; <b>Weight</b> 4 lbs.</p>\r\n<p>This expertly crafted helmet has several small arms that hold magnifying lenses near the wearer's face. They're kept in place by locking hinges and crude gyroscopes that compensate for normal head movements. While the lenses are properly aligned, the wearer gains a +2 <a href=\"https://www.d20pfsrd.com/basics-ability-scores/glossary#TOC-Circumstance-Bonus\">circumstance bonus</a> on <a href=\"https://www.d20pfsrd.com/skills/appraise\">Appraise</a> and <a href=\"https://www.d20pfsrd.com/skills/craft\">Craft</a> checks involving items that are small or highly detailed and on sight-based <a href=\"https://www.d20pfsrd.com/skills/perception\">Perception</a> checks when she uses an action to inspect something within 5 feet. However, the arms become misaligned if the wearer falls <a href=\"https://www.d20pfsrd.com/gamemastering/conditions#TOC-Prone\">prone</a> or is <a href=\"https://www.d20pfsrd.com/gamemastering/conditions#TOC-Grappled\">grappled</a>, or if the helmet is damaged (<a href=\"https://www.d20pfsrd.com/equipment/damaging-objects#TOC-Hardness\">hardness</a> 5, 2 <a href=\"https://www.d20pfsrd.com/gamemastering/combat#TOC-Hit-Points\">hit points</a>). If the arms are misaligned, they lose their usefulness until readjusted (a <a href=\"https://www.d20pfsrd.com/gamemastering/combat#TOC-Full-Round-Actions\">full-round action</a> that provokes <a href=\"https://www.d20pfsrd.com/gamemastering/combat#TOC-Attacks-of-Opportunity\">attacks of opportunity</a>).</p>\r\n\r\n",
      "chat": "",
      "unidentified": ""
    },
    "tags": [],
    "quantity": 1,
    "weight": 4,
    "price": 200,
    "identified": true,
    "hp": {
      "max": 10,
      "value": 10
    },
    "hardness": 0,
    "carried": true,
    "unidentified": {
      "price": 0,
      "name": ""
    },
    "identifiedName": "",
    "cl": 0,
    "aura": {
      "custom": false,
      "school": ""
    },
    "changes": [],
    "changeFlags": {
      "loseDexToAC": false,
      "noStr": false,
      "noDex": false,
      "oneInt": false,
      "oneWis": false,
      "oneCha": false,
      "noEncumbrance": false,
      "mediumArmorFullSpeed": false,
      "heavyArmorFullSpeed": false
    },
    "contextNotes": [],
    "links": {
      "children": []
    },
    "tag": "",
    "useCustomTag": false,
    "subType": "gear",
    "equipped": false,
    "damage": {
      "parts": []
    }
  },
  "flags": {},
  "img": "systems/pf1/icons/items/inventory/dice.jpg",
  "effects": []
}