{
  "_id": "zeighvjcboutyfsa",
  "name": "Cloak, Wing",
  "permission": {
    "default": 0
  },
  "type": "loot",
  "data": {
    "description": {
      "value": " \n<p class=\"source\"><b>Source</b> <a title=\"PZO1121\" href=\"http://www.amazon.com/gp/product/1601253907/ref=as_li_qf_sp_asin_il_tl?ie=UTF8&amp;camp=1789&amp;creative=9325&amp;creativeASIN=1601253907&amp;linkCode=as2&amp;tag=httpwwwd20pfs-20\" target=\"_blank\" rel=\"noopener\">PZO1121</a></p> \n<p>This strange piece of equipment only works for sylphs and similar creatures, whose light, airy bodies can be borne upon the winds. Looking like a fine silk traveler's cloak, a wing cloak is secretly reinforced with a series of wooden struts that, when locked into place, stretch the cloak's fabric into a rudimentary wing. Arranging the struts into a wing or reversing the change is a <a href=\"https://www.d20pfsrd.com/gamemastering/combat#TOC-Move-Actions\">move action</a>. When the cloak is shaped into a wing, the wearer can make a DC 15 <a href=\"https://www.d20pfsrd.com/skills/fly\">Fly</a> check to fall safely from any height without taking falling damage, as if using <a class=\"spell\" href=\"https://www.d20pfsrd.com/magic/all-spells/f/feather-fall\">feather fall</a>. When falling, the wearer may make an additional DC 15 <a href=\"https://www.d20pfsrd.com/skills/fly\">Fly</a> check to glide, moving 5 feet laterally for every 20 feet she falls. Readying and using a wing cloak requires two hands and provokes an <a href=\"https://www.d20pfsrd.com/gamemastering/combat#TOC-Attacks-of-Opportunity\">attack of opportunity</a>. A wing cloak has <a href=\"https://www.d20pfsrd.com/equipment/damaging-objects#TOC-Hardness\">hardness</a> 0 and 5 <a href=\"https://www.d20pfsrd.com/gamemastering/combat#TOC-Hit-Points\">hit points</a>. If the wing cloak is <a href=\"https://www.d20pfsrd.com/gamemastering/conditions#TOC-Broken\">broken</a>, the <a href=\"https://www.d20pfsrd.com/skills/fly\">Fly</a> DCs to use it increase by +10.</p> \n",
      "chat": "",
      "unidentified": ""
    },
    "tags": [],
    "quantity": 1,
    "weight": 1,
    "price": 1200,
    "identified": true,
    "hp": {
      "max": 10,
      "value": 10
    },
    "hardness": 0,
    "carried": true,
    "unidentified": {
      "price": 0,
      "name": ""
    },
    "identifiedName": "",
    "cl": 0,
    "aura": {
      "custom": false,
      "school": ""
    },
    "changes": [],
    "changeFlags": {
      "loseDexToAC": false,
      "noStr": false,
      "noDex": false,
      "oneInt": false,
      "oneWis": false,
      "oneCha": false,
      "noEncumbrance": false,
      "mediumArmorFullSpeed": false,
      "heavyArmorFullSpeed": false
    },
    "contextNotes": [],
    "links": {
      "children": []
    },
    "tag": "",
    "useCustomTag": false,
    "subType": "gear",
    "equipped": false,
    "damage": {
      "parts": []
    }
  },
  "flags": {},
  "img": "systems/pf1/icons/items/inventory/dice.jpg",
  "effects": []
}