{
  "_id": "oksjslnshfrpaouh",
  "name": "Cloud Puff",
  "permission": {
    "default": 0
  },
  "type": "loot",
  "data": {
    "description": {
      "value": "\r\n<p class=\"source\"><b>Source</b> <a href=\"http://amzn.to/2z71S07\" target=\"_blank\" rel=\"noopener\">PZO1140</a></p>\r\n<p><b>Price</b> 100 gp</p>\r\n<p>The spores of this odorous pale-gray fungus cause a euphoric light-headedness.</p>\r\n<p><b>Gather</b> DC 18; <b>Yield</b> 1 dose</p>\r\n<p><b>Terrain</b> any mountains</p>\r\n<p><b>Preparation</b> After soaking in salt water for 1 hour, a cloud puff must be dried in a delicate process that requires it to be turned three times per hour for 4 hours. This requires a successful DC 12 <a href=\"https://www.d20pfsrd.com/skills/craft\">Craft</a> (alchemy) check.</p>\r\n<p><b>Use</b> By crushing a dried cloud puff and inhaling the spores, a creature becomes light-headed and its mind grows resistant to outside influences. For the next hour, the creature gains a +2 <a href=\"https://www.d20pfsrd.com/basics-ability-scores/glossary#TOC-Bonus-Alchemical-\">alchemical bonus</a> on saving throws against <a href=\"https://www.d20pfsrd.com/magic#TOC-Magic-Descriptor-Mind-Affecting\">mind-affecting</a> effects but takes a -2 penalty on <a href=\"https://www.d20pfsrd.com/basics-ability-scores/ability-scores#TOC-Wisdom-Wis-\">Wisdom</a>-based skill checks.</p>\r\n",
      "chat": "",
      "unidentified": ""
    },
    "tags": [],
    "quantity": 1,
    "weight": 0,
    "price": 100,
    "identified": true,
    "hp": {
      "max": 10,
      "value": 10
    },
    "hardness": 0,
    "carried": true,
    "unidentified": {
      "price": 0,
      "name": ""
    },
    "identifiedName": "",
    "cl": 0,
    "aura": {
      "custom": false,
      "school": ""
    },
    "changes": [],
    "changeFlags": {
      "loseDexToAC": false,
      "noStr": false,
      "noDex": false,
      "oneInt": false,
      "oneWis": false,
      "oneCha": false,
      "noEncumbrance": false,
      "mediumArmorFullSpeed": false,
      "heavyArmorFullSpeed": false
    },
    "contextNotes": [],
    "links": {
      "children": []
    },
    "tag": "",
    "useCustomTag": false,
    "subType": "gear",
    "equipped": false,
    "damage": {
      "parts": []
    }
  },
  "flags": {},
  "img": "systems/pf1/icons/items/inventory/dice.jpg",
  "effects": []
}