{
  "_id": "qonddloevozzwcfd",
  "name": "Grog",
  "permission": {
    "default": 0
  },
  "type": "loot",
  "data": {
    "description": {
      "value": "<h4><span id=\"Grog\"><a name=\"TOC-Grog\"></a>Grog</span></h4>\r\n<p class=\"source\"><b>Source</b> <a title=\"PPZO9410\" href=\"http://www.amazon.com/gp/product/1601252226/ref=as_li_qf_sp_asin_il_tl?ie=UTF8&amp;camp=1789&amp;creative=9325&amp;creativeASIN=1601252226&amp;linkCode=as2&amp;tag=httpwwwd20pfs-20\" target=\"_blank\" rel=\"noopener\">PPZO9410</a></p>\r\n<p>A foul mix of different alcohols and whatever's handy, grog was invented by pirates and sailors and never managed to crawl far onto land. Grog is no one's first choice of drink, but anyone who's spent enough time on a ship has had at least a taste.</p>\r\n<p>The listed prices are for a tavern or restaurant in an average city.</p>\r\n<p>Additional Information from <a title=\"PPC:Pirates of the Inner Sea\" href=\"http://www.amazon.com/gp/product/1601254059/ref=as_li_qf_sp_asin_il_tl?ie=UTF8&amp;camp=1789&amp;creative=9325&amp;creativeASIN=1601254059&amp;linkCode=as2&amp;tag=httpwwwd20pfs-20\" target=\"_blank\" rel=\"noopener\">Pirates of the Inner Sea</a>: Sailors, especially on pirate crews, often demand daily rations of alcohol. To prevent hoarding of alcohol (resulting in drunkenness and subsequent hangovers), most captains mix alcohol with water and a bit of lime or lemon juice to make grog. The water dilutes the alcohol and causes it to spoil more quickly, while the citrus juice masks the taste of spoilage and also prevents scurvy.</p>\r\n",
      "chat": "",
      "unidentified": ""
    },
    "tags": [],
    "quantity": 1,
    "weight": 0,
    "price": 0,
    "identified": true,
    "hp": {
      "max": 10,
      "value": 10
    },
    "hardness": 0,
    "carried": true,
    "unidentified": {
      "price": 0,
      "name": ""
    },
    "identifiedName": "",
    "cl": 0,
    "aura": {
      "custom": false,
      "school": ""
    },
    "changes": [],
    "changeFlags": {
      "loseDexToAC": false,
      "noStr": false,
      "noDex": false,
      "oneInt": false,
      "oneWis": false,
      "oneCha": false,
      "noEncumbrance": false,
      "mediumArmorFullSpeed": false,
      "heavyArmorFullSpeed": false
    },
    "contextNotes": [],
    "links": {
      "children": []
    },
    "tag": "",
    "useCustomTag": false,
    "subType": "gear",
    "equipped": false,
    "damage": {
      "parts": []
    }
  },
  "flags": {},
  "img": "systems/pf1/icons/items/inventory/dice.jpg",
  "effects": []
}