{
  "_id": "9IQU7ZRO4KhglOV0",
  "name": "Kit, Gunslinger's",
  "permission": {
    "default": 0
  },
  "type": "container",
  "data": {
    "description": {
      "value": null,
      "chat": "",
      "unidentified": ""
    },
    "tags": [],
    "quantity": 1,
    "weight": 44.5,
    "price": 0,
    "identified": true,
    "hp": {
      "max": 10,
      "value": 10
    },
    "hardness": 0,
    "carried": true,
    "unidentified": {
      "price": 0,
      "name": "",
      "basePrice": 0
    },
    "identifiedName": "Kit, Gunslinger's",
    "cl": 0,
    "aura": {
      "custom": false,
      "school": ""
    },
    "inventoryItems": [
      {
        "_id": "lSCPUK5Ea6R0t4fz",
        "name": "Backpack",
        "permission": {
          "default": 0,
          "ZuWclcb9BUy2aZSN": 3
        },
        "type": "container",
        "data": {
          "basePrice": 2,
          "unidentified": {
            "basePrice": 0,
            "price": 0,
            "name": ""
          },
          "description": {
            "value": "<p>This leather knapsack has one large pocket that closes with a buckled strap and holds about 2 cubic feet of material. Some may have one or more smaller pockets on the sides.</p>",
            "chat": "",
            "unidentified": ""
          },
          "tags": [],
          "quantity": 1,
          "weight": 2,
          "price": 2,
          "identified": true,
          "hp": {
            "max": 10,
            "value": 10
          },
          "hardness": 0,
          "carried": true,
          "identifiedName": "Backpack",
          "cl": 0,
          "aura": {
            "custom": false,
            "school": ""
          },
          "inventoryItems": [],
          "maxWeight": null,
          "weightReduction": 0,
          "baseWeight": 2,
          "damage": {
            "parts": [],
            "critParts": [],
            "nonCritParts": []
          },
          "weightConverted": 2,
          "weightUnits": "lbs",
          "priceUnits": "gp"
        },
        "flags": {
          "core": {
            "sourceId": "Item.CcUuzTh1CCp2NMRv"
          }
        },
        "img": "systems/pf1/icons/items/inventory/backpack.jpg",
        "effects": [],
        "labels": {
          "equipped": "<i class=\"fas fa-times\"></i>",
          "carried": "<i class=\"fas fa-check\"></i>",
          "identified": "<i class=\"fas fa-check\"></i>"
        },
        "hasAttack": false,
        "hasMultiAttack": false,
        "hasDamage": false,
        "hasAction": false,
        "showUnidentifiedData": false,
        "isStack": false,
        "isCharged": false,
        "price": 2,
        "empty": false,
        "totalWeight": 2,
        "units": "lbs"
      },
      {
        "_id": "wjvxmolafiegvesl",
        "name": "Pouch, Belt",
        "permission": {
          "default": 0,
          "T9i9xVjdkHeFZC72": 3
        },
        "type": "loot",
        "data": {
          "subType": "gear",
          "description": {
            "value": " \n<p class=\"source\"><b>Source</b> <a title=\"PZO1110\" href=\"http://www.amazon.com/gp/product/1601251505/ref=as_li_qf_sp_asin_il_tl?ie=UTF8&amp;camp=1789&amp;creative=9325&amp;creativeASIN=1601251505&amp;linkCode=as2&amp;tag=httpwwwd20pfs-20\" target=\"_blank\" rel=\"noopener\">PZO1110</a></p> \n<p>A belt pouch is crafted of soft cloth or leather. They typically hold up to 10 lb. or 1/5 cubic ft. of items.</p> \n<p><b>Empty Weight</b>: 1/2 lb.<sup style=\"font-size: 10px\">1</sup> <b>Capacity</b>: 1/5 cubic ft./10 lb.<sup style=\"font-size: 10px\">1</sup></p> \n<p class=\"source\"><sup style=\"font-size: 10px\">1</sup> When made for Medium characters. Weighs one-quarter the normal amount when made for Small characters. Weighs twice the normal amount when made for Large characters. Containers carry one-quarter the normal amount when made for Small characters.</p> \n",
            "chat": "",
            "unidentified": ""
          },
          "tags": [],
          "quantity": 1,
          "weight": 0.5,
          "price": 1,
          "identified": true,
          "hp": {
            "max": 10,
            "value": 10
          },
          "hardness": 0,
          "carried": true,
          "unidentified": {
            "price": 0,
            "name": ""
          },
          "identifiedName": "Pouch, Belt",
          "cl": 0,
          "aura": {
            "custom": false,
            "school": ""
          },
          "links": {
            "children": []
          },
          "damage": {
            "parts": [],
            "critParts": [],
            "nonCritParts": []
          },
          "attackParts": [],
          "conditionals": [],
          "contextNotes": [],
          "weightConverted": 0.5,
          "weightUnits": "lbs",
          "priceUnits": "gp"
        },
        "flags": {
          "core": {
            "sourceId": "Compendium.pf1.items.wjvxmolafiegvesl"
          }
        },
        "img": "icons/containers/bags/coinpouch-simple-leather-tan.webp",
        "effects": [],
        "labels": {
          "equipped": "<i class=\"fas fa-times\"></i>",
          "carried": "<i class=\"fas fa-check\"></i>",
          "identified": "<i class=\"fas fa-check\"></i>"
        },
        "hasAttack": false,
        "hasMultiAttack": false,
        "hasDamage": false,
        "hasAction": false,
        "showUnidentifiedData": false,
        "isStack": false,
        "isCharged": false,
        "price": 1,
        "empty": false,
        "totalWeight": 0.5,
        "units": "lbs"
      },
      {
        "_id": "ygmrcisvftnvjyob",
        "name": "Flint And Steel",
        "permission": {
          "default": 0,
          "T9i9xVjdkHeFZC72": 3
        },
        "type": "loot",
        "data": {
          "subType": "gear",
          "description": {
            "value": "<p>Lighting a <a href=\"https://www.d20pfsrd.com/equipment/goods-and-services/hunting-camping-survival-geaR/#TOC-Torch\">torch</a> with a <a href=\"https://www.d20pfsrd.com/equipment/goods-and-services/hunting-camping-survival-geaR/#TOC-Flint-and-Steel\">flint and steel</a> is a full-round action. Lighting any other fire with them takes at least that long.</p>",
            "chat": "",
            "unidentified": ""
          },
          "tags": [],
          "quantity": 1,
          "weight": 0,
          "price": 1,
          "identified": true,
          "hp": {
            "max": 10,
            "value": 10
          },
          "hardness": 0,
          "carried": true,
          "unidentified": {
            "price": 0,
            "name": ""
          },
          "identifiedName": "Flint And Steel",
          "cl": 0,
          "aura": {
            "custom": false,
            "school": ""
          },
          "links": {
            "children": []
          },
          "damage": {
            "parts": [],
            "critParts": [],
            "nonCritParts": []
          },
          "attackParts": [],
          "conditionals": [],
          "contextNotes": [],
          "weightConverted": 0,
          "weightUnits": "lbs",
          "priceUnits": "gp"
        },
        "flags": {
          "core": {
            "sourceId": "Compendium.pf1.items.ygmrcisvftnvjyob"
          }
        },
        "img": "icons/commodities/stone/rock-chunk-grey.webp",
        "effects": [],
        "labels": {
          "equipped": "<i class=\"fas fa-times\"></i>",
          "carried": "<i class=\"fas fa-check\"></i>",
          "identified": "<i class=\"fas fa-check\"></i>"
        },
        "hasAttack": false,
        "hasMultiAttack": false,
        "hasDamage": false,
        "hasAction": false,
        "showUnidentifiedData": false,
        "isStack": false,
        "isCharged": false,
        "price": 1,
        "empty": false,
        "totalWeight": 0,
        "units": "lbs"
      },
      {
        "_id": "yMoclCylbCRKyaZF",
        "name": "Soap",
        "permission": {
          "default": 0,
          "ZuWclcb9BUy2aZSN": 3
        },
        "type": "consumable",
        "data": {
          "consumableType": "misc",
          "uses": {
            "value": 50,
            "max": 0,
            "maxFormula": "50",
            "per": "charges",
            "autoDeductCharges": true,
            "autoDeductChargesCost": "1"
          },
          "description": {
            "value": "<p class=\"source\" style=\"box-sizing: border-box; user-select: text; color: #191813; font-size: 13px;\"><strong style=\"box-sizing: border-box; user-select: text;\">Source</strong>&nbsp;<a style=\"box-sizing: border-box; user-select: text;\" title=\"PPZO9410\" href=\"http://www.amazon.com/gp/product/1601252226/ref=as_li_qf_sp_asin_il_tl?ie=UTF8&amp;camp=1789&amp;creative=9325&amp;creativeASIN=1601252226&amp;linkCode=as2&amp;tag=httpwwwd20pfs-20\" target=\"_blank\" rel=\"noopener\">PPZO9410</a></p>\n<p style=\"box-sizing: border-box; user-select: text; color: #191813; font-size: 13px;\">You can use this thick block of soap to scrub clothes, pots, linens, or anything else that might be dirty. A bar of soap has approximately 50 uses.</p>",
            "chat": "",
            "unidentified": ""
          },
          "tags": [],
          "quantity": 1,
          "weight": 0,
          "price": 0.01,
          "identified": true,
          "hp": {
            "max": 10,
            "value": 10
          },
          "hardness": 0,
          "carried": true,
          "unidentified": {
            "price": 0,
            "name": ""
          },
          "identifiedName": "Soap",
          "cl": 0,
          "aura": {
            "custom": false,
            "school": ""
          },
          "activation": {
            "cost": 1,
            "type": "special"
          },
          "duration": {
            "value": null,
            "units": ""
          },
          "target": {
            "value": ""
          },
          "range": {
            "value": null,
            "units": "",
            "long": null
          },
          "measureTemplate": {
            "type": "",
            "size": "",
            "overrideColor": false,
            "customColor": "",
            "overrideTexture": false,
            "customTexture": ""
          },
          "actionType": "",
          "attackBonus": "",
          "critConfirmBonus": "",
          "damage": {
            "parts": [],
            "critParts": [],
            "nonCritParts": []
          },
          "attackParts": [],
          "formula": "",
          "ability": {
            "attack": null,
            "damage": null,
            "damageMult": 1,
            "critRange": 20,
            "critMult": 2
          },
          "save": {
            "dc": 0,
            "type": "",
            "description": ""
          },
          "effectNotes": "",
          "attackNotes": "",
          "soundEffect": "",
          "links": {
            "children": []
          },
          "attack": {
            "parts": []
          },
          "weightConverted": 0,
          "weightUnits": "lbs",
          "priceUnits": "gp"
        },
        "flags": {
          "core": {
            "sourceId": "Item.cDlDlPy1JSnN6KyN"
          }
        },
        "img": "systems/pf1/icons/items/inventory/soap.jpg",
        "effects": [],
        "labels": {
          "equipped": "<i class=\"fas fa-times\"></i>",
          "carried": "<i class=\"fas fa-check\"></i>",
          "identified": "<i class=\"fas fa-check\"></i>",
          "activation": "Special",
          "target": "",
          "range": "",
          "duration": "",
          "damage": "",
          "damageTypes": ""
        },
        "hasAttack": false,
        "hasMultiAttack": false,
        "hasDamage": false,
        "hasEffect": "",
        "hasAction": true,
        "showUnidentifiedData": false,
        "isStack": false,
        "hasUses": false,
        "isCharged": true,
        "price": 0.01,
        "empty": false,
        "totalWeight": 0,
        "units": "lbs"
      },
      {
        "_id": "snfogneawzopfzzl",
        "name": "Torch",
        "permission": {
          "default": 0,
          "T9i9xVjdkHeFZC72": 3
        },
        "type": "loot",
        "data": {
          "subType": "gear",
          "description": {
            "value": "<p><strong>Price</strong> 1 cp; <strong>Weight</strong> 1 lb.</p>\n<p>A torch burns for 1 hour, shedding normal light in a 20-foot radius and increasing the light level by one step for an additional 20 feet beyond that area (darkness becomes dim light and dim light becomes normal light). A torch does not increase the light level in normal light or bright light. If a torch is used in combat, treat it as a one-handed improvised weapon that deals bludgeoning damage equal to that of a gauntlet of its size, plus 1 point of fire damage.</p>",
            "chat": "",
            "unidentified": ""
          },
          "tags": [],
          "quantity": 10,
          "weight": 1,
          "price": 0.01,
          "identified": true,
          "hp": {
            "max": 10,
            "value": 10
          },
          "hardness": 0,
          "carried": true,
          "unidentified": {
            "price": 0,
            "name": ""
          },
          "identifiedName": "Torch",
          "cl": 0,
          "aura": {
            "custom": false,
            "school": ""
          },
          "links": {
            "children": []
          },
          "damage": {
            "parts": [],
            "critParts": [],
            "nonCritParts": []
          },
          "attackParts": [],
          "conditionals": [],
          "contextNotes": [],
          "weightConverted": 1,
          "weightUnits": "lbs",
          "priceUnits": "gp"
        },
        "flags": {
          "core": {
            "sourceId": "Compendium.pf1.items.snfogneawzopfzzl"
          }
        },
        "img": "systems/pf1/icons/items/inventory/torch.jpg",
        "effects": [],
        "labels": {
          "equipped": "<i class=\"fas fa-times\"></i>",
          "carried": "<i class=\"fas fa-check\"></i>",
          "identified": "<i class=\"fas fa-check\"></i>"
        },
        "hasAttack": false,
        "hasMultiAttack": false,
        "hasDamage": false,
        "hasAction": false,
        "showUnidentifiedData": false,
        "isStack": true,
        "isCharged": false,
        "price": 0.01,
        "empty": false,
        "totalWeight": 10,
        "units": "lbs"
      },
      {
        "_id": "bsztkhkrhgmsbqpt",
        "name": "Waterskin",
        "permission": {
          "default": 0,
          "T9i9xVjdkHeFZC72": 3
        },
        "type": "loot",
        "data": {
          "subType": "gear",
          "description": {
            "value": " \n<p class=\"source\"><b>Source</b> <a title=\"PZO1110\" href=\"http://www.amazon.com/gp/product/1601251505/ref=as_li_qf_sp_asin_il_tl?ie=UTF8&amp;camp=1789&amp;creative=9325&amp;creativeASIN=1601251505&amp;linkCode=as2&amp;tag=httpwwwd20pfs-20\" target=\"_blank\" rel=\"noopener\">PZO1110</a></p> \n<p>A water or wineskin holds 1/2 gallon of liquid and weighs 4 lb when full.</p> \n<p><b>Empty Weight</b>: -; <b>Capacity</b>: 1/2 gallon/4 lb.<sup style=\"font-size: 10px\">1</sup></p> \n<p class=\"source\"><sup style=\"font-size: 10px\">1</sup> When made for Medium characters. Weighs one-quarter the normal amount when made for Small characters. Weighs twice the normal amount when made for Large characters. Containers carry one-quarter the normal amount when made for Small characters.</p> \n<p><a name=\"table-magic-containers\"></a></p> \n<h3 style=\"margin-top: 30px;border-bottom-style: solid;border-bottom-width: thin\"><a name=\"TOC-Magic-Containers\"></a>Magic Containers</h3> \n<p>Magic containers come in almost as many varieties as there are <a href=\"https://www.d20pfsrd.com/classes/base-classes/alchemist\">alchemists</a>, and so are of inestimable value to <a href=\"https://www.d20pfsrd.com/classes/base-classes/alchemist\">alchemists</a> with specific needs. Some of the most well-known magic containers are described here.</p> \n<p>Because of a varied nature of alchemical items and their effects, not all combinations of alchemical items and magic bottles are viable or even make sense, even though they technically might be allowed by the rules. The GM should have the final say on whether or not a particular alchemical item can function within one of the magical containers listed in this section.</p> \n<table border=\"1\" cellpadding=\"5\"> \n <thead> \n  <tr> \n   <th colspan=\"4\" class=\"text\">Magic Containers</th> \n  </tr> \n  <tr> \n   <th class=\"text\">Item</th> \n   <th class=\"text\">Price</th> \n   <th class=\"text\">Weight</th> \n   <th class=\"text\">Source</th> \n  </tr> \n </thead> \n <tbody> \n  <tr> \n   <td class=\"text\"><i>Focusing Flask</i></td> \n   <td class=\"money number\">700 gp</td> \n   <td class=\"money text\">1 lb.</td> \n   <td class=\"source text\"><a title=\"PPC:AM\" href=\"http://www.amazon.com/gp/product/1601256051/ref=as_li_qf_sp_asin_il_tl?ie=UTF8&amp;camp=1789&amp;creative=9325&amp;creativeASIN=1601256051&amp;linkCode=as2&amp;tag=httpwwwd20pfs-20\" target=\"_blank\" rel=\"noopener\">PPC:AM</a></td> \n  </tr> \n  <tr> \n   <td class=\"text\"><i>Retort of Control</i></td> \n   <td class=\"money number\">13,000 gp</td> \n   <td class=\"marker\">-</td> \n   <td class=\"source text\"><a title=\"PPC:AM\" href=\"http://www.amazon.com/gp/product/1601256051/ref=as_li_qf_sp_asin_il_tl?ie=UTF8&amp;camp=1789&amp;creative=9325&amp;creativeASIN=1601256051&amp;linkCode=as2&amp;tag=httpwwwd20pfs-20\" target=\"_blank\" rel=\"noopener\">PPC:AM</a></td> \n  </tr> \n  <tr> \n   <td class=\"text\"><i>Vial of Efficacious Medicine</i></td> \n   <td class=\"money number\">7,000 gp</td> \n   <td class=\"marker\">-</td> \n   <td class=\"source text\"><a title=\"PPC:AM\" href=\"http://www.amazon.com/gp/product/1601256051/ref=as_li_qf_sp_asin_il_tl?ie=UTF8&amp;camp=1789&amp;creative=9325&amp;creativeASIN=1601256051&amp;linkCode=as2&amp;tag=httpwwwd20pfs-20\" target=\"_blank\" rel=\"noopener\">PPC:AM</a></td> \n  </tr> \n  <tr> \n   <td class=\"text\"><i>Winged Bottle</i></td> \n   <td class=\"money number\">1,620 gp</td> \n   <td class=\"money text\">1 lb.</td> \n   <td class=\"source text\"><a title=\"PPC:AM\" href=\"http://www.amazon.com/gp/product/1601256051/ref=as_li_qf_sp_asin_il_tl?ie=UTF8&amp;camp=1789&amp;creative=9325&amp;creativeASIN=1601256051&amp;linkCode=as2&amp;tag=httpwwwd20pfs-20\" target=\"_blank\" rel=\"noopener\">PPC:AM</a></td> \n  </tr> \n </tbody> \n</table> \n",
            "chat": "",
            "unidentified": ""
          },
          "tags": [],
          "quantity": 1,
          "weight": 4,
          "price": 1,
          "identified": true,
          "hp": {
            "max": 10,
            "value": 10
          },
          "hardness": 0,
          "carried": true,
          "unidentified": {
            "price": 0,
            "name": ""
          },
          "identifiedName": "Waterskin",
          "cl": 0,
          "aura": {
            "custom": false,
            "school": ""
          },
          "links": {
            "children": []
          },
          "damage": {
            "parts": [],
            "critParts": [],
            "nonCritParts": []
          },
          "weightConverted": 4,
          "weightUnits": "lbs",
          "priceUnits": "gp",
          "attackParts": [],
          "conditionals": [],
          "contextNotes": []
        },
        "flags": {
          "core": {
            "sourceId": "Compendium.pf1.items.bsztkhkrhgmsbqpt"
          }
        },
        "img": "systems/pf1/icons/items/inventory/waterskin.jpg",
        "effects": [],
        "labels": {
          "equipped": "<i class=\"fas fa-times\"></i>",
          "carried": "<i class=\"fas fa-check\"></i>",
          "identified": "<i class=\"fas fa-check\"></i>"
        },
        "hasAttack": false,
        "hasMultiAttack": false,
        "hasDamage": false,
        "hasAction": false,
        "showUnidentifiedData": false,
        "isStack": false,
        "isCharged": false,
        "price": 1,
        "empty": false,
        "totalWeight": 4,
        "units": "lbs"
      },
      {
        "_id": "manvtbznrwjmnrua",
        "name": "Rations, Trail",
        "permission": {
          "default": 0,
          "T9i9xVjdkHeFZC72": 3
        },
        "type": "loot",
        "data": {
          "subType": "gear",
          "description": {
            "value": "<h4><span id=\"Rations_Trail\"><a name=\"TOC-Rations-Trail\"></a>Rations, Trail</span></h4>\r\n<p><b>Price</b> 5 sp; <b>Weight</b> 1 lb.</p>\r\n<p>The listed price is for a day's worth of food. This bland food is usually some kind of hard tack, jerky, and dried fruit, though the contents vary from region to region and the race of those creating it. As long as it stays dry, it can go for months without spoiling.</p>\r\n",
            "chat": "",
            "unidentified": ""
          },
          "tags": [],
          "quantity": 5,
          "weight": 1,
          "price": 0.5,
          "identified": true,
          "hp": {
            "max": 10,
            "value": 10
          },
          "hardness": 0,
          "carried": true,
          "unidentified": {
            "price": 0,
            "name": ""
          },
          "identifiedName": "Rations, Trail",
          "cl": 0,
          "aura": {
            "custom": false,
            "school": ""
          },
          "links": {
            "children": []
          },
          "damage": {
            "parts": []
          },
          "weightConverted": 1,
          "weightUnits": "lbs",
          "priceUnits": "gp"
        },
        "flags": {
          "core": {
            "sourceId": "Compendium.pf1.items.manvtbznrwjmnrua"
          }
        },
        "img": "systems/pf1/icons/items/inventory/meat.jpg",
        "effects": [],
        "labels": {
          "equipped": "<i class=\"fas fa-times\"></i>",
          "carried": "<i class=\"fas fa-check\"></i>",
          "identified": "<i class=\"fas fa-check\"></i>"
        },
        "hasAttack": false,
        "hasMultiAttack": false,
        "hasDamage": false,
        "hasAction": false,
        "showUnidentifiedData": false,
        "isStack": true,
        "isCharged": false,
        "price": 0.5,
        "empty": false,
        "totalWeight": 5,
        "units": "lbs"
      },
      {
        "_id": "qlmtnppwxkubqyhp",
        "name": "Rope",
        "permission": {
          "default": 0,
          "T9i9xVjdkHeFZC72": 3
        },
        "type": "loot",
        "data": {
          "subType": "gear",
          "description": {
            "value": "<h4><span id=\"Rope\"><a name=\"TOC-Rope\"></a>Rope</span></h4>\r\n<p><b>Hempen</b> The DC to escape hemp rope bonds is equal to 20 + the CMB of the creature that tied the bonds. Ropes do not need to make a check every round to maintain the pin. If the DC to escape is higher than 20 + the tying creatures CMB, the tied up creature cannot escape from the bonds, even with a natural 20 on the check. This rope has 2 hit points and can be burst with a DC 23 Strength check. <b>Price</b> 1 gp; <b>Weight</b> 10 lbs.</p>\r\n<p><b>FYI</b>: The <a href=\"https://www.d20pfsrd.com/feats/combat-feats/equipment-trick-combat\">Equipment Trick</a> feat provides a number of options for using this item in combat.</p>\r\n<p><b>Silk Rope</b> This 50-foot length of silk rope has 4 hit points and can be broken with a DC 24 Strength check. <b>Price</b> 10 gp; <b>Weight</b> 5 lbs.</p>\r\n<p><b>Bloodvine Rope</b> This 50-foot length of tough, lightweight rope is made from alchemically treated bloodvine, a rare scarlet-colored vine that grows only in warm jungle environments. Though prized by climbers for its durability, bloodvine can also be used to bind creatures. Bloodvine rope has a <a href=\"https://www.d20pfsrd.com/equipment/damaging-objects#TOC-Hardness\">hardness</a> of 5 and 10 <a href=\"https://www.d20pfsrd.com/gamemastering/combat#TOC-Hit-Points\">hit points</a>, and can be broken with a DC 30 <a href=\"https://www.d20pfsrd.com/basics-ability-scores/ability-scores#TOC-Strength-Str-\">Strength</a> check. A creature bound by bloodvine rope can escape with a DC 35 <a href=\"https://www.d20pfsrd.com/skills/escape-artist\">Escape Artist</a> check or a DC 30 <a href=\"https://www.d20pfsrd.com/basics-ability-scores/ability-scores#TOC-Strength-Str-\">Strength</a> check. The DC to create bloodvine rope with <a href=\"https://www.d20pfsrd.com/skills/craft\">Craft</a> (alchemy) is 30. <b>Price</b> 200 gp; <b>Weight</b> 5 lbs. <b>Source</b> <a href=\"http://www.amazon.com/gp/product/160125671X/ref=as_li_qf_sp_asin_il_tl?ie=UTF8&amp;camp=1789&amp;creative=9325&amp;creativeASIN=160125671X&amp;linkCode=as2&amp;tag=httpwwwd20pfs-20&amp;linkId=HSOKQ6X2XAS2GTU6\" target=\"_blank\" rel=\"noopener\">PRG:ACG</a></p>\r\n<p><b>Spider's Silk Rope</b> This 50-foot length of rope is woven of strands of silk from monstrous spiders. Rare to virtually nonexistent on the surface world, it is commonly used by the dark elves, though shorter spider's silk rope scraps (generally no more than 10 feet long) occasionally appear among goblins. Spider's silk rope has 6 hit points and can be broken with a DC 25 Strength check. <b>Price</b> 100 gp; <b>Weight</b> 4 lbs.</p>\r\n",
            "chat": "",
            "unidentified": ""
          },
          "tags": [],
          "quantity": 1,
          "weight": 10,
          "price": 1,
          "identified": true,
          "hp": {
            "max": 10,
            "value": 10
          },
          "hardness": 0,
          "carried": true,
          "unidentified": {
            "price": 0,
            "name": ""
          },
          "identifiedName": "",
          "cl": 0,
          "aura": {
            "custom": false,
            "school": ""
          },
          "links": {
            "children": []
          },
          "damage": {
            "parts": []
          },
          "weightConverted": 10,
          "weightUnits": "lbs",
          "priceUnits": "gp"
        },
        "flags": {
          "core": {
            "sourceId": "Compendium.pf1.items.qlmtnppwxkubqyhp"
          }
        },
        "img": "systems/pf1/icons/items/inventory/dice.jpg",
        "effects": [],
        "labels": {
          "equipped": "<i class=\"fas fa-times\"></i>",
          "carried": "<i class=\"fas fa-check\"></i>",
          "identified": "<i class=\"fas fa-check\"></i>"
        },
        "hasAttack": false,
        "hasMultiAttack": false,
        "hasDamage": false,
        "hasAction": false,
        "showUnidentifiedData": false,
        "isStack": false,
        "isCharged": false,
        "price": 1,
        "empty": false,
        "totalWeight": 10,
        "units": "lbs"
      },
      {
        "_id": "iegwwsarycqwoezj",
        "name": "Bedroll",
        "permission": {
          "default": 0,
          "T9i9xVjdkHeFZC72": 3
        },
        "type": "loot",
        "data": {
          "subType": "gear",
          "description": {
            "value": "<p>This consists of two woolen sheets sewn together along the bottom and one side to create a bag for sleeping in. Some have cloth straps along the open side so the bedroll can be tied closed while you are sleeping. It can be rolled and tied into a tight coil for storage or transport. Most people use a <a href=\"https://www.d20pfsrd.com/equipment/goods-and-services/hunting-camping-survival-geaR/#TOC-Blanket\">blanket</a> with the bedroll to stay warm or provide a ground cushion.</p>",
            "chat": "",
            "unidentified": ""
          },
          "tags": [],
          "quantity": 1,
          "weight": 5,
          "price": 0.1,
          "identified": true,
          "hp": {
            "max": 10,
            "value": 10
          },
          "hardness": 0,
          "carried": true,
          "unidentified": {
            "price": 0,
            "name": ""
          },
          "identifiedName": "Bedroll",
          "cl": 0,
          "aura": {
            "custom": false,
            "school": ""
          },
          "links": {
            "children": []
          },
          "damage": {
            "parts": [],
            "critParts": [],
            "nonCritParts": []
          },
          "attackParts": [],
          "conditionals": [],
          "contextNotes": [],
          "weightConverted": 5,
          "weightUnits": "lbs",
          "priceUnits": "gp"
        },
        "flags": {
          "core": {
            "sourceId": "Compendium.pf1.items.iegwwsarycqwoezj"
          }
        },
        "img": "systems/pf1/icons/items/inventory/cloth-blue.jpg",
        "effects": [],
        "labels": {
          "equipped": "<i class=\"fas fa-times\"></i>",
          "carried": "<i class=\"fas fa-check\"></i>",
          "identified": "<i class=\"fas fa-check\"></i>"
        },
        "hasAttack": false,
        "hasMultiAttack": false,
        "hasDamage": false,
        "hasAction": false,
        "showUnidentifiedData": false,
        "isStack": false,
        "isCharged": false,
        "price": 0.1,
        "empty": false,
        "totalWeight": 5,
        "units": "lbs"
      },
      {
        "_id": "habofoapdifirevm",
        "name": "Pot, Cooking (Iron)",
        "permission": {
          "default": 0,
          "T9i9xVjdkHeFZC72": 3
        },
        "type": "loot",
        "data": {
          "subType": "gear",
          "description": {
            "value": " \n<p class=\"source\"><b>Source</b> <a title=\"PZO1110\" href=\"http://www.amazon.com/gp/product/1601251505/ref=as_li_qf_sp_asin_il_tl?ie=UTF8&amp;camp=1789&amp;creative=9325&amp;creativeASIN=1601251505&amp;linkCode=as2&amp;tag=httpwwwd20pfs-20\" target=\"_blank\" rel=\"noopener\">PZO1110</a></p> \n<p>Cooking pots come in a variety of materials, but the most common is formed of iron.</p> \n<p>A mithral cooking pot weighs 2 lbs. and costs 2,001 gp.</p> \n<p><b>Empty Weight</b>: 2 lb.; <b>Capacity</b>: 1 gallon/8 lb.</p> \n",
            "chat": "",
            "unidentified": ""
          },
          "tags": [],
          "quantity": 1,
          "weight": 4,
          "price": 0.8,
          "identified": true,
          "hp": {
            "max": 10,
            "value": 10
          },
          "hardness": 0,
          "carried": true,
          "unidentified": {
            "price": 0,
            "name": ""
          },
          "identifiedName": "Pot, Cooking (Iron)",
          "cl": 0,
          "aura": {
            "custom": false,
            "school": ""
          },
          "links": {
            "children": []
          },
          "damage": {
            "parts": [],
            "critParts": [],
            "nonCritParts": []
          },
          "weightConverted": 4,
          "attackParts": [],
          "conditionals": [],
          "contextNotes": [],
          "weightUnits": "lbs",
          "priceUnits": "gp"
        },
        "flags": {
          "core": {
            "sourceId": "Compendium.pf1.items.habofoapdifirevm"
          }
        },
        "img": "icons/tools/cooking/cauldron-empty.webp",
        "effects": [],
        "labels": {
          "equipped": "<i class=\"fas fa-times\"></i>",
          "carried": "<i class=\"fas fa-check\"></i>",
          "identified": "<i class=\"fas fa-check\"></i>"
        },
        "hasAttack": false,
        "hasMultiAttack": false,
        "hasDamage": false,
        "hasAction": false,
        "showUnidentifiedData": false,
        "isStack": false,
        "isCharged": false,
        "price": 0.8,
        "empty": false,
        "totalWeight": 4,
        "units": "lbs"
      },
      {
        "_id": "Ueae6c2qqJJGpncA",
        "name": "Mess Kit",
        "permission": {
          "default": 0,
          "ZuWclcb9BUy2aZSN": 3
        },
        "type": "container",
        "data": {
          "basePrice": 0.2,
          "unidentified": {
            "basePrice": 0,
            "price": 0,
            "name": ""
          },
          "description": {
            "value": "<p><span style=\"color: #191813; font-size: 13px;\">This kit includes a plate, bowl, cup, fork, knife, and spoon, made of wood, horn, or tin. Each item has a handle or small hole, and can be tied together using the included leather cord.</span></p>",
            "chat": "",
            "unidentified": ""
          },
          "tags": [],
          "quantity": 1,
          "weight": 1,
          "price": 0.2,
          "identified": true,
          "hp": {
            "max": 10,
            "value": 10
          },
          "hardness": 0,
          "carried": true,
          "identifiedName": "Mess Kit",
          "cl": 0,
          "aura": {
            "custom": false,
            "school": ""
          },
          "inventoryItems": [
            {
              "name": "Plate",
              "type": "loot",
              "data": {
                "subType": "tradeGoods",
                "description": {
                  "value": "",
                  "chat": "",
                  "unidentified": ""
                },
                "tags": [],
                "quantity": 1,
                "weight": 0.4,
                "price": 0,
                "identified": true,
                "hp": {
                  "max": 10,
                  "value": 10
                },
                "hardness": 0,
                "carried": true,
                "unidentified": {
                  "price": 0,
                  "name": ""
                },
                "identifiedName": "Plate",
                "cl": 0,
                "aura": {
                  "custom": false,
                  "school": ""
                },
                "links": {
                  "children": []
                },
                "typeName": "Trade Good",
                "weightConverted": 0.4,
                "weightUnits": "lbs",
                "priceUnits": "gp",
                "damage": {
                  "parts": [],
                  "critParts": [],
                  "nonCritParts": []
                },
                "attackParts": [],
                "conditionals": [],
                "contextNotes": []
              },
              "_id": "t95qxxcbkgau4zwa",
              "img": "systems/pf1/icons/items/inventory/dice.jpg",
              "labels": {
                "equipped": "<i class=\"fas fa-times\"></i>",
                "carried": "<i class=\"fas fa-check\"></i>",
                "identified": "<i class=\"fas fa-check\"></i>"
              },
              "hasAttack": false,
              "hasMultiAttack": false,
              "hasDamage": false,
              "hasAction": false,
              "showUnidentifiedData": false,
              "isStack": false,
              "isCharged": false,
              "price": 0,
              "empty": false,
              "totalWeight": 0.4,
              "units": "lbs"
            },
            {
              "name": "Bowl",
              "type": "loot",
              "data": {
                "subType": "tradeGoods",
                "description": {
                  "value": "",
                  "chat": "",
                  "unidentified": ""
                },
                "tags": [],
                "quantity": 1,
                "weight": 0.2,
                "price": 0,
                "identified": true,
                "hp": {
                  "max": 10,
                  "value": 10
                },
                "hardness": 0,
                "carried": true,
                "unidentified": {
                  "price": 0,
                  "name": ""
                },
                "identifiedName": "Bowl",
                "cl": 0,
                "aura": {
                  "custom": false,
                  "school": ""
                },
                "links": {
                  "children": []
                },
                "typeName": "Trade Good",
                "weightConverted": 0.2,
                "weightUnits": "lbs",
                "priceUnits": "gp",
                "damage": {
                  "parts": [],
                  "critParts": [],
                  "nonCritParts": []
                },
                "attackParts": [],
                "conditionals": [],
                "contextNotes": []
              },
              "img": "icons/containers/kitchenware/bowl-clay-brown.webp",
              "labels": {
                "equipped": "<i class=\"fas fa-times\"></i>",
                "carried": "<i class=\"fas fa-check\"></i>",
                "identified": "<i class=\"fas fa-check\"></i>"
              },
              "hasAttack": false,
              "hasMultiAttack": false,
              "hasDamage": false,
              "hasAction": false,
              "showUnidentifiedData": false,
              "isStack": false,
              "isCharged": false,
              "price": 0,
              "empty": false,
              "totalWeight": 0.2,
              "units": "lbs",
              "_id": "q4asw26dyrjavece"
            },
            {
              "name": "Fork",
              "type": "loot",
              "data": {
                "subType": "tradeGoods",
                "description": {
                  "value": "",
                  "chat": "",
                  "unidentified": ""
                },
                "tags": [],
                "quantity": 1,
                "weight": 0.1,
                "price": 0,
                "identified": true,
                "hp": {
                  "max": 10,
                  "value": 10
                },
                "hardness": 0,
                "carried": true,
                "unidentified": {
                  "price": 0,
                  "name": ""
                },
                "identifiedName": "Fork",
                "cl": 0,
                "aura": {
                  "custom": false,
                  "school": ""
                },
                "links": {
                  "children": []
                },
                "typeName": "Trade Good",
                "weightConverted": 0.1,
                "weightUnits": "lbs",
                "priceUnits": "gp",
                "damage": {
                  "parts": [],
                  "critParts": [],
                  "nonCritParts": []
                },
                "attackParts": [],
                "conditionals": [],
                "contextNotes": []
              },
              "img": "icons/tools/cooking/fork-steel-tan.webp",
              "labels": {
                "equipped": "<i class=\"fas fa-times\"></i>",
                "carried": "<i class=\"fas fa-check\"></i>",
                "identified": "<i class=\"fas fa-check\"></i>"
              },
              "hasAttack": false,
              "hasMultiAttack": false,
              "hasDamage": false,
              "hasAction": false,
              "showUnidentifiedData": false,
              "isStack": false,
              "isCharged": false,
              "price": 0,
              "empty": false,
              "totalWeight": 0.1,
              "units": "lbs",
              "_id": "e1r0sdabl9awmxid"
            },
            {
              "name": "Knife",
              "type": "loot",
              "data": {
                "subType": "tradeGoods",
                "description": {
                  "value": "",
                  "chat": "",
                  "unidentified": ""
                },
                "tags": [],
                "quantity": 1,
                "weight": 0.1,
                "price": 0,
                "identified": true,
                "hp": {
                  "max": 10,
                  "value": 10
                },
                "hardness": 0,
                "carried": true,
                "unidentified": {
                  "price": 0,
                  "name": ""
                },
                "identifiedName": "Knife",
                "cl": 0,
                "aura": {
                  "custom": false,
                  "school": ""
                },
                "links": {
                  "children": []
                },
                "typeName": "Trade Good",
                "weightConverted": 0.1,
                "weightUnits": "lbs",
                "priceUnits": "gp",
                "damage": {
                  "parts": [],
                  "critParts": [],
                  "nonCritParts": []
                },
                "attackParts": [],
                "conditionals": [],
                "contextNotes": []
              },
              "img": "icons/tools/cooking/knife-chef-steel-brown.webp",
              "labels": {
                "equipped": "<i class=\"fas fa-times\"></i>",
                "carried": "<i class=\"fas fa-check\"></i>",
                "identified": "<i class=\"fas fa-check\"></i>"
              },
              "hasAttack": false,
              "hasMultiAttack": false,
              "hasDamage": false,
              "hasAction": false,
              "showUnidentifiedData": false,
              "isStack": false,
              "isCharged": false,
              "price": 0,
              "empty": false,
              "totalWeight": 0.1,
              "units": "lbs",
              "_id": "swpiosj6uadvp8xy"
            },
            {
              "name": "Spoon",
              "type": "loot",
              "data": {
                "subType": "tradeGoods",
                "description": {
                  "value": "",
                  "chat": "",
                  "unidentified": ""
                },
                "tags": [],
                "quantity": 1,
                "weight": 0.1,
                "price": 0,
                "identified": true,
                "hp": {
                  "max": 10,
                  "value": 10
                },
                "hardness": 0,
                "carried": true,
                "unidentified": {
                  "price": 0,
                  "name": ""
                },
                "identifiedName": "Spoon",
                "cl": 0,
                "aura": {
                  "custom": false,
                  "school": ""
                },
                "links": {
                  "children": []
                },
                "typeName": "Trade Good",
                "weightConverted": 0.1,
                "weightUnits": "lbs",
                "priceUnits": "gp",
                "damage": {
                  "parts": [],
                  "critParts": [],
                  "nonCritParts": []
                },
                "attackParts": [],
                "conditionals": [],
                "contextNotes": []
              },
              "img": "icons/tools/cooking/soup-ladle.webp",
              "labels": {
                "equipped": "<i class=\"fas fa-times\"></i>",
                "carried": "<i class=\"fas fa-check\"></i>",
                "identified": "<i class=\"fas fa-check\"></i>"
              },
              "hasAttack": false,
              "hasMultiAttack": false,
              "hasDamage": false,
              "hasAction": false,
              "showUnidentifiedData": false,
              "isStack": false,
              "isCharged": false,
              "price": 0,
              "empty": false,
              "totalWeight": 0.1,
              "units": "lbs",
              "_id": "pxs9209y5ybsemki"
            }
          ],
          "maxWeight": null,
          "weightReduction": 0,
          "baseWeight": 0.1,
          "damage": {
            "parts": [],
            "critParts": [],
            "nonCritParts": []
          },
          "attackParts": [],
          "conditionals": [],
          "contextNotes": [],
          "weightConverted": 1,
          "weightUnits": "lbs",
          "priceUnits": "gp"
        },
        "flags": {
          "core": {
            "sourceId": "Item.F1QKvOYGM9u5YI1x"
          }
        },
        "img": "icons/containers/chest/chest-simple-box-red.webp",
        "effects": [],
        "labels": {
          "equipped": "<i class=\"fas fa-times\"></i>",
          "carried": "<i class=\"fas fa-check\"></i>",
          "identified": "<i class=\"fas fa-check\"></i>"
        },
        "hasAttack": false,
        "hasMultiAttack": false,
        "hasDamage": false,
        "hasAction": false,
        "showUnidentifiedData": false,
        "isStack": false,
        "isCharged": false,
        "price": 0.2,
        "empty": false,
        "totalWeight": 1,
        "units": "lbs"
      },
      {
        "_id": "PtMcbl9zBVnwn0mA",
        "name": "Powder horn",
        "permission": {
          "default": 0,
          "tbXbnTpRAtmE0QDr": 3
        },
        "type": "loot",
        "data": {
          "subType": "gear",
          "description": {
            "value": "<p>Source&nbsp;<a href=\"http://paizo.com/products/btpy8tmc?Pathfinder-Roleplaying-Game-Ultimate-Equipment\" target=\"_blank\" rel=\"noopener\">Ultimate Equipment pg. 57</a>,&nbsp;<a href=\"http://paizo.com/pathfinderRPG/v5748btpy8mcz\" target=\"_blank\" rel=\"noopener\">Ultimate Combat pg. 141</a>,&nbsp;<a href=\"http://paizo.com/store/games/roleplayingGames/p/pathfinderRPG/paizo/pathfinderChronicles/v5748btpy8ief\" target=\"_blank\" rel=\"noopener\">Inner Sea World Guide pg. 293</a></p>\n<h2>Description</h2>\n<p>Typically crafted from hollowed-out animal horn, but increasingly crafted from metal in a wide variety of shapes, a powder horn can hold up to 10 doses of black powder. A powder horn protects black powder stored within in it from exposure to fire, electricity, firearm misfires, and water, and the narrow end of the horn is useful in funneling the expensive powder carefully into the barrel of a firearm.</p>",
            "chat": "",
            "unidentified": ""
          },
          "tags": [],
          "quantity": 1,
          "weight": 1,
          "price": 3,
          "identified": true,
          "hp": {
            "max": 10,
            "value": 10
          },
          "hardness": 0,
          "carried": true,
          "unidentified": {
            "price": 0,
            "name": ""
          },
          "identifiedName": "Powder horn",
          "cl": 0,
          "aura": {
            "custom": false,
            "school": ""
          },
          "links": {
            "children": []
          },
          "damage": {
            "parts": [],
            "critParts": [],
            "nonCritParts": []
          },
          "attackParts": [],
          "conditionals": [],
          "contextNotes": [],
          "weightConverted": 1,
          "weightUnits": "lbs",
          "priceUnits": "gp"
        },
        "flags": {
          "core": {
            "sourceId": "Compendium.pf1.items.PtMcbl9zBVnwn0mA"
          }
        },
        "img": "systems/pf1/icons/items/inventory/horn-drinking.jpg",
        "effects": [],
        "labels": {
          "equipped": "<i class=\"fas fa-times\"></i>",
          "carried": "<i class=\"fas fa-check\"></i>",
          "identified": "<i class=\"fas fa-check\"></i>"
        },
        "hasAttack": false,
        "hasMultiAttack": false,
        "hasDamage": false,
        "hasAction": false,
        "showUnidentifiedData": false,
        "isStack": false,
        "isCharged": false,
        "price": 3,
        "empty": false,
        "totalWeight": 1,
        "units": "lbs"
      },
      {
        "_id": "etmrlhlbyoahuunz",
        "name": "Kit, Gunsmith's",
        "permission": {
          "default": 0,
          "T9i9xVjdkHeFZC72": 3
        },
        "type": "loot",
        "data": {
          "subType": "gear",
          "description": {
            "value": "<p>This small kit has all the tools a person needs to create, repair, and restore firearms, except for the necessary raw materials. Without such a kit, you cannot properly construct or provide upkeep for firearms.</p>",
            "chat": "",
            "unidentified": ""
          },
          "tags": [],
          "quantity": 1,
          "weight": 2,
          "price": 15,
          "identified": true,
          "hp": {
            "max": 10,
            "value": 10
          },
          "hardness": 0,
          "carried": true,
          "unidentified": {
            "price": 0,
            "name": ""
          },
          "identifiedName": "Kit, Gunsmith's",
          "cl": 0,
          "aura": {
            "custom": false,
            "school": ""
          },
          "links": {
            "children": []
          },
          "damage": {
            "parts": [],
            "critParts": [],
            "nonCritParts": []
          },
          "attackParts": [],
          "conditionals": [],
          "contextNotes": [],
          "weightConverted": 2,
          "weightUnits": "lbs",
          "priceUnits": "gp"
        },
        "flags": {
          "core": {
            "sourceId": "Compendium.pf1.items.etmrlhlbyoahuunz"
          }
        },
        "img": "icons/containers/chest/chest-reinforced-stone.webp",
        "effects": [],
        "labels": {
          "equipped": "<i class=\"fas fa-times\"></i>",
          "carried": "<i class=\"fas fa-check\"></i>",
          "identified": "<i class=\"fas fa-check\"></i>"
        },
        "hasAttack": false,
        "hasMultiAttack": false,
        "hasDamage": false,
        "hasAction": false,
        "showUnidentifiedData": false,
        "isStack": false,
        "isCharged": false,
        "price": 15,
        "empty": false,
        "totalWeight": 2,
        "units": "lbs"
      }
    ],
    "maxWeight": null,
    "weightReduction": 0,
    "baseWeight": 0,
    "sellMultiplier": 0.5,
    "currency": {
      "pp": 0,
      "gp": 0,
      "sp": 0,
      "cp": 0
    },
    "basePrice": 0,
    "damage": {
      "parts": [],
      "critParts": [],
      "nonCritParts": []
    }
  },
  "flags": {},
  "img": "icons/containers/chest/chest-reinforced-steel-red.webp",
  "effects": []
}