{
  "_id": "xduktluxilowrlla",
  "name": "Kit, Perfume",
  "permission": {
    "default": 0
  },
  "type": "loot",
  "data": {
    "description": {
      "value": "\r\n<p class=\"source\"><b>Source</b>: <a href=\"http://www.opengamingstore.com/collections/all-products/products/ultimate-intrigue-pathfinder-rpg\" target=\"_blank\" rel=\"noopener\">PZO1134</a></p>\r\n<p><b>Price</b> 40 gp; <b>Weight</b> 10 lbs.</p>\r\n<p>A perfume kit consists of an atomizer and a diverse array of perfumes, scented oils, wild flowers, and herbs. Applying scents from a perfume kit takes 1 minute, and grants you a +1 <a href=\"https://www.d20pfsrd.com/basics-ability-scores/glossary#TOC-Circumstance-Bonus\">circumstance bonus</a> on <a href=\"https://www.d20pfsrd.com/skills/bluff\">Bluff</a>, <a href=\"https://www.d20pfsrd.com/skills/diplomacy\">Diplomacy</a>, <a href=\"https://www.d20pfsrd.com/skills/disguise\">Disguise</a>, <a href=\"https://www.d20pfsrd.com/skills/handle-animal\">Handle Animal</a>, <a href=\"https://www.d20pfsrd.com/skills/intimidate\">Intimidate</a>, or <a href=\"https://www.d20pfsrd.com/skills/perform\">Perform</a> checks, subject to GM discretion.</p>\r\n<p>You must choose the type of check when you apply the fragrances.</p>\r\n<p>This bonus typically doesn't apply in combat or against hostile creatures, and might not work on creatures without olfactory senses or who would be more offended than entranced by your <a href=\"https://www.d20pfsrd.com/gamemastering/special-abilities#TOC-Scent\">scent</a>. The bonus lasts for 4 hours. You can gain only one bonus from a perfume kit at a time, and the bonus from <a href=\"https://www.d20pfsrd.com/equipment/goods-and-services/containers-bags-boxes-more#TOC-Perfume-or-Cologne\">perfume</a> does not stack with bonuses from any masterwork tools you possess for the same skill. A perfume kit is <a href=\"https://www.d20pfsrd.com/gamemastering/conditions#TOC-Exhausted\">exhausted</a> after 10 uses.</p>\r\n\r\n",
      "chat": "",
      "unidentified": ""
    },
    "tags": [],
    "quantity": 1,
    "weight": 10,
    "price": 40,
    "identified": true,
    "hp": {
      "max": 10,
      "value": 10
    },
    "hardness": 0,
    "carried": true,
    "unidentified": {
      "price": 0,
      "name": ""
    },
    "identifiedName": "",
    "cl": 0,
    "aura": {
      "custom": false,
      "school": ""
    },
    "changes": [],
    "changeFlags": {
      "loseDexToAC": false,
      "noStr": false,
      "noDex": false,
      "oneInt": false,
      "oneWis": false,
      "oneCha": false,
      "noEncumbrance": false,
      "mediumArmorFullSpeed": false,
      "heavyArmorFullSpeed": false
    },
    "contextNotes": [],
    "links": {
      "children": []
    },
    "tag": "",
    "useCustomTag": false,
    "subType": "gear",
    "equipped": false,
    "damage": {
      "parts": []
    }
  },
  "flags": {},
  "img": "systems/pf1/icons/items/inventory/dice.jpg",
  "effects": []
}