{
  "_id": "9NkBjZfztOP8qgsY",
  "name": "Kit, Inquisitor's",
  "permission": {
    "default": 0
  },
  "type": "container",
  "data": {
    "description": {
      "value": null,
      "chat": "",
      "unidentified": ""
    },
    "tags": [],
    "quantity": 1,
    "weight": 46.5,
    "price": 0,
    "identified": true,
    "hp": {
      "max": 10,
      "value": 10
    },
    "hardness": 0,
    "carried": true,
    "unidentified": {
      "price": 0,
      "name": "",
      "basePrice": 0
    },
    "identifiedName": "Kit, Inquisitor's",
    "cl": 0,
    "aura": {
      "custom": false,
      "school": ""
    },
    "inventoryItems": [
      {
        "_id": "lSCPUK5Ea6R0t4fz",
        "name": "Backpack",
        "permission": {
          "default": 0,
          "ZuWclcb9BUy2aZSN": 3
        },
        "type": "container",
        "data": {
          "basePrice": 2,
          "unidentified": {
            "basePrice": 0,
            "price": 0,
            "name": ""
          },
          "description": {
            "value": "<p>This leather knapsack has one large pocket that closes with a buckled strap and holds about 2 cubic feet of material. Some may have one or more smaller pockets on the sides.</p>",
            "chat": "",
            "unidentified": ""
          },
          "tags": [],
          "quantity": 1,
          "weight": 2,
          "price": 2,
          "identified": true,
          "hp": {
            "max": 10,
            "value": 10
          },
          "hardness": 0,
          "carried": true,
          "identifiedName": "Backpack",
          "cl": 0,
          "aura": {
            "custom": false,
            "school": ""
          },
          "inventoryItems": [],
          "maxWeight": null,
          "weightReduction": 0,
          "baseWeight": 2,
          "damage": {
            "parts": [],
            "critParts": [],
            "nonCritParts": []
          },
          "weightConverted": 2,
          "weightUnits": "lbs",
          "priceUnits": "gp"
        },
        "flags": {
          "core": {
            "sourceId": "Item.CcUuzTh1CCp2NMRv"
          }
        },
        "img": "systems/pf1/icons/items/inventory/backpack.jpg",
        "effects": [],
        "labels": {
          "equipped": "<i class=\"fas fa-times\"></i>",
          "carried": "<i class=\"fas fa-check\"></i>",
          "identified": "<i class=\"fas fa-check\"></i>"
        },
        "hasAttack": false,
        "hasMultiAttack": false,
        "hasDamage": false,
        "hasAction": false,
        "showUnidentifiedData": false,
        "isStack": false,
        "isCharged": false,
        "price": 2,
        "empty": false,
        "totalWeight": 2,
        "units": "lbs"
      },
      {
        "_id": "wjvxmolafiegvesl",
        "name": "Pouch, Belt",
        "permission": {
          "default": 0,
          "T9i9xVjdkHeFZC72": 3
        },
        "type": "loot",
        "data": {
          "subType": "gear",
          "description": {
            "value": " \n<p class=\"source\"><b>Source</b> <a title=\"PZO1110\" href=\"http://www.amazon.com/gp/product/1601251505/ref=as_li_qf_sp_asin_il_tl?ie=UTF8&amp;camp=1789&amp;creative=9325&amp;creativeASIN=1601251505&amp;linkCode=as2&amp;tag=httpwwwd20pfs-20\" target=\"_blank\" rel=\"noopener\">PZO1110</a></p> \n<p>A belt pouch is crafted of soft cloth or leather. They typically hold up to 10 lb. or 1/5 cubic ft. of items.</p> \n<p><b>Empty Weight</b>: 1/2 lb.<sup style=\"font-size: 10px\">1</sup> <b>Capacity</b>: 1/5 cubic ft./10 lb.<sup style=\"font-size: 10px\">1</sup></p> \n<p class=\"source\"><sup style=\"font-size: 10px\">1</sup> When made for Medium characters. Weighs one-quarter the normal amount when made for Small characters. Weighs twice the normal amount when made for Large characters. Containers carry one-quarter the normal amount when made for Small characters.</p> \n",
            "chat": "",
            "unidentified": ""
          },
          "tags": [],
          "quantity": 1,
          "weight": 0.5,
          "price": 1,
          "identified": true,
          "hp": {
            "max": 10,
            "value": 10
          },
          "hardness": 0,
          "carried": true,
          "unidentified": {
            "price": 0,
            "name": ""
          },
          "identifiedName": "Pouch, Belt",
          "cl": 0,
          "aura": {
            "custom": false,
            "school": ""
          },
          "links": {
            "children": []
          },
          "damage": {
            "parts": [],
            "critParts": [],
            "nonCritParts": []
          },
          "attackParts": [],
          "conditionals": [],
          "contextNotes": [],
          "weightConverted": 0.5,
          "weightUnits": "lbs",
          "priceUnits": "gp"
        },
        "flags": {
          "core": {
            "sourceId": "Compendium.pf1.items.wjvxmolafiegvesl"
          }
        },
        "img": "icons/containers/bags/coinpouch-simple-leather-tan.webp",
        "effects": [],
        "labels": {
          "equipped": "<i class=\"fas fa-times\"></i>",
          "carried": "<i class=\"fas fa-check\"></i>",
          "identified": "<i class=\"fas fa-check\"></i>"
        },
        "hasAttack": false,
        "hasMultiAttack": false,
        "hasDamage": false,
        "hasAction": false,
        "showUnidentifiedData": false,
        "isStack": false,
        "isCharged": false,
        "price": 1,
        "empty": false,
        "totalWeight": 0.5,
        "units": "lbs"
      },
      {
        "_id": "ygmrcisvftnvjyob",
        "name": "Flint And Steel",
        "permission": {
          "default": 0,
          "T9i9xVjdkHeFZC72": 3
        },
        "type": "loot",
        "data": {
          "subType": "gear",
          "description": {
            "value": "<p>Lighting a <a href=\"https://www.d20pfsrd.com/equipment/goods-and-services/hunting-camping-survival-geaR/#TOC-Torch\">torch</a> with a <a href=\"https://www.d20pfsrd.com/equipment/goods-and-services/hunting-camping-survival-geaR/#TOC-Flint-and-Steel\">flint and steel</a> is a full-round action. Lighting any other fire with them takes at least that long.</p>",
            "chat": "",
            "unidentified": ""
          },
          "tags": [],
          "quantity": 1,
          "weight": 0,
          "price": 1,
          "identified": true,
          "hp": {
            "max": 10,
            "value": 10
          },
          "hardness": 0,
          "carried": true,
          "unidentified": {
            "price": 0,
            "name": ""
          },
          "identifiedName": "Flint And Steel",
          "cl": 0,
          "aura": {
            "custom": false,
            "school": ""
          },
          "links": {
            "children": []
          },
          "damage": {
            "parts": [],
            "critParts": [],
            "nonCritParts": []
          },
          "attackParts": [],
          "conditionals": [],
          "contextNotes": [],
          "weightConverted": 0,
          "weightUnits": "lbs",
          "priceUnits": "gp"
        },
        "flags": {
          "core": {
            "sourceId": "Compendium.pf1.items.ygmrcisvftnvjyob"
          }
        },
        "img": "icons/commodities/stone/rock-chunk-grey.webp",
        "effects": [],
        "labels": {
          "equipped": "<i class=\"fas fa-times\"></i>",
          "carried": "<i class=\"fas fa-check\"></i>",
          "identified": "<i class=\"fas fa-check\"></i>"
        },
        "hasAttack": false,
        "hasMultiAttack": false,
        "hasDamage": false,
        "hasAction": false,
        "showUnidentifiedData": false,
        "isStack": false,
        "isCharged": false,
        "price": 1,
        "empty": false,
        "totalWeight": 0,
        "units": "lbs"
      },
      {
        "_id": "yMoclCylbCRKyaZF",
        "name": "Soap",
        "permission": {
          "default": 0,
          "ZuWclcb9BUy2aZSN": 3
        },
        "type": "consumable",
        "data": {
          "consumableType": "misc",
          "uses": {
            "value": 50,
            "max": 0,
            "maxFormula": "50",
            "per": "charges",
            "autoDeductCharges": true,
            "autoDeductChargesCost": "1"
          },
          "description": {
            "value": "<p class=\"source\" style=\"box-sizing: border-box; user-select: text; color: #191813; font-size: 13px;\"><strong style=\"box-sizing: border-box; user-select: text;\">Source</strong>&nbsp;<a style=\"box-sizing: border-box; user-select: text;\" title=\"PPZO9410\" href=\"http://www.amazon.com/gp/product/1601252226/ref=as_li_qf_sp_asin_il_tl?ie=UTF8&amp;camp=1789&amp;creative=9325&amp;creativeASIN=1601252226&amp;linkCode=as2&amp;tag=httpwwwd20pfs-20\" target=\"_blank\" rel=\"noopener\">PPZO9410</a></p>\n<p style=\"box-sizing: border-box; user-select: text; color: #191813; font-size: 13px;\">You can use this thick block of soap to scrub clothes, pots, linens, or anything else that might be dirty. A bar of soap has approximately 50 uses.</p>",
            "chat": "",
            "unidentified": ""
          },
          "tags": [],
          "quantity": 1,
          "weight": 0,
          "price": 0.01,
          "identified": true,
          "hp": {
            "max": 10,
            "value": 10
          },
          "hardness": 0,
          "carried": true,
          "unidentified": {
            "price": 0,
            "name": ""
          },
          "identifiedName": "Soap",
          "cl": 0,
          "aura": {
            "custom": false,
            "school": ""
          },
          "activation": {
            "cost": 1,
            "type": "special"
          },
          "duration": {
            "value": null,
            "units": ""
          },
          "target": {
            "value": ""
          },
          "range": {
            "value": null,
            "units": "",
            "long": null
          },
          "measureTemplate": {
            "type": "",
            "size": "",
            "overrideColor": false,
            "customColor": "",
            "overrideTexture": false,
            "customTexture": ""
          },
          "actionType": "",
          "attackBonus": "",
          "critConfirmBonus": "",
          "damage": {
            "parts": [],
            "critParts": [],
            "nonCritParts": []
          },
          "attackParts": [],
          "formula": "",
          "ability": {
            "attack": null,
            "damage": null,
            "damageMult": 1,
            "critRange": 20,
            "critMult": 2
          },
          "save": {
            "dc": 0,
            "type": "",
            "description": ""
          },
          "effectNotes": "",
          "attackNotes": "",
          "soundEffect": "",
          "links": {
            "children": []
          },
          "attack": {
            "parts": []
          },
          "weightConverted": 0,
          "weightUnits": "lbs",
          "priceUnits": "gp"
        },
        "flags": {
          "core": {
            "sourceId": "Item.cDlDlPy1JSnN6KyN"
          }
        },
        "img": "systems/pf1/icons/items/inventory/soap.jpg",
        "effects": [],
        "labels": {
          "equipped": "<i class=\"fas fa-times\"></i>",
          "carried": "<i class=\"fas fa-check\"></i>",
          "identified": "<i class=\"fas fa-check\"></i>",
          "activation": "Special",
          "target": "",
          "range": "",
          "duration": "",
          "damage": "",
          "damageTypes": ""
        },
        "hasAttack": false,
        "hasMultiAttack": false,
        "hasDamage": false,
        "hasEffect": "",
        "hasAction": true,
        "showUnidentifiedData": false,
        "isStack": false,
        "hasUses": false,
        "isCharged": true,
        "price": 0.01,
        "empty": false,
        "totalWeight": 0,
        "units": "lbs"
      },
      {
        "_id": "snfogneawzopfzzl",
        "name": "Torch",
        "permission": {
          "default": 0,
          "T9i9xVjdkHeFZC72": 3
        },
        "type": "loot",
        "data": {
          "subType": "gear",
          "description": {
            "value": "<p><strong>Price</strong> 1 cp; <strong>Weight</strong> 1 lb.</p>\n<p>A torch burns for 1 hour, shedding normal light in a 20-foot radius and increasing the light level by one step for an additional 20 feet beyond that area (darkness becomes dim light and dim light becomes normal light). A torch does not increase the light level in normal light or bright light. If a torch is used in combat, treat it as a one-handed improvised weapon that deals bludgeoning damage equal to that of a gauntlet of its size, plus 1 point of fire damage.</p>",
            "chat": "",
            "unidentified": ""
          },
          "tags": [],
          "quantity": 10,
          "weight": 1,
          "price": 0.01,
          "identified": true,
          "hp": {
            "max": 10,
            "value": 10
          },
          "hardness": 0,
          "carried": true,
          "unidentified": {
            "price": 0,
            "name": ""
          },
          "identifiedName": "Torch",
          "cl": 0,
          "aura": {
            "custom": false,
            "school": ""
          },
          "links": {
            "children": []
          },
          "damage": {
            "parts": [],
            "critParts": [],
            "nonCritParts": []
          },
          "attackParts": [],
          "conditionals": [],
          "contextNotes": [],
          "weightConverted": 1,
          "weightUnits": "lbs",
          "priceUnits": "gp"
        },
        "flags": {
          "core": {
            "sourceId": "Compendium.pf1.items.snfogneawzopfzzl"
          }
        },
        "img": "systems/pf1/icons/items/inventory/torch.jpg",
        "effects": [],
        "labels": {
          "equipped": "<i class=\"fas fa-times\"></i>",
          "carried": "<i class=\"fas fa-check\"></i>",
          "identified": "<i class=\"fas fa-check\"></i>"
        },
        "hasAttack": false,
        "hasMultiAttack": false,
        "hasDamage": false,
        "hasAction": false,
        "showUnidentifiedData": false,
        "isStack": true,
        "isCharged": false,
        "price": 0.01,
        "empty": false,
        "totalWeight": 10,
        "units": "lbs"
      },
      {
        "_id": "bsztkhkrhgmsbqpt",
        "name": "Waterskin",
        "permission": {
          "default": 0,
          "T9i9xVjdkHeFZC72": 3
        },
        "type": "loot",
        "data": {
          "subType": "gear",
          "description": {
            "value": " \n<p class=\"source\"><b>Source</b> <a title=\"PZO1110\" href=\"http://www.amazon.com/gp/product/1601251505/ref=as_li_qf_sp_asin_il_tl?ie=UTF8&amp;camp=1789&amp;creative=9325&amp;creativeASIN=1601251505&amp;linkCode=as2&amp;tag=httpwwwd20pfs-20\" target=\"_blank\" rel=\"noopener\">PZO1110</a></p> \n<p>A water or wineskin holds 1/2 gallon of liquid and weighs 4 lb when full.</p> \n<p><b>Empty Weight</b>: -; <b>Capacity</b>: 1/2 gallon/4 lb.<sup style=\"font-size: 10px\">1</sup></p> \n<p class=\"source\"><sup style=\"font-size: 10px\">1</sup> When made for Medium characters. Weighs one-quarter the normal amount when made for Small characters. Weighs twice the normal amount when made for Large characters. Containers carry one-quarter the normal amount when made for Small characters.</p> \n<p><a name=\"table-magic-containers\"></a></p> \n<h3 style=\"margin-top: 30px;border-bottom-style: solid;border-bottom-width: thin\"><a name=\"TOC-Magic-Containers\"></a>Magic Containers</h3> \n<p>Magic containers come in almost as many varieties as there are <a href=\"https://www.d20pfsrd.com/classes/base-classes/alchemist\">alchemists</a>, and so are of inestimable value to <a href=\"https://www.d20pfsrd.com/classes/base-classes/alchemist\">alchemists</a> with specific needs. Some of the most well-known magic containers are described here.</p> \n<p>Because of a varied nature of alchemical items and their effects, not all combinations of alchemical items and magic bottles are viable or even make sense, even though they technically might be allowed by the rules. The GM should have the final say on whether or not a particular alchemical item can function within one of the magical containers listed in this section.</p> \n<table border=\"1\" cellpadding=\"5\"> \n <thead> \n  <tr> \n   <th colspan=\"4\" class=\"text\">Magic Containers</th> \n  </tr> \n  <tr> \n   <th class=\"text\">Item</th> \n   <th class=\"text\">Price</th> \n   <th class=\"text\">Weight</th> \n   <th class=\"text\">Source</th> \n  </tr> \n </thead> \n <tbody> \n  <tr> \n   <td class=\"text\"><i>Focusing Flask</i></td> \n   <td class=\"money number\">700 gp</td> \n   <td class=\"money text\">1 lb.</td> \n   <td class=\"source text\"><a title=\"PPC:AM\" href=\"http://www.amazon.com/gp/product/1601256051/ref=as_li_qf_sp_asin_il_tl?ie=UTF8&amp;camp=1789&amp;creative=9325&amp;creativeASIN=1601256051&amp;linkCode=as2&amp;tag=httpwwwd20pfs-20\" target=\"_blank\" rel=\"noopener\">PPC:AM</a></td> \n  </tr> \n  <tr> \n   <td class=\"text\"><i>Retort of Control</i></td> \n   <td class=\"money number\">13,000 gp</td> \n   <td class=\"marker\">-</td> \n   <td class=\"source text\"><a title=\"PPC:AM\" href=\"http://www.amazon.com/gp/product/1601256051/ref=as_li_qf_sp_asin_il_tl?ie=UTF8&amp;camp=1789&amp;creative=9325&amp;creativeASIN=1601256051&amp;linkCode=as2&amp;tag=httpwwwd20pfs-20\" target=\"_blank\" rel=\"noopener\">PPC:AM</a></td> \n  </tr> \n  <tr> \n   <td class=\"text\"><i>Vial of Efficacious Medicine</i></td> \n   <td class=\"money number\">7,000 gp</td> \n   <td class=\"marker\">-</td> \n   <td class=\"source text\"><a title=\"PPC:AM\" href=\"http://www.amazon.com/gp/product/1601256051/ref=as_li_qf_sp_asin_il_tl?ie=UTF8&amp;camp=1789&amp;creative=9325&amp;creativeASIN=1601256051&amp;linkCode=as2&amp;tag=httpwwwd20pfs-20\" target=\"_blank\" rel=\"noopener\">PPC:AM</a></td> \n  </tr> \n  <tr> \n   <td class=\"text\"><i>Winged Bottle</i></td> \n   <td class=\"money number\">1,620 gp</td> \n   <td class=\"money text\">1 lb.</td> \n   <td class=\"source text\"><a title=\"PPC:AM\" href=\"http://www.amazon.com/gp/product/1601256051/ref=as_li_qf_sp_asin_il_tl?ie=UTF8&amp;camp=1789&amp;creative=9325&amp;creativeASIN=1601256051&amp;linkCode=as2&amp;tag=httpwwwd20pfs-20\" target=\"_blank\" rel=\"noopener\">PPC:AM</a></td> \n  </tr> \n </tbody> \n</table> \n",
            "chat": "",
            "unidentified": ""
          },
          "tags": [],
          "quantity": 1,
          "weight": 4,
          "price": 1,
          "identified": true,
          "hp": {
            "max": 10,
            "value": 10
          },
          "hardness": 0,
          "carried": true,
          "unidentified": {
            "price": 0,
            "name": ""
          },
          "identifiedName": "Waterskin",
          "cl": 0,
          "aura": {
            "custom": false,
            "school": ""
          },
          "links": {
            "children": []
          },
          "damage": {
            "parts": [],
            "critParts": [],
            "nonCritParts": []
          },
          "weightConverted": 4,
          "weightUnits": "lbs",
          "priceUnits": "gp",
          "attackParts": [],
          "conditionals": [],
          "contextNotes": []
        },
        "flags": {
          "core": {
            "sourceId": "Compendium.pf1.items.bsztkhkrhgmsbqpt"
          }
        },
        "img": "systems/pf1/icons/items/inventory/waterskin.jpg",
        "effects": [],
        "labels": {
          "equipped": "<i class=\"fas fa-times\"></i>",
          "carried": "<i class=\"fas fa-check\"></i>",
          "identified": "<i class=\"fas fa-check\"></i>"
        },
        "hasAttack": false,
        "hasMultiAttack": false,
        "hasDamage": false,
        "hasAction": false,
        "showUnidentifiedData": false,
        "isStack": false,
        "isCharged": false,
        "price": 1,
        "empty": false,
        "totalWeight": 4,
        "units": "lbs"
      },
      {
        "_id": "manvtbznrwjmnrua",
        "name": "Rations, Trail",
        "permission": {
          "default": 0,
          "T9i9xVjdkHeFZC72": 3
        },
        "type": "loot",
        "data": {
          "subType": "gear",
          "description": {
            "value": "<h4><span id=\"Rations_Trail\"><a name=\"TOC-Rations-Trail\"></a>Rations, Trail</span></h4>\r\n<p><b>Price</b> 5 sp; <b>Weight</b> 1 lb.</p>\r\n<p>The listed price is for a day's worth of food. This bland food is usually some kind of hard tack, jerky, and dried fruit, though the contents vary from region to region and the race of those creating it. As long as it stays dry, it can go for months without spoiling.</p>\r\n",
            "chat": "",
            "unidentified": ""
          },
          "tags": [],
          "quantity": 5,
          "weight": 1,
          "price": 0.5,
          "identified": true,
          "hp": {
            "max": 10,
            "value": 10
          },
          "hardness": 0,
          "carried": true,
          "unidentified": {
            "price": 0,
            "name": ""
          },
          "identifiedName": "Rations, Trail",
          "cl": 0,
          "aura": {
            "custom": false,
            "school": ""
          },
          "links": {
            "children": []
          },
          "damage": {
            "parts": []
          },
          "weightConverted": 1,
          "weightUnits": "lbs",
          "priceUnits": "gp"
        },
        "flags": {
          "core": {
            "sourceId": "Compendium.pf1.items.manvtbznrwjmnrua"
          }
        },
        "img": "systems/pf1/icons/items/inventory/meat.jpg",
        "effects": [],
        "labels": {
          "equipped": "<i class=\"fas fa-times\"></i>",
          "carried": "<i class=\"fas fa-check\"></i>",
          "identified": "<i class=\"fas fa-check\"></i>"
        },
        "hasAttack": false,
        "hasMultiAttack": false,
        "hasDamage": false,
        "hasAction": false,
        "showUnidentifiedData": false,
        "isStack": true,
        "isCharged": false,
        "price": 0.5,
        "empty": false,
        "totalWeight": 5,
        "units": "lbs"
      },
      {
        "_id": "qlmtnppwxkubqyhp",
        "name": "Rope",
        "permission": {
          "default": 0,
          "T9i9xVjdkHeFZC72": 3
        },
        "type": "loot",
        "data": {
          "subType": "gear",
          "description": {
            "value": "<h4><span id=\"Rope\"><a name=\"TOC-Rope\"></a>Rope</span></h4>\r\n<p><b>Hempen</b> The DC to escape hemp rope bonds is equal to 20 + the CMB of the creature that tied the bonds. Ropes do not need to make a check every round to maintain the pin. If the DC to escape is higher than 20 + the tying creatures CMB, the tied up creature cannot escape from the bonds, even with a natural 20 on the check. This rope has 2 hit points and can be burst with a DC 23 Strength check. <b>Price</b> 1 gp; <b>Weight</b> 10 lbs.</p>\r\n<p><b>FYI</b>: The <a href=\"https://www.d20pfsrd.com/feats/combat-feats/equipment-trick-combat\">Equipment Trick</a> feat provides a number of options for using this item in combat.</p>\r\n<p><b>Silk Rope</b> This 50-foot length of silk rope has 4 hit points and can be broken with a DC 24 Strength check. <b>Price</b> 10 gp; <b>Weight</b> 5 lbs.</p>\r\n<p><b>Bloodvine Rope</b> This 50-foot length of tough, lightweight rope is made from alchemically treated bloodvine, a rare scarlet-colored vine that grows only in warm jungle environments. Though prized by climbers for its durability, bloodvine can also be used to bind creatures. Bloodvine rope has a <a href=\"https://www.d20pfsrd.com/equipment/damaging-objects#TOC-Hardness\">hardness</a> of 5 and 10 <a href=\"https://www.d20pfsrd.com/gamemastering/combat#TOC-Hit-Points\">hit points</a>, and can be broken with a DC 30 <a href=\"https://www.d20pfsrd.com/basics-ability-scores/ability-scores#TOC-Strength-Str-\">Strength</a> check. A creature bound by bloodvine rope can escape with a DC 35 <a href=\"https://www.d20pfsrd.com/skills/escape-artist\">Escape Artist</a> check or a DC 30 <a href=\"https://www.d20pfsrd.com/basics-ability-scores/ability-scores#TOC-Strength-Str-\">Strength</a> check. The DC to create bloodvine rope with <a href=\"https://www.d20pfsrd.com/skills/craft\">Craft</a> (alchemy) is 30. <b>Price</b> 200 gp; <b>Weight</b> 5 lbs. <b>Source</b> <a href=\"http://www.amazon.com/gp/product/160125671X/ref=as_li_qf_sp_asin_il_tl?ie=UTF8&amp;camp=1789&amp;creative=9325&amp;creativeASIN=160125671X&amp;linkCode=as2&amp;tag=httpwwwd20pfs-20&amp;linkId=HSOKQ6X2XAS2GTU6\" target=\"_blank\" rel=\"noopener\">PRG:ACG</a></p>\r\n<p><b>Spider's Silk Rope</b> This 50-foot length of rope is woven of strands of silk from monstrous spiders. Rare to virtually nonexistent on the surface world, it is commonly used by the dark elves, though shorter spider's silk rope scraps (generally no more than 10 feet long) occasionally appear among goblins. Spider's silk rope has 6 hit points and can be broken with a DC 25 Strength check. <b>Price</b> 100 gp; <b>Weight</b> 4 lbs.</p>\r\n",
            "chat": "",
            "unidentified": ""
          },
          "tags": [],
          "quantity": 1,
          "weight": 10,
          "price": 1,
          "identified": true,
          "hp": {
            "max": 10,
            "value": 10
          },
          "hardness": 0,
          "carried": true,
          "unidentified": {
            "price": 0,
            "name": ""
          },
          "identifiedName": "",
          "cl": 0,
          "aura": {
            "custom": false,
            "school": ""
          },
          "links": {
            "children": []
          },
          "damage": {
            "parts": []
          },
          "weightConverted": 10,
          "weightUnits": "lbs",
          "priceUnits": "gp"
        },
        "flags": {
          "core": {
            "sourceId": "Compendium.pf1.items.qlmtnppwxkubqyhp"
          }
        },
        "img": "systems/pf1/icons/items/inventory/dice.jpg",
        "effects": [],
        "labels": {
          "equipped": "<i class=\"fas fa-times\"></i>",
          "carried": "<i class=\"fas fa-check\"></i>",
          "identified": "<i class=\"fas fa-check\"></i>"
        },
        "hasAttack": false,
        "hasMultiAttack": false,
        "hasDamage": false,
        "hasAction": false,
        "showUnidentifiedData": false,
        "isStack": false,
        "isCharged": false,
        "price": 1,
        "empty": false,
        "totalWeight": 10,
        "units": "lbs"
      },
      {
        "_id": "iegwwsarycqwoezj",
        "name": "Bedroll",
        "permission": {
          "default": 0,
          "T9i9xVjdkHeFZC72": 3
        },
        "type": "loot",
        "data": {
          "subType": "gear",
          "description": {
            "value": "<p>This consists of two woolen sheets sewn together along the bottom and one side to create a bag for sleeping in. Some have cloth straps along the open side so the bedroll can be tied closed while you are sleeping. It can be rolled and tied into a tight coil for storage or transport. Most people use a <a href=\"https://www.d20pfsrd.com/equipment/goods-and-services/hunting-camping-survival-geaR/#TOC-Blanket\">blanket</a> with the bedroll to stay warm or provide a ground cushion.</p>",
            "chat": "",
            "unidentified": ""
          },
          "tags": [],
          "quantity": 1,
          "weight": 5,
          "price": 0.1,
          "identified": true,
          "hp": {
            "max": 10,
            "value": 10
          },
          "hardness": 0,
          "carried": true,
          "unidentified": {
            "price": 0,
            "name": ""
          },
          "identifiedName": "Bedroll",
          "cl": 0,
          "aura": {
            "custom": false,
            "school": ""
          },
          "links": {
            "children": []
          },
          "damage": {
            "parts": [],
            "critParts": [],
            "nonCritParts": []
          },
          "attackParts": [],
          "conditionals": [],
          "contextNotes": [],
          "weightConverted": 5,
          "weightUnits": "lbs",
          "priceUnits": "gp"
        },
        "flags": {
          "core": {
            "sourceId": "Compendium.pf1.items.iegwwsarycqwoezj"
          }
        },
        "img": "systems/pf1/icons/items/inventory/cloth-blue.jpg",
        "effects": [],
        "labels": {
          "equipped": "<i class=\"fas fa-times\"></i>",
          "carried": "<i class=\"fas fa-check\"></i>",
          "identified": "<i class=\"fas fa-check\"></i>"
        },
        "hasAttack": false,
        "hasMultiAttack": false,
        "hasDamage": false,
        "hasAction": false,
        "showUnidentifiedData": false,
        "isStack": false,
        "isCharged": false,
        "price": 0.1,
        "empty": false,
        "totalWeight": 5,
        "units": "lbs"
      },
      {
        "_id": "habofoapdifirevm",
        "name": "Pot, Cooking (Iron)",
        "permission": {
          "default": 0,
          "T9i9xVjdkHeFZC72": 3
        },
        "type": "loot",
        "data": {
          "subType": "gear",
          "description": {
            "value": " \n<p class=\"source\"><b>Source</b> <a title=\"PZO1110\" href=\"http://www.amazon.com/gp/product/1601251505/ref=as_li_qf_sp_asin_il_tl?ie=UTF8&amp;camp=1789&amp;creative=9325&amp;creativeASIN=1601251505&amp;linkCode=as2&amp;tag=httpwwwd20pfs-20\" target=\"_blank\" rel=\"noopener\">PZO1110</a></p> \n<p>Cooking pots come in a variety of materials, but the most common is formed of iron.</p> \n<p>A mithral cooking pot weighs 2 lbs. and costs 2,001 gp.</p> \n<p><b>Empty Weight</b>: 2 lb.; <b>Capacity</b>: 1 gallon/8 lb.</p> \n",
            "chat": "",
            "unidentified": ""
          },
          "tags": [],
          "quantity": 1,
          "weight": 4,
          "price": 0.8,
          "identified": true,
          "hp": {
            "max": 10,
            "value": 10
          },
          "hardness": 0,
          "carried": true,
          "unidentified": {
            "price": 0,
            "name": ""
          },
          "identifiedName": "Pot, Cooking (Iron)",
          "cl": 0,
          "aura": {
            "custom": false,
            "school": ""
          },
          "links": {
            "children": []
          },
          "damage": {
            "parts": [],
            "critParts": [],
            "nonCritParts": []
          },
          "weightConverted": 4,
          "attackParts": [],
          "conditionals": [],
          "contextNotes": [],
          "weightUnits": "lbs",
          "priceUnits": "gp"
        },
        "flags": {
          "core": {
            "sourceId": "Compendium.pf1.items.habofoapdifirevm"
          }
        },
        "img": "icons/tools/cooking/cauldron-empty.webp",
        "effects": [],
        "labels": {
          "equipped": "<i class=\"fas fa-times\"></i>",
          "carried": "<i class=\"fas fa-check\"></i>",
          "identified": "<i class=\"fas fa-check\"></i>"
        },
        "hasAttack": false,
        "hasMultiAttack": false,
        "hasDamage": false,
        "hasAction": false,
        "showUnidentifiedData": false,
        "isStack": false,
        "isCharged": false,
        "price": 0.8,
        "empty": false,
        "totalWeight": 4,
        "units": "lbs"
      },
      {
        "_id": "Ueae6c2qqJJGpncA",
        "name": "Mess Kit",
        "permission": {
          "default": 0,
          "ZuWclcb9BUy2aZSN": 3
        },
        "type": "container",
        "data": {
          "basePrice": 0.2,
          "unidentified": {
            "basePrice": 0,
            "price": 0,
            "name": ""
          },
          "description": {
            "value": "<p><span style=\"color: #191813; font-size: 13px;\">This kit includes a plate, bowl, cup, fork, knife, and spoon, made of wood, horn, or tin. Each item has a handle or small hole, and can be tied together using the included leather cord.</span></p>",
            "chat": "",
            "unidentified": ""
          },
          "tags": [],
          "quantity": 1,
          "weight": 1,
          "price": 0.2,
          "identified": true,
          "hp": {
            "max": 10,
            "value": 10
          },
          "hardness": 0,
          "carried": true,
          "identifiedName": "Mess Kit",
          "cl": 0,
          "aura": {
            "custom": false,
            "school": ""
          },
          "inventoryItems": [
            {
              "name": "Plate",
              "type": "loot",
              "data": {
                "subType": "tradeGoods",
                "description": {
                  "value": "",
                  "chat": "",
                  "unidentified": ""
                },
                "tags": [],
                "quantity": 1,
                "weight": 0.4,
                "price": 0,
                "identified": true,
                "hp": {
                  "max": 10,
                  "value": 10
                },
                "hardness": 0,
                "carried": true,
                "unidentified": {
                  "price": 0,
                  "name": ""
                },
                "identifiedName": "Plate",
                "cl": 0,
                "aura": {
                  "custom": false,
                  "school": ""
                },
                "links": {
                  "children": []
                },
                "typeName": "Trade Good",
                "weightConverted": 0.4,
                "weightUnits": "lbs",
                "priceUnits": "gp",
                "damage": {
                  "parts": [],
                  "critParts": [],
                  "nonCritParts": []
                },
                "attackParts": [],
                "conditionals": [],
                "contextNotes": []
              },
              "_id": "t95qxxcbkgau4zwa",
              "img": "systems/pf1/icons/items/inventory/dice.jpg",
              "labels": {
                "equipped": "<i class=\"fas fa-times\"></i>",
                "carried": "<i class=\"fas fa-check\"></i>",
                "identified": "<i class=\"fas fa-check\"></i>"
              },
              "hasAttack": false,
              "hasMultiAttack": false,
              "hasDamage": false,
              "hasAction": false,
              "showUnidentifiedData": false,
              "isStack": false,
              "isCharged": false,
              "price": 0,
              "empty": false,
              "totalWeight": 0.4,
              "units": "lbs"
            },
            {
              "name": "Bowl",
              "type": "loot",
              "data": {
                "subType": "tradeGoods",
                "description": {
                  "value": "",
                  "chat": "",
                  "unidentified": ""
                },
                "tags": [],
                "quantity": 1,
                "weight": 0.2,
                "price": 0,
                "identified": true,
                "hp": {
                  "max": 10,
                  "value": 10
                },
                "hardness": 0,
                "carried": true,
                "unidentified": {
                  "price": 0,
                  "name": ""
                },
                "identifiedName": "Bowl",
                "cl": 0,
                "aura": {
                  "custom": false,
                  "school": ""
                },
                "links": {
                  "children": []
                },
                "typeName": "Trade Good",
                "weightConverted": 0.2,
                "weightUnits": "lbs",
                "priceUnits": "gp",
                "damage": {
                  "parts": [],
                  "critParts": [],
                  "nonCritParts": []
                },
                "attackParts": [],
                "conditionals": [],
                "contextNotes": []
              },
              "img": "icons/containers/kitchenware/bowl-clay-brown.webp",
              "labels": {
                "equipped": "<i class=\"fas fa-times\"></i>",
                "carried": "<i class=\"fas fa-check\"></i>",
                "identified": "<i class=\"fas fa-check\"></i>"
              },
              "hasAttack": false,
              "hasMultiAttack": false,
              "hasDamage": false,
              "hasAction": false,
              "showUnidentifiedData": false,
              "isStack": false,
              "isCharged": false,
              "price": 0,
              "empty": false,
              "totalWeight": 0.2,
              "units": "lbs",
              "_id": "q4asw26dyrjavece"
            },
            {
              "name": "Fork",
              "type": "loot",
              "data": {
                "subType": "tradeGoods",
                "description": {
                  "value": "",
                  "chat": "",
                  "unidentified": ""
                },
                "tags": [],
                "quantity": 1,
                "weight": 0.1,
                "price": 0,
                "identified": true,
                "hp": {
                  "max": 10,
                  "value": 10
                },
                "hardness": 0,
                "carried": true,
                "unidentified": {
                  "price": 0,
                  "name": ""
                },
                "identifiedName": "Fork",
                "cl": 0,
                "aura": {
                  "custom": false,
                  "school": ""
                },
                "links": {
                  "children": []
                },
                "typeName": "Trade Good",
                "weightConverted": 0.1,
                "weightUnits": "lbs",
                "priceUnits": "gp",
                "damage": {
                  "parts": [],
                  "critParts": [],
                  "nonCritParts": []
                },
                "attackParts": [],
                "conditionals": [],
                "contextNotes": []
              },
              "img": "icons/tools/cooking/fork-steel-tan.webp",
              "labels": {
                "equipped": "<i class=\"fas fa-times\"></i>",
                "carried": "<i class=\"fas fa-check\"></i>",
                "identified": "<i class=\"fas fa-check\"></i>"
              },
              "hasAttack": false,
              "hasMultiAttack": false,
              "hasDamage": false,
              "hasAction": false,
              "showUnidentifiedData": false,
              "isStack": false,
              "isCharged": false,
              "price": 0,
              "empty": false,
              "totalWeight": 0.1,
              "units": "lbs",
              "_id": "e1r0sdabl9awmxid"
            },
            {
              "name": "Knife",
              "type": "loot",
              "data": {
                "subType": "tradeGoods",
                "description": {
                  "value": "",
                  "chat": "",
                  "unidentified": ""
                },
                "tags": [],
                "quantity": 1,
                "weight": 0.1,
                "price": 0,
                "identified": true,
                "hp": {
                  "max": 10,
                  "value": 10
                },
                "hardness": 0,
                "carried": true,
                "unidentified": {
                  "price": 0,
                  "name": ""
                },
                "identifiedName": "Knife",
                "cl": 0,
                "aura": {
                  "custom": false,
                  "school": ""
                },
                "links": {
                  "children": []
                },
                "typeName": "Trade Good",
                "weightConverted": 0.1,
                "weightUnits": "lbs",
                "priceUnits": "gp",
                "damage": {
                  "parts": [],
                  "critParts": [],
                  "nonCritParts": []
                },
                "attackParts": [],
                "conditionals": [],
                "contextNotes": []
              },
              "img": "icons/tools/cooking/knife-chef-steel-brown.webp",
              "labels": {
                "equipped": "<i class=\"fas fa-times\"></i>",
                "carried": "<i class=\"fas fa-check\"></i>",
                "identified": "<i class=\"fas fa-check\"></i>"
              },
              "hasAttack": false,
              "hasMultiAttack": false,
              "hasDamage": false,
              "hasAction": false,
              "showUnidentifiedData": false,
              "isStack": false,
              "isCharged": false,
              "price": 0,
              "empty": false,
              "totalWeight": 0.1,
              "units": "lbs",
              "_id": "swpiosj6uadvp8xy"
            },
            {
              "name": "Spoon",
              "type": "loot",
              "data": {
                "subType": "tradeGoods",
                "description": {
                  "value": "",
                  "chat": "",
                  "unidentified": ""
                },
                "tags": [],
                "quantity": 1,
                "weight": 0.1,
                "price": 0,
                "identified": true,
                "hp": {
                  "max": 10,
                  "value": 10
                },
                "hardness": 0,
                "carried": true,
                "unidentified": {
                  "price": 0,
                  "name": ""
                },
                "identifiedName": "Spoon",
                "cl": 0,
                "aura": {
                  "custom": false,
                  "school": ""
                },
                "links": {
                  "children": []
                },
                "typeName": "Trade Good",
                "weightConverted": 0.1,
                "weightUnits": "lbs",
                "priceUnits": "gp",
                "damage": {
                  "parts": [],
                  "critParts": [],
                  "nonCritParts": []
                },
                "attackParts": [],
                "conditionals": [],
                "contextNotes": []
              },
              "img": "icons/tools/cooking/soup-ladle.webp",
              "labels": {
                "equipped": "<i class=\"fas fa-times\"></i>",
                "carried": "<i class=\"fas fa-check\"></i>",
                "identified": "<i class=\"fas fa-check\"></i>"
              },
              "hasAttack": false,
              "hasMultiAttack": false,
              "hasDamage": false,
              "hasAction": false,
              "showUnidentifiedData": false,
              "isStack": false,
              "isCharged": false,
              "price": 0,
              "empty": false,
              "totalWeight": 0.1,
              "units": "lbs",
              "_id": "pxs9209y5ybsemki"
            }
          ],
          "maxWeight": null,
          "weightReduction": 0,
          "baseWeight": 0.1,
          "damage": {
            "parts": [],
            "critParts": [],
            "nonCritParts": []
          },
          "attackParts": [],
          "conditionals": [],
          "contextNotes": [],
          "weightConverted": 1,
          "weightUnits": "lbs",
          "priceUnits": "gp"
        },
        "flags": {
          "core": {
            "sourceId": "Item.F1QKvOYGM9u5YI1x"
          }
        },
        "img": "icons/containers/chest/chest-simple-box-red.webp",
        "effects": [],
        "labels": {
          "equipped": "<i class=\"fas fa-times\"></i>",
          "carried": "<i class=\"fas fa-check\"></i>",
          "identified": "<i class=\"fas fa-check\"></i>"
        },
        "hasAttack": false,
        "hasMultiAttack": false,
        "hasDamage": false,
        "hasAction": false,
        "showUnidentifiedData": false,
        "isStack": false,
        "isCharged": false,
        "price": 0.2,
        "empty": false,
        "totalWeight": 1,
        "units": "lbs"
      },
      {
        "_id": "jewqhqesccxrvivd",
        "name": "Candle",
        "permission": {
          "default": 0,
          "T9i9xVjdkHeFZC72": 3
        },
        "type": "loot",
        "data": {
          "subType": "gear",
          "description": {
            "value": "<h4><span id=\"Candle\"><a name=\"TOC-Candle\"></a>Candle</span></h4>\r\n<p>A candle dimly illuminates a small area, increasing the light level in a 5-foot radius by one step (darkness becomes dim light and dim light becomes normal light). A candle cannot increase the light level above normal light. A candle burns for 1 hour. <b>Price</b> 1 cp; <b>Weight</b> -</p>\r\n<p><b>Candle, Helmet</b> This device consists of a helmet with a short, thin spike on top upon which a <a href=\"https://www.d20pfsrd.com/equipment/goods-and-services/hunting-camping-survival-geaR/#TOC-Candle\">candle</a> is stuck, freeing your hands for other tasks. <b>Price</b> 2 gp; <b>Weight</b> 4 lbs.</p>\r\n<p><b>Candle Lamp</b> A candle lamp is a small lantern-like device with glass panels and a slot to hold a <a href=\"https://www.d20pfsrd.com/equipment/goods-and-services/hunting-camping-survival-geaR/#TOC-Candle\">candle</a>. It protects the <a href=\"https://www.d20pfsrd.com/equipment/goods-and-services/hunting-camping-survival-geaR/#TOC-Candle\">candle</a> from drafts and catches wax drippings. It provides the same light as a <a href=\"https://www.d20pfsrd.com/equipment/goods-and-services/hunting-camping-survival-geaR/#TOC-Candle\">candle</a>, but can be shuttered such that it only illuminates 1 to 3 adjacent squares. You can use a <a href=\"https://www.d20pfsrd.com/equipment/goods-and-services/hunting-camping-survival-geaR/#TOC-Candle-Lamp\">candle lamp</a> to keep your hands warm. <b>Price</b> 5 gp; <b>Weight</b> 1 lb.</p>\r\n<p><b>Candlestick</b> This saucer-like object has a flat bottom, a handle, and a spike on top. You can affix a <a href=\"https://www.d20pfsrd.com/equipment/goods-and-services/hunting-camping-survival-geaR/#TOC-Candle\">candle</a> onto the spike (up to 3 inches in diameter) and hold the candlestick by the handle. The flat bottom means you're able to set it down and not worry about the <a href=\"https://www.d20pfsrd.com/equipment/goods-and-services/hunting-camping-survival-geaR/#TOC-Candle\">candle</a> falling over and extinguishing itself. A typical candlestick is crafted from baked <a href=\"https://www.d20pfsrd.com/equipment/goods-and-services/hunting-camping-survival-geaR/#TOC-Clay\">clay</a> or a cheap metal such as copper, but elaborate and expensive ones exist. <b>Price</b> 1 cp; <b>Weight</b> 1/2 lb.</p>\r\n",
            "chat": "",
            "unidentified": ""
          },
          "tags": [],
          "quantity": 10,
          "weight": 0,
          "price": 0.01,
          "identified": true,
          "hp": {
            "max": 10,
            "value": 10
          },
          "hardness": 0,
          "carried": true,
          "unidentified": {
            "price": 0,
            "name": ""
          },
          "identifiedName": "Candle",
          "cl": 0,
          "aura": {
            "custom": false,
            "school": ""
          },
          "links": {
            "children": []
          },
          "damage": {
            "parts": [],
            "critParts": [],
            "nonCritParts": []
          },
          "attackParts": [],
          "conditionals": [],
          "contextNotes": [],
          "weightConverted": 0,
          "weightUnits": "lbs",
          "priceUnits": "gp"
        },
        "flags": {
          "core": {
            "sourceId": "Compendium.pf1.items.jewqhqesccxrvivd"
          }
        },
        "img": "systems/pf1/icons/items/inventory/candle.jpg",
        "effects": [],
        "labels": {
          "equipped": "<i class=\"fas fa-times\"></i>",
          "carried": "<i class=\"fas fa-check\"></i>",
          "identified": "<i class=\"fas fa-check\"></i>"
        },
        "hasAttack": false,
        "hasMultiAttack": false,
        "hasDamage": false,
        "hasAction": false,
        "showUnidentifiedData": false,
        "isStack": true,
        "isCharged": false,
        "price": 0.01,
        "empty": false,
        "totalWeight": 0,
        "units": "lbs"
      },
      {
        "_id": "fdfdwpuaqjjudyeo",
        "name": "Holy Text",
        "permission": {
          "default": 0,
          "T9i9xVjdkHeFZC72": 3
        },
        "type": "loot",
        "data": {
          "subType": "gear",
          "description": {
            "value": "\r\n<p><b>Holy Text</b> This is the religious text of a particular religion, with a title, text, and detailed rites specific to that faith. The cheap variety is a small, light book with no illustrations, printed or written on thin paper, and with a cover made of <a href=\"https://www.d20pfsrd.com/equipment/goods-and-services/hunting-camping-survival-geaR/#TOC-Canvas-sq.-yd.-\">canvas</a> or thin leather. A typical <a href=\"https://www.d20pfsrd.com/equipment/goods-and-services/hunting-camping-survival-geaR/#TOC-Holy-Text\">holy text</a> for an experienced adventuring priest is durable, with a leather cover, chapter illustrations, quality paper; it costs 25 gp and weighs 2 pounds. The most expensive versions have detailed illustrations, gilded initials and border decorations, covers made of fine leather, wood, or even metal, and are often oversized and difficult to carry around. <b>Price</b> 1-100 gp; <b>Weight</b> 1-20 lbs.</p>\r\n",
            "chat": "",
            "unidentified": ""
          },
          "tags": [],
          "quantity": 1,
          "weight": 1,
          "price": 1,
          "identified": true,
          "hp": {
            "max": 10,
            "value": 10
          },
          "hardness": 0,
          "carried": true,
          "unidentified": {
            "price": 0,
            "name": ""
          },
          "identifiedName": "",
          "cl": 0,
          "aura": {
            "custom": false,
            "school": ""
          },
          "links": {
            "children": []
          },
          "damage": {
            "parts": []
          },
          "weightConverted": 1,
          "weightUnits": "lbs",
          "priceUnits": "gp"
        },
        "flags": {
          "core": {
            "sourceId": "Compendium.pf1.items.fdfdwpuaqjjudyeo"
          }
        },
        "img": "systems/pf1/icons/items/inventory/dice.jpg",
        "effects": [],
        "labels": {
          "equipped": "<i class=\"fas fa-times\"></i>",
          "carried": "<i class=\"fas fa-check\"></i>",
          "identified": "<i class=\"fas fa-check\"></i>"
        },
        "hasAttack": false,
        "hasMultiAttack": false,
        "hasDamage": false,
        "hasAction": false,
        "showUnidentifiedData": false,
        "isStack": false,
        "isCharged": false,
        "price": 1,
        "empty": false,
        "totalWeight": 1,
        "units": "lbs"
      },
      {
        "_id": "zompehbhvegvncwu",
        "name": "Manacles, Common",
        "permission": {
          "default": 0,
          "T9i9xVjdkHeFZC72": 3
        },
        "type": "loot",
        "data": {
          "subType": "gear",
          "description": {
            "value": "<p class=\"source\"><strong>Source</strong>: <a title=\"PZO1110\" href=\"http://www.amazon.com/gp/product/1601251505/ref=as_li_qf_sp_asin_il_tl?ie=UTF8&amp;camp=1789&amp;creative=9325&amp;creativeASIN=1601251505&amp;linkCode=as2&amp;tag=httpwwwd20pfs-20\" target=\"_blank\" rel=\"noopener\">PZO1110</a></p>\n<p>Manacles can bind a Medium creature. A manacled creature can use the <a href=\"https://www.d20pfsrd.com/skills/escape-artist\">Escape Artist</a> skill to slip free (DC 30, or DC 35 for masterwork manacles). Breaking the manacles requires a <a href=\"https://www.d20pfsrd.com/basics-ability-scores/ability-scores#TOC-Strength-Str-\">Strength</a> check (DC 26, or DC 28 for masterwork manacles). Manacles have <a href=\"https://www.d20pfsrd.com/equipment/damaging-objects#TOC-Hardness\">hardness</a> 10 and 10 <a href=\"https://www.d20pfsrd.com/gamemastering/combat#TOC-Hit-Points\">hit points</a>.</p>\n<p>Most manacles have locks; add the cost of the lock you want to the cost of the manacles.</p>\n<p>For the same cost, you can buy manacles for a Small creature. For a Large creature, manacles cost 10 times the indicated amount, and for a Huge creature, 100 times the indicated amount. Gargantuan, Colossal, Tiny, Diminutive, and Fine creatures can be held only by specially made manacles, which cost at least 100 times the indicated amount.</p>\n<p><strong>Expanded Information</strong></p>\n<p class=\"source\"><strong>Source</strong>: <a href=\"http://amzn.to/2mhZQW1\" target=\"_blank\" rel=\"noopener\">PZO9293</a></p>\n<p><strong>Fetters</strong>: These manacles are specifically designed to fit around the ankles, and use the same rules for breaking, escape, and cost relative to size. A creature in fetters is entangled and can move at only half speed. In addition, a fettered creature must succeed at a DC 15 <a href=\"https://www.d20pfsrd.com/skills/acrobatics\">Acrobatics</a> check to move more than its (reduced) speed in a round. If it fails the check by 5 or more, the creature falls prone.</p>\n<p><strong>Frontal Restraint</strong>: A creature whose wrists are bound with manacles can wield only one melee weapon or shield in combat (the weapon may be a two-handed weapon). It cannot make use of ranged weapons, except for crossbows (but even these cannot be reloaded by the bound creature). Any attack the creature makes while manacled takes a -4 penalty. The creature can attempt skill checks using its hands, but at a -5 penalty (-15 on Disable Device checks to pick the lock of manacles the creature is wearing).</p>\n<p><strong>Rear Restraint</strong>: Manacles might be employed to keep a creature's hands behind its back. In such cases, the creature cannot use its hands to effectively employ any weapon or shield. The creature can attempt to use its hands to perform a skill, but at a -10 penalty (-25 on Disable Device checks to pick the lock of manacles the creature is wearing). While manacled, a creature can attempt to flip its arms beneath its legs, bringing its hands in front of itself. This requires a successful DC 25 Escape Artist check (a separate Escape Artist check is then required to escape the manacles).</p>\n<p><strong>Restraining Two Individuals</strong>: Two creatures might share one set of manacles. While manacled together, the manacled individuals must remain adjacent to one another. If they are not working together, they are both treated as grappled. If they are working together, they can move together in the same round (using the movement speed of the slower creature). A manacled creature can forfeit its turn during combat to mimic the other manacled creature's movements, allowing that creature to act as if unrestrained.</p>",
            "chat": "",
            "unidentified": ""
          },
          "tags": [],
          "quantity": 1,
          "weight": 2,
          "price": 15,
          "identified": true,
          "hp": {
            "max": 10,
            "value": 10
          },
          "hardness": 0,
          "carried": true,
          "unidentified": {
            "price": 0,
            "name": ""
          },
          "identifiedName": "Manacles, Common",
          "cl": 0,
          "aura": {
            "custom": false,
            "school": ""
          },
          "links": {
            "children": []
          },
          "damage": {
            "parts": [],
            "critParts": [],
            "nonCritParts": []
          },
          "attackParts": [],
          "conditionals": [],
          "contextNotes": [],
          "weightConverted": 2,
          "weightUnits": "lbs",
          "priceUnits": "gp"
        },
        "flags": {
          "core": {
            "sourceId": "Compendium.pf1.items.zompehbhvegvncwu"
          }
        },
        "img": "systems/pf1/icons/items/inventory/dice.jpg",
        "effects": [],
        "labels": {
          "equipped": "<i class=\"fas fa-times\"></i>",
          "carried": "<i class=\"fas fa-check\"></i>",
          "identified": "<i class=\"fas fa-check\"></i>"
        },
        "hasAttack": false,
        "hasMultiAttack": false,
        "hasDamage": false,
        "hasAction": false,
        "showUnidentifiedData": false,
        "isStack": false,
        "isCharged": false,
        "price": 15,
        "empty": false,
        "totalWeight": 2,
        "units": "lbs"
      },
      {
        "_id": "ucgkbtqiybhyiwwk",
        "name": "Pouch, Spell Component",
        "permission": {
          "default": 0,
          "T9i9xVjdkHeFZC72": 3
        },
        "type": "loot",
        "data": {
          "subType": "gear",
          "description": {
            "value": "\r\n<p><b>Price</b> 5 gp; <b>Weight</b> 2 lbs.</p>\r\n<p>A spellcaster with a spell component pouch is assumed to have all the material <a href=\"https://www.d20pfsrd.com/magic#TOC-Components\">components</a> and focuses needed for spellcasting, except for <a href=\"https://www.d20pfsrd.com/magic#TOC-Components\">components</a> that have a specific cost, divine focuses, and focuses that wouldn't fit in a pouch. Most spell component pouches are waterproof and can be strung onto a belt or bandolier.</p>\r\n\r\n",
            "chat": "",
            "unidentified": ""
          },
          "tags": [],
          "quantity": 1,
          "weight": 2,
          "price": 5,
          "identified": true,
          "hp": {
            "max": 10,
            "value": 10
          },
          "hardness": 0,
          "carried": true,
          "unidentified": {
            "price": 0,
            "name": ""
          },
          "identifiedName": "Pouch, Spell Component",
          "cl": 0,
          "aura": {
            "custom": false,
            "school": ""
          },
          "links": {
            "children": []
          },
          "damage": {
            "parts": []
          },
          "weightConverted": 2,
          "weightUnits": "lbs",
          "priceUnits": "gp"
        },
        "flags": {
          "core": {
            "sourceId": "Compendium.pf1.items.ucgkbtqiybhyiwwk"
          }
        },
        "img": "systems/pf1/icons/items/inventory/pouch-sealed.jpg",
        "effects": [],
        "labels": {
          "equipped": "<i class=\"fas fa-times\"></i>",
          "carried": "<i class=\"fas fa-check\"></i>",
          "identified": "<i class=\"fas fa-check\"></i>"
        },
        "hasAttack": false,
        "hasMultiAttack": false,
        "hasDamage": false,
        "hasAction": false,
        "showUnidentifiedData": false,
        "isStack": false,
        "isCharged": false,
        "price": 5,
        "empty": false,
        "totalWeight": 2,
        "units": "lbs"
      },
      {
        "_id": "s5KkeKPLnneb0WR4",
        "name": "Holy symbol (Wood)",
        "permission": {
          "default": 0,
          "tbXbnTpRAtmE0QDr": 3
        },
        "type": "loot",
        "data": {
          "subType": "gear",
          "description": {
            "value": "<p style=\"box-sizing: border-box; user-select: text; color: #191813; font-size: 13px;\">Source&nbsp;<a style=\"box-sizing: border-box; user-select: text;\" href=\"http://paizo.com/products/btpy8tmc?Pathfinder-Roleplaying-Game-Ultimate-Equipment\" target=\"_blank\" rel=\"noopener\">Ultimate Equipment pg. 57</a><br style=\"box-sizing: border-box; user-select: text;\">Price&nbsp;100 gp (gold), 5 gp (iron), 500 gp (platinum), 25 gp (silver), 1 gp (wooden);&nbsp;Weight&nbsp;1 lb. (gold), 1 lb. (iron), 1 lb. (platinum), 1 lb. (silver), — (wooden)</p>\n<h3 style=\"box-sizing: border-box; user-select: text; color: #191813;\">Description</h3>\n<p style=\"box-sizing: border-box; user-select: text; color: #191813; font-size: 13px;\">A holy symbol focuses positive energy and is used by good clerics and paladins (or by neutral clerics who want to cast good spells or channel positive energy). Each religion has its own holy symbol. The material used to make the holy symbol has no effect on its powers, though a religion may place special significance on a particular material.<br style=\"box-sizing: border-box; user-select: text;\"><br style=\"box-sizing: border-box; user-select: text;\">Unholy Symbols: An unholy symbol is like a holy symbol except that it focuses negative energy and is used by evil clerics (or by neutral clerics who want to cast evil spells or channel negative energy).</p>",
            "chat": "",
            "unidentified": ""
          },
          "tags": [],
          "quantity": 1,
          "weight": 0,
          "price": 1,
          "identified": true,
          "hp": {
            "max": 10,
            "value": 10
          },
          "hardness": 0,
          "carried": true,
          "unidentified": {
            "price": 0,
            "name": ""
          },
          "identifiedName": "Holy symbol (Wood)",
          "cl": 0,
          "aura": {
            "custom": false,
            "school": ""
          },
          "links": {
            "children": []
          },
          "damage": {
            "parts": []
          },
          "weightConverted": 0,
          "weightUnits": "lbs",
          "priceUnits": "gp"
        },
        "flags": {
          "core": {
            "sourceId": "Compendium.pf1.items.s5KkeKPLnneb0WR4"
          }
        },
        "img": "systems/pf1/icons/items/inventory/dice.jpg",
        "effects": [],
        "labels": {
          "equipped": "<i class=\"fas fa-times\"></i>",
          "carried": "<i class=\"fas fa-check\"></i>",
          "identified": "<i class=\"fas fa-check\"></i>"
        },
        "hasAttack": false,
        "hasMultiAttack": false,
        "hasDamage": false,
        "hasAction": false,
        "showUnidentifiedData": false,
        "isStack": false,
        "isCharged": false,
        "price": 1,
        "empty": false,
        "totalWeight": 0,
        "units": "lbs"
      }
    ],
    "maxWeight": null,
    "weightReduction": 0,
    "baseWeight": 0,
    "sellMultiplier": 0.5,
    "currency": {
      "pp": 0,
      "gp": 0,
      "sp": 0,
      "cp": 0
    },
    "basePrice": 0,
    "damage": {
      "parts": [],
      "critParts": [],
      "nonCritParts": []
    }
  },
  "flags": {},
  "img": "icons/containers/chest/chest-reinforced-steel-red.webp",
  "effects": []
}