{
  "_id": "tbilvwrvynmifyaq",
  "name": "Kit, Gravedigger's",
  "permission": {
    "default": 0
  },
  "type": "loot",
  "data": {
    "description": {
      "value": "\r\n<p class=\"source\"><b>Source</b>: <a title=\"PZO9444\" href=\"http://www.amazon.com/gp/product/1601256043/ref=as_li_qf_sp_asin_il_tl?ie=UTF8&amp;camp=1789&amp;creative=9325&amp;creativeASIN=1601256043&amp;linkCode=as2&amp;tag=httpwwwd20pfs-20&amp;linkId=RI56HP6FPZYWBQMM\" target=\"_blank\" rel=\"noopener\">USH</a></p>\r\n<p><b>Price</b> 265 gp; <b>Weight</b> 22 lbs.</p>\r\n<p>This kit provides all the tools necessary to seal a <a href=\"https://www.d20pfsrd.com/equipment/goods-and-services/containers-bags-boxes-more#TOC-Coffin\">coffin</a> or other burial container and ensure that it stays closed. It includes 20 feet of <a href=\"https://www.d20pfsrd.com/equipment/goods-and-services/hunting-camping-survival-geaR/#TOC-Chain\">chain</a>, a good <a href=\"https://www.d20pfsrd.com/equipment/goods-and-services/hunting-camping-survival-geaR/#TOC-Lock\">lock</a>, 1 dose of <a href=\"https://www.d20pfsrd.com/equipment/goods-and-services/herbs-oils-other-substances#TOC-Alchemical-Cement\">alchemical cement</a>, a folding shovel, a <a href=\"https://www.d20pfsrd.com/magic-items/wondrous-items/wondrous-items/r-z/stubborn-nail\">stubborn nail</a>, and a leather-bound copy of a <a href=\"https://www.d20pfsrd.com/equipment/goods-and-services/toys-games-puzzles#TOC-Holy-Text\">holy text</a>.</p>\r\n\r\n",
      "chat": "",
      "unidentified": ""
    },
    "tags": [],
    "quantity": 1,
    "weight": 22,
    "price": 265,
    "identified": true,
    "hp": {
      "max": 10,
      "value": 10
    },
    "hardness": 0,
    "carried": true,
    "unidentified": {
      "price": 0,
      "name": ""
    },
    "identifiedName": "",
    "cl": 0,
    "aura": {
      "custom": false,
      "school": ""
    },
    "changes": [],
    "changeFlags": {
      "loseDexToAC": false,
      "noStr": false,
      "noDex": false,
      "oneInt": false,
      "oneWis": false,
      "oneCha": false,
      "noEncumbrance": false,
      "mediumArmorFullSpeed": false,
      "heavyArmorFullSpeed": false
    },
    "contextNotes": [],
    "links": {
      "children": []
    },
    "tag": "",
    "useCustomTag": false,
    "subType": "gear",
    "equipped": false,
    "damage": {
      "parts": []
    }
  },
  "flags": {},
  "img": "systems/pf1/icons/items/inventory/dice.jpg",
  "effects": []
}