{
  "_id": "khjlezdjpmtutbfr",
  "name": "Kit, Leeching",
  "permission": {
    "default": 0
  },
  "type": "loot",
  "data": {
    "description": {
      "value": "\r\n<p><b>Price</b> 5 gp; <b>Weight</b> 5 lbs.</p>\r\n<p>This sturdy ceramic jar has a heavy lid with a few tiny holes to let air in. It is normally half-filled with water and contains four adult leeches, each about 6 inches long. A leeching kit grants you a +2 <a href=\"https://www.d20pfsrd.com/basics-ability-scores/glossary#TOC-Circumstance-Bonus\">circumstance bonus</a> on <a href=\"https://www.d20pfsrd.com/skills/heal\">Heal</a> checks to treat <a href=\"https://www.d20pfsrd.com/gamemastering/afflictions/poison\">poison</a>. Used for medicinal bloodletting, a <a href=\"https://www.d20pfsrd.com/bestiary/monster-listings/vermin/leech\">leech</a> can survive for 6 months between feedings.</p>\r\n\r\n",
      "chat": "",
      "unidentified": ""
    },
    "tags": [],
    "quantity": 1,
    "weight": 5,
    "price": 5,
    "identified": true,
    "hp": {
      "max": 10,
      "value": 10
    },
    "hardness": 0,
    "carried": true,
    "unidentified": {
      "price": 0,
      "name": ""
    },
    "identifiedName": "",
    "cl": 0,
    "aura": {
      "custom": false,
      "school": ""
    },
    "changes": [],
    "changeFlags": {
      "loseDexToAC": false,
      "noStr": false,
      "noDex": false,
      "oneInt": false,
      "oneWis": false,
      "oneCha": false,
      "noEncumbrance": false,
      "mediumArmorFullSpeed": false,
      "heavyArmorFullSpeed": false
    },
    "contextNotes": [],
    "links": {
      "children": []
    },
    "tag": "",
    "useCustomTag": false,
    "subType": "gear",
    "equipped": false,
    "damage": {
      "parts": []
    }
  },
  "flags": {},
  "img": "systems/pf1/icons/items/inventory/dice.jpg",
  "effects": []
}