{
  "_id": "Ueae6c2qqJJGpncA",
  "name": "Kit, Mess",
  "permission": {
    "default": 0
  },
  "type": "container",
  "data": {
    "description": {
      "value": "<p><span style=\"color: #191813; font-size: 13px;\">This kit includes a plate, bowl, cup, fork, knife, and spoon, made of wood, horn, or tin. Each item has a handle or small hole, and can be tied together using the included leather cord.</span></p>",
      "chat": "",
      "unidentified": ""
    },
    "tags": [],
    "quantity": 1,
    "weight": 1,
    "price": 0.2,
    "identified": true,
    "hp": {
      "max": 10,
      "value": 10
    },
    "hardness": 0,
    "carried": true,
    "unidentified": {
      "price": 0,
      "name": "",
      "basePrice": 0
    },
    "identifiedName": "Kit, Mess",
    "cl": 0,
    "aura": {
      "custom": false,
      "school": ""
    },
    "inventoryItems": [
      {
        "name": "Plate",
        "type": "loot",
        "data": {
          "subType": "tradeGoods",
          "description": {
            "value": "",
            "chat": "",
            "unidentified": ""
          },
          "tags": [],
          "quantity": 1,
          "weight": 0.4,
          "price": 0,
          "identified": true,
          "hp": {
            "max": 10,
            "value": 10
          },
          "hardness": 0,
          "carried": true,
          "unidentified": {
            "price": 0,
            "name": ""
          },
          "identifiedName": "Plate",
          "cl": 0,
          "aura": {
            "custom": false,
            "school": ""
          },
          "links": {
            "children": []
          },
          "typeName": "Trade Good",
          "weightConverted": 0.4,
          "weightUnits": "lbs",
          "priceUnits": "gp",
          "damage": {
            "parts": [],
            "critParts": [],
            "nonCritParts": []
          },
          "attackParts": [],
          "conditionals": [],
          "contextNotes": []
        },
        "_id": "t95qxxcbkgau4zwa",
        "img": "systems/pf1/icons/items/inventory/dice.jpg",
        "labels": {
          "equipped": "<i class=\"fas fa-times\"></i>",
          "carried": "<i class=\"fas fa-check\"></i>",
          "identified": "<i class=\"fas fa-check\"></i>"
        },
        "hasAttack": false,
        "hasMultiAttack": false,
        "hasDamage": false,
        "hasAction": false,
        "showUnidentifiedData": false,
        "isStack": false,
        "isCharged": false,
        "price": 0,
        "empty": false,
        "totalWeight": 0.4,
        "units": "lbs"
      },
      {
        "name": "Bowl",
        "type": "loot",
        "data": {
          "subType": "tradeGoods",
          "description": {
            "value": "",
            "chat": "",
            "unidentified": ""
          },
          "tags": [],
          "quantity": 1,
          "weight": 0.2,
          "price": 0,
          "identified": true,
          "hp": {
            "max": 10,
            "value": 10
          },
          "hardness": 0,
          "carried": true,
          "unidentified": {
            "price": 0,
            "name": ""
          },
          "identifiedName": "Bowl",
          "cl": 0,
          "aura": {
            "custom": false,
            "school": ""
          },
          "links": {
            "children": []
          },
          "typeName": "Trade Good",
          "weightConverted": 0.2,
          "weightUnits": "lbs",
          "priceUnits": "gp",
          "damage": {
            "parts": [],
            "critParts": [],
            "nonCritParts": []
          },
          "attackParts": [],
          "conditionals": [],
          "contextNotes": []
        },
        "img": "icons/containers/kitchenware/bowl-clay-brown.webp",
        "labels": {
          "equipped": "<i class=\"fas fa-times\"></i>",
          "carried": "<i class=\"fas fa-check\"></i>",
          "identified": "<i class=\"fas fa-check\"></i>"
        },
        "hasAttack": false,
        "hasMultiAttack": false,
        "hasDamage": false,
        "hasAction": false,
        "showUnidentifiedData": false,
        "isStack": false,
        "isCharged": false,
        "price": 0,
        "empty": false,
        "totalWeight": 0.2,
        "units": "lbs",
        "_id": "q4asw26dyrjavece"
      },
      {
        "name": "Fork",
        "type": "loot",
        "data": {
          "subType": "tradeGoods",
          "description": {
            "value": "",
            "chat": "",
            "unidentified": ""
          },
          "tags": [],
          "quantity": 1,
          "weight": 0.1,
          "price": 0,
          "identified": true,
          "hp": {
            "max": 10,
            "value": 10
          },
          "hardness": 0,
          "carried": true,
          "unidentified": {
            "price": 0,
            "name": ""
          },
          "identifiedName": "Fork",
          "cl": 0,
          "aura": {
            "custom": false,
            "school": ""
          },
          "links": {
            "children": []
          },
          "typeName": "Trade Good",
          "weightConverted": 0.1,
          "weightUnits": "lbs",
          "priceUnits": "gp",
          "damage": {
            "parts": [],
            "critParts": [],
            "nonCritParts": []
          },
          "attackParts": [],
          "conditionals": [],
          "contextNotes": []
        },
        "img": "icons/tools/cooking/fork-steel-tan.webp",
        "labels": {
          "equipped": "<i class=\"fas fa-times\"></i>",
          "carried": "<i class=\"fas fa-check\"></i>",
          "identified": "<i class=\"fas fa-check\"></i>"
        },
        "hasAttack": false,
        "hasMultiAttack": false,
        "hasDamage": false,
        "hasAction": false,
        "showUnidentifiedData": false,
        "isStack": false,
        "isCharged": false,
        "price": 0,
        "empty": false,
        "totalWeight": 0.1,
        "units": "lbs",
        "_id": "e1r0sdabl9awmxid"
      },
      {
        "name": "Knife",
        "type": "loot",
        "data": {
          "subType": "tradeGoods",
          "description": {
            "value": "",
            "chat": "",
            "unidentified": ""
          },
          "tags": [],
          "quantity": 1,
          "weight": 0.1,
          "price": 0,
          "identified": true,
          "hp": {
            "max": 10,
            "value": 10
          },
          "hardness": 0,
          "carried": true,
          "unidentified": {
            "price": 0,
            "name": ""
          },
          "identifiedName": "Knife",
          "cl": 0,
          "aura": {
            "custom": false,
            "school": ""
          },
          "links": {
            "children": []
          },
          "typeName": "Trade Good",
          "weightConverted": 0.1,
          "weightUnits": "lbs",
          "priceUnits": "gp",
          "damage": {
            "parts": [],
            "critParts": [],
            "nonCritParts": []
          },
          "attackParts": [],
          "conditionals": [],
          "contextNotes": []
        },
        "img": "icons/tools/cooking/knife-chef-steel-brown.webp",
        "labels": {
          "equipped": "<i class=\"fas fa-times\"></i>",
          "carried": "<i class=\"fas fa-check\"></i>",
          "identified": "<i class=\"fas fa-check\"></i>"
        },
        "hasAttack": false,
        "hasMultiAttack": false,
        "hasDamage": false,
        "hasAction": false,
        "showUnidentifiedData": false,
        "isStack": false,
        "isCharged": false,
        "price": 0,
        "empty": false,
        "totalWeight": 0.1,
        "units": "lbs",
        "_id": "swpiosj6uadvp8xy"
      },
      {
        "name": "Spoon",
        "type": "loot",
        "data": {
          "subType": "tradeGoods",
          "description": {
            "value": "",
            "chat": "",
            "unidentified": ""
          },
          "tags": [],
          "quantity": 1,
          "weight": 0.1,
          "price": 0,
          "identified": true,
          "hp": {
            "max": 10,
            "value": 10
          },
          "hardness": 0,
          "carried": true,
          "unidentified": {
            "price": 0,
            "name": ""
          },
          "identifiedName": "Spoon",
          "cl": 0,
          "aura": {
            "custom": false,
            "school": ""
          },
          "links": {
            "children": []
          },
          "typeName": "Trade Good",
          "weightConverted": 0.1,
          "weightUnits": "lbs",
          "priceUnits": "gp",
          "damage": {
            "parts": [],
            "critParts": [],
            "nonCritParts": []
          },
          "attackParts": [],
          "conditionals": [],
          "contextNotes": []
        },
        "img": "icons/tools/cooking/soup-ladle.webp",
        "labels": {
          "equipped": "<i class=\"fas fa-times\"></i>",
          "carried": "<i class=\"fas fa-check\"></i>",
          "identified": "<i class=\"fas fa-check\"></i>"
        },
        "hasAttack": false,
        "hasMultiAttack": false,
        "hasDamage": false,
        "hasAction": false,
        "showUnidentifiedData": false,
        "isStack": false,
        "isCharged": false,
        "price": 0,
        "empty": false,
        "totalWeight": 0.1,
        "units": "lbs",
        "_id": "pxs9209y5ybsemki"
      }
    ],
    "maxWeight": null,
    "weightReduction": 0,
    "baseWeight": 0.1,
    "sellMultiplier": 0.5,
    "currency": {
      "pp": 0,
      "gp": 0,
      "sp": 0,
      "cp": 0
    },
    "basePrice": 0.2,
    "damage": {
      "parts": [],
      "critParts": [],
      "nonCritParts": []
    }
  },
  "flags": {},
  "img": "icons/containers/chest/chest-simple-box-red.webp",
  "effects": []
}