{
  "_id": "bovkbbpfptslfhvz",
  "name": "Musk, Harpy",
  "permission": {
    "default": 0
  },
  "type": "loot",
  "data": {
    "description": {
      "value": "\r\n<p class=\"source\"><b>Source</b> RotRPG</p>\r\n<p>The reek of this doubtful cure-all proves useful at scaring off <a href=\"https://www.d20pfsrd.com/bestiary/monster-listings/humanoids/goblin\">goblins</a>. If smeared on a surface or used as a thrown weapon, the musk fills a 30-foot area with the stink of <a href=\"https://www.d20pfsrd.com/bestiary/monster-listings/monstrous-humanoids/harpy\">harpies</a> for 1 minute. Any <a href=\"https://www.d20pfsrd.com/bestiary/monster-listings/humanoids/goblin\">goblin</a> who enters the area must make a DC 14 <a href=\"https://www.d20pfsrd.com/gamemastering/combat#TOC-Will\">Will</a> save or be <a href=\"https://www.d20pfsrd.com/gamemastering/conditions#TOC-Shaken\">shaken</a> for 1 minute.</p>\r\n<h3 style=\"margin-top: 30px;border-bottom-style: solid;border-bottom-width: thin\"><span id=\"Alchemical_Reagents\"><a name=\"TOC-Alchemical-Reagents\"></a>Alchemical Reagents</span></h3>\r\n",
      "chat": "",
      "unidentified": ""
    },
    "tags": [],
    "quantity": 1,
    "weight": 0,
    "price": 2,
    "identified": true,
    "hp": {
      "max": 10,
      "value": 10
    },
    "hardness": 0,
    "carried": true,
    "unidentified": {
      "price": 0,
      "name": ""
    },
    "identifiedName": "",
    "cl": 0,
    "aura": {
      "custom": false,
      "school": ""
    },
    "changes": [],
    "changeFlags": {
      "loseDexToAC": false,
      "noStr": false,
      "noDex": false,
      "oneInt": false,
      "oneWis": false,
      "oneCha": false,
      "noEncumbrance": false,
      "mediumArmorFullSpeed": false,
      "heavyArmorFullSpeed": false
    },
    "contextNotes": [],
    "links": {
      "children": []
    },
    "tag": "",
    "useCustomTag": false,
    "subType": "gear",
    "equipped": false,
    "damage": {
      "parts": []
    }
  },
  "flags": {},
  "img": "systems/pf1/icons/items/inventory/dice.jpg",
  "effects": []
}