{
  "_id": "sxtjnsdsrkkdqtxc",
  "name": "Orrery",
  "permission": {
    "default": 0
  },
  "type": "loot",
  "data": {
    "description": {
      "value": "\r\n<p class=\"source\"><b>Source</b>: <a href=\"http://www.amazon.com/gp/product/1601256744/ref=as_li_qf_sp_asin_il_tl?ie=UTF8&amp;camp=1789&amp;creative=9325&amp;creativeASIN=1601256744&amp;linkCode=as2&amp;tag=httpwwwd20pfs-20&amp;linkId=4CUCLPOLIRC4OYCF\" target=\"_blank\" rel=\"noopener\">PZO9449</a></p>\r\n<p><b>Price</b> 100-2,000 gp; <b>Weight</b> 2-12 lbs.</p>\r\n<p>This complex mechanism simulates the angles and relative distances between one or more bodies in a solar system in relation to the system's star with marks or spheres on moving gears or arms. Anyone consulting an orrery gains a +2 circumstance bonus on <a href=\"https://www.d20pfsrd.com/skills/knowledge\">Knowledge</a> (geography) checks involving bodies it models and on Survival checks to navigate the void of space. An orrery can be used in combination with a sextant on a clear night to determine the time on any of the stellar bodies it models. Any orrery can be used as a focus component for the augury spell in place of that spell's normal focus.</p>\r\n<p>Orreries come in many shapes and sizes and with a variety of functions in mind.</p>\r\n<ul>\r\n<li>A tellurion models a single planet and any moons it may have.</li>\r\n<li>A standard orrery tracks the inner planets of a system and their moons.</li>\r\n<li>A grand orrery tracks all the known planets of a system and their moons.</li>\r\n<li>A calculating orrery is an orrery that indicates with rotating numerals on each arm the current distance between each body and its star (or its planet, in the case of moons), increasing the circumstance bonus on relevant skill checks to +4.</li>\r\n</ul>\r\n\r\n",
      "chat": "",
      "unidentified": ""
    },
    "tags": [],
    "quantity": 1,
    "weight": 2,
    "price": 100,
    "identified": true,
    "hp": {
      "max": 10,
      "value": 10
    },
    "hardness": 0,
    "carried": true,
    "unidentified": {
      "price": 0,
      "name": ""
    },
    "identifiedName": "",
    "cl": 0,
    "aura": {
      "custom": false,
      "school": ""
    },
    "changes": [],
    "changeFlags": {
      "loseDexToAC": false,
      "noStr": false,
      "noDex": false,
      "oneInt": false,
      "oneWis": false,
      "oneCha": false,
      "noEncumbrance": false,
      "mediumArmorFullSpeed": false,
      "heavyArmorFullSpeed": false
    },
    "contextNotes": [],
    "links": {
      "children": []
    },
    "tag": "",
    "useCustomTag": false,
    "subType": "gear",
    "equipped": false,
    "damage": {
      "parts": []
    }
  },
  "flags": {},
  "img": "systems/pf1/icons/items/inventory/dice.jpg",
  "effects": []
}