{
  "_id": "PXV6MMSKcxqCEv4d",
  "name": "Outfit, Squire's",
  "permission": {
    "default": 0
  },
  "type": "equipment",
  "data": {
    "description": {
      "value": "<p class=\"source\" style=\"box-sizing: border-box; user-select: text; color: #191813; font-size: 13px;\"><strong style=\"box-sizing: border-box; user-select: text;\">Source</strong>&nbsp;<a style=\"box-sizing: border-box; user-select: text;\" href=\"http://amzn.to/2eT3m9D\" target=\"_blank\" rel=\"noopener\">PPZO94102</a></p>\n<p style=\"box-sizing: border-box; user-select: text; color: #191813; font-size: 13px;\">This outfit includes heavy woolen pants, a tunic, leather boots, a belt, sturdy gloves, a cap, and a heavy&nbsp;<a style=\"box-sizing: border-box; user-select: text;\" href=\"https://www.d20pfsrd.com/equipment/goods-and-services/containers-bags-boxes-more#TOC-Tabard\">tabard</a>&nbsp;bearing the colors or sigil of a noble house or organization. Many organizations provide new squires this outfit for free, with the expectation they wear it during their duties.</p>",
      "chat": "",
      "unidentified": ""
    },
    "tags": [],
    "quantity": 1,
    "weight": 8,
    "price": 5,
    "identified": true,
    "hp": {
      "max": 10,
      "value": 10
    },
    "hardness": 0,
    "carried": true,
    "unidentified": {
      "price": 0,
      "name": ""
    },
    "identifiedName": "Outfit, Squire's",
    "cl": 0,
    "aura": {
      "custom": false,
      "school": ""
    },
    "activation": {
      "cost": null,
      "type": ""
    },
    "unchainedAction": {
      "activation": {
        "cost": 1,
        "type": ""
      }
    },
    "duration": {
      "value": null,
      "units": ""
    },
    "target": {
      "value": ""
    },
    "range": {
      "value": null,
      "units": "",
      "maxIncrements": 1,
      "minValue": null,
      "minUnits": ""
    },
    "uses": {
      "value": 0,
      "max": 0,
      "per": null,
      "autoDeductCharges": true,
      "autoDeductChargesCost": "1"
    },
    "changes": [],
    "changeFlags": {
      "loseDexToAC": false,
      "noStr": false,
      "noDex": false,
      "oneInt": false,
      "oneWis": false,
      "oneCha": false,
      "noEncumbrance": false,
      "mediumArmorFullSpeed": false,
      "heavyArmorFullSpeed": false
    },
    "contextNotes": [],
    "measureTemplate": {
      "type": "",
      "size": "",
      "overrideColor": false,
      "customColor": "",
      "overrideTexture": false,
      "customTexture": ""
    },
    "attackName": "",
    "actionType": null,
    "attackBonus": "",
    "critConfirmBonus": "",
    "damage": {
      "parts": [],
      "critParts": [],
      "nonCritParts": []
    },
    "attackParts": [],
    "formula": "",
    "ability": {
      "attack": null,
      "damage": null,
      "damageMult": 1,
      "critRange": 20,
      "critMult": 2
    },
    "save": {
      "dc": 0,
      "type": "",
      "description": ""
    },
    "effectNotes": "",
    "attackNotes": "",
    "soundEffect": "",
    "links": {
      "children": [],
      "charges": []
    },
    "tag": "",
    "useCustomTag": false,
    "equipped": true,
    "equipmentType": "misc",
    "equipmentSubtype": "clothing",
    "armor": {
      "value": 0,
      "dex": null,
      "acp": 0,
      "enh": 0
    },
    "spellFailure": 0,
    "slot": "body",
    "masterwork": false,
    "size": "med",
    "broken": false,
    "nonlethal": false,
    "attack": {
      "parts": []
    }
  },
  "flags": {},
  "img": "systems/pf1/icons/items/equipment/belt-buckle.jpg",
  "effects": []
}