{
  "_id": "aybfdqdtalbvspne",
  "name": "Paste, Paper Wall",
  "permission": {
    "default": 0
  },
  "type": "loot",
  "data": {
    "description": {
      "value": "\r\n<p><b>Price</b> 10 gp; <b>Weight</b> 2 lb.</p>\r\n<p>This jar of thick, gritty paste is made from coarsely ground plant matter, weak epoxy, and <a href=\"https://www.d20pfsrd.com/bestiary/monster-listings/animals/bat/bat\">bat</a> guano. When exposed to air, the moldable substance quickly creates a thin, paper-like surface, which is ideal for creating false earthen walls. Creating a 5-foot-by-5-foot section of paper wall requires a <a href=\"https://www.d20pfsrd.com/gamemastering/combat#TOC-Full-Round-Actions\">full-round action</a>. Though this false wall is easy to punch through, it requires a successful DC 13 <a href=\"https://www.d20pfsrd.com/skills/perception\">Perception</a> check to identify the wall as a fake. If the creator of the paper wall spends an additional <a href=\"https://www.d20pfsrd.com/gamemastering/combat#TOC-Full-Round-Actions\">full-round action</a> disguising the wall with dirt and pebbles, the DC increases by 2.</p>\r\n<p><b>Create</b>: <a href=\"https://www.d20pfsrd.com/skills/craft\">Craft</a> (alchemy) DC 15</p>\r\n",
      "chat": "",
      "unidentified": ""
    },
    "tags": [],
    "quantity": 1,
    "weight": 2,
    "price": 10,
    "identified": true,
    "hp": {
      "max": 10,
      "value": 10
    },
    "hardness": 0,
    "carried": true,
    "unidentified": {
      "price": 0,
      "name": ""
    },
    "identifiedName": "",
    "cl": 0,
    "aura": {
      "custom": false,
      "school": ""
    },
    "changes": [],
    "changeFlags": {
      "loseDexToAC": false,
      "noStr": false,
      "noDex": false,
      "oneInt": false,
      "oneWis": false,
      "oneCha": false,
      "noEncumbrance": false,
      "mediumArmorFullSpeed": false,
      "heavyArmorFullSpeed": false
    },
    "contextNotes": [],
    "links": {
      "children": []
    },
    "tag": "",
    "useCustomTag": false,
    "subType": "gear",
    "equipped": false,
    "damage": {
      "parts": []
    }
  },
  "flags": {},
  "img": "systems/pf1/icons/items/inventory/dice.jpg",
  "effects": []
}