{
  "_id": "jdabbapyvsjyakhd",
  "name": "Pocket, Inside",
  "permission": {
    "default": 0
  },
  "type": "loot",
  "data": {
    "description": {
      "value": " \n<p><b>Price</b> 4 gp; <b>Weight</b> -</p> \n<p>This is an extra pocket sewn on the inside of a piece of clothing. You gain a +2 <a href=\"https://www.d20pfsrd.com/basics-ability-scores/glossary#TOC-Circumstance-Bonus\">circumstance bonus</a> on <a href=\"https://www.d20pfsrd.com/skills/sleight-of-hand\">Sleight of Hand</a> checks to conceal an item in an inside pocket. Detecting the compartment requires a successful DC 15 <a href=\"https://www.d20pfsrd.com/skills/perception\">Perception</a> check at minimum (DC 20 if empty), even if you aren't trained in <a href=\"https://www.d20pfsrd.com/skills/sleight-of-hand\">Sleight of Hand</a>.</p> \n<p>The inside pocket is 1 inch deep. Different styles open from the top or from the side, and some have button flaps to secure the contents.</p> \n",
      "chat": "",
      "unidentified": ""
    },
    "tags": [],
    "quantity": 1,
    "weight": 0,
    "price": 4,
    "identified": true,
    "hp": {
      "max": 10,
      "value": 10
    },
    "hardness": 0,
    "carried": true,
    "unidentified": {
      "price": 0,
      "name": ""
    },
    "identifiedName": "",
    "cl": 0,
    "aura": {
      "custom": false,
      "school": ""
    },
    "changes": [],
    "changeFlags": {
      "loseDexToAC": false,
      "noStr": false,
      "noDex": false,
      "oneInt": false,
      "oneWis": false,
      "oneCha": false,
      "noEncumbrance": false,
      "mediumArmorFullSpeed": false,
      "heavyArmorFullSpeed": false
    },
    "contextNotes": [],
    "links": {
      "children": []
    },
    "tag": "",
    "useCustomTag": false,
    "subType": "gear",
    "equipped": false,
    "damage": {
      "parts": []
    }
  },
  "flags": {},
  "img": "systems/pf1/icons/items/inventory/dice.jpg",
  "effects": []
}