{
  "_id": "apuawjnbeyococsw",
  "name": "Rations, Dwarven Trail",
  "permission": {
    "default": 0
  },
  "type": "loot",
  "data": {
    "description": {
      "value": "<h4><span id=\"Rations_Dwarven_Trail\"><a name=\"TOC-Rations-Dwarven-Trail\"></a>Rations, Dwarven Trail</span></h4>\r\n<p><b>Price</b> 2 gp; <b>Weight</b> 1-1/2 lbs.</p>\r\n<p>Dwarven trail rations consist of smoked sausages and salted meat, rounded out with hard biscuits and dried vegetables. If you are a dwarf who subsists on nothing but these rations for at least 1 week, you can hustle or make a forced march for an additional hour without ill effects, but cannot do both in the same day. This benefit lasts until you eat a meal other than the rations or go for a full day without eating a day's worth.</p>\r\n",
      "chat": "",
      "unidentified": ""
    },
    "tags": [],
    "quantity": 1,
    "weight": 1.5,
    "price": 2,
    "identified": true,
    "hp": {
      "max": 10,
      "value": 10
    },
    "hardness": 0,
    "carried": true,
    "unidentified": {
      "price": 0,
      "name": ""
    },
    "identifiedName": "Rations, Dwarven Trail",
    "cl": 0,
    "aura": {
      "custom": false,
      "school": ""
    },
    "changes": [],
    "changeFlags": {
      "loseDexToAC": false,
      "noStr": false,
      "noDex": false,
      "oneInt": false,
      "oneWis": false,
      "oneCha": false,
      "noEncumbrance": false,
      "mediumArmorFullSpeed": false,
      "heavyArmorFullSpeed": false
    },
    "contextNotes": [],
    "links": {
      "children": []
    },
    "tag": "",
    "useCustomTag": false,
    "subType": "gear",
    "equipped": false,
    "damage": {
      "parts": []
    }
  },
  "flags": {},
  "img": "systems/pf1/icons/items/inventory/meat.jpg",
  "effects": []
}