{
  "_id": "JfUAtXlsqXdbZsYJ",
  "name": "Stubborn nail",
  "permission": {
    "default": 0
  },
  "type": "loot",
  "data": {
    "description": {
      "value": "<p>Source&nbsp;<a href=\"http://paizo.com/products/btpy8tmc?Pathfinder-Roleplaying-Game-Ultimate-Equipment\" target=\"_blank\" rel=\"noopener\">Ultimate Equipment pg. 322</a><br>Aura&nbsp;faint abjuration;&nbsp;CL&nbsp;3rd<br>Slot&nbsp;none;&nbsp;Price&nbsp;100 gp;&nbsp;Weight&nbsp;1/2 lb.</p>\n<h3>Description</h3>\n<p>This adamantine piton is 6 inches long. As a standard action, the bearer may push the nail by hand into any non-living material, including metal, stone, or wood. The bearer may push it through more than one item at a time, so long as the total thickness is not greater than the length of the nail. Once pushed into place, the nail is held firmly as if it had been hammered there (a DC 20 Strength check to remove it), although the creature who put it there can remove it as a move action. Once removed, the nail leaves no hole or other sign of its presence. The nail can support 500 pounds. If used to hold a door shut, increase the break DC of the door by +2. If pressed into a lock, the lock cannot be opened until the nail is removed. Once removed, the nail loses all its powers and transforms into a nonmagical iron piton.</p>\n<h3>Construction</h3>\n<p>Requirements&nbsp;Craft Wondrous Item,&nbsp;arcane lock,&nbsp;mending;&nbsp;Cost&nbsp;50 gp</p>",
      "chat": "",
      "unidentified": ""
    },
    "tags": [],
    "quantity": 1,
    "weight": 0.5,
    "price": 100,
    "identified": true,
    "hp": {
      "max": 10,
      "value": 10
    },
    "hardness": 0,
    "carried": true,
    "unidentified": {
      "price": 0,
      "name": ""
    },
    "identifiedName": "Stubborn nail",
    "cl": 0,
    "aura": {
      "custom": false,
      "school": ""
    },
    "changes": [],
    "changeFlags": {
      "loseDexToAC": false,
      "noStr": false,
      "noDex": false,
      "oneInt": false,
      "oneWis": false,
      "oneCha": false,
      "noEncumbrance": false,
      "mediumArmorFullSpeed": false,
      "heavyArmorFullSpeed": false
    },
    "contextNotes": [],
    "links": {
      "children": []
    },
    "tag": "",
    "useCustomTag": false,
    "subType": "gear",
    "equipped": false,
    "damage": {
      "parts": []
    }
  },
  "flags": {},
  "img": "systems/pf1/icons/items/inventory/dice.jpg",
  "effects": []
}