{
  "_id": "UVcogC4TTpw881Be",
  "name": "Tangleburn bag",
  "permission": {
    "default": 0
  },
  "type": "loot",
  "data": {
    "description": {
      "value": "<p>Source&nbsp;<a href=\"http://paizo.com/products/btpy8tmc?Pathfinder-Roleplaying-Game-Ultimate-Equipment\" target=\"_blank\" rel=\"noopener\">Ultimate Equipment pg. 107</a><br>Price&nbsp;150 gp;&nbsp;Weight&nbsp;5 lbs.<br>Category&nbsp;Alchemical Weapons</p>\n<h3>Description</h3>\n<p>This sack contains tanglefoot bag materials and alchemical powders that burn at a high temperature. It functions like a tanglefoot bag, plus a direct hit on a creature deals 1d6 points of fire damage, and the creature must make a DC 20 Reflex save or catch on fire. If it catches on fire, for the next 2 rounds extinguishing the flames is a DC 25 Reflex save instead of a DC 15 save, and using water to extinguish the flames creates a burst of burning material equivalent to alchemist’s fire making a direct hit on the target (including splash damage). After the initial 2 rounds, the flames may be extinguished as normal. Crafting this item is a DC 30 Craft (alchemy) check.</p>\n<h3>Construction</h3>\n<p>Craft (Alchemy)&nbsp;DC 30</p>",
      "chat": "",
      "unidentified": ""
    },
    "tags": [],
    "quantity": 1,
    "weight": 5,
    "price": 150,
    "identified": true,
    "hp": {
      "max": 10,
      "value": 10
    },
    "hardness": 0,
    "carried": true,
    "unidentified": {
      "price": 0,
      "name": ""
    },
    "identifiedName": "Tangleburn bag",
    "cl": 0,
    "aura": {
      "custom": false,
      "school": ""
    },
    "changes": [],
    "changeFlags": {
      "loseDexToAC": false,
      "noStr": false,
      "noDex": false,
      "oneInt": false,
      "oneWis": false,
      "oneCha": false,
      "noEncumbrance": false,
      "mediumArmorFullSpeed": false,
      "heavyArmorFullSpeed": false
    },
    "contextNotes": [],
    "links": {
      "children": []
    },
    "tag": "",
    "useCustomTag": false,
    "subType": "gear",
    "equipped": false,
    "damage": {
      "parts": []
    }
  },
  "flags": {},
  "img": "systems/pf1/icons/items/inventory/dice.jpg",
  "effects": []
}