{
  "_id": "akgicrcsuznrhvkk",
  "name": "Thunderstone",
  "permission": {
    "default": 0
  },
  "type": "loot",
  "data": {
    "description": {
      "value": "\r\n<p class=\"source\"><b>Source</b> <a title=\"PZO1110\" href=\"http://www.amazon.com/gp/product/1601251505/ref=as_li_qf_sp_asin_il_tl?ie=UTF8&amp;camp=1789&amp;creative=9325&amp;creativeASIN=1601251505&amp;linkCode=as2&amp;tag=httpwwwd20pfs-20\" target=\"_blank\" rel=\"noopener\">PZO1110</a></p>\r\n<p>You can throw this stone as a ranged attack with a range increment of 20 feet. When it strikes a hard surface (or is struck hard), it creates a deafening bang that is treated as a sonic attack. Each creature within a 10-foot-radius spread must make a DC 15 <a href=\"https://www.d20pfsrd.com/gamemastering/combat#TOC-Fortitude\">Fortitude</a> save or be <a href=\"https://www.d20pfsrd.com/gamemastering/conditions#TOC-Deafened\">deafened</a> for 1 hour. A <a href=\"https://www.d20pfsrd.com/gamemastering/conditions#TOC-Deafened\">deafened</a> creature, in addition to the obvious effects, takes a -4 penalty on <a href=\"https://www.d20pfsrd.com/gamemastering/combat#TOC-Initiative\">initiative</a> and has a 20% chance to miscast and lose any spell with a verbal component that it tries to cast.</p>\r\n<p>Since you don't need to hit a specific target, you can simply aim at a particular 5-foot square. Treat the target square as AC 5.</p>\r\n<p class=\"header\">Alchemical Power Component</p>\r\n<p class=\"source\"><b>Source</b> <a title=\"PZO9410\" href=\"http://www.amazon.com/gp/product/1601252226/ref=as_li_qf_sp_asin_il_tl?ie=UTF8&amp;camp=1789&amp;creative=9325&amp;creativeASIN=1601252226&amp;linkCode=as2&amp;tag=httpwwwd20pfs-20\" target=\"_blank\" rel=\"noopener\">PZO9410</a></p>\r\n<p>While they are effective enough on their own, thunderstones have useful interactions with some spells.</p>\r\n<ul>\r\n<li><a class=\"spell\" href=\"https://www.d20pfsrd.com/magic/all-spells/a/alarm\">Alarm</a> (M): If cast as a mental alarm, you may have the spell activate a mental and audible alarm. If cast as an audible alarm, the alarm is as loud as a thunderstone and affects creatures in a 10-foot-radius spread as if a thunderstone had detonated there.</li>\r\n<li><a class=\"spell\" href=\"https://www.d20pfsrd.com/magic/all-spells/g/glyph-of-warding\">Glyph of Warding</a> (M): Creatures that fail their saves against a blast glyph are also <a href=\"https://www.d20pfsrd.com/gamemastering/conditions#TOC-Deafened\">deafened</a> as if by a thunderstone.</li>\r\n</ul>\r\n",
      "chat": "",
      "unidentified": ""
    },
    "tags": [],
    "quantity": 1,
    "weight": 1,
    "price": 30,
    "identified": true,
    "hp": {
      "max": 10,
      "value": 10
    },
    "hardness": 0,
    "carried": true,
    "unidentified": {
      "price": 0,
      "name": ""
    },
    "identifiedName": "",
    "cl": 0,
    "aura": {
      "custom": false,
      "school": ""
    },
    "changes": [],
    "changeFlags": {
      "loseDexToAC": false,
      "noStr": false,
      "noDex": false,
      "oneInt": false,
      "oneWis": false,
      "oneCha": false,
      "noEncumbrance": false,
      "mediumArmorFullSpeed": false,
      "heavyArmorFullSpeed": false
    },
    "contextNotes": [],
    "links": {
      "children": []
    },
    "tag": "",
    "useCustomTag": false,
    "subType": "gear",
    "equipped": false,
    "damage": {
      "parts": []
    }
  },
  "flags": {},
  "img": "systems/pf1/icons/items/inventory/dice.jpg",
  "effects": []
}