{
  "_id": "odlcdkydnmaatfhr",
  "name": "Tusk Blades",
  "permission": {
    "default": 0
  },
  "type": "loot",
  "data": {
    "description": {
      "value": "\r\n<p class=\"source\"><b>Source</b> <a href=\"http://www.amazon.com/gp/search/ref=as_li_qf_sp_sr_il?ie=UTF8&amp;amp;camp=1789&amp;amp;creative=9325&amp;amp;index=aps&amp;amp;keywords=Pathfinder%20Campaign%20Setting%3A%20Belkzen%2C%20Hold%20of%20the%20Orc%20Hordes&amp;amp;linkCode=as2&amp;amp;tag=httpwwwd20pfs-20&amp;amp;linkId=MU26YVXHNNL3F4EH\" target=\"_blank\" rel=\"noopener\">PCS:Orcs</a></p>\r\n<p>These metal caps must be specially fitted to a creature's horns or tusks; a blade reminiscent of a sword or axe head projects from each cap. If the creature makes a gore attack (including as part of a <a href=\"https://www.d20pfsrd.com/bestiary/rules-for-monsters/universal-monster-rules#TOC-Powerful-Charge-Ex-\">powerful charge</a>), the attack deals both piercing and slashing damage, and has a critical threat range of 19-20 (this range can be increased by other effects). Tusk blades can be enhanced as melee weapons; the enhancement is applied to the creature's gore attack.</p>\r\n\r\n",
      "chat": "",
      "unidentified": ""
    },
    "tags": [],
    "quantity": 1,
    "weight": 5,
    "price": 100,
    "identified": true,
    "hp": {
      "max": 10,
      "value": 10
    },
    "hardness": 0,
    "carried": true,
    "unidentified": {
      "price": 0,
      "name": ""
    },
    "identifiedName": "",
    "cl": 0,
    "aura": {
      "custom": false,
      "school": ""
    },
    "changes": [],
    "changeFlags": {
      "loseDexToAC": false,
      "noStr": false,
      "noDex": false,
      "oneInt": false,
      "oneWis": false,
      "oneCha": false,
      "noEncumbrance": false,
      "mediumArmorFullSpeed": false,
      "heavyArmorFullSpeed": false
    },
    "contextNotes": [],
    "links": {
      "children": []
    },
    "tag": "",
    "useCustomTag": false,
    "subType": "gear",
    "equipped": false,
    "damage": {
      "parts": []
    }
  },
  "flags": {},
  "img": "systems/pf1/icons/items/inventory/dice.jpg",
  "effects": []
}