{
  "_id": "nrhqlfyafrtjbnks",
  "name": "Waster",
  "permission": {
    "default": 0
  },
  "type": "loot",
  "data": {
    "description": {
      "value": "\r\n<p class=\"source\"><b>Source</b>: <a title=\"PZO9455\" href=\"http://www.amazon.com/gp/product/1601257325/ref=as_li_qf_sp_asin_il_tl?ie=UTF8&amp;camp=1789&amp;creative=9325&amp;creativeASIN=1601257325&amp;linkCode=as2&amp;tag=httpwwwd20pfs-20&amp;linkId=RTYNEYJM7WKLVCFB\" target=\"_blank\" rel=\"noopener\">PZO9455</a></p>\r\n<p><b>Price</b> 1 gp; <b>Weight</b> varies</p>\r\n<p>A waster is a heavily weighted wooden practice weapon, used as a way to build endurance and expertise with a specific weapon. All wasters are designed to emulate a specific melee weapon (such as a <a href=\"https://www.d20pfsrd.com/equipment/weapons/weapon-descriptions/kukri\">kukri</a> waster or a <a href=\"https://www.d20pfsrd.com/equipment/weapons/weapon-descriptions/greatsword\">greatsword</a> waster), and weigh twice as much as the weapons they emulate.</p>\r\n<p>Using a waster to hone your combat techniques requires 1 hour of practice and a DC 15 <a href=\"https://www.d20pfsrd.com/gamemastering/combat#TOC-Combat-Maneuvers\">combat maneuver</a> check. If you succeed at the check, you gain a +2 <a href=\"https://www.d20pfsrd.com/basics-ability-scores/glossary#TOC-Circumstance-Bonus\">circumstance bonus</a> to your <a href=\"https://www.d20pfsrd.com/gamemastering/combat#TOC-Combat-Maneuver-Defense\">CMD</a> against <a href=\"https://www.d20pfsrd.com/gamemastering/combat#TOC-Combat-Maneuvers\">combat maneuvers</a> targeting weapons you wield that match the waster your practiced with. This bonus lasts for 24 hours.</p>\r\n<p>Whether it's the heaviest possible plate armor with a tower shield for <a href=\"https://www.d20pfsrd.com/gamemastering/combat#TOC-Cover\">cover</a> or elegant layers of cloth that appear incapable of granting any protection, the right armor for the situation is crucial to a successful melee combatant's preparation.</p>\r\n\r\n",
      "chat": "",
      "unidentified": ""
    },
    "tags": [],
    "quantity": 1,
    "weight": 0,
    "price": 1,
    "identified": true,
    "hp": {
      "max": 10,
      "value": 10
    },
    "hardness": 0,
    "carried": true,
    "unidentified": {
      "price": 0,
      "name": ""
    },
    "identifiedName": "",
    "cl": 0,
    "aura": {
      "custom": false,
      "school": ""
    },
    "changes": [],
    "changeFlags": {
      "loseDexToAC": false,
      "noStr": false,
      "noDex": false,
      "oneInt": false,
      "oneWis": false,
      "oneCha": false,
      "noEncumbrance": false,
      "mediumArmorFullSpeed": false,
      "heavyArmorFullSpeed": false
    },
    "contextNotes": [],
    "links": {
      "children": []
    },
    "tag": "",
    "useCustomTag": false,
    "subType": "gear",
    "equipped": false,
    "damage": {
      "parts": []
    }
  },
  "flags": {},
  "img": "systems/pf1/icons/items/inventory/dice.jpg",
  "effects": []
}