{
  "_id": "GIPRoABizff4zzhz",
  "name": "Autumn Patron",
  "permission": {
    "default": 0
  },
  "type": "feat",
  "data": {
    "description": {
      "value": "<ul>\n<li>2nd — @Compendium[pf1.spells.mczdgwo3xl8c6e26]{Ray Of Enfeeblement}</li>\n<li>4th — @Compendium[pf1.spells.8w67l6dzzsi6oz5f]{Create Pit}</li>\n<li>6th — @Compendium[pf1.spells.vdmsaodgnbo8wjfx]{Gentle Repose}</li>\n<li>8th — @Compendium[pf1.spells.9ha7fyq951iijvt8]{Vitriolic Mist}</li>\n<li>10th — @Compendium[pf1.spells.b8lt1275mz4ez4d8]{Major Creation}</li>\n<li>12th — @Compendium[pf1.spells.ky8n4yzn6kc2cume]{Acid Fog}</li>\n<li>14th — @Compendium[pf1.spells.mqrflbi6p6cltdze]{Caustic Eruption}</li>\n<li>16th — @Compendium[pf1.spells.e8zen5nzixnt7bde]{Horrid Wilting}</li>\n<li>18th — @Compendium[pf1.spells.wplgawb6aznjx7se]{Wail of the Banshee}</li>\n</ul>",
      "chat": "",
      "unidentified": ""
    },
    "tags": [],
    "activation": {
      "cost": 1,
      "type": ""
    },
    "unchainedAction": {
      "activation": {
        "cost": 1,
        "type": ""
      }
    },
    "duration": {
      "value": null,
      "units": ""
    },
    "target": {
      "value": ""
    },
    "range": {
      "value": null,
      "units": "",
      "maxIncrements": 1,
      "minValue": null,
      "minUnits": "",
      "long": null
    },
    "uses": {
      "value": 0,
      "max": 0,
      "per": null,
      "autoDeductCharges": true,
      "autoDeductChargesCost": "1"
    },
    "measureTemplate": {
      "type": "",
      "size": "",
      "overrideColor": false,
      "customColor": "",
      "overrideTexture": false,
      "customTexture": ""
    },
    "attackName": "",
    "actionType": "",
    "attackBonus": "",
    "critConfirmBonus": "",
    "damage": {
      "parts": [],
      "critParts": [],
      "nonCritParts": []
    },
    "attackParts": [],
    "formula": "",
    "ability": {
      "attack": null,
      "damage": null,
      "damageMult": 1,
      "critRange": 20,
      "critMult": 2
    },
    "save": {
      "dc": 0,
      "type": "",
      "description": ""
    },
    "effectNotes": "",
    "attackNotes": "",
    "soundEffect": "",
    "changes": [],
    "changeFlags": {
      "loseDexToAC": false,
      "noStr": false,
      "noDex": false,
      "oneInt": false,
      "oneWis": false,
      "oneCha": false,
      "noEncumbrance": false,
      "mediumArmorFullSpeed": false,
      "heavyArmorFullSpeed": false
    },
    "contextNotes": [],
    "links": {
      "children": [],
      "charges": []
    },
    "tag": "",
    "useCustomTag": false,
    "armorProf": {
      "value": [],
      "custom": ""
    },
    "weaponProf": {
      "value": [],
      "custom": ""
    },
    "featType": "classFeat",
    "associations": {
      "classes": [
        [
          "Witch"
        ]
      ]
    },
    "showInQuickbar": false,
    "nonlethal": false,
    "abilityType": "none",
    "crOffset": "",
    "attack": {
      "parts": []
    }
  },
  "flags": {},
  "img": "systems/pf1/icons/feats/improved-familiar.jpg",
  "effects": []
}