{
  "_id": "QLQirhYi6kNDZXNG",
  "name": "Battle Spirit (Spirit)",
  "permission": {
    "default": 0
  },
  "type": "feat",
  "data": {
    "description": {
      "value": "<p><em>A shaman who selects the battle spirit gains scars from every wound she takes, and the grit of battle always seems to cling on her body. When she calls upon one of this spirit’s abilities, she grows in stature-becoming taller and more muscular, with a grimace of rage stretching across her face.</em><br><br><strong>Spirit Magic Spells:&nbsp;</strong></p>\n<ul>\n<li>@Compendium[pf1.spells.jnlr9cuepka1l26e]{Enlarge Person} (1st),&nbsp;</li>\n<li>@Compendium[pf1.spells.g33euis7yi9pwddy]{Fog Cloud} (2nd),&nbsp;</li>\n<li>@Compendium[pf1.spells.73han2zqxg59u18g]{Magic Vestment} (3rd),&nbsp;</li>\n<li>@Compendium[pf1.spells.92hth51cs9oi0nfe]{Wall Of Fire} (4th),&nbsp;</li>\n<li>@Compendium[pf1.spells.6ax0ythzw8n4bta8]{Righteous Might} (5th),&nbsp;</li>\n<li>@Compendium[pf1.spells.8xjcrqg79ugxu5qu]{Bull's Strength, Mass} (6th),&nbsp;</li>\n<li>@Compendium[pf1.spells.578t0lra5ll3aifs]{Control Weather} (7th),&nbsp;</li>\n<li>@Compendium[pf1.spells.a5gcbpwfhu4hh5ic]{Earthquake} (8th),&nbsp;</li>\n<li>@Compendium[pf1.spells.n4e35m6qu9nmkhgm]{Storm Of Vengeance} (9th)</li>\n</ul>\n<p><strong>Spirit Animal: </strong>The shaman’s spirit animal looks like a fiercer version of its species, with rippling muscles and a stockier frame. It gains a +2 natural armor bonus to AC. If it already has a natural armor bonus, the bonus increases by 2 instead.</p>",
      "chat": "",
      "unidentified": ""
    },
    "tags": [],
    "activation": {
      "cost": 1,
      "type": ""
    },
    "unchainedAction": {
      "activation": {
        "cost": 1,
        "type": ""
      }
    },
    "duration": {
      "value": null,
      "units": ""
    },
    "target": {
      "value": ""
    },
    "range": {
      "value": null,
      "units": "",
      "maxIncrements": 1,
      "minValue": null,
      "minUnits": "",
      "long": null
    },
    "uses": {
      "value": 0,
      "max": 0,
      "per": null,
      "autoDeductCharges": true,
      "autoDeductChargesCost": "1"
    },
    "measureTemplate": {
      "type": "",
      "size": "",
      "overrideColor": false,
      "customColor": "",
      "overrideTexture": false,
      "customTexture": ""
    },
    "attackName": "",
    "actionType": "",
    "attackBonus": "",
    "critConfirmBonus": "",
    "damage": {
      "parts": [],
      "critParts": [],
      "nonCritParts": []
    },
    "attackParts": [],
    "formula": "",
    "ability": {
      "attack": null,
      "damage": null,
      "damageMult": 1,
      "critRange": 20,
      "critMult": 2
    },
    "save": {
      "dc": 0,
      "type": "",
      "description": ""
    },
    "effectNotes": "",
    "attackNotes": "",
    "soundEffect": "",
    "changes": [],
    "changeFlags": {
      "loseDexToAC": false,
      "noStr": false,
      "noDex": false,
      "oneInt": false,
      "oneWis": false,
      "oneCha": false,
      "noEncumbrance": false,
      "mediumArmorFullSpeed": false,
      "heavyArmorFullSpeed": false
    },
    "contextNotes": [],
    "links": {
      "children": [],
      "charges": []
    },
    "tag": "",
    "useCustomTag": false,
    "armorProf": {
      "value": [],
      "custom": ""
    },
    "weaponProf": {
      "value": [],
      "custom": ""
    },
    "featType": "classFeat",
    "associations": {
      "classes": [
        [
          "Shaman"
        ]
      ]
    },
    "showInQuickbar": false,
    "nonlethal": false,
    "abilityType": "none",
    "crOffset": "",
    "attack": {
      "parts": []
    },
    "conditionals": [],
    "identifiedName": "Battle Spirit"
  },
  "flags": {},
  "img": "systems/pf1/icons/skills/violet_11.jpg",
  "effects": []
}