{
  "_id": "tHObxrPeyhimmz9V",
  "name": "Channel Positive Energy",
  "permission": {
    "default": 0
  },
  "type": "feat",
  "data": {
    "description": {
      "value": "<p>When a paladin reaches 4th level, she gains the supernatural ability to&nbsp;<a href=\"https://www.d20pfsrd.com/classes/core-classes/cleric/#Channel_Energy_Su\">channel positive energy</a>&nbsp;like a cleric. Using this ability consumes two uses of her lay on hands ability. A paladin uses her level as her effective cleric level when channeling positive energy. This is a&nbsp;<a href=\"https://www.d20pfsrd.com/basics-ability-scores/ability-scores#TOC-Charisma-Cha-\">Charisma</a>-based ability.</p>",
      "chat": "",
      "unidentified": ""
    },
    "tags": [],
    "activation": {
      "cost": 1,
      "type": "standard"
    },
    "unchainedAction": {
      "activation": {
        "cost": 1,
        "type": "passive"
      }
    },
    "duration": {
      "value": null,
      "units": "inst"
    },
    "target": {
      "value": "self; affects all living OR undead within burst"
    },
    "range": {
      "value": "30",
      "units": "ft",
      "maxIncrements": "1",
      "minValue": null,
      "minUnits": "",
      "long": null
    },
    "uses": {
      "value": 0,
      "max": 0,
      "per": "charges",
      "autoDeductCharges": true,
      "autoDeductChargesCost": "2",
      "maxFormula": ""
    },
    "measureTemplate": {
      "type": "circle",
      "size": "30",
      "overrideColor": false,
      "customColor": "",
      "overrideTexture": false,
      "customTexture": ""
    },
    "attackName": "",
    "actionType": "heal",
    "attackBonus": "",
    "critConfirmBonus": "",
    "damage": {
      "parts": [
        [
          "(ceil(@classes.paladin.level / 2))d6",
          ""
        ]
      ],
      "critParts": [],
      "nonCritParts": []
    },
    "attackParts": [],
    "formula": "",
    "ability": {
      "attack": null,
      "damage": "",
      "damageMult": 1,
      "critRange": 20,
      "critMult": 2
    },
    "save": {
      "dc": "10+floor(@classes.paladin.level / 2) + @abilities.cha.mod",
      "type": "will",
      "description": "Will halves damage"
    },
    "effectNotes": "",
    "attackNotes": "",
    "soundEffect": "",
    "changes": [],
    "changeFlags": {
      "loseDexToAC": false,
      "noStr": false,
      "noDex": false,
      "oneInt": false,
      "oneWis": false,
      "oneCha": false,
      "noEncumbrance": false,
      "mediumArmorFullSpeed": false,
      "heavyArmorFullSpeed": false
    },
    "contextNotes": [],
    "links": {
      "children": [],
      "charges": []
    },
    "tag": "channelPositiveEnergy",
    "useCustomTag": false,
    "armorProf": {
      "value": [],
      "custom": ""
    },
    "weaponProf": {
      "value": [],
      "custom": ""
    },
    "featType": "classFeat",
    "associations": {
      "classes": [
        [
          "Paladin"
        ]
      ]
    },
    "showInQuickbar": false,
    "nonlethal": false,
    "abilityType": "su",
    "crOffset": "",
    "attack": {
      "parts": []
    },
    "identifiedName": "Channel Positive Energy"
  },
  "flags": {},
  "img": "systems/pf1/icons/feats/blinding-critical.jpg",
  "effects": []
}