{
  "_id": "NulkANVUCnQE7whi",
  "name": "Daemon Bloodline",
  "permission": {
    "default": 0
  },
  "type": "feat",
  "data": {
    "description": {
      "value": "<p><em>A daemon lurks somewhere along your family tree. Your powers derive from these soul-devouring fiends, who take pleasure and gain power from manipulating mortal frailties like aging, pestilence, famine, and the horrors of war. Your lineage gives you great insight into how to exploit the weaknesses of living beings and how to use leeched soul energy to enhance your wicked abilities.</em></p>\n<p><strong>Class Skill:</strong>&nbsp;<a href=\"https://www.d20pfsrd.com/skills/heal\">Heal</a>.</p>\n<p><strong>Bonus Spells</strong>:</p>\n<ul>\n<li>@Compendium[pf1.spells.mczdgwo3xl8c6e26]{Ray Of Enfeeblement} (3rd),</li>\n<li>@Compendium[pf1.spells.648x72rflah0ggyz]{Touch of Idiocy} (5th),</li>\n<li>@Compendium[pf1.spells.3efy1ico48ccrzni]{Vampiric Touch} (7th),</li>\n<li>@Compendium[pf1.spells.ppeb97nxg1rmdpme]{Contagion} (9th),</li>\n<li>@Compendium[pf1.spells.gq7np9mwtfd500zg]{Blight} (11th),</li>\n<li>@Compendium[pf1.spells.3a162m66toj22fpa]{Circle Of Death} (13th),</li>\n<li>@Compendium[pf1.spells.9f3hf9h3j8q8062b]{Waves of Exhaustion} (15th),</li>\n<li>@Compendium[pf1.spells.e8zen5nzixnt7bde]{Horrid Wilting} (17th),</li>\n<li>@Compendium[pf1.spells.dlo03ajt55yofj4q]{Soul Bind}&nbsp;(19th).</li>\n</ul>\n<p><strong>Bonus Feats:</strong></p>\n<ul>\n<li>@Compendium[pf1.feats.O0e0UCim27GPKFuW]{Diehard},</li>\n<li>@Compendium[pf1.feats.ehqx8txNRGMaNOPt]{Endurance},&nbsp;</li>\n<li><a href=\"https://www.d20pfsrd.com/feats/general-feats/fast-healer\">Fast Healer</a>,</li>\n<li>@Compendium[pf1.feats.fVRnBIHR4Jq6btvm]{Great Fortitude},&nbsp;</li>\n<li><a href=\"https://www.d20pfsrd.com/feats/general-feats/heroic-defiance\">Heroic Defiance</a>,&nbsp;</li>\n<li><a href=\"https://www.d20pfsrd.com/feats/general-feats/heroic-recovery\">Heroic Recovery</a>,&nbsp;</li>\n<li><a href=\"https://www.d20pfsrd.com/feats/metamagic-feats/sickening-spell-metamagic\">Sickening Spell</a>,</li>\n<li>@Compendium[pf1.feats.8snLqsJN4LLL00Nq]{Toughness}</li>\n</ul>\n<p><strong>Bloodline Arcana:</strong> Whenever you cast a spell that kills one or more living creatures with an&nbsp;<a href=\"https://www.d20pfsrd.com/basics-ability-scores/ability-scores#TOC-Intelligence-Int-\">Intelligence</a>&nbsp;score of 3 or higher, the&nbsp;<a href=\"https://www.d20pfsrd.com/magic#TOC-Caster-Level\">caster level</a>&nbsp;of any spell you cast in the next round increases by +1 for each creature your first spell killed. This ability does not stack with other effects that increase your effective&nbsp;<a href=\"https://www.d20pfsrd.com/magic#TOC-Caster-Level\">caster level</a>, and you cannot gain a bonus greater than 1/2 your&nbsp;<a href=\"https://www.d20pfsrd.com/basics-ability-scores/ability-scores#TOC-Charisma-Cha-\">Charisma</a>&nbsp;modifier (minimum 1). The second spell you cast must be of an equal or lower level than the first one.</p>",
      "chat": "",
      "unidentified": ""
    },
    "tags": [],
    "activation": {
      "cost": 1,
      "type": ""
    },
    "unchainedAction": {
      "activation": {
        "cost": 1,
        "type": ""
      }
    },
    "duration": {
      "value": null,
      "units": ""
    },
    "target": {
      "value": ""
    },
    "range": {
      "value": null,
      "units": "",
      "maxIncrements": 1,
      "minValue": null,
      "minUnits": "",
      "long": null
    },
    "uses": {
      "value": 0,
      "max": 0,
      "per": null,
      "autoDeductCharges": true,
      "autoDeductChargesCost": "1"
    },
    "measureTemplate": {
      "type": "",
      "size": "0",
      "overrideColor": false,
      "customColor": "",
      "overrideTexture": false,
      "customTexture": ""
    },
    "attackName": "",
    "actionType": "",
    "attackBonus": "",
    "critConfirmBonus": "",
    "damage": {
      "parts": [],
      "critParts": [],
      "nonCritParts": []
    },
    "attackParts": [],
    "formula": "",
    "ability": {
      "attack": null,
      "damage": null,
      "damageMult": 1,
      "critRange": 20,
      "critMult": 2
    },
    "save": {
      "dc": 0,
      "type": "",
      "description": ""
    },
    "effectNotes": "",
    "attackNotes": "",
    "soundEffect": "",
    "changes": [],
    "changeFlags": {
      "loseDexToAC": false,
      "noStr": false,
      "noDex": false,
      "oneInt": false,
      "oneWis": false,
      "oneCha": false,
      "noEncumbrance": false,
      "mediumArmorFullSpeed": false,
      "heavyArmorFullSpeed": false
    },
    "contextNotes": [],
    "links": {
      "children": [],
      "charges": []
    },
    "tag": "",
    "useCustomTag": false,
    "armorProf": {
      "value": [],
      "custom": ""
    },
    "weaponProf": {
      "value": [],
      "custom": ""
    },
    "featType": "classFeat",
    "associations": {
      "classes": [
        [
          "Sorcerer"
        ]
      ]
    },
    "showInQuickbar": false,
    "nonlethal": false,
    "abilityType": "none",
    "crOffset": "",
    "attack": {
      "parts": []
    }
  },
  "flags": {},
  "img": "systems/pf1/icons/skills/blood_07.jpg",
  "effects": []
}