{
  "_id": "nNjkVCcJGoDIK67y",
  "name": "Dolphin Aspect",
  "permission": {
    "default": 0
  },
  "type": "feat",
  "data": {
    "description": {
      "value": "<p><em>The aspect of the dolphin imparts clever mastery of the seas. Shifters with this aspect also embody the size and ferociousness of large dolphins, such as orcas.</em><br><br><strong>Minor Form:</strong> You gain a +4 competence bonus on Knowledge checks to identify creatures’ abilities and weaknesses.</p>\n<p>This bonus increases to +6 at 8th level and +8 at 15th level.<br><br><strong>Major Form:</strong> Your shape changes to that of a Large&nbsp;<a href=\"https://www.aonprd.com/MonsterDisplay.aspx?ItemName=Dolphin\">dolphin</a>, but your space is 10 feet instead of 5 feet. While in this form, you gain a swim speed of 60 feet,&nbsp;<a href=\"https://www.aonprd.com/UMR.aspx?ItemName=Blindsense\">blindsense</a>&nbsp;with a range of 10 feet, low-light vision, a bite attack (1d8), and the ability to hold your breath for a number of minutes equal to 6 times your Constitution score before you risk drowning.</p>\n<p>At 8th level, the range of your blindsense increases to 20 feet.</p>\n<p>At 15th level, the range of your blindsense increases to 60 feet and your swim speed increases to 80 feet.<br><br><strong>Alternate Natural Attacks:</strong> Bite (B, P, S), Slam (B)</p>",
      "chat": "",
      "unidentified": ""
    },
    "tags": [],
    "activation": {
      "cost": 1,
      "type": ""
    },
    "unchainedAction": {
      "activation": {
        "cost": 1,
        "type": ""
      }
    },
    "duration": {
      "value": null,
      "units": ""
    },
    "target": {
      "value": ""
    },
    "range": {
      "value": null,
      "units": "",
      "maxIncrements": 1,
      "minValue": null,
      "minUnits": "",
      "long": null
    },
    "uses": {
      "value": 0,
      "max": 0,
      "per": null,
      "autoDeductCharges": true,
      "autoDeductChargesCost": "1"
    },
    "measureTemplate": {
      "type": "",
      "size": "",
      "overrideColor": false,
      "customColor": "",
      "overrideTexture": false,
      "customTexture": ""
    },
    "attackName": "",
    "actionType": "",
    "attackBonus": "",
    "critConfirmBonus": "",
    "damage": {
      "parts": [],
      "critParts": [],
      "nonCritParts": []
    },
    "attackParts": [],
    "formula": "",
    "ability": {
      "attack": null,
      "damage": null,
      "damageMult": 1,
      "critRange": 20,
      "critMult": 2
    },
    "save": {
      "dc": 0,
      "type": "",
      "description": ""
    },
    "effectNotes": "",
    "attackNotes": "",
    "soundEffect": "",
    "changes": [],
    "changeFlags": {
      "loseDexToAC": false,
      "noStr": false,
      "noDex": false,
      "oneInt": false,
      "oneWis": false,
      "oneCha": false,
      "noEncumbrance": false,
      "mediumArmorFullSpeed": false,
      "heavyArmorFullSpeed": false
    },
    "contextNotes": [],
    "links": {
      "children": [],
      "charges": []
    },
    "tag": "",
    "useCustomTag": false,
    "armorProf": {
      "value": [],
      "custom": ""
    },
    "weaponProf": {
      "value": [],
      "custom": ""
    },
    "featType": "classFeat",
    "associations": {
      "classes": [
        [
          "Shifter"
        ]
      ]
    },
    "showInQuickbar": false,
    "nonlethal": false,
    "abilityType": "none",
    "crOffset": "",
    "attack": {
      "parts": []
    }
  },
  "flags": {},
  "img": "systems/pf1/icons/skills/blue_29.jpg",
  "effects": []
}