{
  "_id": "ELfSx9uWAzxIrz6x",
  "name": "Electric Eel",
  "permission": {
    "default": 0
  },
  "type": "feat",
  "data": {
    "description": {
      "value": "<p><em>The aspect of the electric eel imparts the ability to charge attacks with electricity and to slip effortlessly out of danger.</em><br><br><strong>Minor Form:</strong> Your attacks deal 1 point of electricity damage in addition to their normal damage.</p>\n<p>This additional electricity damage increases to 1d3 at 8th level and 1d6 at 15th level.<br><br><strong>Major Form: </strong>Your shape changes to that of an&nbsp;<a href=\"https://www.aonprd.com/MonsterDisplay.aspx?ItemName=Electric%20Eel\">electric eel</a>. While in this form, you gain a swim speed of 30 feet, low-light vision, electricity resistance 5, a bite attack (1d6), and a tail attack (a secondary natural touch attack that deals 1d6 points of electricity damage).</p>\n<p>At 8th level, your electricity resistance increases to 10 and you gain a +4 racial bonus on Escape Artist checks.</p>\n<p>At 15th level, on a critical hit with your tail attack, the creature struck must succeed at a Fortitude save (DC = 10 + half your shifter level + your Constitution modifier) or be stunned for 1d4 rounds.<br><br><strong>Alternate Natural Attacks:</strong> Bite (B, P, S), tail slap (B)</p>",
      "chat": "",
      "unidentified": ""
    },
    "tags": [],
    "activation": {
      "cost": 1,
      "type": ""
    },
    "unchainedAction": {
      "activation": {
        "cost": 1,
        "type": ""
      }
    },
    "duration": {
      "value": null,
      "units": ""
    },
    "target": {
      "value": ""
    },
    "range": {
      "value": null,
      "units": "",
      "maxIncrements": 1,
      "minValue": null,
      "minUnits": "",
      "long": null
    },
    "uses": {
      "value": 0,
      "max": 0,
      "per": null,
      "autoDeductCharges": true,
      "autoDeductChargesCost": "1"
    },
    "measureTemplate": {
      "type": "",
      "size": "",
      "overrideColor": false,
      "customColor": "",
      "overrideTexture": false,
      "customTexture": ""
    },
    "attackName": "",
    "actionType": "",
    "attackBonus": "",
    "critConfirmBonus": "",
    "damage": {
      "parts": [],
      "critParts": [],
      "nonCritParts": []
    },
    "attackParts": [],
    "formula": "",
    "ability": {
      "attack": null,
      "damage": null,
      "damageMult": 1,
      "critRange": 20,
      "critMult": 2
    },
    "save": {
      "dc": 0,
      "type": "",
      "description": ""
    },
    "effectNotes": "",
    "attackNotes": "",
    "soundEffect": "",
    "changes": [],
    "changeFlags": {
      "loseDexToAC": false,
      "noStr": false,
      "noDex": false,
      "oneInt": false,
      "oneWis": false,
      "oneCha": false,
      "noEncumbrance": false,
      "mediumArmorFullSpeed": false,
      "heavyArmorFullSpeed": false
    },
    "contextNotes": [],
    "links": {
      "children": [],
      "charges": []
    },
    "tag": "",
    "useCustomTag": false,
    "armorProf": {
      "value": [],
      "custom": ""
    },
    "weaponProf": {
      "value": [],
      "custom": ""
    },
    "featType": "classFeat",
    "associations": {
      "classes": [
        [
          "Shifter"
        ]
      ]
    },
    "showInQuickbar": false,
    "nonlethal": false,
    "abilityType": "none",
    "crOffset": "",
    "attack": {
      "parts": []
    }
  },
  "flags": {},
  "img": "systems/pf1/icons/skills/blue_29.jpg",
  "effects": []
}