{
  "_id": "w2BOkG47vgd3toxl",
  "name": "Elemental Mystery",
  "permission": {
    "default": 0
  },
  "type": "feat",
  "data": {
    "description": {
      "value": "<p><strong>Class Skills: </strong>An oracle with the elemental mystery adds Acrobatics, Climb, Stealth, and Swim to her list of class skills.<br><br><strong>Bonus Spells:</strong>&nbsp;</p>\n<ul>\n<li>@Compendium[pf1.spells.pau0ejk30fs1eebl]{Endure Elements} (2nd),&nbsp;</li>\n<li>@Compendium[pf1.spells.tkjnm3lw7ni82tag]{Resist Energy} (4th),&nbsp;</li>\n<li>@Compendium[pf1.spells.q35l6m4pggb4y98v]{Elemental Aura} (6th),&nbsp;</li>\n<li>@Compendium[pf1.spells.pawbnw1nm4f0b98e]{Elemental Body I} (8th),&nbsp;</li>\n<li>@Compendium[pf1.spells.yldjnorgbx4jsldz]{Elemental Body II} (10th),&nbsp;</li>\n<li>@Compendium[pf1.spells.hd32fuc6e7j4isbn]{Elemental Body III} (12th),&nbsp;</li>\n<li>@Compendium[pf1.spells.v42t5kpxc8mvd615]{Elemental Body IV} (14th),&nbsp;</li>\n<li>@Compendium[pf1.spells.wniqskqkk0cubu9u]{Create Demiplane} (16th),&nbsp;</li>\n<li>@Compendium[pf1.spells.pfy97qyneoa391ek]{Elemental Swarm} (18th).</li>\n</ul>",
      "chat": "",
      "unidentified": ""
    },
    "tags": [],
    "activation": {
      "cost": 1,
      "type": ""
    },
    "unchainedAction": {
      "activation": {
        "cost": 1,
        "type": ""
      }
    },
    "duration": {
      "value": null,
      "units": ""
    },
    "target": {
      "value": ""
    },
    "range": {
      "value": null,
      "units": "",
      "maxIncrements": 1,
      "minValue": null,
      "minUnits": "",
      "long": null
    },
    "uses": {
      "value": 0,
      "max": 0,
      "per": null,
      "autoDeductCharges": true,
      "autoDeductChargesCost": "1"
    },
    "measureTemplate": {
      "type": "",
      "size": "",
      "overrideColor": false,
      "customColor": "",
      "overrideTexture": false,
      "customTexture": ""
    },
    "attackName": "",
    "actionType": "",
    "attackBonus": "",
    "critConfirmBonus": "",
    "damage": {
      "parts": [],
      "critParts": [],
      "nonCritParts": []
    },
    "attackParts": [],
    "formula": "",
    "ability": {
      "attack": null,
      "damage": null,
      "damageMult": 1,
      "critRange": 20,
      "critMult": 2
    },
    "save": {
      "dc": 0,
      "type": "",
      "description": ""
    },
    "effectNotes": "",
    "attackNotes": "",
    "soundEffect": "",
    "changes": [],
    "changeFlags": {
      "loseDexToAC": false,
      "noStr": false,
      "noDex": false,
      "oneInt": false,
      "oneWis": false,
      "oneCha": false,
      "noEncumbrance": false,
      "mediumArmorFullSpeed": false,
      "heavyArmorFullSpeed": false
    },
    "contextNotes": [],
    "links": {
      "children": [],
      "charges": []
    },
    "tag": "",
    "useCustomTag": false,
    "armorProf": {
      "value": [],
      "custom": ""
    },
    "weaponProf": {
      "value": [],
      "custom": ""
    },
    "featType": "classFeat",
    "associations": {
      "classes": [
        [
          "Oracle"
        ]
      ]
    },
    "showInQuickbar": false,
    "nonlethal": false,
    "abilityType": "none",
    "crOffset": "",
    "attack": {
      "parts": []
    }
  },
  "flags": {},
  "img": "systems/pf1/icons/spells/light-magenta-2.jpg",
  "effects": []
}