{
  "_id": "8ZykO6OBolskftgi",
  "name": "Evil Domain",
  "permission": {
    "default": 0
  },
  "type": "feat",
  "data": {
    "description": {
      "value": "<p><strong>Granted Powers:</strong> You are sinister and cruel, and have wholly pledged your soul to the cause of evil.</p>\n<p><strong>Domain Spells:</strong></p>\n<ul>\n<li>1st—@Compendium[pf1.spells.71g6nmvy8qnodwyz]{Protection From Good}</li>\n<li>2nd—@Compendium[pf1.spells.zujht80bgjdk9cyb]{Align Weapon} (evil only)</li>\n<li>3rd—@Compendium[pf1.spells.ym1we9ko60qcvn4t]{Magic Circle against Good}</li>\n<li>4th—@Compendium[pf1.spells.okui7mft5bquqfrg]{Unholy Blight}</li>\n<li>5th—@Compendium[pf1.spells.xgv1e2ayf1e0br9j]{Dispel Good}</li>\n<li>6th—@Compendium[pf1.spells.c1e7f0ct04k270wy]{Create Undead}</li>\n<li>7th—@Compendium[pf1.spells.baocube6vvey9zlc]{Blasphemy}</li>\n<li>8th—@Compendium[pf1.spells.flrn1xmm2wfrxbkf]{Unholy Aura}</li>\n<li>9th—@Compendium[pf1.spells.mi52crelhwuy6bmp]{Summon Monster IX} (evil spell only)</li>\n</ul>",
      "chat": "",
      "unidentified": ""
    },
    "tags": [],
    "activation": {
      "cost": 1,
      "type": ""
    },
    "unchainedAction": {
      "activation": {
        "cost": 1,
        "type": ""
      }
    },
    "duration": {
      "value": null,
      "units": ""
    },
    "target": {
      "value": ""
    },
    "range": {
      "value": null,
      "units": "",
      "maxIncrements": 1,
      "minValue": null,
      "minUnits": "",
      "long": null
    },
    "uses": {
      "value": 0,
      "max": 0,
      "per": null,
      "autoDeductCharges": true,
      "autoDeductChargesCost": "1"
    },
    "measureTemplate": {
      "type": "",
      "size": "0",
      "overrideColor": false,
      "customColor": "",
      "overrideTexture": false,
      "customTexture": ""
    },
    "attackName": "",
    "actionType": "",
    "attackBonus": "",
    "critConfirmBonus": "",
    "damage": {
      "parts": [],
      "critParts": [],
      "nonCritParts": []
    },
    "attackParts": [],
    "formula": "",
    "ability": {
      "attack": null,
      "damage": null,
      "damageMult": 1,
      "critRange": 20,
      "critMult": 2
    },
    "save": {
      "dc": 0,
      "type": "",
      "description": ""
    },
    "effectNotes": "",
    "attackNotes": "",
    "soundEffect": "",
    "changes": [],
    "changeFlags": {
      "loseDexToAC": false,
      "noStr": false,
      "noDex": false,
      "oneInt": false,
      "oneWis": false,
      "oneCha": false,
      "noEncumbrance": false,
      "mediumArmorFullSpeed": false,
      "heavyArmorFullSpeed": false
    },
    "contextNotes": [],
    "links": {
      "children": [],
      "charges": []
    },
    "tag": "",
    "useCustomTag": false,
    "armorProf": {
      "value": [],
      "custom": ""
    },
    "weaponProf": {
      "value": [],
      "custom": ""
    },
    "featType": "classFeat",
    "associations": {
      "classes": [
        [
          "Cleric"
        ]
      ]
    },
    "showInQuickbar": false,
    "nonlethal": false,
    "abilityType": "none",
    "crOffset": "",
    "attack": {
      "parts": []
    }
  },
  "flags": {},
  "img": "systems/pf1/icons/skills/violet_21.jpg",
  "effects": []
}