{
  "_id": "Be6Z3Nz7j7wDFFPs",
  "name": "Intermediate Psychic Magic (UC) (2 pts)",
  "permission": {
    "default": 0
  },
  "type": "feat",
  "data": {
    "description": {
      "value": "<p><strong>Requirements: </strong>Aberrant subtype; basic psychic magic evolution; Charisma 11; summoner level 5th.</p>\n<p>The eidolon gains 2 points of psychic energy that it can spend each day. Select one spell from the following list:&nbsp;</p>\n<ul>\n<li>@Compendium[pf1.spells.e185z4g1taqtaq9d]{Compel Hostility}</li>\n<li>@Compendium[pf1.spells.ud4xukzhan89qhm4]{Confusion, Lesser}</li>\n<li>@Compendium[pf1.spells.3ntxp3zun1j9mf0m]{Hypnotism}</li>\n<li>@Compendium[pf1.spells.rvf2gxyy1d4strae]{Mind Thrust I}</li>\n<li>@Compendium[pf1.spells.c11olzqztodz5o5x]{Vanish}</li>\n</ul>\n<p>The eidolon can use that spell thereafter as a psychic spell by spending 1 point of psychic energy. The caster level and save DC are the same as for basic psychic magic.</p>\n<p>This evolution can be selected more than once, selecting a different spell each time. The eidolon’s amount of psychic energy available to spend each day does not stack—it uses only the highest number of points granted by its most powerful psychic magic evolution.&nbsp;</p>\n<p>&nbsp;</p>",
      "chat": "",
      "unidentified": ""
    },
    "tags": [],
    "activation": {
      "cost": 1,
      "type": "special"
    },
    "unchainedAction": {
      "activation": {
        "cost": 1,
        "type": "special"
      }
    },
    "duration": {
      "value": null,
      "units": ""
    },
    "target": {
      "value": ""
    },
    "range": {
      "value": null,
      "units": "",
      "maxIncrements": 1,
      "minValue": null,
      "minUnits": "",
      "long": null
    },
    "uses": {
      "value": 0,
      "max": 2,
      "per": "day",
      "autoDeductCharges": true,
      "autoDeductChargesCost": "1",
      "maxFormula": "2"
    },
    "measureTemplate": {
      "type": "",
      "size": "",
      "overrideColor": false,
      "customColor": "",
      "overrideTexture": false,
      "customTexture": ""
    },
    "attackName": "",
    "actionType": "",
    "attackBonus": "",
    "critConfirmBonus": "",
    "damage": {
      "parts": [],
      "critParts": [],
      "nonCritParts": []
    },
    "attackParts": [],
    "formula": "",
    "ability": {
      "attack": null,
      "damage": null,
      "damageMult": 1,
      "critRange": 20,
      "critMult": 2
    },
    "save": {
      "dc": 0,
      "type": "",
      "description": ""
    },
    "effectNotes": "",
    "attackNotes": "",
    "soundEffect": "",
    "changes": [],
    "changeFlags": {
      "loseDexToAC": false,
      "noStr": false,
      "noDex": false,
      "oneInt": false,
      "oneWis": false,
      "oneCha": false,
      "noEncumbrance": false,
      "mediumArmorFullSpeed": false,
      "heavyArmorFullSpeed": false
    },
    "contextNotes": [],
    "links": {
      "children": [],
      "charges": []
    },
    "tag": "",
    "useCustomTag": false,
    "armorProf": {
      "value": [],
      "custom": ""
    },
    "weaponProf": {
      "value": [],
      "custom": ""
    },
    "featType": "classFeat",
    "associations": {
      "classes": [
        [
          "Eidolon (Unchained)"
        ]
      ]
    },
    "showInQuickbar": false,
    "nonlethal": false,
    "abilityType": "none",
    "crOffset": "",
    "attack": {
      "parts": []
    }
  },
  "flags": {},
  "img": "systems/pf1/icons/skills/blue_26.jpg",
  "effects": []
}