{
  "_id": "0QoqG9dIc900yrWY",
  "name": "Intrigue Mystery",
  "permission": {
    "default": 0
  },
  "type": "feat",
  "data": {
    "description": {
      "value": "<p><strong>Class Skills:</strong> An oracle with the intrigue mystery adds Bluff, Disguise, Sleight of Hand, and Stealth to her list of class skills.<br><br><strong>Bonus Spells:</strong>&nbsp;</p>\n<ul>\n<li>@Compendium[pf1.spells.tjog6bufg5b08lvq]{Charm Person} (2nd),&nbsp;</li>\n<li>@Compendium[pf1.spells.swkw2yoee6d9ldcd]{False Belief} (4th),&nbsp;</li>\n<li>@Compendium[pf1.spells.zqj5qzyl46af27v0]{Suggestion} (6th),&nbsp;</li>\n<li>@Compendium[pf1.spells.d0d86z521shpman1]{Sending} (8th),&nbsp;</li>\n<li>@Compendium[pf1.spells.jbqo4o2b2tmdz7wv]{True Seeing} (10th),&nbsp;</li>\n<li>@Compendium[pf1.spells.1m5rpvirt48brv71]{Symbol of Persuasion} (12th),&nbsp;</li>\n<li>@Compendium[pf1.spells.glt6uk3n6g6l2p6l]{Scrying, Greater} (14th),&nbsp;</li>\n<li>@Compendium[pf1.spells.blvetbc929cfx4m8]{Mind Blank} (16th),&nbsp;</li>\n<li>@Compendium[pf1.spells.xuuzj9lr2xbwaim4]{Overwhelming Presence} (18th).</li>\n</ul>",
      "chat": "",
      "unidentified": ""
    },
    "tags": [],
    "activation": {
      "cost": 1,
      "type": ""
    },
    "unchainedAction": {
      "activation": {
        "cost": 1,
        "type": ""
      }
    },
    "duration": {
      "value": null,
      "units": ""
    },
    "target": {
      "value": ""
    },
    "range": {
      "value": null,
      "units": "",
      "maxIncrements": 1,
      "minValue": null,
      "minUnits": "",
      "long": null
    },
    "uses": {
      "value": 0,
      "max": 0,
      "per": null,
      "autoDeductCharges": true,
      "autoDeductChargesCost": "1"
    },
    "measureTemplate": {
      "type": "",
      "size": "",
      "overrideColor": false,
      "customColor": "",
      "overrideTexture": false,
      "customTexture": ""
    },
    "attackName": "",
    "actionType": "",
    "attackBonus": "",
    "critConfirmBonus": "",
    "damage": {
      "parts": [],
      "critParts": [],
      "nonCritParts": []
    },
    "attackParts": [],
    "formula": "",
    "ability": {
      "attack": null,
      "damage": null,
      "damageMult": 1,
      "critRange": 20,
      "critMult": 2
    },
    "save": {
      "dc": 0,
      "type": "",
      "description": ""
    },
    "effectNotes": "",
    "attackNotes": "",
    "soundEffect": "",
    "changes": [],
    "changeFlags": {
      "loseDexToAC": false,
      "noStr": false,
      "noDex": false,
      "oneInt": false,
      "oneWis": false,
      "oneCha": false,
      "noEncumbrance": false,
      "mediumArmorFullSpeed": false,
      "heavyArmorFullSpeed": false
    },
    "contextNotes": [],
    "links": {
      "children": [],
      "charges": []
    },
    "tag": "",
    "useCustomTag": false,
    "armorProf": {
      "value": [],
      "custom": ""
    },
    "weaponProf": {
      "value": [],
      "custom": ""
    },
    "featType": "classFeat",
    "associations": {
      "classes": [
        [
          "Oracle"
        ]
      ]
    },
    "showInQuickbar": false,
    "nonlethal": false,
    "abilityType": "none",
    "crOffset": "",
    "attack": {
      "parts": []
    }
  },
  "flags": {},
  "img": "systems/pf1/icons/spells/light-magenta-2.jpg",
  "effects": []
}