{
  "_id": "towM6BYCMdZxGPx4",
  "name": "Major Magic (3 pts)",
  "permission": {
    "default": 0
  },
  "type": "feat",
  "data": {
    "description": {
      "value": "<p>An eidolon learns to cast a major spell as a spell-like ability. Select one spell from the following list:&nbsp;</p>\n<ul>\n<li>@Compendium[pf1.spells.wh9zc2reqneafxro]{Acid Arrow}</li>\n<li>@Compendium[pf1.spells.e67esdjp4nojtbr7]{Cure Moderate Wounds}</li>\n<li>@Compendium[pf1.spells.tsndfcfijmgxs37p]{Darkness}</li>\n<li>@Compendium[pf1.spells.y69de8y5ddrhuue5]{Daze Monster}</li>\n<li>@Compendium[pf1.spells.d8yy4njnr25hacek]{Glide}</li>\n<li>@Compendium[pf1.spells.oylikodnyku2zewu]{Invisibility} (self only),&nbsp;</li>\n<li>@Compendium[pf1.spells.fxz69pwpqt9b6uss]{Restoration, Lesser}</li>\n<li>@Compendium[pf1.spells.plou8h168bfn5hq6]{Levitate}</li>\n<li>@Compendium[pf1.spells.27o3msobhyghmfid]{Minor Image}</li>\n<li>@Compendium[pf1.spells.q4ixxjb4v281g2xv]{Scorching Ray}</li>\n<li>@Compendium[pf1.spells.nokru6mxk9p3r513]{See Invisibility}</li>\n<li>@Compendium[pf1.spells.3mfmhx8avu7h3iom]{Spider Climb}</li>\n</ul>\n<p>This spell can be cast once per day as a spell-like ability.<br><br>At 10th level, this spell can be cast three times per day by spending 2 additional evolution points. The caster level for this evolution is equal to the eidolon's Hit Dice – 2. The save DC for this spell is 10 + 1/2 the eidolon's HD + the eidolon's Charisma modifier. The eidolon must have a Charisma score of at least 12 and must possess the minor magic evolution to take this evolution.</p>\n<p>The summoner must be at least 7th level before selecting this evolution.</p>\n<p>This evolution can be selected more than once. Each time an eidolon selects this evolution, it applies to a new spell from the above list.</p>",
      "chat": "",
      "unidentified": ""
    },
    "tags": [],
    "activation": {
      "cost": 1,
      "type": ""
    },
    "unchainedAction": {
      "activation": {
        "cost": 1,
        "type": ""
      }
    },
    "duration": {
      "value": null,
      "units": ""
    },
    "target": {
      "value": ""
    },
    "range": {
      "value": null,
      "units": "",
      "maxIncrements": 1,
      "minValue": null,
      "minUnits": "",
      "long": null
    },
    "uses": {
      "value": 0,
      "max": 0,
      "per": null,
      "autoDeductCharges": true,
      "autoDeductChargesCost": "1"
    },
    "measureTemplate": {
      "type": "",
      "size": "",
      "overrideColor": false,
      "customColor": "",
      "overrideTexture": false,
      "customTexture": ""
    },
    "attackName": "",
    "actionType": "",
    "attackBonus": "",
    "critConfirmBonus": "",
    "damage": {
      "parts": [],
      "critParts": [],
      "nonCritParts": []
    },
    "attackParts": [],
    "formula": "",
    "ability": {
      "attack": null,
      "damage": null,
      "damageMult": 1,
      "critRange": 20,
      "critMult": 2
    },
    "save": {
      "dc": 0,
      "type": "",
      "description": ""
    },
    "effectNotes": "",
    "attackNotes": "",
    "soundEffect": "",
    "changes": [],
    "changeFlags": {
      "loseDexToAC": false,
      "noStr": false,
      "noDex": false,
      "oneInt": false,
      "oneWis": false,
      "oneCha": false,
      "noEncumbrance": false,
      "mediumArmorFullSpeed": false,
      "heavyArmorFullSpeed": false
    },
    "contextNotes": [],
    "links": {
      "children": [],
      "charges": []
    },
    "tag": "",
    "useCustomTag": false,
    "armorProf": {
      "value": [],
      "custom": ""
    },
    "weaponProf": {
      "value": [],
      "custom": ""
    },
    "featType": "classFeat",
    "associations": {
      "classes": [
        [
          "Eidolon"
        ]
      ]
    },
    "showInQuickbar": false,
    "nonlethal": false,
    "abilityType": "sp",
    "crOffset": "",
    "attack": {
      "parts": []
    }
  },
  "flags": {},
  "img": "systems/pf1/icons/skills/blue_26.jpg",
  "effects": []
}