{
  "_id": "7BqRBI2HmvwF5AWk",
  "name": "Mindtouch",
  "permission": {
    "default": 0
  },
  "type": "feat",
  "data": {
    "description": {
      "value": "<p>The psychic can spend 1 point from her phrenic pool to probe one target’s mind if that creature is affected by the linked spell. If the target of the linked spell fails its saving throw or is hit by the spell, the psychic detects its surface thoughts (as the 3rd-round effect of&nbsp;detect thoughts). If the linked spell doesn’t already require an attack roll or allow a saving throw, the target can attempt a Will saving throw to avoid the thought-detection effect only; the DC is calculated using the linked spell’s level (and all other bonuses that would apply if the linked spell allowed a Will save). This amplification can be linked only to spells that affect a target or an area.</p>\n<p>If the linked spell can affect more than one creature, the psychic can attempt to detect more than one target’s thoughts by spending 1 additional point per creature beyond the first. She must select these targets when she casts the spell and spends the points. This is a mind-affecting effect.</p>",
      "chat": "",
      "unidentified": ""
    },
    "tags": [],
    "activation": {
      "cost": 1,
      "type": "free"
    },
    "unchainedAction": {
      "activation": {
        "cost": 1,
        "type": "free"
      }
    },
    "duration": {
      "value": null,
      "units": ""
    },
    "target": {
      "value": ""
    },
    "range": {
      "value": null,
      "units": "",
      "maxIncrements": 1,
      "minValue": null,
      "minUnits": "",
      "long": null
    },
    "uses": {
      "value": 0,
      "max": 0,
      "per": "",
      "autoDeductCharges": true,
      "autoDeductChargesCost": "1"
    },
    "measureTemplate": {
      "type": "",
      "size": "",
      "overrideColor": false,
      "customColor": "",
      "overrideTexture": false,
      "customTexture": ""
    },
    "attackName": "",
    "actionType": "",
    "attackBonus": "",
    "critConfirmBonus": "",
    "damage": {
      "parts": [],
      "critParts": [],
      "nonCritParts": []
    },
    "attackParts": [],
    "formula": "",
    "ability": {
      "attack": null,
      "damage": null,
      "damageMult": 1,
      "critRange": 20,
      "critMult": 2
    },
    "save": {
      "dc": 0,
      "type": "",
      "description": ""
    },
    "effectNotes": "",
    "attackNotes": "",
    "soundEffect": "",
    "changes": [],
    "changeFlags": {
      "loseDexToAC": false,
      "noStr": false,
      "noDex": false,
      "oneInt": false,
      "oneWis": false,
      "oneCha": false,
      "noEncumbrance": false,
      "mediumArmorFullSpeed": false,
      "heavyArmorFullSpeed": false
    },
    "contextNotes": [],
    "links": {
      "children": [],
      "charges": []
    },
    "tag": "",
    "useCustomTag": false,
    "armorProf": {
      "value": [],
      "custom": ""
    },
    "weaponProf": {
      "value": [],
      "custom": ""
    },
    "featType": "classFeat",
    "associations": {
      "classes": [
        [
          "Psychic"
        ]
      ]
    },
    "showInQuickbar": false,
    "nonlethal": false,
    "abilityType": "su",
    "crOffset": "",
    "attack": {
      "parts": []
    }
  },
  "flags": {},
  "img": "systems/pf1/icons/spells/shielding-spirit-2.jpg",
  "effects": []
}