{
  "_id": "UXxK1IKHBtTGhYx1",
  "name": "Order of the Asp",
  "permission": {
    "default": 0
  },
  "type": "feat",
  "data": {
    "description": {
      "value": "<p>Cavaliers belonging to the order of the asp belong to a cutthroat group where ruthless pragmatism and underhanded dealing are the keys to moving up the chain of command. They tend to be brutal, self-centered leaders who reap confidence from their subordinates’ misery.<br><br><strong>Edicts: </strong>An order of the asp cavalier must endeavor to enhance her prestige, wealth, and power, as well as that of her patrons. She must endeavor to maximize her profits and efficiency, directing hirelings and even sacrificing them when doing so would further her goals and make her appear exceptional by comparison.<br><br><strong>Challenge:</strong> Whenever an order of the asp cavalier issues a challenge, she receives a +1 morale bonus on attack and damage rolls made against the target of the challenge so long as it is entangled, exhausted, fatigued, flanked, nauseated, prone, shaken, staggered, or denied its Dexterity bonus to AC. This bonus increases by 1 for every 4 levels the cavalier has.<br><br><strong>Skills:</strong> An order of the asp cavalier adds Knowledge (local) and Sleight of Hand to her list of class skills. The cavalier gains a bonus on Knowledge (local) checks equal to half her cavalier level (minimum +1) as long as the check involves her patrons or organization. She also reduces her armor check penalty when using Sleight of Hand by an amount equal to half her cavalier level (to a minimum of 0).</p>",
      "chat": "",
      "unidentified": ""
    },
    "tags": [],
    "activation": {
      "cost": 1,
      "type": ""
    },
    "unchainedAction": {
      "activation": {
        "cost": 1,
        "type": ""
      }
    },
    "duration": {
      "value": null,
      "units": ""
    },
    "target": {
      "value": ""
    },
    "range": {
      "value": null,
      "units": "",
      "maxIncrements": 1,
      "minValue": null,
      "minUnits": "",
      "long": null
    },
    "uses": {
      "value": 0,
      "max": 0,
      "per": null,
      "autoDeductCharges": true,
      "autoDeductChargesCost": "1"
    },
    "measureTemplate": {
      "type": "",
      "size": "0",
      "overrideColor": false,
      "customColor": "",
      "overrideTexture": false,
      "customTexture": ""
    },
    "attackName": "",
    "actionType": "",
    "attackBonus": "",
    "critConfirmBonus": "",
    "damage": {
      "parts": [],
      "critParts": [],
      "nonCritParts": []
    },
    "attackParts": [],
    "formula": "",
    "ability": {
      "attack": null,
      "damage": null,
      "damageMult": 1,
      "critRange": 20,
      "critMult": 2
    },
    "save": {
      "dc": 0,
      "type": "",
      "description": ""
    },
    "effectNotes": "",
    "attackNotes": "",
    "soundEffect": "",
    "changes": [],
    "changeFlags": {
      "loseDexToAC": false,
      "noStr": false,
      "noDex": false,
      "oneInt": false,
      "oneWis": false,
      "oneCha": false,
      "noEncumbrance": false,
      "mediumArmorFullSpeed": false,
      "heavyArmorFullSpeed": false
    },
    "contextNotes": [],
    "links": {
      "children": [],
      "charges": []
    },
    "tag": "",
    "useCustomTag": false,
    "armorProf": {
      "value": [],
      "custom": ""
    },
    "weaponProf": {
      "value": [],
      "custom": ""
    },
    "featType": "classFeat",
    "associations": {
      "classes": [
        [
          "Cavalier"
        ]
      ]
    },
    "showInQuickbar": false,
    "nonlethal": false,
    "abilityType": "none",
    "crOffset": "",
    "attack": {
      "parts": []
    }
  },
  "flags": {},
  "img": "systems/pf1/icons/items/inventory/banner-green.jpg",
  "effects": []
}