{
  "_id": "PyLk20msMN952TKb",
  "name": "Order of the Blossom",
  "permission": {
    "default": 0
  },
  "type": "feat",
  "data": {
    "description": {
      "value": "<p>Cavaliers of the order of the blossom dedicate their lives to protecting fey, especially those visiting the Material Plane from the First World. These cavaliers might be fey themselves, but even if they aren’t, they exhibit the same whimsy and occasionally cruel sense of humor typical of most denizens of the First World.<br><br><strong>Edicts:</strong> The cavalier cannot refuse a fey’s request for aid unless it will interfere with his existing duties, or he believes the fey seeks to directly oppose his other aims and goals. He must strive to prevent gates to the First World from being exploited or corrupted. If the cavalier encounters&nbsp;<a href=\"https://aonprd.com/MonsterDisplay.aspx?ItemName=Blighted%20Fey%20(Satyr)\">blighted fey</a>&nbsp;or other corrupted fey, he must strive to destroy them.<br><br><strong>Challenge:</strong> Whenever an order of the blossom cavalier issues a challenge, the target of the challenge takes a –1 penalty on saving throws against spells and spell-like abilities used by fey or by the cavalier. This penalty increases by 1 for every 4 levels the cavalier has. An order of the blossom cavalier can’t issue a challenge against any creature of the fey type unless that creature has the blighted fey template.<br><br><strong>Skills:</strong> An order of the blossom cavalier adds Disguise and Knowledge (nature) to his list of class skills. An order of the blossom cavalier can attempt Knowledge (nature) skill checks untrained. Whenever an order of the blossom cavalier attempts a Bluff check to feint in combat, he receives a bonus on the check equal to half his cavalier level (minimum +1).</p>",
      "chat": "",
      "unidentified": ""
    },
    "tags": [],
    "activation": {
      "cost": 1,
      "type": ""
    },
    "unchainedAction": {
      "activation": {
        "cost": 1,
        "type": ""
      }
    },
    "duration": {
      "value": null,
      "units": ""
    },
    "target": {
      "value": ""
    },
    "range": {
      "value": null,
      "units": "",
      "maxIncrements": 1,
      "minValue": null,
      "minUnits": "",
      "long": null
    },
    "uses": {
      "value": 0,
      "max": 0,
      "per": null,
      "autoDeductCharges": true,
      "autoDeductChargesCost": "1"
    },
    "measureTemplate": {
      "type": "",
      "size": "0",
      "overrideColor": false,
      "customColor": "",
      "overrideTexture": false,
      "customTexture": ""
    },
    "attackName": "",
    "actionType": "",
    "attackBonus": "",
    "critConfirmBonus": "",
    "damage": {
      "parts": [],
      "critParts": [],
      "nonCritParts": []
    },
    "attackParts": [],
    "formula": "",
    "ability": {
      "attack": null,
      "damage": null,
      "damageMult": 1,
      "critRange": 20,
      "critMult": 2
    },
    "save": {
      "dc": 0,
      "type": "",
      "description": ""
    },
    "effectNotes": "",
    "attackNotes": "",
    "soundEffect": "",
    "changes": [],
    "changeFlags": {
      "loseDexToAC": false,
      "noStr": false,
      "noDex": false,
      "oneInt": false,
      "oneWis": false,
      "oneCha": false,
      "noEncumbrance": false,
      "mediumArmorFullSpeed": false,
      "heavyArmorFullSpeed": false
    },
    "contextNotes": [],
    "links": {
      "children": [],
      "charges": []
    },
    "tag": "",
    "useCustomTag": false,
    "armorProf": {
      "value": [],
      "custom": ""
    },
    "weaponProf": {
      "value": [],
      "custom": ""
    },
    "featType": "classFeat",
    "associations": {
      "classes": [
        [
          "Cavalier"
        ]
      ]
    },
    "showInQuickbar": false,
    "nonlethal": false,
    "abilityType": "none",
    "crOffset": "",
    "attack": {
      "parts": []
    }
  },
  "flags": {},
  "img": "systems/pf1/icons/items/inventory/banner-green.jpg",
  "effects": []
}