{
  "_id": "EB0PxA27Zn1r425S",
  "name": "Scourge Curse",
  "permission": {
    "default": 0
  },
  "type": "feat",
  "data": {
    "description": {
      "value": "<p>You are a blight on the natural world. Bizarre natural hazards develop within a 300-ft radius around you whenever you linger in a natural area for more than 10 minutes, as @Compendium[pf1.spells.ug4qh4cuh5f9ralf]{Curse Terrain, Lesser}. You cannot choose the hazards or their locations. However, your movement is unimpeded by undergrowth, as a&nbsp;<a href=\"https://aonprd.com/ClassDisplay.aspx?ItemName=Druid\">druid’s woodland stride ability</a>, as plants wither away in your footsteps.</p>\n<p>At 5th level, add @Compendium[pf1.spells.23pgt0f34obki95q]{Feast Of Ashes}&nbsp;to your list of 2nd-level oracle spells known.</p>\n<p>At 10th level, add @Compendium[pf1.spells.1msv71n204g06fbe]{Explosion Of Rot}&nbsp;to your list of 4th-level oracle spells known.</p>\n<p>At 15th level, add @Compendium[pf1.spells.25iy235izs71qlns]{Swarm Skin}&nbsp;to your list of 6th-level oracle spells known.</p>",
      "chat": "",
      "unidentified": ""
    },
    "tags": [],
    "activation": {
      "cost": 1,
      "type": ""
    },
    "unchainedAction": {
      "activation": {
        "cost": 1,
        "type": ""
      }
    },
    "duration": {
      "value": null,
      "units": ""
    },
    "target": {
      "value": ""
    },
    "range": {
      "value": null,
      "units": "",
      "maxIncrements": 1,
      "minValue": null,
      "minUnits": "",
      "long": null
    },
    "uses": {
      "value": 0,
      "max": 0,
      "per": null,
      "autoDeductCharges": true,
      "autoDeductChargesCost": "1"
    },
    "measureTemplate": {
      "type": "",
      "size": "",
      "overrideColor": false,
      "customColor": "",
      "overrideTexture": false,
      "customTexture": ""
    },
    "attackName": "",
    "actionType": "",
    "attackBonus": "",
    "critConfirmBonus": "",
    "damage": {
      "parts": [],
      "critParts": [],
      "nonCritParts": []
    },
    "attackParts": [],
    "formula": "",
    "ability": {
      "attack": null,
      "damage": null,
      "damageMult": 1,
      "critRange": 20,
      "critMult": 2
    },
    "save": {
      "dc": 0,
      "type": "",
      "description": ""
    },
    "effectNotes": "",
    "attackNotes": "",
    "soundEffect": "",
    "changes": [],
    "changeFlags": {
      "loseDexToAC": false,
      "noStr": false,
      "noDex": false,
      "oneInt": false,
      "oneWis": false,
      "oneCha": false,
      "noEncumbrance": false,
      "mediumArmorFullSpeed": false,
      "heavyArmorFullSpeed": false
    },
    "contextNotes": [],
    "links": {
      "children": [],
      "charges": []
    },
    "tag": "",
    "useCustomTag": false,
    "armorProf": {
      "value": [],
      "custom": ""
    },
    "weaponProf": {
      "value": [],
      "custom": ""
    },
    "featType": "classFeat",
    "associations": {
      "classes": [
        [
          "Oracle"
        ]
      ]
    },
    "showInQuickbar": false,
    "nonlethal": false,
    "abilityType": "none",
    "crOffset": "",
    "attack": {
      "parts": []
    }
  },
  "flags": {},
  "img": "systems/pf1/icons/spells/horror-eerie-1.jpg",
  "effects": []
}