{
  "_id": "p3vSX7iEtJro5gjT",
  "name": "Shapechanger Bloodrager Bloodline",
  "permission": {
    "default": 0
  },
  "type": "feat",
  "data": {
    "description": {
      "value": "<p><em>The blood of doppelgangers, faceless stalkers, lycanthropes, or other shapechangers courses through your veins.</em><br><br><strong>Bonus Feats:</strong></p>\n<ul>\n<li>@Compendium[pf1.feats.JreaiTHdyWFNj3Tb]{Dodge}</li>\n<li>@Compendium[pf1.feats.BkKYCzEGNTzZRiTz]{Fleet}</li>\n<li>@Compendium[pf1.feats.Uuiu3p982omhMEPj]{Improved Initiative}</li>\n<li>@Compendium[pf1.feats.2aTFNMs3pW6nUBlr]{Improved Unarmed Strike}</li>\n<li>@Compendium[pf1.feats.0bZf3SDkvVOe2ujH]{Lightning Reflexes}</li>\n<li>@Compendium[pf1.feats.FUW5mIXHNBBIQ1Sq]{Power Attack}</li>\n<li>@Compendium[pf1.feats.n250dFlbykAIAg5Z]{Weapon Focus}</li>\n</ul>\n<p><strong>Bonus Spells:&nbsp;</strong></p>\n<ul>\n<li>@Compendium[pf1.spells.jnlr9cuepka1l26e]{Enlarge Person} (7th),&nbsp;</li>\n<li>@Compendium[pf1.spells.kouqz0pm1xl8xilm]{Alter Self} (10th),&nbsp;</li>\n<li>@Compendium[pf1.spells.7d6sv5ecvi7kho3m]{Fly} (13th),&nbsp;</li>\n<li>@Compendium[pf1.spells.knyako6zopc1chrv]{Stoneskin} (16th)</li>\n</ul>",
      "chat": "",
      "unidentified": ""
    },
    "tags": [],
    "activation": {
      "cost": 1,
      "type": ""
    },
    "unchainedAction": {
      "activation": {
        "cost": 1,
        "type": ""
      }
    },
    "duration": {
      "value": null,
      "units": ""
    },
    "target": {
      "value": ""
    },
    "range": {
      "value": null,
      "units": "",
      "maxIncrements": 1,
      "minValue": null,
      "minUnits": "",
      "long": null
    },
    "uses": {
      "value": 0,
      "max": 0,
      "per": null,
      "autoDeductCharges": true,
      "autoDeductChargesCost": "1"
    },
    "measureTemplate": {
      "type": "",
      "size": "",
      "overrideColor": false,
      "customColor": "",
      "overrideTexture": false,
      "customTexture": ""
    },
    "attackName": "",
    "actionType": "",
    "attackBonus": "",
    "critConfirmBonus": "",
    "damage": {
      "parts": [],
      "critParts": [],
      "nonCritParts": []
    },
    "attackParts": [],
    "formula": "",
    "ability": {
      "attack": null,
      "damage": null,
      "damageMult": 1,
      "critRange": 20,
      "critMult": 2
    },
    "save": {
      "dc": 0,
      "type": "",
      "description": ""
    },
    "effectNotes": "",
    "attackNotes": "",
    "soundEffect": "",
    "changes": [],
    "changeFlags": {
      "loseDexToAC": false,
      "noStr": false,
      "noDex": false,
      "oneInt": false,
      "oneWis": false,
      "oneCha": false,
      "noEncumbrance": false,
      "mediumArmorFullSpeed": false,
      "heavyArmorFullSpeed": false
    },
    "contextNotes": [],
    "links": {
      "children": [],
      "charges": []
    },
    "tag": "",
    "useCustomTag": false,
    "armorProf": {
      "value": [],
      "custom": ""
    },
    "weaponProf": {
      "value": [],
      "custom": ""
    },
    "featType": "classFeat",
    "associations": {
      "classes": [
        [
          "Bloodrager"
        ]
      ]
    },
    "showInQuickbar": false,
    "nonlethal": false,
    "abilityType": "none",
    "crOffset": "",
    "attack": {
      "parts": []
    }
  },
  "flags": {},
  "img": "systems/pf1/icons/skills/red_13.jpg",
  "effects": []
}