{
  "_id": "so6l6RO4mB8A2r1q",
  "name": "Wolfscarred Face Curse",
  "permission": {
    "default": 0
  },
  "type": "feat",
  "data": {
    "description": {
      "value": "<p>Your face is deformed, as though you were born with a wolf ’s muzzle instead of an ordinary nose and jaw. Many mistake you for a werewolf, and in areas plagued by lycanthropes, you must take pains to hide your face. You have a severe speech impediment, and any spells you cast with a verbal component have a 20% chance of failing, wasting your action but not expending the spell. You gain a natural bite attack that deals 1d4 points of damage if you are a Medium creature or 1d3 points of damage if you are Small.</p>\n<p>At 5th level, you add @Compendium[pf1.spells.cfzk3vkv1c7ncaug]{Magic Fang} to your list of known spells and your bite damage increases to 1d6 if you are Medium or 1d4 if you are Small.</p>\n<p>At 10th level, the damage dealt by your bite attack increases to 1d8 if you are Medium or 1d6 if you are Small.</p>\n<p>At 15th level, you add @Compendium[pf1.spells.bgtmki0xl4xl4y91]{Magic Fang, Greater} to your list of known spells and the damage dealt by your bite attack increases to 2d6 if you are Medium or 1d8 if you are Small.</p>",
      "chat": "",
      "unidentified": ""
    },
    "tags": [],
    "activation": {
      "cost": 1,
      "type": ""
    },
    "unchainedAction": {
      "activation": {
        "cost": 1,
        "type": ""
      }
    },
    "duration": {
      "value": null,
      "units": ""
    },
    "target": {
      "value": ""
    },
    "range": {
      "value": null,
      "units": "",
      "maxIncrements": 1,
      "minValue": null,
      "minUnits": "",
      "long": null
    },
    "uses": {
      "value": 0,
      "max": 0,
      "per": null,
      "autoDeductCharges": true,
      "autoDeductChargesCost": "1"
    },
    "measureTemplate": {
      "type": "",
      "size": "",
      "overrideColor": false,
      "customColor": "",
      "overrideTexture": false,
      "customTexture": ""
    },
    "attackName": "",
    "actionType": "",
    "attackBonus": "",
    "critConfirmBonus": "",
    "damage": {
      "parts": [],
      "critParts": [],
      "nonCritParts": []
    },
    "attackParts": [],
    "formula": "",
    "ability": {
      "attack": null,
      "damage": null,
      "damageMult": 1,
      "critRange": 20,
      "critMult": 2
    },
    "save": {
      "dc": 0,
      "type": "",
      "description": ""
    },
    "effectNotes": "",
    "attackNotes": "",
    "soundEffect": "",
    "changes": [],
    "changeFlags": {
      "loseDexToAC": false,
      "noStr": false,
      "noDex": false,
      "oneInt": false,
      "oneWis": false,
      "oneCha": false,
      "noEncumbrance": false,
      "mediumArmorFullSpeed": false,
      "heavyArmorFullSpeed": false
    },
    "contextNotes": [],
    "links": {
      "children": [],
      "charges": []
    },
    "tag": "",
    "useCustomTag": false,
    "armorProf": {
      "value": [],
      "custom": ""
    },
    "weaponProf": {
      "value": [],
      "custom": ""
    },
    "featType": "classFeat",
    "associations": {
      "classes": [
        [
          "Oracle"
        ]
      ]
    },
    "showInQuickbar": false,
    "nonlethal": false,
    "abilityType": "none",
    "crOffset": "",
    "attack": {
      "parts": []
    }
  },
  "flags": {},
  "img": "systems/pf1/icons/spells/horror-eerie-1.jpg",
  "effects": []
}