{
  "_id": "HM6fhAZyzFiU1ouf",
  "name": "Wood Mystery",
  "permission": {
    "default": 0
  },
  "type": "feat",
  "data": {
    "description": {
      "value": "<p><strong>Class Skills:</strong> An oracle with the wood mystery adds Climb, Knowledge (nature), Stealth, and Survival to her list of class skills.<br><br><strong>Bonus Spells:</strong>&nbsp;</p>\n<ul>\n<li>@Compendium[pf1.spells.v05u8sl116ab2n9c]{Shillelagh} (2nd),&nbsp;</li>\n<li>@Compendium[pf1.spells.la7kuehewu85ybnt]{Barkskin} (4th),&nbsp;</li>\n<li>@Compendium[pf1.spells.jsvjsax2eabrlx8g]{Minor Creation} (wood items only) (6th),&nbsp;</li>\n<li>@Compendium[pf1.spells.818uuekrao87o57u]{Thorn Body} (8th),&nbsp;</li>\n<li>@Compendium[pf1.spells.6x6epf4g5wgzl1gh]{Tree Stride} (10th),&nbsp;</li>\n<li>@Compendium[pf1.spells.xmacjpo6tgm1xhnv]{Ironwood} (12th),&nbsp;</li>\n<li>@Compendium[pf1.spells.3fravqa4vrm4ygkr]{Transmute Metal to Wood} (14th),&nbsp;</li>\n<li>@Compendium[pf1.spells.cp5m19me647dojha]{Changestaff} (16th),&nbsp;</li>\n<li>@Compendium[pf1.spells.9fd7mcoint902oyb]{Wooden Phalanx} (18th).</li>\n</ul>",
      "chat": "",
      "unidentified": ""
    },
    "tags": [],
    "activation": {
      "cost": 1,
      "type": ""
    },
    "unchainedAction": {
      "activation": {
        "cost": 1,
        "type": ""
      }
    },
    "duration": {
      "value": null,
      "units": ""
    },
    "target": {
      "value": ""
    },
    "range": {
      "value": null,
      "units": "",
      "maxIncrements": 1,
      "minValue": null,
      "minUnits": "",
      "long": null
    },
    "uses": {
      "value": 0,
      "max": 0,
      "per": null,
      "autoDeductCharges": true,
      "autoDeductChargesCost": "1"
    },
    "measureTemplate": {
      "type": "",
      "size": "",
      "overrideColor": false,
      "customColor": "",
      "overrideTexture": false,
      "customTexture": ""
    },
    "attackName": "",
    "actionType": "",
    "attackBonus": "",
    "critConfirmBonus": "",
    "damage": {
      "parts": [],
      "critParts": [],
      "nonCritParts": []
    },
    "attackParts": [],
    "formula": "",
    "ability": {
      "attack": null,
      "damage": null,
      "damageMult": 1,
      "critRange": 20,
      "critMult": 2
    },
    "save": {
      "dc": 0,
      "type": "",
      "description": ""
    },
    "effectNotes": "",
    "attackNotes": "",
    "soundEffect": "",
    "changes": [],
    "changeFlags": {
      "loseDexToAC": false,
      "noStr": false,
      "noDex": false,
      "oneInt": false,
      "oneWis": false,
      "oneCha": false,
      "noEncumbrance": false,
      "mediumArmorFullSpeed": false,
      "heavyArmorFullSpeed": false
    },
    "contextNotes": [],
    "links": {
      "children": [],
      "charges": []
    },
    "tag": "",
    "useCustomTag": false,
    "armorProf": {
      "value": [],
      "custom": ""
    },
    "weaponProf": {
      "value": [],
      "custom": ""
    },
    "featType": "classFeat",
    "associations": {
      "classes": [
        [
          "Oracle"
        ]
      ]
    },
    "showInQuickbar": false,
    "nonlethal": false,
    "abilityType": "none",
    "crOffset": "",
    "attack": {
      "parts": []
    }
  },
  "flags": {},
  "img": "systems/pf1/icons/spells/light-magenta-2.jpg",
  "effects": []
}