{
  "_id": "D2huasedfGMSetP7",
  "name": "Bane",
  "permission": {
    "default": 0
  },
  "type": "buff",
  "data": {
    "description": {
      "value": "<p>You take a -1 penalty on attack rolls and saving throws vs fear effects.</p>",
      "chat": "",
      "unidentified": ""
    },
    "tags": [],
    "changes": [
      {
        "_id": "naa3gpnz",
        "formula": "-1",
        "operator": "+",
        "target": "attack",
        "subTarget": "attack",
        "modifier": "untyped",
        "priority": 0,
        "value": 0
      }
    ],
    "changeFlags": {
      "loseDexToAC": false,
      "noStr": false,
      "noDex": false,
      "oneInt": false,
      "oneWis": false,
      "oneCha": false,
      "noEncumbrance": false,
      "mediumArmorFullSpeed": false,
      "heavyArmorFullSpeed": false
    },
    "contextNotes": [
      {
        "formula": "",
        "operator": "+",
        "target": "savingThrows",
        "subTarget": "allSavingThrows",
        "modifier": "",
        "priority": 0,
        "value": 0,
        "text": "-[[1]] vs Fear effects"
      }
    ],
    "links": {
      "children": []
    },
    "buffType": "temp",
    "active": false,
    "level": "",
    "hideFromToken": false,
    "damage": {
      "parts": []
    }
  },
  "sort": 100001,
  "flags": {},
  "img": "systems/pf1/icons/spells/evil-eye-eerie-1.jpg",
  "effects": []
}