{
  "_id": "se3kb4roqvsvfcsq",
  "name": "Air Step",
  "permission": {
    "default": 0
  },
  "type": "spell",
  "data": {
    "description": {
      "value": "<div class=\"spell-description\">\n  <p>\n    <strong>School</strong>&nbsp;transmutation&nbsp;[air];\n    <strong>Level</strong>&nbsp;alchemist 2, bard 2, cleric/oracle 2, druid 2, hunter 2, occultist 2, ranger 2, sorcerer/wizard 2, witch 2;\n    \n    \n    \n    \n  </p>\n  <p>\n    <strong>Casting Time</strong>&nbsp;1 standard action<br>\n    <strong>Components</strong>&nbsp;V, S, M (a goose feather)<br>\n  </p>\n  <p>\n    <strong>Range</strong>&nbsp;personal<br>\n    \n    <strong>Targets</strong>&nbsp;you<br>\n    \n    <strong>Duration</strong>&nbsp;1 minute/level<br>\n    \n  </p>\n  <h2>Description</h2>\n  <p>This spell functions as <i>air walk</i>, except you can rise no higher than 1 foot off the ground, you cannot pass over liquid, and the air you walk on is less stable than solid ground. When walking on air, you ignore difficult terrain that is less than 1 foot high, you do not trigger effects based on weight (such as a pressure plate), and any creature trying to track you through areas you crossed with this spell takes a -10 penalty on its Perception or Survival check to do so. However, because of the instability of the air you walk on, your speed is reduced by 10 feet (to a minimum of 5 feet) and you take a -4 penalty on Acrobatics, Climb, and Ride checks.</p><p>If you have 1 rank in Fly, your speed is not reduced when using this spell, and you can cross over liquid at half speed.</p><p>If you have 5 ranks in Fly, you can cross liquid at full speed and do not take the penalties to your skill checks.</p>\n</div>\n",
      "chat": "",
      "unidentified": ""
    },
    "tags": [],
    "activation": {
      "cost": 1,
      "type": "standard"
    },
    "unchainedAction": {
      "activation": {
        "cost": 2,
        "type": "action"
      }
    },
    "duration": {
      "value": null,
      "units": ""
    },
    "target": {
      "value": "you"
    },
    "range": {
      "value": null,
      "units": "personal",
      "maxIncrements": 1,
      "minValue": null,
      "minUnits": ""
    },
    "uses": {
      "value": 0,
      "max": 0,
      "per": "",
      "autoDeductCharges": true,
      "autoDeductChargesCost": "1"
    },
    "measureTemplate": {
      "type": "",
      "size": "0",
      "overrideColor": false,
      "customColor": "",
      "overrideTexture": false,
      "customTexture": ""
    },
    "attackName": "",
    "actionType": "",
    "attackBonus": "",
    "critConfirmBonus": "",
    "damage": {
      "parts": [],
      "critParts": [],
      "nonCritParts": []
    },
    "attackParts": [],
    "formula": "",
    "ability": {
      "attack": "",
      "damage": "",
      "damageMult": 1,
      "critRange": 20,
      "critMult": 2
    },
    "save": {
      "dc": "0",
      "type": "",
      "description": ""
    },
    "effectNotes": "",
    "attackNotes": "",
    "soundEffect": "",
    "links": {
      "children": []
    },
    "learnedAt": {
      "class": [
        [
          "sorcerer/wizard",
          2
        ],
        [
          "cleric/oracle",
          2
        ],
        [
          "druid",
          2
        ],
        [
          "ranger",
          2
        ],
        [
          "bard",
          2
        ],
        [
          "alchemist",
          2
        ],
        [
          "witch",
          2
        ],
        [
          "occultist",
          2
        ],
        [
          "hunter",
          2
        ]
      ],
      "domain": [],
      "subDomain": [],
      "elementalSchool": [],
      "bloodline": []
    },
    "level": 2,
    "clOffset": 0,
    "slOffset": 0,
    "school": "trs",
    "subschool": "",
    "types": "air",
    "nonlethal": false,
    "conditionals": [],
    "components": {
      "value": "",
      "verbal": true,
      "somatic": true,
      "material": true,
      "focus": false,
      "divineFocus": 0
    },
    "castTime": "",
    "materials": {
      "value": "a goose feather",
      "focus": "",
      "gpValue": 0
    },
    "spellbook": "primary",
    "preparation": {
      "preparedAmount": 0,
      "maxAmount": 0,
      "autoDeductCharges": true,
      "spontaneousPrepared": true,
      "mode": "prepared"
    },
    "atWill": false,
    "sr": false,
    "shortDescription": "<p>This spell functions as <i>air walk</i>, except you can rise no higher than 1 foot off the ground, you cannot pass over liquid, and the air you walk on is less stable than solid ground. When walking on air, you ignore difficult terrain that is less than 1 foot high, you do not trigger effects based on weight (such as a pressure plate), and any creature trying to track you through areas you crossed with this spell takes a -10 penalty on its Perception or Survival check to do so. However, because of the instability of the air you walk on, your speed is reduced by 10 feet (to a minimum of 5 feet) and you take a -4 penalty on Acrobatics, Climb, and Ride checks.</p><p>If you have 1 rank in Fly, your speed is not reduced when using this spell, and you can cross over liquid at half speed.</p><p>If you have 5 ranks in Fly, you can cross liquid at full speed and do not take the penalties to your skill checks.</p>",
    "spellDuration": "1 minute/level",
    "spellEffect": "",
    "spellArea": "",
    "showInQuickbar": false,
    "spellPoints": {
      "cost": "1 + @sl"
    },
    "domain": false,
    "slotCost": 1
  },
  "flags": {},
  "img": "systems/pf1/icons/misc/magic-swirl.png",
  "effects": []
}