{
  "_id": "s7o5skukxrg2yvh7",
  "name": "Alleviate Corruption",
  "permission": {
    "default": 0
  },
  "type": "spell",
  "data": {
    "description": {
      "value": "<div class=\"spell-description\">\n  <p>\n    <strong>School</strong>&nbsp;abjuration;\n    <strong>Level</strong>&nbsp;cleric/oracle 6, psychic 6, shaman 6, spiritualist 6, witch 6;\n    \n    \n    \n    \n  </p>\n  <p>\n    <strong>Casting Time</strong>&nbsp;1 minute<br>\n    <strong>Components</strong>&nbsp;V, S<br>\n  </p>\n  <p>\n    <strong>Range</strong>&nbsp;touch<br>\n    \n    <strong>Targets</strong>&nbsp;one creature other than yourself<br>\n    \n    <strong>Duration</strong>&nbsp;instantaneous<br>\n    <strong>Saving Throw</strong>&nbsp;Will negates (harmless);&nbsp;<strong>Spell Resistance</strong>&nbsp;yes<br>\n  </p>\n  <h2>Description</h2>\n  <p>You combat the rising corruption (see page 14) in another creature or advance the long-term process of exorcising it entirely. This spell has two purposes, and you choose which application to use at the time of casting.  <i>Combat Corruption</i>: Each time a creature fails a saving throw to prevent its corruption from progressing (as described in that  corruption's Progression section), it advances to the next corruption stage-at stage 3, it loses the battle against its corruption. Using this spell can lower the target's corruption stage by 1. This has no effect if the target isn't at progression stage of 1 or higher.  <i>Remove Corruption</i>: You can remove 1 manifestation level from the target creature, as well as the most recently acquired manifestation and its corresponding gift and stain. Doing this also reduces the power of gifts and stains that vary based upon manifestation level. This application of <i>alleviate corruption</i> doesn't reduce the target's corruption stage. If the target creature loses all manifestation levels, it is cured of the corruption.  Either application of the spell requires a caster level check. The DC is equal to 10 + double the target's manifestation level + 3 times the target's corruption stage (effectively 0, 3, or 6, since stage 3 removes the character from player control).  Tampering with corruptions is dangerous, as their nature is contagious. If you fail this caster level check by 5 or more, you contract the corruption and gain a manifestation (the rules for the useful and vile corruption variants still apply). A roll of natural 1 on the caster level check is an automatic failure. If you already have the same corruption, you must instead attempt an immediate saving throw against it. Casting <i>alleviate corruption</i> on yourself automatically fails, as does casting it on a target who has fully succumbed to a corruption (failed three saving throws against it). A creature can be the beneficiary of this spell only once per week, whether it succeeds or not.</p>\n</div>\n",
      "chat": "",
      "unidentified": ""
    },
    "tags": [],
    "activation": {
      "cost": 1,
      "type": "minute"
    },
    "unchainedAction": {
      "activation": {
        "cost": 1,
        "type": "minute"
      }
    },
    "duration": {
      "value": null,
      "units": ""
    },
    "target": {
      "value": "one creature other than yourself"
    },
    "range": {
      "value": null,
      "units": "touch",
      "maxIncrements": 1,
      "minValue": null,
      "minUnits": ""
    },
    "uses": {
      "value": 0,
      "max": 0,
      "per": "",
      "autoDeductCharges": true,
      "autoDeductChargesCost": "1"
    },
    "measureTemplate": {
      "type": "",
      "size": "0",
      "overrideColor": false,
      "customColor": "",
      "overrideTexture": false,
      "customTexture": ""
    },
    "attackName": "",
    "actionType": "spellsave",
    "attackBonus": "",
    "critConfirmBonus": "",
    "damage": {
      "parts": [],
      "critParts": [],
      "nonCritParts": []
    },
    "attackParts": [],
    "formula": "",
    "ability": {
      "attack": "",
      "damage": "",
      "damageMult": 1,
      "critRange": 20,
      "critMult": 2
    },
    "save": {
      "dc": "0",
      "type": "will",
      "description": "Will negates (harmless)"
    },
    "effectNotes": "",
    "attackNotes": "",
    "soundEffect": "",
    "links": {
      "children": []
    },
    "learnedAt": {
      "class": [
        [
          "cleric/oracle",
          6
        ],
        [
          "witch",
          6
        ],
        [
          "shaman",
          6
        ],
        [
          "psychic",
          6
        ],
        [
          "spiritualist",
          6
        ]
      ],
      "domain": [],
      "subDomain": [],
      "elementalSchool": [],
      "bloodline": []
    },
    "level": 6,
    "clOffset": 0,
    "slOffset": 0,
    "school": "abj",
    "subschool": "",
    "types": "",
    "nonlethal": false,
    "conditionals": [],
    "components": {
      "value": "",
      "verbal": true,
      "somatic": true,
      "material": false,
      "focus": false,
      "divineFocus": 0
    },
    "castTime": "",
    "materials": {
      "value": "",
      "focus": "",
      "gpValue": 0
    },
    "spellbook": "primary",
    "preparation": {
      "preparedAmount": 0,
      "maxAmount": 0,
      "autoDeductCharges": true,
      "spontaneousPrepared": true,
      "mode": "prepared"
    },
    "atWill": false,
    "sr": true,
    "shortDescription": "<p>You combat the rising corruption (see page 14) in another creature or advance the long-term process of exorcising it entirely. This spell has two purposes, and you choose which application to use at the time of casting.  <i>Combat Corruption</i>: Each time a creature fails a saving throw to prevent its corruption from progressing (as described in that  corruption's Progression section), it advances to the next corruption stage-at stage 3, it loses the battle against its corruption. Using this spell can lower the target's corruption stage by 1. This has no effect if the target isn't at progression stage of 1 or higher.  <i>Remove Corruption</i>: You can remove 1 manifestation level from the target creature, as well as the most recently acquired manifestation and its corresponding gift and stain. Doing this also reduces the power of gifts and stains that vary based upon manifestation level. This application of <i>alleviate corruption</i> doesn't reduce the target's corruption stage. If the target creature loses all manifestation levels, it is cured of the corruption.  Either application of the spell requires a caster level check. The DC is equal to 10 + double the target's manifestation level + 3 times the target's corruption stage (effectively 0, 3, or 6, since stage 3 removes the character from player control).  Tampering with corruptions is dangerous, as their nature is contagious. If you fail this caster level check by 5 or more, you contract the corruption and gain a manifestation (the rules for the useful and vile corruption variants still apply). A roll of natural 1 on the caster level check is an automatic failure. If you already have the same corruption, you must instead attempt an immediate saving throw against it. Casting <i>alleviate corruption</i> on yourself automatically fails, as does casting it on a target who has fully succumbed to a corruption (failed three saving throws against it). A creature can be the beneficiary of this spell only once per week, whether it succeeds or not.</p>",
    "spellDuration": "instantaneous",
    "spellEffect": "",
    "spellArea": "",
    "showInQuickbar": false,
    "spellPoints": {
      "cost": "1 + @sl"
    },
    "domain": false,
    "slotCost": 1
  },
  "flags": {},
  "img": "systems/pf1/icons/misc/magic-swirl.png",
  "effects": []
}