{
  "_id": "hh6zfpev2qgawfmy",
  "name": "Alter River",
  "permission": {
    "default": 0
  },
  "type": "spell",
  "data": {
    "description": {
      "value": "<div class=\"spell-description\">\n  <p>\n    <strong>School</strong>&nbsp;transmutation&nbsp;[water];\n    <strong>Level</strong>&nbsp;cleric/oracle 4, druid 4, hunter 4, sorcerer/wizard 5;\n    \n    \n    \n    \n  </p>\n  <p>\n    <strong>Casting Time</strong>&nbsp;1 standard action<br>\n    <strong>Components</strong>&nbsp;V, S, M (silt from a dry riverbed)<br>\n  </p>\n  <p>\n    <strong>Range</strong>&nbsp;medium (100 ft. + 10 ft./level)<br>\n    \n    <strong>Targets</strong>&nbsp;area of river up to 5 ft. wide/2 levels and 10 ft. long/level<br>\n    \n    <strong>Duration</strong>&nbsp;1 minute/level (D)<br>\n    <strong>Saving Throw</strong>&nbsp;none;&nbsp;<strong>Spell Resistance</strong>&nbsp;no<br>\n  </p>\n  <h2>Description</h2>\n  <p>You alter the flow of water in a natural freshwater channel such as a river, stream, or waterfall. The first version of this spell alters the speed of a river's flow. The second diverts the course of the targeted river.</p><p><i>Alter Current</i>: The river's current increases or decreases in speed by up to 1 mile per hour per 2 caster levels you possess. A typical placid river travels at a rate of up to 2 mph (no effect on local movement); a swift river travels 2-4 mph, moving creatures and objects 10 to 40 feet downstream per round; and an area of river rapids travels 7-10 mph, moving creatures and objects 60 to 90 feet downstream per round. Altering the speed of the current alters the difficulty of swimming in the water accordingly.</p><p><i>Divert River</i>: The river diverts its course in a direction of your choosing. The river flows in the general direction indicated, but otherwise conforms to the shape of the local terrain. This spell cannot cause a river to flow uphill, though the river surges over its natural banks and inundates terrain lower than its average depth. Creatures in the path of the redirected river are in danger of being swept away; if directed properly, this spell causes a flood. See Aquatic Terrain on page 432 of the <i>Core Rulebook</i> for more details.</p><p><i>Alter river</i> can be made permanent with a <i>permanency</i> spell.</p><p>Clever application of spells such as <i>move earth</i> can be combined with this spell to likewise make the river's new course permanent.</p>\n</div>\n",
      "chat": "",
      "unidentified": ""
    },
    "tags": [],
    "activation": {
      "cost": 1,
      "type": "standard"
    },
    "unchainedAction": {
      "activation": {
        "cost": 2,
        "type": "action"
      }
    },
    "duration": {
      "value": null,
      "units": ""
    },
    "target": {
      "value": "area of river up to 5 ft. wide/2 levels and 10 ft. long/level"
    },
    "range": {
      "value": null,
      "units": "medium",
      "maxIncrements": 1,
      "minValue": null,
      "minUnits": ""
    },
    "uses": {
      "value": 0,
      "max": 0,
      "per": "",
      "autoDeductCharges": true,
      "autoDeductChargesCost": "1"
    },
    "measureTemplate": {
      "type": "",
      "size": "0",
      "overrideColor": false,
      "customColor": "",
      "overrideTexture": false,
      "customTexture": ""
    },
    "attackName": "",
    "actionType": "",
    "attackBonus": "",
    "critConfirmBonus": "",
    "damage": {
      "parts": [],
      "critParts": [],
      "nonCritParts": []
    },
    "attackParts": [],
    "formula": "",
    "ability": {
      "attack": "",
      "damage": "",
      "damageMult": 1,
      "critRange": 20,
      "critMult": 2
    },
    "save": {
      "dc": "0",
      "type": "",
      "description": ""
    },
    "effectNotes": "",
    "attackNotes": "",
    "soundEffect": "",
    "links": {
      "children": []
    },
    "learnedAt": {
      "class": [
        [
          "sorcerer/wizard",
          5
        ],
        [
          "cleric/oracle",
          4
        ],
        [
          "druid",
          4
        ],
        [
          "hunter",
          4
        ]
      ],
      "domain": [],
      "subDomain": [],
      "elementalSchool": [],
      "bloodline": []
    },
    "level": 5,
    "clOffset": 0,
    "slOffset": 0,
    "school": "trs",
    "subschool": "",
    "types": "water",
    "nonlethal": false,
    "conditionals": [],
    "components": {
      "value": "",
      "verbal": true,
      "somatic": true,
      "material": true,
      "focus": false,
      "divineFocus": 0
    },
    "castTime": "",
    "materials": {
      "value": "silt from a dry riverbed",
      "focus": "",
      "gpValue": 0
    },
    "spellbook": "primary",
    "preparation": {
      "preparedAmount": 0,
      "maxAmount": 0,
      "autoDeductCharges": true,
      "spontaneousPrepared": true,
      "mode": "prepared"
    },
    "atWill": false,
    "sr": false,
    "shortDescription": "<p>You alter the flow of water in a natural freshwater channel such as a river, stream, or waterfall. The first version of this spell alters the speed of a river's flow. The second diverts the course of the targeted river.</p><p><i>Alter Current</i>: The river's current increases or decreases in speed by up to 1 mile per hour per 2 caster levels you possess. A typical placid river travels at a rate of up to 2 mph (no effect on local movement); a swift river travels 2-4 mph, moving creatures and objects 10 to 40 feet downstream per round; and an area of river rapids travels 7-10 mph, moving creatures and objects 60 to 90 feet downstream per round. Altering the speed of the current alters the difficulty of swimming in the water accordingly.</p><p><i>Divert River</i>: The river diverts its course in a direction of your choosing. The river flows in the general direction indicated, but otherwise conforms to the shape of the local terrain. This spell cannot cause a river to flow uphill, though the river surges over its natural banks and inundates terrain lower than its average depth. Creatures in the path of the redirected river are in danger of being swept away; if directed properly, this spell causes a flood. See Aquatic Terrain on page 432 of the <i>Core Rulebook</i> for more details.</p><p><i>Alter river</i> can be made permanent with a <i>permanency</i> spell.</p><p>Clever application of spells such as <i>move earth</i> can be combined with this spell to likewise make the river's new course permanent.</p>",
    "spellDuration": "1 minute/level (D)",
    "spellEffect": "",
    "spellArea": "",
    "showInQuickbar": false,
    "spellPoints": {
      "cost": "1 + @sl"
    },
    "domain": false,
    "slotCost": 1
  },
  "flags": {},
  "img": "systems/pf1/icons/misc/magic-swirl.png",
  "effects": []
}