{
  "_id": "ujykn701inq3hm2n",
  "name": "Angelic Aspect, Greater",
  "permission": {
    "default": 0
  },
  "type": "spell",
  "data": {
    "description": {
      "value": "<div class=\"spell-description\">\n  <p>\n    <strong>School</strong>&nbsp;transmutation&nbsp;[good];\n    <strong>Level</strong>&nbsp;cleric/oracle 8, paladin 4, sorcerer/wizard 8;\n    \n    \n    \n    \n  </p>\n  <p>\n    <strong>Casting Time</strong>&nbsp;1 standard action<br>\n    <strong>Components</strong>&nbsp;V, S<br>\n  </p>\n  <p>\n    <strong>Range</strong>&nbsp;personal<br>\n    \n    <strong>Targets</strong>&nbsp;you<br>\n    \n    <strong>Duration</strong>&nbsp;1 minute/level (D)<br>\n  </p>\n  <h2>Description</h2>\n  <p>This spell functions like @Compendium[pf1.spells.4ratngmltr3z4om5]{lesser angelic aspect}, except you gain low-light vision; darkvision 60 feet; DR 10/evil; immunity to acid, cold, and petrification; resistance to electricity 10 and fire 10; a +4 racial bonus on saves against poison; and protective aura and truespeech as supernatural abilities for the duration of the spell. Also, your wings give you a fly speed of 60 feet with good maneuverability. Protective aura provides a +4 deflection bonus to AC and a +4 resistance bonus on saving throws against attacks made or effects created by evil creatures to anyone within 20 feet. Otherwise, it functions as a @Compendium[pf1.spells.1i8b1v3dngkxj6jp]{magic circle against evil} and a @Compendium[pf1.spells.exwa9xra4u82j0sx]{lesser globe of invulnerability}, both with a radius of 20 feet. Truespeech allows you to speak with any creature that has a language, as though using the @Compendium[pf1.spells.m1rmcpcaixcpz9ib]{tongues} spell.</p>\n</div>\n",
      "chat": "",
      "unidentified": ""
    },
    "tags": [],
    "activation": {
      "cost": 1,
      "type": "standard"
    },
    "unchainedAction": {
      "activation": {
        "cost": 2,
        "type": "action"
      }
    },
    "duration": {
      "value": null,
      "units": ""
    },
    "target": {
      "value": "you"
    },
    "range": {
      "value": null,
      "units": "personal",
      "maxIncrements": 1,
      "minValue": null,
      "minUnits": ""
    },
    "uses": {
      "value": 0,
      "max": 0,
      "per": "",
      "autoDeductCharges": true,
      "autoDeductChargesCost": "1"
    },
    "measureTemplate": {
      "type": "",
      "size": "0",
      "overrideColor": false,
      "customColor": "",
      "overrideTexture": false,
      "customTexture": ""
    },
    "attackName": "",
    "actionType": "",
    "attackBonus": "",
    "critConfirmBonus": "",
    "damage": {
      "parts": [],
      "critParts": [],
      "nonCritParts": []
    },
    "attackParts": [],
    "formula": "",
    "ability": {
      "attack": "",
      "damage": "",
      "damageMult": 1,
      "critRange": 20,
      "critMult": 2
    },
    "save": {
      "dc": "0",
      "type": "",
      "description": ""
    },
    "effectNotes": "",
    "attackNotes": "",
    "soundEffect": "",
    "links": {
      "children": []
    },
    "learnedAt": {
      "class": [
        [
          "sorcerer/wizard",
          8
        ],
        [
          "cleric/oracle",
          8
        ],
        [
          "paladin",
          4
        ]
      ],
      "domain": [],
      "subDomain": [],
      "elementalSchool": [],
      "bloodline": []
    },
    "level": 8,
    "clOffset": 0,
    "slOffset": 0,
    "school": "trs",
    "subschool": "",
    "types": "good",
    "nonlethal": false,
    "conditionals": [],
    "components": {
      "value": "",
      "verbal": true,
      "somatic": true,
      "material": false,
      "focus": false,
      "divineFocus": 0
    },
    "castTime": "",
    "materials": {
      "value": "",
      "focus": "",
      "gpValue": 0
    },
    "spellbook": "",
    "preparation": {
      "preparedAmount": 0,
      "maxAmount": 0,
      "autoDeductCharges": true,
      "spontaneousPrepared": true,
      "mode": "prepared"
    },
    "atWill": false,
    "sr": false,
    "shortDescription": "<p>This spell functions like @Compendium[pf1.spells.4ratngmltr3z4om5]{lesser angelic aspect}, except you gain low-light vision; darkvision 60 feet; DR 10/evil; immunity to acid, cold, and petrification; resistance to electricity 10 and fire 10; a +4 racial bonus on saves against poison; and protective aura and truespeech as supernatural abilities for the duration of the spell. Also, your wings give you a fly speed of 60 feet with good maneuverability. Protective aura provides a +4 deflection bonus to AC and a +4 resistance bonus on saving throws against attacks made or effects created by evil creatures to anyone within 20 feet. Otherwise, it functions as a @Compendium[pf1.spells.1i8b1v3dngkxj6jp]{magic circle against evil} and a @Compendium[pf1.spells.exwa9xra4u82j0sx]{lesser globe of invulnerability}, both with a radius of 20 feet. Truespeech allows you to speak with any creature that has a language, as though using the @Compendium[pf1.spells.m1rmcpcaixcpz9ib]{tongues} spell.</p>",
    "spellDuration": "1 minute/level (D)",
    "spellEffect": "",
    "spellArea": "",
    "showInQuickbar": false,
    "spellPoints": {
      "cost": "1 + @sl"
    },
    "domain": false,
    "slotCost": 1,
    "identifiedName": "Angelic Aspect, Greater"
  },
  "flags": {},
  "img": "systems/pf1/icons/misc/magic-swirl.png",
  "effects": []
}