{
  "_id": "2dtcvrqh1z9k05dq",
  "name": "Animal Aspect, Greater",
  "permission": {
    "default": 0
  },
  "type": "spell",
  "data": {
    "description": {
      "value": "<div class=\"spell-description\">\n  <p>\n    <strong>School</strong>&nbsp;transmutation&nbsp;(polymorph);\n    <strong>Level</strong>&nbsp;alchemist 3, bloodrager 3, druid 3, hunter 3, magus 3, psychic 4, ranger 3, sorcerer/wizard 4;\n    \n    <strong>Subdomain</strong>&nbsp;Competition 3;\n    \n    \n  </p>\n  <p>\n    <strong>Casting Time</strong>&nbsp;1 standard action<br>\n    <strong>Components</strong>&nbsp;V, S, M/DF (a part of the animal)<br>\n  </p>\n  <p>\n    <strong>Range</strong>&nbsp;personal<br>\n    \n    <strong>Targets</strong>&nbsp;you<br>\n    \n    <strong>Duration</strong>&nbsp;1 minute/level (D)<br>\n  </p>\n  <h2>Description</h2>\n  <p>This spell functions like @Compendium[pf1.spells.w6bdfme0t8frk73p]{animal aspect}, except you can either gain two aspects at once or one aspect that adds effects to the aspects that <em>animal aspect</em> grants, as described below. <br /><em>Frog</em>: You gain a Swim speed equal to half your normal speed, and all the benefits of having a swim speed. <br /><em>Gorilla</em>: You gain a +2 competence bonus on @Compendium[pf1.skills.YYmmxDgp0g3ltSUG]{Perception} checks, and a +1 competence bonus on Fortitude saves. <br /><em>Monkey</em>: You gain a +4 competence bonus on @Compendium[pf1.skills.HPsdXjjRtKNGFGRc]{Acrobatics} checks. <br /><em>Otter</em>: Your swim speed increases to your full normal speed, and you need not make concentration checks to cast spells underwater. <br /><em>Raccoon</em>: Your competence bonuses on @Compendium[pf1.skills.CCy1fajKKU3K02iQ]{Disable Device}, @Compendium[pf1.skills.zK0CbvpYLZhTN5Wn]{Sleight of Hand}, and @Compendium[pf1.skills.T6nefKotIb5vKE9h]{Stealth} checks increase to +4. <br /><em>Raptor</em>: Your enhancement bonus to speed increases to +30 feet, and you gain the benefit of the @Compendium[pf1.feats.bXeW4kLCErPBFpNB]{Run} feat. <br /><em>Tree Lizard</em>: You gain a +4 competence bonus on @Compendium[pf1.skills.T6nefKotIb5vKE9h]{Stealth} checks.</p>\n</div>\n",
      "chat": "",
      "unidentified": ""
    },
    "tags": [],
    "activation": {
      "cost": 1,
      "type": "standard"
    },
    "unchainedAction": {
      "activation": {
        "cost": 2,
        "type": "action"
      }
    },
    "duration": {
      "value": null,
      "units": ""
    },
    "target": {
      "value": "you"
    },
    "range": {
      "value": null,
      "units": "personal",
      "maxIncrements": 1,
      "minValue": null,
      "minUnits": ""
    },
    "uses": {
      "value": 0,
      "max": 0,
      "per": "",
      "autoDeductCharges": true,
      "autoDeductChargesCost": "1"
    },
    "measureTemplate": {
      "type": "",
      "size": "0",
      "overrideColor": false,
      "customColor": "",
      "overrideTexture": false,
      "customTexture": ""
    },
    "attackName": "",
    "actionType": "",
    "attackBonus": "",
    "critConfirmBonus": "",
    "damage": {
      "parts": [],
      "critParts": [],
      "nonCritParts": []
    },
    "attackParts": [],
    "formula": "",
    "ability": {
      "attack": "",
      "damage": "",
      "damageMult": 1,
      "critRange": 20,
      "critMult": 2
    },
    "save": {
      "dc": "0",
      "type": "",
      "description": ""
    },
    "effectNotes": "",
    "attackNotes": "",
    "soundEffect": "",
    "links": {
      "children": []
    },
    "learnedAt": {
      "class": [
        [
          "sorcerer/wizard",
          4
        ],
        [
          "druid",
          3
        ],
        [
          "ranger",
          3
        ],
        [
          "alchemist",
          3
        ],
        [
          "magus",
          3
        ],
        [
          "bloodrager",
          3
        ],
        [
          "psychic",
          4
        ],
        [
          "hunter",
          3
        ]
      ],
      "domain": [],
      "subDomain": [
        [
          "Competition",
          3
        ]
      ],
      "elementalSchool": [],
      "bloodline": []
    },
    "level": 4,
    "clOffset": 0,
    "slOffset": 0,
    "school": "trs",
    "subschool": "polymorph",
    "types": "",
    "nonlethal": false,
    "conditionals": [],
    "components": {
      "value": "",
      "verbal": true,
      "somatic": true,
      "material": true,
      "focus": false,
      "divineFocus": 2
    },
    "castTime": "",
    "materials": {
      "value": "a part of the animal",
      "focus": "",
      "gpValue": 0
    },
    "spellbook": "",
    "preparation": {
      "preparedAmount": 0,
      "maxAmount": 0,
      "autoDeductCharges": true,
      "spontaneousPrepared": true,
      "mode": "prepared"
    },
    "atWill": false,
    "sr": true,
    "shortDescription": "<p>This spell functions like @Compendium[pf1.spells.w6bdfme0t8frk73p]{animal aspect}, except you can either gain two aspects at once or one aspect that adds effects to the aspects that <em>animal aspect</em> grants, as described below. <br /><em>Frog</em>: You gain a Swim speed equal to half your normal speed, and all the benefits of having a swim speed. <br /><em>Gorilla</em>: You gain a +2 competence bonus on @Compendium[pf1.skills.YYmmxDgp0g3ltSUG]{Perception} checks, and a +1 competence bonus on Fortitude saves. <br /><em>Monkey</em>: You gain a +4 competence bonus on @Compendium[pf1.skills.HPsdXjjRtKNGFGRc]{Acrobatics} checks. <br /><em>Otter</em>: Your swim speed increases to your full normal speed, and you need not make concentration checks to cast spells underwater. <br /><em>Raccoon</em>: Your competence bonuses on @Compendium[pf1.skills.CCy1fajKKU3K02iQ]{Disable Device}, @Compendium[pf1.skills.zK0CbvpYLZhTN5Wn]{Sleight of Hand}, and @Compendium[pf1.skills.T6nefKotIb5vKE9h]{Stealth} checks increase to +4. <br /><em>Raptor</em>: Your enhancement bonus to speed increases to +30 feet, and you gain the benefit of the @Compendium[pf1.feats.bXeW4kLCErPBFpNB]{Run} feat. <br /><em>Tree Lizard</em>: You gain a +4 competence bonus on @Compendium[pf1.skills.T6nefKotIb5vKE9h]{Stealth} checks.</p>",
    "spellDuration": "1 minute/level (D)",
    "spellEffect": "",
    "spellArea": "",
    "showInQuickbar": false,
    "spellPoints": {
      "cost": "1 + @sl"
    },
    "domain": false,
    "slotCost": 1,
    "identifiedName": "Animal Aspect, Greater"
  },
  "flags": {},
  "img": "systems/pf1/icons/misc/magic-swirl.png",
  "effects": []
}