{
  "_id": "si4vdym8cast8jvu",
  "name": "Balance of Suffering",
  "permission": {
    "default": 0
  },
  "type": "spell",
  "data": {
    "description": {
      "value": "<div class=\"spell-description\">\n  <p>\n    <strong>School</strong>&nbsp;conjuration&nbsp;(healing)&nbsp;[death];\n    <strong>Level</strong>&nbsp;cleric/oracle 6, inquisitor 6, occultist 6, shaman 6, spiritualist 6, witch 6;\n    \n    \n    \n    \n  </p>\n  <p>\n    <strong>Casting Time</strong>&nbsp;1 standard action<br>\n    <strong>Components</strong>&nbsp;V, S, DF<br>\n  </p>\n  <p>\n    <strong>Range</strong>&nbsp;close (25 ft. + 5 ft./2 levels)<br>\n    \n    <strong>Targets</strong>&nbsp;one living creature and another single living or undead creature<br>\n    \n    <strong>Duration</strong>&nbsp;instantaneous<br>\n    <strong>Saving Throw</strong>&nbsp;Will half; see text;&nbsp;<strong>Spell Resistance</strong>&nbsp;yes<br>\n  </p>\n  <h2>Description</h2>\n  <p>You borrow life force from a living creature and infuse it into another living creature, potentially wreaking destruction on the former and bolstering the life of the latter.  Choose an initial target, which must be alive, and a secondary target, which must be alive or undead. The initial target is dealt a number of points of damage equal to 9d6 + 1 point per caster level. A successful Will saving throw halves the damage dealt. The target might die from damage even if it succeeds on its saving throw.  If the secondary target is a living creature, it regains a number of hit points equal to the amount of damage taken by the initial target. If the secondary target is undead, it instead takes an amount of damage equal to that dealt to the initial target. The secondary target can halve the healing imparted or harm inflicted to it with a successful Will saving throw (although a secondary target receiving healing can forgo this saving throw as normal).  This spell is subject to the spell resistance of the initial target; if the secondary target is unwilling, this spell is also subject to the secondary target's spell resistance. If the spell does not penetrate the initial target's spell resistance, it fizzles with no effect. If it does not penetrate the secondary target's spell resistance, the initial target is still harmed as described, but the secondary target is not healed or harmed.</p>\n</div>\n",
      "chat": "",
      "unidentified": ""
    },
    "tags": [],
    "activation": {
      "cost": 1,
      "type": "standard"
    },
    "unchainedAction": {
      "activation": {
        "cost": 2,
        "type": "action"
      }
    },
    "duration": {
      "value": null,
      "units": ""
    },
    "target": {
      "value": "one living creature and another single living or undead creature"
    },
    "range": {
      "value": null,
      "units": "close",
      "maxIncrements": 1,
      "minValue": null,
      "minUnits": ""
    },
    "uses": {
      "value": 0,
      "max": 0,
      "per": "",
      "autoDeductCharges": true,
      "autoDeductChargesCost": "1"
    },
    "measureTemplate": {
      "type": "",
      "size": "0",
      "overrideColor": false,
      "customColor": "",
      "overrideTexture": false,
      "customTexture": ""
    },
    "attackName": "",
    "actionType": "heal",
    "attackBonus": "",
    "critConfirmBonus": "",
    "damage": {
      "parts": [],
      "critParts": [],
      "nonCritParts": []
    },
    "attackParts": [],
    "formula": "",
    "ability": {
      "attack": "",
      "damage": "",
      "damageMult": 1,
      "critRange": 20,
      "critMult": 2
    },
    "save": {
      "dc": "0",
      "type": "will",
      "description": "Will half; see text"
    },
    "effectNotes": "",
    "attackNotes": "",
    "soundEffect": "",
    "links": {
      "children": []
    },
    "learnedAt": {
      "class": [
        [
          "cleric/oracle",
          6
        ],
        [
          "witch",
          6
        ],
        [
          "inquisitor",
          6
        ],
        [
          "shaman",
          6
        ],
        [
          "occultist",
          6
        ],
        [
          "spiritualist",
          6
        ]
      ],
      "domain": [],
      "subDomain": [],
      "elementalSchool": [],
      "bloodline": []
    },
    "level": 6,
    "clOffset": 0,
    "slOffset": 0,
    "school": "con",
    "subschool": "healing",
    "types": "death",
    "nonlethal": false,
    "conditionals": [],
    "components": {
      "value": "",
      "verbal": true,
      "somatic": true,
      "material": false,
      "focus": false,
      "divineFocus": 1
    },
    "castTime": "",
    "materials": {
      "value": "",
      "focus": "",
      "gpValue": 0
    },
    "spellbook": "primary",
    "preparation": {
      "preparedAmount": 0,
      "maxAmount": 0,
      "autoDeductCharges": true,
      "spontaneousPrepared": true,
      "mode": "prepared"
    },
    "atWill": false,
    "sr": true,
    "shortDescription": "<p>You borrow life force from a living creature and infuse it into another living creature, potentially wreaking destruction on the former and bolstering the life of the latter.  Choose an initial target, which must be alive, and a secondary target, which must be alive or undead. The initial target is dealt a number of points of damage equal to 9d6 + 1 point per caster level. A successful Will saving throw halves the damage dealt. The target might die from damage even if it succeeds on its saving throw.  If the secondary target is a living creature, it regains a number of hit points equal to the amount of damage taken by the initial target. If the secondary target is undead, it instead takes an amount of damage equal to that dealt to the initial target. The secondary target can halve the healing imparted or harm inflicted to it with a successful Will saving throw (although a secondary target receiving healing can forgo this saving throw as normal).  This spell is subject to the spell resistance of the initial target; if the secondary target is unwilling, this spell is also subject to the secondary target's spell resistance. If the spell does not penetrate the initial target's spell resistance, it fizzles with no effect. If it does not penetrate the secondary target's spell resistance, the initial target is still harmed as described, but the secondary target is not healed or harmed.</p>",
    "spellDuration": "instantaneous",
    "spellEffect": "",
    "spellArea": "",
    "showInQuickbar": false,
    "spellPoints": {
      "cost": "1 + @sl"
    },
    "domain": false,
    "slotCost": 1
  },
  "flags": {},
  "img": "systems/pf1/icons/misc/magic-swirl.png",
  "effects": []
}