{
  "_id": "tjdfluulncmqacc3",
  "name": "Beast Shape I",
  "permission": {
    "default": 0
  },
  "type": "spell",
  "data": {
    "description": {
      "value": "<div class=\"spell-description\">\n  <p>\n    <strong>School</strong>&nbsp;transmutation&nbsp;(polymorph);\n    <strong>Level</strong>&nbsp;alchemist 3, bloodrager 3, magus 3, sorcerer/wizard 3;\n    \n    <strong>Subdomain</strong>&nbsp;Fur 3;\n    \n    \n  </p>\n  <p>\n    <strong>Casting Time</strong>&nbsp;1 standard action<br>\n    <strong>Components</strong>&nbsp;V, S, M (a piece of the creature whose form you plan to assume)<br>\n  </p>\n  <p>\n    <strong>Range</strong>&nbsp;personal<br>\n    \n    <strong>Targets</strong>&nbsp;you<br>\n    \n    <strong>Duration</strong>&nbsp;1 min./level<br>\n    \n  </p>\n  <h2>Description</h2>\n  <p>When you cast this spell, you can assume the form of any Small or Medium creature of the animal type. If the form you assume has any of the following abilities, you gain the listed ability: climb 30 feet, fly 30 feet (average maneuverability), swim 30 feet, darkvision 60 feet, low-light vision, and scent.</p><p><i>Small animal</i>: If the form you take is that of a Small animal, you gain a +2 size bonus to your Dexterity and a +1 natural armor bonus.</p><p><i>Medium animal</i>: If the form you take is that of a Medium animal, you gain a +2 size bonus to your Strength and a +2 natural armor bonus.</p>\n</div>\n",
      "chat": "",
      "unidentified": ""
    },
    "tags": [],
    "activation": {
      "cost": 1,
      "type": "standard"
    },
    "unchainedAction": {
      "activation": {
        "cost": 2,
        "type": "action"
      }
    },
    "duration": {
      "value": null,
      "units": ""
    },
    "target": {
      "value": "you"
    },
    "range": {
      "value": null,
      "units": "personal",
      "maxIncrements": 1,
      "minValue": null,
      "minUnits": ""
    },
    "uses": {
      "value": 0,
      "max": 0,
      "per": "",
      "autoDeductCharges": true,
      "autoDeductChargesCost": "1"
    },
    "measureTemplate": {
      "type": "",
      "size": "0",
      "overrideColor": false,
      "customColor": "",
      "overrideTexture": false,
      "customTexture": ""
    },
    "attackName": "",
    "actionType": "",
    "attackBonus": "",
    "critConfirmBonus": "",
    "damage": {
      "parts": [],
      "critParts": [],
      "nonCritParts": []
    },
    "attackParts": [],
    "formula": "",
    "ability": {
      "attack": "",
      "damage": "",
      "damageMult": 1,
      "critRange": 20,
      "critMult": 2
    },
    "save": {
      "dc": "0",
      "type": "",
      "description": ""
    },
    "effectNotes": "",
    "attackNotes": "",
    "soundEffect": "",
    "links": {
      "children": []
    },
    "learnedAt": {
      "class": [
        [
          "sorcerer/wizard",
          3
        ],
        [
          "alchemist",
          3
        ],
        [
          "magus",
          3
        ],
        [
          "bloodrager",
          3
        ]
      ],
      "domain": [],
      "subDomain": [
        [
          "Fur",
          3
        ]
      ],
      "elementalSchool": [],
      "bloodline": []
    },
    "level": 3,
    "clOffset": 0,
    "slOffset": 0,
    "school": "trs",
    "subschool": "polymorph",
    "types": "",
    "nonlethal": false,
    "conditionals": [],
    "components": {
      "value": "",
      "verbal": true,
      "somatic": true,
      "material": true,
      "focus": false,
      "divineFocus": 0
    },
    "castTime": "",
    "materials": {
      "value": "a piece of the creature whose form you plan to assume",
      "focus": "",
      "gpValue": 0
    },
    "spellbook": "primary",
    "preparation": {
      "preparedAmount": 0,
      "maxAmount": 0,
      "autoDeductCharges": true,
      "spontaneousPrepared": true,
      "mode": "prepared"
    },
    "atWill": false,
    "sr": false,
    "shortDescription": "<p>When you cast this spell, you can assume the form of any Small or Medium creature of the animal type. If the form you assume has any of the following abilities, you gain the listed ability: climb 30 feet, fly 30 feet (average maneuverability), swim 30 feet, darkvision 60 feet, low-light vision, and scent.</p><p><i>Small animal</i>: If the form you take is that of a Small animal, you gain a +2 size bonus to your Dexterity and a +1 natural armor bonus.</p><p><i>Medium animal</i>: If the form you take is that of a Medium animal, you gain a +2 size bonus to your Strength and a +2 natural armor bonus.</p>",
    "spellDuration": "1 min./level",
    "spellEffect": "",
    "spellArea": "",
    "showInQuickbar": false,
    "spellPoints": {
      "cost": "1 + @sl"
    },
    "domain": false,
    "slotCost": 1
  },
  "flags": {},
  "img": "systems/pf1/icons/misc/magic-swirl.png",
  "effects": []
}