{
  "_id": "scyklgov72pvw884",
  "name": "Blessing of Fervor",
  "permission": {
    "default": 0
  },
  "type": "spell",
  "data": {
    "description": {
      "value": "<div class=\"spell-description\">\n  <p>\n    <strong>School</strong>&nbsp;transmutation;\n    <strong>Level</strong>&nbsp;cleric/oracle 4;\n    \n    \n    \n    <strong>Bloodline</strong>&nbsp;Martyred 4;\n  </p>\n  <p>\n    <strong>Casting Time</strong>&nbsp;1 standard action<br>\n    <strong>Components</strong>&nbsp;V, S, DF<br>\n  </p>\n  <p>\n    <strong>Range</strong>&nbsp;close (25 ft. + 5 ft./2 levels)<br>\n    \n    <strong>Targets</strong>&nbsp;one creature/level, no two of which can be more than 30 ft. apart<br>\n    \n    <strong>Duration</strong>&nbsp;1 round/level<br>\n    <strong>Saving Throw</strong>&nbsp;Fortitude negates (harmless);&nbsp;<strong>Spell Resistance</strong>&nbsp;yes<br>\n  </p>\n  <h2>Description</h2>\n  <p>With this blessing, you call your allies to move forth and empower them to conquer and become victorious. Each round for the duration of this spell, each of your allies can choose one of the following bonuses for that round at the beginning of its turn (their choice).</p><p><ul><li> Increase its <i>speed</i> by 30 feet.</p><p><li> Stand up as a swift action without provoking an attack of opportunity.</p><p><li> Make one extra attack as part of a full attack action, using its highest base attack bonus.</p><p><li> Gain a +2 bonus on attack rolls and a +2 dodge bonus to AC and Reflex saves.</p><p><li>Cast a single spell of 2nd level or lower as if it were an enlarged, extended, silent, or still spell.</p><p>These effects are not cumulative with similar effects, such as those provided by <i>haste</i> or a <i>speed</i> weapon, nor do they actually grant an extra action, so you can't use it to cast a second spell or otherwise take an extra action in the round. <i>Blessing of Fervor</i> does not stack with <i>haste</i>.</ul></p>\n</div>\n",
      "chat": "",
      "unidentified": ""
    },
    "tags": [],
    "activation": {
      "cost": 1,
      "type": "standard"
    },
    "unchainedAction": {
      "activation": {
        "cost": 2,
        "type": "action"
      }
    },
    "duration": {
      "value": null,
      "units": ""
    },
    "target": {
      "value": "one creature/level, no two of which can be more than 30 ft. apart"
    },
    "range": {
      "value": null,
      "units": "close",
      "maxIncrements": 1,
      "minValue": null,
      "minUnits": ""
    },
    "uses": {
      "value": 0,
      "max": 0,
      "per": "",
      "autoDeductCharges": true,
      "autoDeductChargesCost": "1"
    },
    "measureTemplate": {
      "type": "circle",
      "size": "30",
      "overrideColor": false,
      "customColor": "",
      "overrideTexture": false,
      "customTexture": ""
    },
    "attackName": "",
    "actionType": "spellsave",
    "attackBonus": "",
    "critConfirmBonus": "",
    "damage": {
      "parts": [],
      "critParts": [],
      "nonCritParts": []
    },
    "attackParts": [],
    "formula": "",
    "ability": {
      "attack": "",
      "damage": "",
      "damageMult": 1,
      "critRange": 20,
      "critMult": 2
    },
    "save": {
      "dc": "0",
      "type": "fort",
      "description": "Fortitude negates (harmless)"
    },
    "effectNotes": "",
    "attackNotes": "",
    "soundEffect": "",
    "links": {
      "children": []
    },
    "learnedAt": {
      "class": [
        [
          "cleric/oracle",
          4
        ]
      ],
      "domain": [],
      "subDomain": [],
      "elementalSchool": [],
      "bloodline": [
        [
          "Martyred",
          4
        ]
      ]
    },
    "level": 4,
    "clOffset": 0,
    "slOffset": 0,
    "school": "trs",
    "subschool": "",
    "types": "",
    "nonlethal": false,
    "conditionals": [],
    "components": {
      "value": "",
      "verbal": true,
      "somatic": true,
      "material": false,
      "focus": false,
      "divineFocus": 1
    },
    "castTime": "",
    "materials": {
      "value": "",
      "focus": "",
      "gpValue": 0
    },
    "spellbook": "primary",
    "preparation": {
      "preparedAmount": 0,
      "maxAmount": 0,
      "autoDeductCharges": true,
      "spontaneousPrepared": true,
      "mode": "prepared"
    },
    "atWill": false,
    "sr": true,
    "shortDescription": "<p>With this blessing, you call your allies to move forth and empower them to conquer and become victorious. Each round for the duration of this spell, each of your allies can choose one of the following bonuses for that round at the beginning of its turn (their choice).</p><p><ul><li> Increase its <i>speed</i> by 30 feet.</p><p><li> Stand up as a swift action without provoking an attack of opportunity.</p><p><li> Make one extra attack as part of a full attack action, using its highest base attack bonus.</p><p><li> Gain a +2 bonus on attack rolls and a +2 dodge bonus to AC and Reflex saves.</p><p><li>Cast a single spell of 2nd level or lower as if it were an enlarged, extended, silent, or still spell.</p><p>These effects are not cumulative with similar effects, such as those provided by <i>haste</i> or a <i>speed</i> weapon, nor do they actually grant an extra action, so you can't use it to cast a second spell or otherwise take an extra action in the round. <i>Blessing of Fervor</i> does not stack with <i>haste</i>.</ul></p>",
    "spellDuration": "1 round/level",
    "spellEffect": "",
    "spellArea": "",
    "showInQuickbar": false,
    "spellPoints": {
      "cost": "1 + @sl"
    },
    "domain": false,
    "slotCost": 1
  },
  "flags": {},
  "img": "systems/pf1/icons/misc/magic-swirl.png",
  "effects": []
}