{
  "_id": "6vfauefzzmwl4az7",
  "name": "Chain Lightning",
  "permission": {
    "default": 0
  },
  "type": "spell",
  "data": {
    "description": {
      "value": "<div class=\"spell-description\">\n  <p>\n    <strong>School</strong>&nbsp;evocation&nbsp;[electricity];\n    <strong>Level</strong>&nbsp;magus 6, occultist 6, sorcerer/wizard 6, witch 7;\n    <strong>Domain</strong>&nbsp;Air 6;\n    \n    \n    <strong>Bloodline</strong>&nbsp;Djinni 6, Stormborn 6;\n  </p>\n  <p>\n    <strong>Casting Time</strong>&nbsp;1 standard action<br>\n    <strong>Components</strong>&nbsp;V, S, F (a bit of fur; a piece of amber, glass, or a crystal rod; plus one silver pin per caster level)<br>\n  </p>\n  <p>\n    <strong>Range</strong>&nbsp;long (400 ft. + 40 ft./level)<br>\n    \n    <strong>Targets</strong>&nbsp;one primary target, plus one secondary target/level (each of which must be within 30 ft. of the primary target)<br>\n    \n    <strong>Duration</strong>&nbsp;instantaneous<br>\n    <strong>Saving Throw</strong>&nbsp;Reflex half;&nbsp;<strong>Spell Resistance</strong>&nbsp;yes<br>\n  </p>\n  <h2>Description</h2>\n  <p>This spell creates an electrical discharge that begins as a single stroke commencing from your fingertips. Unlike <i>lightning bolt</i>, <i>chain lightning</i> strikes one object or creature initially, then arcs to other targets.</p><p>The bolt deals 1d6 points of electricity damage per caster level (maximum 20d6) to the primary target. After it strikes, lightning can arc to a number of secondary targets equal to your caster level (maximum 20). The secondary bolts each strike one target and deal as much damage as the primary bolt.</p><p>Each target can attempt a Reflex saving throw for half damage.</p><p>The Reflex DC to halve the damage of the secondary bolts is 2 lower than the DC to halve the damage of the primary bolt. You choose secondary targets as you like, but they must all be within 30 feet of the primary target, and no target can be struck more than once. You can choose to affect fewer secondary targets than the maximum.</p>\n</div>\n",
      "chat": "",
      "unidentified": ""
    },
    "tags": [],
    "activation": {
      "cost": 1,
      "type": "standard"
    },
    "unchainedAction": {
      "activation": {
        "cost": 2,
        "type": "action"
      }
    },
    "duration": {
      "value": null,
      "units": ""
    },
    "target": {
      "value": "one primary target, plus one secondary target/level (each of which must be within 30 ft. of the primary target)"
    },
    "range": {
      "value": null,
      "units": "long",
      "maxIncrements": 1,
      "minValue": null,
      "minUnits": ""
    },
    "uses": {
      "value": 0,
      "max": 0,
      "per": "",
      "autoDeductCharges": true,
      "autoDeductChargesCost": "1"
    },
    "measureTemplate": {
      "type": "",
      "size": "0",
      "overrideColor": false,
      "customColor": "",
      "overrideTexture": false,
      "customTexture": ""
    },
    "attackName": "",
    "actionType": "spellsave",
    "attackBonus": "",
    "critConfirmBonus": "",
    "damage": {
      "parts": [
        [
          "(min(20, @cl))d6",
          "Electric"
        ]
      ],
      "critParts": [],
      "nonCritParts": []
    },
    "attackParts": [],
    "formula": "",
    "ability": {
      "attack": "",
      "damage": "",
      "damageMult": 1,
      "critRange": 20,
      "critMult": 2
    },
    "save": {
      "dc": "0",
      "type": "ref",
      "description": "Reflex half"
    },
    "effectNotes": "",
    "attackNotes": "",
    "soundEffect": "",
    "links": {
      "children": []
    },
    "learnedAt": {
      "class": [
        [
          "sorcerer/wizard",
          6
        ],
        [
          "witch",
          7
        ],
        [
          "magus",
          6
        ],
        [
          "occultist",
          6
        ]
      ],
      "domain": [
        [
          "Air",
          6
        ]
      ],
      "subDomain": [],
      "elementalSchool": [],
      "bloodline": [
        [
          "Djinni",
          6
        ],
        [
          "Stormborn",
          6
        ]
      ]
    },
    "level": 6,
    "clOffset": 0,
    "slOffset": 0,
    "school": "evo",
    "subschool": "",
    "types": "electricity",
    "nonlethal": false,
    "conditionals": [],
    "components": {
      "value": "",
      "verbal": true,
      "somatic": true,
      "material": false,
      "focus": true,
      "divineFocus": 0
    },
    "castTime": "",
    "materials": {
      "value": "",
      "focus": "a bit of fur; a piece of amber, glass, or a crystal rod; plus one silver pin per caster level",
      "gpValue": 0
    },
    "spellbook": "primary",
    "preparation": {
      "preparedAmount": 0,
      "maxAmount": 0,
      "autoDeductCharges": true,
      "spontaneousPrepared": true,
      "mode": "prepared"
    },
    "atWill": false,
    "sr": true,
    "shortDescription": "<p>This spell creates an electrical discharge that begins as a single stroke commencing from your fingertips. Unlike <i>lightning bolt</i>, <i>chain lightning</i> strikes one object or creature initially, then arcs to other targets.</p><p>The bolt deals 1d6 points of electricity damage per caster level (maximum 20d6) to the primary target. After it strikes, lightning can arc to a number of secondary targets equal to your caster level (maximum 20). The secondary bolts each strike one target and deal as much damage as the primary bolt.</p><p>Each target can attempt a Reflex saving throw for half damage.</p><p>The Reflex DC to halve the damage of the secondary bolts is 2 lower than the DC to halve the damage of the primary bolt. You choose secondary targets as you like, but they must all be within 30 feet of the primary target, and no target can be struck more than once. You can choose to affect fewer secondary targets than the maximum.</p>",
    "spellDuration": "instantaneous",
    "spellEffect": "",
    "spellArea": "",
    "showInQuickbar": false,
    "spellPoints": {
      "cost": "1 + @sl"
    },
    "domain": false,
    "slotCost": 1
  },
  "flags": {},
  "img": "systems/pf1/icons/misc/magic-swirl.png",
  "effects": []
}