{
  "_id": "0amu53wegzdp0axj",
  "name": "Clenched Fist",
  "permission": {
    "default": 0
  },
  "type": "spell",
  "data": {
    "description": {
      "value": "<div class=\"spell-description\">\n  <p>\n    <strong>School</strong>&nbsp;evocation&nbsp;[force];\n    <strong>Level</strong>&nbsp;psychic 8, sorcerer/wizard 8;\n    <strong>Domain</strong>&nbsp;Strength 8;\n    \n    \n    \n  </p>\n  <p>\n    <strong>Casting Time</strong>&nbsp;1 standard action<br>\n    <strong>Components</strong>&nbsp;V, S, F/DF (a leather glove)<br>\n  </p>\n  <p>\n    <strong>Range</strong>&nbsp;medium (100 ft. + 10 ft./level)<br>\n    \n    \n    <strong>Effect</strong>&nbsp;10-ft. hand<br>\n    <strong>Duration</strong>&nbsp;1 round/level<br>\n    <strong>Saving Throw</strong>&nbsp;none;&nbsp;<strong>Spell Resistance</strong>&nbsp;yes<br>\n  </p>\n  <h2>Description</h2>\n  <p>This spell functions like <i>interposing hand</i>, except that the hand can also push or strike one opponent that you select. The floating hand can move as far as 60 feet and can attack in the same round. Since this hand is directed by you, its ability to notice or attack invisible or concealed creatures is no better than yours.</p><p>The hand attacks once per round, and its attack bonus equals your caster level + your Intelligence, Wisdom, or Charisma modifier (for a wizard, cleric, or sorcerer, respectively) + 11 for the hand's Strength score (33), -1 for being Large. The hand deals 1d8+11 points of damage on each attack, and any creature struck must make a Fortitude save (against this spell's save DC) or be stunned for 1 round. Directing the spell to a new target is a move action.</p><p>The <i>clenched fist</i> can also interpose itself as <i>interposing hand</i> does, or it can bull rush an opponent as <i>forceful hand</i> does. Its CMB for bull rush checks uses your caster level in place of its base attack bonus, with a +11 bonus for its Strength score and a +1 bonus for being Large.</p>\n</div>\n",
      "chat": "",
      "unidentified": ""
    },
    "tags": [],
    "activation": {
      "cost": 1,
      "type": "standard"
    },
    "unchainedAction": {
      "activation": {
        "cost": 2,
        "type": "action"
      }
    },
    "duration": {
      "value": null,
      "units": ""
    },
    "target": {
      "value": ""
    },
    "range": {
      "value": null,
      "units": "medium",
      "maxIncrements": 1,
      "minValue": null,
      "minUnits": ""
    },
    "uses": {
      "value": 0,
      "max": 0,
      "per": "",
      "autoDeductCharges": true,
      "autoDeductChargesCost": "1"
    },
    "measureTemplate": {
      "type": "",
      "size": "0",
      "overrideColor": false,
      "customColor": "",
      "overrideTexture": false,
      "customTexture": ""
    },
    "attackName": "",
    "actionType": "other",
    "attackBonus": "",
    "critConfirmBonus": "",
    "damage": {
      "parts": [],
      "critParts": [],
      "nonCritParts": []
    },
    "attackParts": [],
    "formula": "",
    "ability": {
      "attack": "",
      "damage": "",
      "damageMult": 1,
      "critRange": 20,
      "critMult": 2
    },
    "save": {
      "dc": "0",
      "type": "",
      "description": ""
    },
    "effectNotes": "",
    "attackNotes": "",
    "soundEffect": "",
    "links": {
      "children": []
    },
    "learnedAt": {
      "class": [
        [
          "sorcerer/wizard",
          8
        ],
        [
          "psychic",
          8
        ]
      ],
      "domain": [
        [
          "Strength",
          8
        ]
      ],
      "subDomain": [],
      "elementalSchool": [],
      "bloodline": []
    },
    "level": 8,
    "clOffset": 0,
    "slOffset": 0,
    "school": "evo",
    "subschool": "",
    "types": "force",
    "nonlethal": false,
    "conditionals": [],
    "components": {
      "value": "",
      "verbal": true,
      "somatic": true,
      "material": false,
      "focus": true,
      "divineFocus": 3
    },
    "castTime": "",
    "materials": {
      "value": "",
      "focus": "a leather glove",
      "gpValue": 0
    },
    "spellbook": "primary",
    "preparation": {
      "preparedAmount": 0,
      "maxAmount": 0,
      "autoDeductCharges": true,
      "spontaneousPrepared": true,
      "mode": "prepared"
    },
    "atWill": false,
    "sr": true,
    "shortDescription": "<p>This spell functions like <i>interposing hand</i>, except that the hand can also push or strike one opponent that you select. The floating hand can move as far as 60 feet and can attack in the same round. Since this hand is directed by you, its ability to notice or attack invisible or concealed creatures is no better than yours.</p><p>The hand attacks once per round, and its attack bonus equals your caster level + your Intelligence, Wisdom, or Charisma modifier (for a wizard, cleric, or sorcerer, respectively) + 11 for the hand's Strength score (33), -1 for being Large. The hand deals 1d8+11 points of damage on each attack, and any creature struck must make a Fortitude save (against this spell's save DC) or be stunned for 1 round. Directing the spell to a new target is a move action.</p><p>The <i>clenched fist</i> can also interpose itself as <i>interposing hand</i> does, or it can bull rush an opponent as <i>forceful hand</i> does. Its CMB for bull rush checks uses your caster level in place of its base attack bonus, with a +11 bonus for its Strength score and a +1 bonus for being Large.</p>",
    "spellDuration": "1 round/level",
    "spellEffect": "10-ft. hand",
    "spellArea": "",
    "showInQuickbar": false,
    "spellPoints": {
      "cost": "1 + @sl"
    },
    "domain": false,
    "slotCost": 1
  },
  "flags": {},
  "img": "systems/pf1/icons/misc/magic-swirl.png",
  "effects": []
}