{
  "_id": "pzwe3gxjz8gthyaj",
  "name": "Cloak of Dreams",
  "permission": {
    "default": 0
  },
  "type": "spell",
  "data": {
    "description": {
      "value": "<div class=\"spell-description\">\n  <p>\n    <strong>School</strong>&nbsp;enchantment&nbsp;(compulsion)&nbsp;[mind-affecting];\n    <strong>Level</strong>&nbsp;bard 5, mesmerist 5, occultist 6, psychic 6, shaman 7, sorcerer/wizard 6, witch 6;\n    \n    <strong>Subdomain</strong>&nbsp;Nightmare 6, Whimsy 6;\n    \n    \n  </p>\n  <p>\n    <strong>Casting Time</strong>&nbsp;1 round<br>\n    <strong>Components</strong>&nbsp;V, S, M (a rose petal and a drop of perfume)<br>\n  </p>\n  <p>\n    <strong>Range</strong>&nbsp;5 feet<br>\n    <strong>Area</strong>&nbsp;5-ft.-radius emanation centered on you<br>\n    \n    \n    <strong>Duration</strong>&nbsp;1 round/level (D)<br>\n    <strong>Saving Throw</strong>&nbsp;Will negates;&nbsp;<strong>Spell Resistance</strong>&nbsp;yes<br>\n  </p>\n  <h2>Description</h2>\n  <p>You are surrounded by a soporific aroma that causes living creatures that begin their turn or end their movement within 5 feet of you to fall asleep for 1 minute. Creatures must save each time they begin their turn or end their movement within the <i>cloak of dreams</i>, even if they have previously saved against the effect. Sleeping creatures are helpless but can be awakened with a standard action or after being wounded.</p><p>Creatures with the scent special quality have a -4 penalty on their saves.</p>\n</div>\n",
      "chat": "",
      "unidentified": ""
    },
    "tags": [],
    "activation": {
      "cost": 1,
      "type": "round"
    },
    "unchainedAction": {
      "activation": {
        "cost": 3,
        "type": "action"
      }
    },
    "duration": {
      "value": null,
      "units": ""
    },
    "target": {
      "value": ""
    },
    "range": {
      "value": 5,
      "units": "ft",
      "maxIncrements": 1,
      "minValue": null,
      "minUnits": ""
    },
    "uses": {
      "value": 0,
      "max": 0,
      "per": "",
      "autoDeductCharges": true,
      "autoDeductChargesCost": "1"
    },
    "measureTemplate": {
      "type": "",
      "size": "0",
      "overrideColor": false,
      "customColor": "",
      "overrideTexture": false,
      "customTexture": ""
    },
    "attackName": "",
    "actionType": "spellsave",
    "attackBonus": "",
    "critConfirmBonus": "",
    "damage": {
      "parts": [],
      "critParts": [],
      "nonCritParts": []
    },
    "attackParts": [],
    "formula": "",
    "ability": {
      "attack": "",
      "damage": "",
      "damageMult": 1,
      "critRange": 20,
      "critMult": 2
    },
    "save": {
      "dc": "0",
      "type": "will",
      "description": "Will negates"
    },
    "effectNotes": "",
    "attackNotes": "",
    "soundEffect": "",
    "links": {
      "children": []
    },
    "learnedAt": {
      "class": [
        [
          "sorcerer/wizard",
          6
        ],
        [
          "bard",
          5
        ],
        [
          "witch",
          6
        ],
        [
          "shaman",
          7
        ],
        [
          "psychic",
          6
        ],
        [
          "mesmerist",
          5
        ],
        [
          "occultist",
          6
        ]
      ],
      "domain": [],
      "subDomain": [
        [
          "Nightmare",
          6
        ],
        [
          "Whimsy",
          6
        ]
      ],
      "elementalSchool": [],
      "bloodline": []
    },
    "level": 6,
    "clOffset": 0,
    "slOffset": 0,
    "school": "enc",
    "subschool": "compulsion",
    "types": "mind-affecting",
    "nonlethal": false,
    "conditionals": [],
    "components": {
      "value": "",
      "verbal": true,
      "somatic": true,
      "material": true,
      "focus": false,
      "divineFocus": 0
    },
    "castTime": "",
    "materials": {
      "value": "a rose petal and a drop of perfume",
      "focus": "",
      "gpValue": 0
    },
    "spellbook": "primary",
    "preparation": {
      "preparedAmount": 0,
      "maxAmount": 0,
      "autoDeductCharges": true,
      "spontaneousPrepared": true,
      "mode": "prepared"
    },
    "atWill": false,
    "sr": true,
    "shortDescription": "<p>You are surrounded by a soporific aroma that causes living creatures that begin their turn or end their movement within 5 feet of you to fall asleep for 1 minute. Creatures must save each time they begin their turn or end their movement within the <i>cloak of dreams</i>, even if they have previously saved against the effect. Sleeping creatures are helpless but can be awakened with a standard action or after being wounded.</p><p>Creatures with the scent special quality have a -4 penalty on their saves.</p>",
    "spellDuration": "1 round/level (D)",
    "spellEffect": "",
    "spellArea": "5-ft.-radius emanation centered on you",
    "showInQuickbar": false,
    "spellPoints": {
      "cost": "1 + @sl"
    },
    "domain": false,
    "slotCost": 1
  },
  "flags": {},
  "img": "systems/pf1/icons/misc/magic-swirl.png",
  "effects": []
}