{
  "_id": "j00zzloydtkerlrl",
  "name": "Compelling Rant",
  "permission": {
    "default": 0
  },
  "type": "spell",
  "data": {
    "description": {
      "value": "<div class=\"spell-description\">\n  <p>\n    <strong>School</strong>&nbsp;enchantment&nbsp;(charm);\n    <strong>Level</strong>&nbsp;bard 5, cleric/oracle 5, inquisitor 5, mesmerist 5, psychic 5, sorcerer/wizard 5;\n    \n    \n    \n    \n  </p>\n  <p>\n    <strong>Casting Time</strong>&nbsp;1 minute<br>\n    <strong>Components</strong>&nbsp;V, S, M/DF (a handwritten sheet of notes)<br>\n  </p>\n  <p>\n    <strong>Range</strong>&nbsp;medium (100 ft. + 10 ft./level)<br>\n    \n    <strong>Targets</strong>&nbsp;any number of creatures<br>\n    \n    <strong>Duration</strong>&nbsp;concentration plus 1 round/level, up to 1 hour/level<br>\n    <strong>Saving Throw</strong>&nbsp;Will negates (see text);&nbsp;<strong>Spell Resistance</strong>&nbsp;no<br>\n  </p>\n  <h2>Description</h2>\n  <p>You deliver a confusing but fascinating monologue, relaying conspiracies or metaphysical revelations that confound your audience, throughout the spell's casting time and as long as you  concentrate. You take 1d4 points of Wisdom drain when you begin the speech and can't reduce or prevent this damage in any way. Each intelligent creature in the spell's area takes 1d6 points of Wisdom damage as their perceptions of reality realign with yours for the spell's duration. Listeners with at least 5 HD can attempt a Will save to negate the effects. Your targets view you with a friendly attitude and respond to criticism of you with irritation. Bluff, Diplomacy, or Intimidate checks to create doubt about your purpose in those affected by the spell take a -4 penalty. The attitude of your targets regarding any creature that criticizes you or your vision automatically changes one step toward hostile; a Diplomacy check that fails by 5 or more reduces their attitude further. Your targets retain the same alignment and their prior beliefs, in addition to the ones you force on them. You can't force  beliefs on a target if such beliefs would be necessarily against the nature of its alignment and prior beliefs, but targets are otherwise able to hold contradictory beliefs.  If your campaign uses the sanity system (see page 12), your sanity score decreases by 2 (and thus your sanity edge decreases by 1) instead of taking Wisdom drain each time you cast this spell. Only <i>greater restoration</i>, <i>miracle</i>, or <i>wish</i> can remove this decrease. A single casting of <i>greater restoration</i> removes one decrease in sanity from casting <i>compelling rant</i>, while a casting of <i>miracle</i> or <i>wish</i> removes them all. Affected targets take sanity damage equal to half your caster level (maximum 10) instead of Wisdom damage. The targets might actually change alignment and beliefs if their loss of sanity afflicts them with an appropriate madness, in which case those effects last even after the spell's duration has ended.</p>\n</div>\n",
      "chat": "",
      "unidentified": ""
    },
    "tags": [],
    "activation": {
      "cost": 1,
      "type": "minute"
    },
    "unchainedAction": {
      "activation": {
        "cost": 1,
        "type": "minute"
      }
    },
    "duration": {
      "value": null,
      "units": ""
    },
    "target": {
      "value": "any number of creatures"
    },
    "range": {
      "value": null,
      "units": "medium",
      "maxIncrements": 1,
      "minValue": null,
      "minUnits": ""
    },
    "uses": {
      "value": 0,
      "max": 0,
      "per": "",
      "autoDeductCharges": true,
      "autoDeductChargesCost": "1"
    },
    "measureTemplate": {
      "type": "",
      "size": "0",
      "overrideColor": false,
      "customColor": "",
      "overrideTexture": false,
      "customTexture": ""
    },
    "attackName": "",
    "actionType": "spellsave",
    "attackBonus": "",
    "critConfirmBonus": "",
    "damage": {
      "parts": [],
      "critParts": [],
      "nonCritParts": []
    },
    "attackParts": [],
    "formula": "",
    "ability": {
      "attack": "",
      "damage": "",
      "damageMult": 1,
      "critRange": 20,
      "critMult": 2
    },
    "save": {
      "dc": "0",
      "type": "will",
      "description": "Will negates (see text)"
    },
    "effectNotes": "",
    "attackNotes": "",
    "soundEffect": "",
    "links": {
      "children": []
    },
    "learnedAt": {
      "class": [
        [
          "sorcerer/wizard",
          5
        ],
        [
          "cleric/oracle",
          5
        ],
        [
          "bard",
          5
        ],
        [
          "inquisitor",
          5
        ],
        [
          "psychic",
          5
        ],
        [
          "mesmerist",
          5
        ]
      ],
      "domain": [],
      "subDomain": [],
      "elementalSchool": [],
      "bloodline": []
    },
    "level": 5,
    "clOffset": 0,
    "slOffset": 0,
    "school": "enc",
    "subschool": "charm",
    "types": "",
    "nonlethal": false,
    "conditionals": [],
    "components": {
      "value": "",
      "verbal": true,
      "somatic": true,
      "material": true,
      "focus": false,
      "divineFocus": 2
    },
    "castTime": "",
    "materials": {
      "value": "a handwritten sheet of notes",
      "focus": "",
      "gpValue": 0
    },
    "spellbook": "primary",
    "preparation": {
      "preparedAmount": 0,
      "maxAmount": 0,
      "autoDeductCharges": true,
      "spontaneousPrepared": true,
      "mode": "prepared"
    },
    "atWill": false,
    "sr": false,
    "shortDescription": "<p>You deliver a confusing but fascinating monologue, relaying conspiracies or metaphysical revelations that confound your audience, throughout the spell's casting time and as long as you  concentrate. You take 1d4 points of Wisdom drain when you begin the speech and can't reduce or prevent this damage in any way. Each intelligent creature in the spell's area takes 1d6 points of Wisdom damage as their perceptions of reality realign with yours for the spell's duration. Listeners with at least 5 HD can attempt a Will save to negate the effects. Your targets view you with a friendly attitude and respond to criticism of you with irritation. Bluff, Diplomacy, or Intimidate checks to create doubt about your purpose in those affected by the spell take a -4 penalty. The attitude of your targets regarding any creature that criticizes you or your vision automatically changes one step toward hostile; a Diplomacy check that fails by 5 or more reduces their attitude further. Your targets retain the same alignment and their prior beliefs, in addition to the ones you force on them. You can't force  beliefs on a target if such beliefs would be necessarily against the nature of its alignment and prior beliefs, but targets are otherwise able to hold contradictory beliefs.  If your campaign uses the sanity system (see page 12), your sanity score decreases by 2 (and thus your sanity edge decreases by 1) instead of taking Wisdom drain each time you cast this spell. Only <i>greater restoration</i>, <i>miracle</i>, or <i>wish</i> can remove this decrease. A single casting of <i>greater restoration</i> removes one decrease in sanity from casting <i>compelling rant</i>, while a casting of <i>miracle</i> or <i>wish</i> removes them all. Affected targets take sanity damage equal to half your caster level (maximum 10) instead of Wisdom damage. The targets might actually change alignment and beliefs if their loss of sanity afflicts them with an appropriate madness, in which case those effects last even after the spell's duration has ended.</p>",
    "spellDuration": "concentration plus 1 round/level, up to 1 hour/level",
    "spellEffect": "",
    "spellArea": "",
    "showInQuickbar": false,
    "spellPoints": {
      "cost": "1 + @sl"
    },
    "domain": false,
    "slotCost": 1
  },
  "flags": {},
  "img": "systems/pf1/icons/misc/magic-swirl.png",
  "effects": []
}