{
  "_id": "c3revq5uj4vtqzxb",
  "name": "Condensed Ether",
  "permission": {
    "default": 0
  },
  "type": "spell",
  "data": {
    "description": {
      "value": "<div class=\"spell-description\">\n  <p>\n    <strong>School</strong>&nbsp;transmutation;\n    <strong>Level</strong>&nbsp;psychic 4, sorcerer/wizard 5, spiritualist 3;\n    \n    \n    \n    \n  </p>\n  <p>\n    <strong>Casting Time</strong>&nbsp;1 standard action<br>\n    <strong>Components</strong>&nbsp;V, S, M (crushed amber)<br>\n  </p>\n  <p>\n    <strong>Range</strong>&nbsp;medium (100 ft. + 10 ft./level)<br>\n    \n    <strong>Targets</strong>&nbsp;20-ft.-radius spread<br>\n    \n    <strong>Duration</strong>&nbsp;1 minute/level<br>\n    <strong>Saving Throw</strong>&nbsp;none;&nbsp;<strong>Spell Resistance</strong>&nbsp;no<br>\n  </p>\n  <h2>Description</h2>\n  <p>You condense the substance of the Ethereal Plane as it interpenetrates the Material Plane. This thickened planar conjunction slows movement through the area to a crawl. Creatures moving through <i>condensed ether</i> (even incorporeal creatures), move at only half their normal speed and can't take 5-foot steps. This slowing of movement doesn't stack with <i>solid fog</i> or similar effects. Creatures within <i>condensed ether</i> take a -2 penalty to Armor Class and on Reflex saves, and <i>condensed ether</i> prevents effective ranged weapon attacks. Even magic rays and similar ranged attacks suffer a 20% miss chance on attacks into or passing through <i>condensed ether</i>. This miss chance is not based on concealment, and Blind-Fight, <i>true seeing</i>, and similar effects do not reduce it.</p>\n</div>\n",
      "chat": "",
      "unidentified": ""
    },
    "tags": [],
    "activation": {
      "cost": 1,
      "type": "standard"
    },
    "unchainedAction": {
      "activation": {
        "cost": 2,
        "type": "action"
      }
    },
    "duration": {
      "value": null,
      "units": ""
    },
    "target": {
      "value": "20-ft.-radius spread"
    },
    "range": {
      "value": null,
      "units": "medium",
      "maxIncrements": 1,
      "minValue": null,
      "minUnits": ""
    },
    "uses": {
      "value": 0,
      "max": 0,
      "per": "",
      "autoDeductCharges": true,
      "autoDeductChargesCost": "1"
    },
    "measureTemplate": {
      "type": "",
      "size": "0",
      "overrideColor": false,
      "customColor": "",
      "overrideTexture": false,
      "customTexture": ""
    },
    "attackName": "",
    "actionType": "",
    "attackBonus": "",
    "critConfirmBonus": "",
    "damage": {
      "parts": [],
      "critParts": [],
      "nonCritParts": []
    },
    "attackParts": [],
    "formula": "",
    "ability": {
      "attack": "",
      "damage": "",
      "damageMult": 1,
      "critRange": 20,
      "critMult": 2
    },
    "save": {
      "dc": "0",
      "type": "",
      "description": ""
    },
    "effectNotes": "",
    "attackNotes": "",
    "soundEffect": "",
    "links": {
      "children": []
    },
    "learnedAt": {
      "class": [
        [
          "sorcerer/wizard",
          5
        ],
        [
          "psychic",
          4
        ],
        [
          "spiritualist",
          3
        ]
      ],
      "domain": [],
      "subDomain": [],
      "elementalSchool": [],
      "bloodline": []
    },
    "level": 5,
    "clOffset": 0,
    "slOffset": 0,
    "school": "trs",
    "subschool": "",
    "types": "",
    "nonlethal": false,
    "conditionals": [],
    "components": {
      "value": "",
      "verbal": true,
      "somatic": true,
      "material": true,
      "focus": false,
      "divineFocus": 0
    },
    "castTime": "",
    "materials": {
      "value": "crushed amber",
      "focus": "",
      "gpValue": 0
    },
    "spellbook": "primary",
    "preparation": {
      "preparedAmount": 0,
      "maxAmount": 0,
      "autoDeductCharges": true,
      "spontaneousPrepared": true,
      "mode": "prepared"
    },
    "atWill": false,
    "sr": false,
    "shortDescription": "<p>You condense the substance of the Ethereal Plane as it interpenetrates the Material Plane. This thickened planar conjunction slows movement through the area to a crawl. Creatures moving through <i>condensed ether</i> (even incorporeal creatures), move at only half their normal speed and can't take 5-foot steps. This slowing of movement doesn't stack with <i>solid fog</i> or similar effects. Creatures within <i>condensed ether</i> take a -2 penalty to Armor Class and on Reflex saves, and <i>condensed ether</i> prevents effective ranged weapon attacks. Even magic rays and similar ranged attacks suffer a 20% miss chance on attacks into or passing through <i>condensed ether</i>. This miss chance is not based on concealment, and Blind-Fight, <i>true seeing</i>, and similar effects do not reduce it.</p>",
    "spellDuration": "1 minute/level",
    "spellEffect": "",
    "spellArea": "",
    "showInQuickbar": false,
    "spellPoints": {
      "cost": "1 + @sl"
    },
    "domain": false,
    "slotCost": 1
  },
  "flags": {},
  "img": "systems/pf1/icons/misc/magic-swirl.png",
  "effects": []
}