{
  "_id": "8xmk11xnay54ftp8",
  "name": "Create Drug",
  "permission": {
    "default": 0
  },
  "type": "spell",
  "data": {
    "description": {
      "value": "<div class=\"spell-description\">\n  <p>\n    <strong>School</strong>&nbsp;conjuration&nbsp;(creation);\n    <strong>Level</strong>&nbsp;alchemist 3, cleric/oracle 4, druid 3, hunter 3, occultist 3;\n    \n    \n    \n    \n  </p>\n  <p>\n    <strong>Casting Time</strong>&nbsp;1 round<br>\n    <strong>Components</strong>&nbsp;V, S<br>\n  </p>\n  <p>\n    \n    \n    \n    <strong>Effect</strong>&nbsp;1 dose of a drug/3 levels<br>\n    <strong>Duration</strong>&nbsp;1 minute<br>\n    <strong>Saving Throw</strong>&nbsp;none (see below);&nbsp;<strong>Spell Resistance</strong>&nbsp;no<br>\n  </p>\n  <h2>Description</h2>\n  <p>The caster conjures into being one of the following drugs: aether, flayleaf, opium, pesh, scour, shiver, or zerk. (At the GM's discretion, other drugs of similar power can be included on this list.) The drug doses the caster creates with this spell must be used within 1 minute of being conjured, or they dissolve into worthless dust or evaporate into noxious but fleeting vapors, though the effects of the drug may last far longer if taken before it decays.  The drugs created by this spell cannot be sold, but they can be given to other creatures. A creature that takes a dose of one of these drug typically must be either willing or helpless, though some drugs might be inhaled, applied to injuries, or secretly slipped into food if the caster acts swiftly (see each drug's description). The DC to resist a drug created by this spell is based on the conjurer's caster level, not the DC listed in the common versions of the drug. For more information, see Drugs and Addiction on page 236 of the <i>Pathfinder RPG GameMastery Guide</i>.  As a special use of this spell, a lawful evil worshiper of Mahathallah, the Dowager of Illusions, can create doses of the drug adyton (see the sidebar above). A Mahathallah worshiper can create adyton only once per week, regardless of her level or how many times she casts this spell. The spell otherwise functions- and creates as many doses-as normal.</p>\n</div>\n",
      "chat": "",
      "unidentified": ""
    },
    "tags": [],
    "activation": {
      "cost": 1,
      "type": "round"
    },
    "unchainedAction": {
      "activation": {
        "cost": 3,
        "type": "action"
      }
    },
    "duration": {
      "value": null,
      "units": ""
    },
    "target": {
      "value": ""
    },
    "range": {
      "value": 0,
      "units": "ft",
      "maxIncrements": 1,
      "minValue": null,
      "minUnits": ""
    },
    "uses": {
      "value": 0,
      "max": 0,
      "per": "",
      "autoDeductCharges": true,
      "autoDeductChargesCost": "1"
    },
    "measureTemplate": {
      "type": "",
      "size": "0",
      "overrideColor": false,
      "customColor": "",
      "overrideTexture": false,
      "customTexture": ""
    },
    "attackName": "",
    "actionType": "spellsave",
    "attackBonus": "",
    "critConfirmBonus": "",
    "damage": {
      "parts": [],
      "critParts": [],
      "nonCritParts": []
    },
    "attackParts": [],
    "formula": "",
    "ability": {
      "attack": "",
      "damage": "",
      "damageMult": 1,
      "critRange": 20,
      "critMult": 2
    },
    "save": {
      "dc": "0",
      "type": "",
      "description": "none (see below)"
    },
    "effectNotes": "",
    "attackNotes": "",
    "soundEffect": "",
    "links": {
      "children": []
    },
    "learnedAt": {
      "class": [
        [
          "cleric/oracle",
          4
        ],
        [
          "druid",
          3
        ],
        [
          "alchemist",
          3
        ],
        [
          "occultist",
          3
        ],
        [
          "hunter",
          3
        ]
      ],
      "domain": [],
      "subDomain": [],
      "elementalSchool": [],
      "bloodline": []
    },
    "level": 4,
    "clOffset": 0,
    "slOffset": 0,
    "school": "con",
    "subschool": "creation",
    "types": "",
    "nonlethal": false,
    "conditionals": [],
    "components": {
      "value": "",
      "verbal": true,
      "somatic": true,
      "material": false,
      "focus": false,
      "divineFocus": 0
    },
    "castTime": "",
    "materials": {
      "value": "",
      "focus": "",
      "gpValue": 0
    },
    "spellbook": "primary",
    "preparation": {
      "preparedAmount": 0,
      "maxAmount": 0,
      "autoDeductCharges": true,
      "spontaneousPrepared": true,
      "mode": "prepared"
    },
    "atWill": false,
    "sr": false,
    "shortDescription": "<p>The caster conjures into being one of the following drugs: aether, flayleaf, opium, pesh, scour, shiver, or zerk. (At the GM's discretion, other drugs of similar power can be included on this list.) The drug doses the caster creates with this spell must be used within 1 minute of being conjured, or they dissolve into worthless dust or evaporate into noxious but fleeting vapors, though the effects of the drug may last far longer if taken before it decays.  The drugs created by this spell cannot be sold, but they can be given to other creatures. A creature that takes a dose of one of these drug typically must be either willing or helpless, though some drugs might be inhaled, applied to injuries, or secretly slipped into food if the caster acts swiftly (see each drug's description). The DC to resist a drug created by this spell is based on the conjurer's caster level, not the DC listed in the common versions of the drug. For more information, see Drugs and Addiction on page 236 of the <i>Pathfinder RPG GameMastery Guide</i>.  As a special use of this spell, a lawful evil worshiper of Mahathallah, the Dowager of Illusions, can create doses of the drug adyton (see the sidebar above). A Mahathallah worshiper can create adyton only once per week, regardless of her level or how many times she casts this spell. The spell otherwise functions- and creates as many doses-as normal.</p>",
    "spellDuration": "1 minute",
    "spellEffect": "1 dose of a drug/3 levels",
    "spellArea": "",
    "showInQuickbar": false,
    "spellPoints": {
      "cost": "1 + @sl"
    },
    "domain": false,
    "slotCost": 1
  },
  "flags": {},
  "img": "systems/pf1/icons/misc/magic-swirl.png",
  "effects": []
}