{
  "_id": "idxobm3m03po416y",
  "name": "Curse Item",
  "permission": {
    "default": 0
  },
  "type": "spell",
  "data": {
    "description": {
      "value": "<div class=\"spell-description\">\n  <p>\n    <strong>School</strong>&nbsp;necromancy&nbsp;[curse];\n    <strong>Level</strong>&nbsp;cleric/oracle 2;\n    \n    \n    \n    \n  </p>\n  <p>\n    <strong>Casting Time</strong>&nbsp;1 minute<br>\n    <strong>Components</strong>&nbsp;V, S, DF<br>\n  </p>\n  <p>\n    <strong>Range</strong>&nbsp;touch<br>\n    \n    <strong>Targets</strong>&nbsp;object touched<br>\n    \n    <strong>Duration</strong>&nbsp;instantaneous<br>\n    <strong>Saving Throw</strong>&nbsp;Will negates (object);&nbsp;<strong>Spell Resistance</strong>&nbsp;yes<br>\n  </p>\n  <h2>Description</h2>\n  <p>The object becomes flawed and prone to failure. The effects of this spell depend on the nature of the object.  <i>Magic Item</i>: The item functions intermittently, gaining either an unreliable curse or a random dependent curse (<i>Pathfinder RPG Core Rulebook</i> 536).  <i>Nonmagical Armor or Shield</i>: The item gains the fragile armor quality (<i>Pathfinder RPG <i>Ultimate Equipment</i></i> 8).  <i>Nonmagical Weapon</i>: The item gains the fragile weapon quality (<i>Ultimate Equipment</i> 22).  <i>Tool</i>: The item gains the broken condition if a creature rolls a natural 1 while making a skill check with the tool.  <i>Other Item</i>: Each day it is used, the item has a 5% chance of gaining the broken condition.  This spell does not affect artifacts. The item can be sold or discarded as normal (the bearer is not compelled to keep it). If a cleric of Groetus is using an item that is affected by this spell, he or she may make a DC 20 Will saving throw to override the item's curse for 1 day (using it as if the item were not cursed).</p>\n</div>\n",
      "chat": "",
      "unidentified": ""
    },
    "tags": [],
    "activation": {
      "cost": 1,
      "type": "minute"
    },
    "unchainedAction": {
      "activation": {
        "cost": 1,
        "type": "minute"
      }
    },
    "duration": {
      "value": null,
      "units": ""
    },
    "target": {
      "value": "object touched"
    },
    "range": {
      "value": null,
      "units": "touch",
      "maxIncrements": 1,
      "minValue": null,
      "minUnits": ""
    },
    "uses": {
      "value": 0,
      "max": 0,
      "per": "",
      "autoDeductCharges": true,
      "autoDeductChargesCost": "1"
    },
    "measureTemplate": {
      "type": "",
      "size": "0",
      "overrideColor": false,
      "customColor": "",
      "overrideTexture": false,
      "customTexture": ""
    },
    "attackName": "",
    "actionType": "spellsave",
    "attackBonus": "",
    "critConfirmBonus": "",
    "damage": {
      "parts": [],
      "critParts": [],
      "nonCritParts": []
    },
    "attackParts": [],
    "formula": "",
    "ability": {
      "attack": "",
      "damage": "",
      "damageMult": 1,
      "critRange": 20,
      "critMult": 2
    },
    "save": {
      "dc": "0",
      "type": "will",
      "description": "Will negates (object)"
    },
    "effectNotes": "",
    "attackNotes": "",
    "soundEffect": "",
    "links": {
      "children": []
    },
    "learnedAt": {
      "class": [
        [
          "cleric/oracle",
          2
        ]
      ],
      "domain": [],
      "subDomain": [],
      "elementalSchool": [],
      "bloodline": []
    },
    "level": 2,
    "clOffset": 0,
    "slOffset": 0,
    "school": "nec",
    "subschool": "",
    "types": "curse",
    "nonlethal": false,
    "conditionals": [],
    "components": {
      "value": "",
      "verbal": true,
      "somatic": true,
      "material": false,
      "focus": false,
      "divineFocus": 1
    },
    "castTime": "",
    "materials": {
      "value": "",
      "focus": "",
      "gpValue": 0
    },
    "spellbook": "primary",
    "preparation": {
      "preparedAmount": 0,
      "maxAmount": 0,
      "autoDeductCharges": true,
      "spontaneousPrepared": true,
      "mode": "prepared"
    },
    "atWill": false,
    "sr": true,
    "shortDescription": "<p>The object becomes flawed and prone to failure. The effects of this spell depend on the nature of the object.  <i>Magic Item</i>: The item functions intermittently, gaining either an unreliable curse or a random dependent curse (<i>Pathfinder RPG Core Rulebook</i> 536).  <i>Nonmagical Armor or Shield</i>: The item gains the fragile armor quality (<i>Pathfinder RPG <i>Ultimate Equipment</i></i> 8).  <i>Nonmagical Weapon</i>: The item gains the fragile weapon quality (<i>Ultimate Equipment</i> 22).  <i>Tool</i>: The item gains the broken condition if a creature rolls a natural 1 while making a skill check with the tool.  <i>Other Item</i>: Each day it is used, the item has a 5% chance of gaining the broken condition.  This spell does not affect artifacts. The item can be sold or discarded as normal (the bearer is not compelled to keep it). If a cleric of Groetus is using an item that is affected by this spell, he or she may make a DC 20 Will saving throw to override the item's curse for 1 day (using it as if the item were not cursed).</p>",
    "spellDuration": "instantaneous",
    "spellEffect": "",
    "spellArea": "",
    "showInQuickbar": false,
    "spellPoints": {
      "cost": "1 + @sl"
    },
    "domain": false,
    "slotCost": 1
  },
  "flags": {},
  "img": "systems/pf1/icons/misc/magic-swirl.png",
  "effects": []
}