{
  "_id": "czhrq71sajl6znhq",
  "name": "Death Pact",
  "permission": {
    "default": 0
  },
  "type": "spell",
  "data": {
    "description": {
      "value": "<div class=\"spell-description\">\n  <p>\n    <strong>School</strong>&nbsp;enchantment&nbsp;[mind-affecting];\n    <strong>Level</strong>&nbsp;bard 5, mesmerist 5, psychic 6, witch 6;\n    \n    \n    \n    \n  </p>\n  <p>\n    <strong>Casting Time</strong>&nbsp;1 minute<br>\n    <strong>Components</strong>&nbsp;V, S, M (a contract signed in blood)<br>\n  </p>\n  <p>\n    <strong>Range</strong>&nbsp;touch<br>\n    \n    <strong>Targets</strong>&nbsp;one creature<br>\n    \n    <strong>Duration</strong>&nbsp;24 hours<br>\n    <strong>Saving Throw</strong>&nbsp;Will negates; see text;&nbsp;<strong>Spell Resistance</strong>&nbsp;yes<br>\n  </p>\n  <h2>Description</h2>\n  <p>You take control of a creature's mind and implant deadly subconscious commands. This spell functions as <i>dominate person</i>, allowing you to control your subject and see through her senses, but also implants a powerful burst of psychic energy in the subject's mind. At any point during the spell's duration, you can trigger this burst as an immediate action, dealing 1d8 points of damage per caster level (Fortitude half) to the subject. If this damage is enough to reduce to target to 0 or fewer hit points, the target dies instantly.  Your target can also willingly trigger this psychic burst as an immediate action. You can specify conditions (such as being captured) when she should do so, though such orders are considered dangerous and allow the subject a new Will saving throw with a +2 bonus.</p>\n</div>\n",
      "chat": "",
      "unidentified": ""
    },
    "tags": [],
    "activation": {
      "cost": 1,
      "type": "minute"
    },
    "unchainedAction": {
      "activation": {
        "cost": 1,
        "type": "minute"
      }
    },
    "duration": {
      "value": null,
      "units": ""
    },
    "target": {
      "value": "one creature"
    },
    "range": {
      "value": null,
      "units": "touch",
      "maxIncrements": 1,
      "minValue": null,
      "minUnits": ""
    },
    "uses": {
      "value": 0,
      "max": 0,
      "per": "",
      "autoDeductCharges": true,
      "autoDeductChargesCost": "1"
    },
    "measureTemplate": {
      "type": "",
      "size": "0",
      "overrideColor": false,
      "customColor": "",
      "overrideTexture": false,
      "customTexture": ""
    },
    "attackName": "",
    "actionType": "spellsave",
    "attackBonus": "",
    "critConfirmBonus": "",
    "damage": {
      "parts": [],
      "critParts": [],
      "nonCritParts": []
    },
    "attackParts": [],
    "formula": "",
    "ability": {
      "attack": "",
      "damage": "",
      "damageMult": 1,
      "critRange": 20,
      "critMult": 2
    },
    "save": {
      "dc": "0",
      "type": "will",
      "description": "Will negates; see text"
    },
    "effectNotes": "",
    "attackNotes": "",
    "soundEffect": "",
    "links": {
      "children": []
    },
    "learnedAt": {
      "class": [
        [
          "bard",
          5
        ],
        [
          "witch",
          6
        ],
        [
          "psychic",
          6
        ],
        [
          "mesmerist",
          5
        ]
      ],
      "domain": [],
      "subDomain": [],
      "elementalSchool": [],
      "bloodline": []
    },
    "level": 5,
    "clOffset": 0,
    "slOffset": 0,
    "school": "enc",
    "subschool": "",
    "types": "mind-affecting",
    "nonlethal": false,
    "conditionals": [],
    "components": {
      "value": "",
      "verbal": true,
      "somatic": true,
      "material": true,
      "focus": false,
      "divineFocus": 0
    },
    "castTime": "",
    "materials": {
      "value": "a contract signed in blood",
      "focus": "",
      "gpValue": 0
    },
    "spellbook": "primary",
    "preparation": {
      "preparedAmount": 0,
      "maxAmount": 0,
      "autoDeductCharges": true,
      "spontaneousPrepared": true,
      "mode": "prepared"
    },
    "atWill": false,
    "sr": true,
    "shortDescription": "<p>You take control of a creature's mind and implant deadly subconscious commands. This spell functions as <i>dominate person</i>, allowing you to control your subject and see through her senses, but also implants a powerful burst of psychic energy in the subject's mind. At any point during the spell's duration, you can trigger this burst as an immediate action, dealing 1d8 points of damage per caster level (Fortitude half) to the subject. If this damage is enough to reduce to target to 0 or fewer hit points, the target dies instantly.  Your target can also willingly trigger this psychic burst as an immediate action. You can specify conditions (such as being captured) when she should do so, though such orders are considered dangerous and allow the subject a new Will saving throw with a +2 bonus.</p>",
    "spellDuration": "24 hours",
    "spellEffect": "",
    "spellArea": "",
    "showInQuickbar": false,
    "spellPoints": {
      "cost": "1 + @sl"
    },
    "domain": false,
    "slotCost": 1
  },
  "flags": {},
  "img": "systems/pf1/icons/misc/magic-swirl.png",
  "effects": []
}