{
  "_id": "borbn2jnp2rt387d",
  "name": "Deathwine",
  "permission": {
    "default": 0
  },
  "type": "spell",
  "data": {
    "description": {
      "value": "<div class=\"spell-description\">\n  <p>\n    <strong>School</strong>&nbsp;necromancy;\n    <strong>Level</strong>&nbsp;alchemist 2, cleric/oracle 2, sorcerer/wizard 3, witch 3;\n    \n    \n    \n    \n  </p>\n  <p>\n    <strong>Casting Time</strong>&nbsp;1 minute<br>\n    <strong>Components</strong>&nbsp;V, S<br>\n  </p>\n  <p>\n    <strong>Range</strong>&nbsp;touch<br>\n    \n    <strong>Targets</strong>&nbsp;1 potion touched/level<br>\n    \n    <strong>Duration</strong>&nbsp;1 hour/level<br>\n    <strong>Saving Throw</strong>&nbsp;none (object);&nbsp;<strong>Spell Resistance</strong>&nbsp;no<br>\n  </p>\n  <h2>Description</h2>\n  <p>This spell allows you to turn a potion into a temporary pool of necromantic energy. Only a potion created using a conjuration (healing) spell can be affected by this spell. An affected potion turns dark red and reveals a necromantic aura if <i>detect magic</i> is cast on it while it remains under this spell's effects.  When you drink a potion affected by this spell, you do not gain the potion's normal effect. Instead, the first necromancy spell you cast within the next minute is cast at a higher caster level. The bonus to caster level is equal to the spell level of the spell used to create the potion that <i>deathwine</i> affects. For example, a 5th-level wizard who drinks <i>deathwine</i> made from a <i>potion of <i>cure serious wounds</i></i> would cast his next necromancy spell as an 8th-level caster, as <i>cure serious wounds</i> i s a 3 rd-level spell.  In addition, any undead creature (or other creature healed by negative energy) that drinks a potion affected by <i>deathwine</i> is healed of 1d8 points of damage. Any potion not imbibed before this spell's duration expires is destroyed at the end of the <i>deathwine</i>'s duration.</p>\n</div>\n",
      "chat": "",
      "unidentified": ""
    },
    "tags": [],
    "activation": {
      "cost": 1,
      "type": "minute"
    },
    "unchainedAction": {
      "activation": {
        "cost": 1,
        "type": "minute"
      }
    },
    "duration": {
      "value": null,
      "units": ""
    },
    "target": {
      "value": "1 potion touched/level"
    },
    "range": {
      "value": null,
      "units": "touch",
      "maxIncrements": 1,
      "minValue": null,
      "minUnits": ""
    },
    "uses": {
      "value": 0,
      "max": 0,
      "per": "",
      "autoDeductCharges": true,
      "autoDeductChargesCost": "1"
    },
    "measureTemplate": {
      "type": "",
      "size": "0",
      "overrideColor": false,
      "customColor": "",
      "overrideTexture": false,
      "customTexture": ""
    },
    "attackName": "",
    "actionType": "spellsave",
    "attackBonus": "",
    "critConfirmBonus": "",
    "damage": {
      "parts": [],
      "critParts": [],
      "nonCritParts": []
    },
    "attackParts": [],
    "formula": "",
    "ability": {
      "attack": "",
      "damage": "",
      "damageMult": 1,
      "critRange": 20,
      "critMult": 2
    },
    "save": {
      "dc": "0",
      "type": "",
      "description": "none (object)"
    },
    "effectNotes": "",
    "attackNotes": "",
    "soundEffect": "",
    "links": {
      "children": []
    },
    "learnedAt": {
      "class": [
        [
          "sorcerer/wizard",
          3
        ],
        [
          "cleric/oracle",
          2
        ],
        [
          "alchemist",
          2
        ],
        [
          "witch",
          3
        ]
      ],
      "domain": [],
      "subDomain": [],
      "elementalSchool": [],
      "bloodline": []
    },
    "level": 3,
    "clOffset": 0,
    "slOffset": 0,
    "school": "nec",
    "subschool": "",
    "types": "",
    "nonlethal": false,
    "conditionals": [],
    "components": {
      "value": "",
      "verbal": true,
      "somatic": true,
      "material": false,
      "focus": false,
      "divineFocus": 0
    },
    "castTime": "",
    "materials": {
      "value": "",
      "focus": "",
      "gpValue": 0
    },
    "spellbook": "primary",
    "preparation": {
      "preparedAmount": 0,
      "maxAmount": 0,
      "autoDeductCharges": true,
      "spontaneousPrepared": true,
      "mode": "prepared"
    },
    "atWill": false,
    "sr": false,
    "shortDescription": "<p>This spell allows you to turn a potion into a temporary pool of necromantic energy. Only a potion created using a conjuration (healing) spell can be affected by this spell. An affected potion turns dark red and reveals a necromantic aura if <i>detect magic</i> is cast on it while it remains under this spell's effects.  When you drink a potion affected by this spell, you do not gain the potion's normal effect. Instead, the first necromancy spell you cast within the next minute is cast at a higher caster level. The bonus to caster level is equal to the spell level of the spell used to create the potion that <i>deathwine</i> affects. For example, a 5th-level wizard who drinks <i>deathwine</i> made from a <i>potion of <i>cure serious wounds</i></i> would cast his next necromancy spell as an 8th-level caster, as <i>cure serious wounds</i> i s a 3 rd-level spell.  In addition, any undead creature (or other creature healed by negative energy) that drinks a potion affected by <i>deathwine</i> is healed of 1d8 points of damage. Any potion not imbibed before this spell's duration expires is destroyed at the end of the <i>deathwine</i>'s duration.</p>",
    "spellDuration": "1 hour/level",
    "spellEffect": "",
    "spellArea": "",
    "showInQuickbar": false,
    "spellPoints": {
      "cost": "1 + @sl"
    },
    "domain": false,
    "slotCost": 1
  },
  "flags": {},
  "img": "systems/pf1/icons/misc/magic-swirl.png",
  "effects": []
}