{
  "_id": "io2yjhr42chvcfb4",
  "name": "Dominate Animal",
  "permission": {
    "default": 0
  },
  "type": "spell",
  "data": {
    "description": {
      "value": "<div class=\"spell-description\">\n  <p>\n    <strong>School</strong>&nbsp;enchantment&nbsp;(compulsion)&nbsp;[mind-affecting];\n    <strong>Level</strong>&nbsp;druid 3, hunter 3, mesmerist 3, psychic 4, shaman 3;\n    <strong>Domain</strong>&nbsp;Animal 3;\n    \n    \n    \n  </p>\n  <p>\n    <strong>Casting Time</strong>&nbsp;1 round<br>\n    <strong>Components</strong>&nbsp;V, S<br>\n  </p>\n  <p>\n    <strong>Range</strong>&nbsp;close (25 ft. + 5 ft./2 levels)<br>\n    \n    <strong>Targets</strong>&nbsp;one animal<br>\n    \n    <strong>Duration</strong>&nbsp;1 round/level<br>\n    <strong>Saving Throw</strong>&nbsp;Will negates;&nbsp;<strong>Spell Resistance</strong>&nbsp;yes<br>\n  </p>\n  <h2>Description</h2>\n  <p>This spell allows you to enchant the targeted animal and direct it with simple commands such as \"Attack,\" \"Run,\" and \"Fetch.\" Suicidal or self-destructive commands (including an order to attack a creature two or more size categories larger than the dominated animal) are simply ignored.</p><p><i>Dominate animal</i> establishes a mental link between you and the subject creature. The animal can be directed by silent mental command as long as it remains in range. You need not see the creature to control it. You do not receive direct sensory input from the creature, but you know what it is experiencing. Because you are directing the animal with your own intelligence, it may be able to undertake actions normally beyond its own comprehension. You need not concentrate exclusively on controlling the creature unless you are trying to direct it to do something it normally couldn't do. Changing your instructions or giving a dominated creature a new command is the equivalent of redirecting a spell, so it is a move action.</p>\n</div>\n",
      "chat": "",
      "unidentified": ""
    },
    "tags": [],
    "activation": {
      "cost": 1,
      "type": "round"
    },
    "unchainedAction": {
      "activation": {
        "cost": 3,
        "type": "action"
      }
    },
    "duration": {
      "value": null,
      "units": ""
    },
    "target": {
      "value": "one animal"
    },
    "range": {
      "value": null,
      "units": "close",
      "maxIncrements": 1,
      "minValue": null,
      "minUnits": ""
    },
    "uses": {
      "value": 0,
      "max": 0,
      "per": "",
      "autoDeductCharges": true,
      "autoDeductChargesCost": "1"
    },
    "measureTemplate": {
      "type": "",
      "size": "0",
      "overrideColor": false,
      "customColor": "",
      "overrideTexture": false,
      "customTexture": ""
    },
    "attackName": "",
    "actionType": "spellsave",
    "attackBonus": "",
    "critConfirmBonus": "",
    "damage": {
      "parts": [],
      "critParts": [],
      "nonCritParts": []
    },
    "attackParts": [],
    "formula": "",
    "ability": {
      "attack": "",
      "damage": "",
      "damageMult": 1,
      "critRange": 20,
      "critMult": 2
    },
    "save": {
      "dc": "0",
      "type": "will",
      "description": "Will negates"
    },
    "effectNotes": "",
    "attackNotes": "",
    "soundEffect": "",
    "links": {
      "children": []
    },
    "learnedAt": {
      "class": [
        [
          "druid",
          3
        ],
        [
          "shaman",
          3
        ],
        [
          "psychic",
          4
        ],
        [
          "mesmerist",
          3
        ],
        [
          "hunter",
          3
        ]
      ],
      "domain": [
        [
          "Animal",
          3
        ]
      ],
      "subDomain": [],
      "elementalSchool": [],
      "bloodline": []
    },
    "level": 3,
    "clOffset": 0,
    "slOffset": 0,
    "school": "enc",
    "subschool": "compulsion",
    "types": "mind-affecting",
    "nonlethal": false,
    "conditionals": [],
    "components": {
      "value": "",
      "verbal": true,
      "somatic": true,
      "material": false,
      "focus": false,
      "divineFocus": 0
    },
    "castTime": "",
    "materials": {
      "value": "",
      "focus": "",
      "gpValue": 0
    },
    "spellbook": "primary",
    "preparation": {
      "preparedAmount": 0,
      "maxAmount": 0,
      "autoDeductCharges": true,
      "spontaneousPrepared": true,
      "mode": "prepared"
    },
    "atWill": false,
    "sr": true,
    "shortDescription": "<p>This spell allows you to enchant the targeted animal and direct it with simple commands such as \"Attack,\" \"Run,\" and \"Fetch.\" Suicidal or self-destructive commands (including an order to attack a creature two or more size categories larger than the dominated animal) are simply ignored.</p><p><i>Dominate animal</i> establishes a mental link between you and the subject creature. The animal can be directed by silent mental command as long as it remains in range. You need not see the creature to control it. You do not receive direct sensory input from the creature, but you know what it is experiencing. Because you are directing the animal with your own intelligence, it may be able to undertake actions normally beyond its own comprehension. You need not concentrate exclusively on controlling the creature unless you are trying to direct it to do something it normally couldn't do. Changing your instructions or giving a dominated creature a new command is the equivalent of redirecting a spell, so it is a move action.</p>",
    "spellDuration": "1 round/level",
    "spellEffect": "",
    "spellArea": "",
    "showInQuickbar": false,
    "spellPoints": {
      "cost": "1 + @sl"
    },
    "domain": false,
    "slotCost": 1
  },
  "flags": {},
  "img": "systems/pf1/icons/misc/magic-swirl.png",
  "effects": []
}