{
  "_id": "cdedzw5d9ui73ua7",
  "name": "Dragon's Breath",
  "permission": {
    "default": 0
  },
  "type": "spell",
  "data": {
    "description": {
      "value": "<div class=\"spell-description\">\n  <p>\n    <strong>School</strong>&nbsp;evocation&nbsp;[acid, cold, electricity, or fire];\n    <strong>Level</strong>&nbsp;alchemist 4, bloodrager 4, sorcerer/wizard 4;\n    \n    <strong>Subdomain</strong>&nbsp;Dragon 4;\n    \n    <strong>Bloodline</strong>&nbsp;Kobold 4;\n  </p>\n  <p>\n    <strong>Casting Time</strong>&nbsp;1 standard action<br>\n    <strong>Components</strong>&nbsp;V, S, M (a dragon scale)<br>\n  </p>\n  <p>\n    <strong>Range</strong>&nbsp;30 feet<br>\n    <strong>Area</strong>&nbsp;cone-shaped burst or line<br>\n    \n    \n    <strong>Duration</strong>&nbsp;instantaneous<br>\n    <strong>Saving Throw</strong>&nbsp;Reflex half;&nbsp;<strong>Spell Resistance</strong>&nbsp;yes<br>\n  </p>\n  <h2>Description</h2>\n  <p>You breathe out a blast of energy. Creatures in the affected area take 1d6 points of energy damage per caster level (maximum of 12d6). A successful Reflex save results in half damage. The spell's effect and energy type depend on the type of dragon scale used: </p><p><i>Black dragon</i>: 60-foot line of acid.</p><p><i>Blue or bronze dragon</i>: 60-foot line of electricity.</p><p><i>Green dragon</i>: 30-foot cone of acid.</p><p><i>Gold or red dragon</i>: 30-foot cone of fire.</p><p><i>Silver or white dragon</i>: 30-foot cone of cold.</p><p><i>Brass dragon</i>: 60-foot line of fire.</p><p><i>Copper dragon</i>: 60-foot line of acid.</p>\n</div>\n",
      "chat": "",
      "unidentified": ""
    },
    "tags": [],
    "activation": {
      "cost": 1,
      "type": "standard"
    },
    "unchainedAction": {
      "activation": {
        "cost": 2,
        "type": "action"
      }
    },
    "duration": {
      "value": null,
      "units": ""
    },
    "target": {
      "value": ""
    },
    "range": {
      "value": 30,
      "units": "ft",
      "maxIncrements": 1,
      "minValue": null,
      "minUnits": ""
    },
    "uses": {
      "value": 0,
      "max": 0,
      "per": "",
      "autoDeductCharges": true,
      "autoDeductChargesCost": "1"
    },
    "measureTemplate": {
      "type": "",
      "size": "0",
      "overrideColor": false,
      "customColor": "",
      "overrideTexture": false,
      "customTexture": ""
    },
    "attackName": "",
    "actionType": "spellsave",
    "attackBonus": "",
    "critConfirmBonus": "",
    "damage": {
      "parts": [],
      "critParts": [],
      "nonCritParts": []
    },
    "attackParts": [],
    "formula": "",
    "ability": {
      "attack": "",
      "damage": "",
      "damageMult": 1,
      "critRange": 20,
      "critMult": 2
    },
    "save": {
      "dc": "0",
      "type": "ref",
      "description": "Reflex half"
    },
    "effectNotes": "",
    "attackNotes": "",
    "soundEffect": "",
    "links": {
      "children": []
    },
    "learnedAt": {
      "class": [
        [
          "sorcerer/wizard",
          4
        ],
        [
          "alchemist",
          4
        ],
        [
          "bloodrager",
          4
        ]
      ],
      "domain": [],
      "subDomain": [
        [
          "Dragon",
          4
        ]
      ],
      "elementalSchool": [],
      "bloodline": [
        [
          "Kobold",
          4
        ]
      ]
    },
    "level": 4,
    "clOffset": 0,
    "slOffset": 0,
    "school": "evo",
    "subschool": "",
    "types": "acid, cold, electricity, or fire",
    "nonlethal": false,
    "conditionals": [],
    "components": {
      "value": "",
      "verbal": true,
      "somatic": true,
      "material": true,
      "focus": false,
      "divineFocus": 0
    },
    "castTime": "",
    "materials": {
      "value": "a dragon scale",
      "focus": "",
      "gpValue": 0
    },
    "spellbook": "primary",
    "preparation": {
      "preparedAmount": 0,
      "maxAmount": 0,
      "autoDeductCharges": true,
      "spontaneousPrepared": true,
      "mode": "prepared"
    },
    "atWill": false,
    "sr": true,
    "shortDescription": "<p>You breathe out a blast of energy. Creatures in the affected area take 1d6 points of energy damage per caster level (maximum of 12d6). A successful Reflex save results in half damage. The spell's effect and energy type depend on the type of dragon scale used: </p><p><i>Black dragon</i>: 60-foot line of acid.</p><p><i>Blue or bronze dragon</i>: 60-foot line of electricity.</p><p><i>Green dragon</i>: 30-foot cone of acid.</p><p><i>Gold or red dragon</i>: 30-foot cone of fire.</p><p><i>Silver or white dragon</i>: 30-foot cone of cold.</p><p><i>Brass dragon</i>: 60-foot line of fire.</p><p><i>Copper dragon</i>: 60-foot line of acid.</p>",
    "spellDuration": "instantaneous",
    "spellEffect": "",
    "spellArea": "cone-shaped burst or line",
    "showInQuickbar": false,
    "spellPoints": {
      "cost": "1 + @sl"
    },
    "domain": false,
    "slotCost": 1
  },
  "flags": {},
  "img": "systems/pf1/icons/misc/magic-swirl.png",
  "effects": []
}