{
  "_id": "2fcgfstehgtkkfja",
  "name": "Drain Poison",
  "permission": {
    "default": 0
  },
  "type": "spell",
  "data": {
    "description": {
      "value": "<div class=\"spell-description\">\n  <p>\n    <strong>School</strong>&nbsp;transmutation&nbsp;[poison];\n    <strong>Level</strong>&nbsp;alchemist 3, antipaladin 3, cleric/oracle 3, druid 3, hunter 3, ranger 3, witch 3;\n    \n    \n    \n    \n  </p>\n  <p>\n    <strong>Casting Time</strong>&nbsp;1 standard action<br>\n    <strong>Components</strong>&nbsp;V, S, M/DF (the fang of a poisonous creature)<br>\n  </p>\n  <p>\n    <strong>Range</strong>&nbsp;touch<br>\n    \n    <strong>Targets</strong>&nbsp;one weapon or a single piece of ammunition<br>\n    \n    <strong>Duration</strong>&nbsp;24 hours<br>\n    <strong>Saving Throw</strong>&nbsp;none;&nbsp;<strong>Spell Resistance</strong>&nbsp;no<br>\n  </p>\n  <h2>Description</h2>\n  <p>By touching a weapon against the fang of a poisonous creature and casting this spell, you drain 1 dose of the creature's poison, which is magically applied to your weapon without risk of poisoning yourself. The poison remains on the weapon until either it strikes a creature, you touch the weapon, or you wipe off the poison. It otherwise functions exactly like a dose of a manufactured poison applied to a weapon. You can use this spell with natural as well as manufactured weapons. This spell does not prevent you from exposing yourself to the poison if you roll a natural 1 on an attack roll while the poison is applied to your weapon.  The spell has no effect if the creature whose fang is touched is a summoned creature, if it has been dead for more than 1 minute, or if its poison has already been extracted from it.</p>\n</div>\n",
      "chat": "",
      "unidentified": ""
    },
    "tags": [],
    "activation": {
      "cost": 1,
      "type": "standard"
    },
    "unchainedAction": {
      "activation": {
        "cost": 2,
        "type": "action"
      }
    },
    "duration": {
      "value": null,
      "units": ""
    },
    "target": {
      "value": "one weapon or a single piece of ammunition"
    },
    "range": {
      "value": null,
      "units": "touch",
      "maxIncrements": 1,
      "minValue": null,
      "minUnits": ""
    },
    "uses": {
      "value": 0,
      "max": 0,
      "per": "",
      "autoDeductCharges": true,
      "autoDeductChargesCost": "1"
    },
    "measureTemplate": {
      "type": "",
      "size": "0",
      "overrideColor": false,
      "customColor": "",
      "overrideTexture": false,
      "customTexture": ""
    },
    "attackName": "",
    "actionType": "",
    "attackBonus": "",
    "critConfirmBonus": "",
    "damage": {
      "parts": [],
      "critParts": [],
      "nonCritParts": []
    },
    "attackParts": [],
    "formula": "",
    "ability": {
      "attack": "",
      "damage": "",
      "damageMult": 1,
      "critRange": 20,
      "critMult": 2
    },
    "save": {
      "dc": "0",
      "type": "",
      "description": ""
    },
    "effectNotes": "",
    "attackNotes": "",
    "soundEffect": "",
    "links": {
      "children": []
    },
    "learnedAt": {
      "class": [
        [
          "cleric/oracle",
          3
        ],
        [
          "druid",
          3
        ],
        [
          "ranger",
          3
        ],
        [
          "alchemist",
          3
        ],
        [
          "witch",
          3
        ],
        [
          "antipaladin",
          3
        ],
        [
          "hunter",
          3
        ]
      ],
      "domain": [],
      "subDomain": [],
      "elementalSchool": [],
      "bloodline": []
    },
    "level": 3,
    "clOffset": 0,
    "slOffset": 0,
    "school": "trs",
    "subschool": "",
    "types": "poison",
    "nonlethal": false,
    "conditionals": [],
    "components": {
      "value": "",
      "verbal": true,
      "somatic": true,
      "material": true,
      "focus": false,
      "divineFocus": 2
    },
    "castTime": "",
    "materials": {
      "value": "the fang of a poisonous creature",
      "focus": "",
      "gpValue": 0
    },
    "spellbook": "primary",
    "preparation": {
      "preparedAmount": 0,
      "maxAmount": 0,
      "autoDeductCharges": true,
      "spontaneousPrepared": true,
      "mode": "prepared"
    },
    "atWill": false,
    "sr": false,
    "shortDescription": "<p>By touching a weapon against the fang of a poisonous creature and casting this spell, you drain 1 dose of the creature's poison, which is magically applied to your weapon without risk of poisoning yourself. The poison remains on the weapon until either it strikes a creature, you touch the weapon, or you wipe off the poison. It otherwise functions exactly like a dose of a manufactured poison applied to a weapon. You can use this spell with natural as well as manufactured weapons. This spell does not prevent you from exposing yourself to the poison if you roll a natural 1 on an attack roll while the poison is applied to your weapon.  The spell has no effect if the creature whose fang is touched is a summoned creature, if it has been dead for more than 1 minute, or if its poison has already been extracted from it.</p>",
    "spellDuration": "24 hours",
    "spellEffect": "",
    "spellArea": "",
    "showInQuickbar": false,
    "spellPoints": {
      "cost": "1 + @sl"
    },
    "domain": false,
    "slotCost": 1
  },
  "flags": {},
  "img": "systems/pf1/icons/misc/magic-swirl.png",
  "effects": []
}