{
  "_id": "jiu8a7raurkroyfx",
  "name": "Eaglesoul",
  "permission": {
    "default": 0
  },
  "type": "spell",
  "data": {
    "description": {
      "value": "<div class=\"spell-description\">\n  <p>\n    <strong>School</strong>&nbsp;conjuration&nbsp;(summoning)&nbsp;[good];\n    <strong>Level</strong>&nbsp;cleric/oracle 6, paladin 4, summoner 5, unchained Summoner 5;\n    \n    \n    \n    \n  </p>\n  <p>\n    <strong>Casting Time</strong>&nbsp;1 standard action<br>\n    <strong>Components</strong>&nbsp;V, S, M (vellum inscribed with good outsider&#x27;s name)<br>\n  </p>\n  <p>\n    <strong>Range</strong>&nbsp;personal<br>\n    \n    <strong>Targets</strong>&nbsp;you<br>\n    \n    <strong>Duration</strong>&nbsp;1 hour/level (see below)<br>\n    \n  </p>\n  <h2>Description</h2>\n  <p>As the Inner Sea's bravest men and women answered the call of what became the Second Mendevian Crusade, constructing the <i>wardstones</i> that eventually kept the brutal chaos of the Worldwound at bay, they realized that they needed help beyond traditional magics.</p><p>Legends say that the first <i>eaglesoul</i> spell was created when an agathion avoral joined his own spirit with that of a courageous paladin who was about to be overwhelmed on the field of battle. The holy knight used the combined might of the agathion's great strength and his own to win the day for the crusaders. Now, although the spell is still in use chiefly among those that patrol the borders of the Worldwound, other champions of good have carried it with them to all corners of the Inner Sea region.</p><p>When you cast this spell, you reach into the great beyond and beseech a good-aligned outsider for their aid against evil.</p><p>The outsider infuses a small portion of its own power into you, making you a powerful force for good. You gain a +2 morale bonus on all Perception checks made against evil creatures, a +2 bonus on Initiative checks, and <i>detect evil</i> as a constant spell-like ability.</p><p>In addition, once during the spell's duration you can call forth a surge of holy power when fighting an evil creature.</p><p>Doing so is a swift action that shortens the spell's remaining duration so that its remaining hours of duration become rounds of duration. For the rest of this duration, the surge of power grants you the following benefits: <ul><li> A +2 sacred bonus to AC <li> A +4 sacred bonus to Strength <li> Resistance 5 to acid and fire <li> A +5 sacred bonus on all Intimidate checks made against evil creatures <li> Fast healing 2 <li> Any critical threat roll made against an evil creature with a weapon you wield is automatically confirmed.</p><p>Although this surge of power can be activated against any evil opponent, this ability activates automatically as soon as you attack any evil outsider, regardless of whether you hit or not, and regardless of whether you actually recognize that the target is in fact an evil outsider. In such cases the activation is a free action.</p><p>Nongood spellcasters can cast this spell, but doing so causes them to be sickened (for spellcasters who are neither good nor evil) or staggered (for spellcasters who are evil) for the spell's duration.</ul></p>\n</div>\n",
      "chat": "",
      "unidentified": ""
    },
    "tags": [],
    "activation": {
      "cost": 1,
      "type": "standard"
    },
    "unchainedAction": {
      "activation": {
        "cost": 2,
        "type": "action"
      }
    },
    "duration": {
      "value": null,
      "units": ""
    },
    "target": {
      "value": "you"
    },
    "range": {
      "value": null,
      "units": "personal",
      "maxIncrements": 1,
      "minValue": null,
      "minUnits": ""
    },
    "uses": {
      "value": 0,
      "max": 0,
      "per": "",
      "autoDeductCharges": true,
      "autoDeductChargesCost": "1"
    },
    "measureTemplate": {
      "type": "",
      "size": "0",
      "overrideColor": false,
      "customColor": "",
      "overrideTexture": false,
      "customTexture": ""
    },
    "attackName": "",
    "actionType": "",
    "attackBonus": "",
    "critConfirmBonus": "",
    "damage": {
      "parts": [],
      "critParts": [],
      "nonCritParts": []
    },
    "attackParts": [],
    "formula": "",
    "ability": {
      "attack": "",
      "damage": "",
      "damageMult": 1,
      "critRange": 20,
      "critMult": 2
    },
    "save": {
      "dc": "0",
      "type": "",
      "description": ""
    },
    "effectNotes": "",
    "attackNotes": "",
    "soundEffect": "",
    "links": {
      "children": []
    },
    "learnedAt": {
      "class": [
        [
          "cleric/oracle",
          6
        ],
        [
          "paladin",
          4
        ],
        [
          "summoner",
          5
        ],
        [
          "unchained Summoner",
          5
        ]
      ],
      "domain": [],
      "subDomain": [],
      "elementalSchool": [],
      "bloodline": []
    },
    "level": 6,
    "clOffset": 0,
    "slOffset": 0,
    "school": "con",
    "subschool": "summoning",
    "types": "good",
    "nonlethal": false,
    "conditionals": [],
    "components": {
      "value": "",
      "verbal": true,
      "somatic": true,
      "material": true,
      "focus": false,
      "divineFocus": 0
    },
    "castTime": "",
    "materials": {
      "value": "vellum inscribed with good outsider's name",
      "focus": "",
      "gpValue": 0
    },
    "spellbook": "primary",
    "preparation": {
      "preparedAmount": 0,
      "maxAmount": 0,
      "autoDeductCharges": true,
      "spontaneousPrepared": true,
      "mode": "prepared"
    },
    "atWill": false,
    "sr": false,
    "shortDescription": "<p>As the Inner Sea's bravest men and women answered the call of what became the Second Mendevian Crusade, constructing the <i>wardstones</i> that eventually kept the brutal chaos of the Worldwound at bay, they realized that they needed help beyond traditional magics.</p><p>Legends say that the first <i>eaglesoul</i> spell was created when an agathion avoral joined his own spirit with that of a courageous paladin who was about to be overwhelmed on the field of battle. The holy knight used the combined might of the agathion's great strength and his own to win the day for the crusaders. Now, although the spell is still in use chiefly among those that patrol the borders of the Worldwound, other champions of good have carried it with them to all corners of the Inner Sea region.</p><p>When you cast this spell, you reach into the great beyond and beseech a good-aligned outsider for their aid against evil.</p><p>The outsider infuses a small portion of its own power into you, making you a powerful force for good. You gain a +2 morale bonus on all Perception checks made against evil creatures, a +2 bonus on Initiative checks, and <i>detect evil</i> as a constant spell-like ability.</p><p>In addition, once during the spell's duration you can call forth a surge of holy power when fighting an evil creature.</p><p>Doing so is a swift action that shortens the spell's remaining duration so that its remaining hours of duration become rounds of duration. For the rest of this duration, the surge of power grants you the following benefits: <ul><li> A +2 sacred bonus to AC <li> A +4 sacred bonus to Strength <li> Resistance 5 to acid and fire <li> A +5 sacred bonus on all Intimidate checks made against evil creatures <li> Fast healing 2 <li> Any critical threat roll made against an evil creature with a weapon you wield is automatically confirmed.</p><p>Although this surge of power can be activated against any evil opponent, this ability activates automatically as soon as you attack any evil outsider, regardless of whether you hit or not, and regardless of whether you actually recognize that the target is in fact an evil outsider. In such cases the activation is a free action.</p><p>Nongood spellcasters can cast this spell, but doing so causes them to be sickened (for spellcasters who are neither good nor evil) or staggered (for spellcasters who are evil) for the spell's duration.</ul></p>",
    "spellDuration": "1 hour/level (see below)",
    "spellEffect": "",
    "spellArea": "",
    "showInQuickbar": false,
    "spellPoints": {
      "cost": "1 + @sl"
    },
    "domain": false,
    "slotCost": 1
  },
  "flags": {},
  "img": "systems/pf1/icons/misc/magic-swirl.png",
  "effects": []
}