{
  "_id": "clo5w5mow21nln10",
  "name": "Ectoplasmic Snare",
  "permission": {
    "default": 0
  },
  "type": "spell",
  "data": {
    "description": {
      "value": "<div class=\"spell-description\">\n  <p>\n    <strong>School</strong>&nbsp;evocation;\n    <strong>Level</strong>&nbsp;magus 3, psychic 3, shaman 3, sorcerer/wizard 3, spiritualist 3;\n    \n    \n    \n    <strong>Bloodline</strong>&nbsp;Ectoplasm 3;\n  </p>\n  <p>\n    <strong>Casting Time</strong>&nbsp;1 standard action<br>\n    <strong>Components</strong>&nbsp;V, S<br>\n  </p>\n  <p>\n    <strong>Range</strong>&nbsp;close (25 ft. + 5 ft./2 levels)<br>\n    \n    \n    <strong>Effect</strong>&nbsp;entangling web of ectoplasm<br>\n    <strong>Duration</strong>&nbsp;concentration, up to 1 round/level (D)<br>\n    <strong>Saving Throw</strong>&nbsp;Reflex partial; see text;&nbsp;<strong>Spell Resistance</strong>&nbsp;yes<br>\n  </p>\n  <h2>Description</h2>\n  <p>You unleash a writhing tendril of ectoplasm to grapple  or entangle a target creature. You must make a ranged touch attack to strike a target. If you hit, the target can attempt a Reflex save. On a successful save, the target is entangled for the duration of the spell and suffers no other effects. If the target fails this saving throw, the tendril is more restrictive, making the target grappled and dealing it 1d6+4 points of bludgeoning damage. Each round when you concentrate to maintain the spell, the snare attempts a grapple combat maneuver check to maintain the grapple. As normal when grappling, the snare gains a +5 bonus on grapple combat maneuver checks against opponents it is already grappling. The snare's CMB is equal to 6 + your caster level, and its CMD is equal to 16 + your caster level. Since the ectoplasm passes between planes, this spell affects incorporeal and ethereal creatures normally.  You remain tethered to the target for the duration of the spell. You can shrink or extend the snare, but if the distance between you and the target exceeds the spell's range, the snare disappears. The ectoplasmic tether has hardness 10 and a number of hit points equal to 10 + your caster level + your Constitution modifier, and the tether can be damaged or sundered anywhere along its length. You are not considered to have the grappled condition while tethered to the target. You can perform the move or damage action on a successfully grappled target, moving it up to half your speed or dealing an additional 1d6+4 points of bludgeoning damage to it on a successful grapple combat maneuver check. You can't pin your target.</p>\n</div>\n",
      "chat": "",
      "unidentified": ""
    },
    "tags": [],
    "activation": {
      "cost": 1,
      "type": "standard"
    },
    "unchainedAction": {
      "activation": {
        "cost": 2,
        "type": "action"
      }
    },
    "duration": {
      "value": null,
      "units": ""
    },
    "target": {
      "value": ""
    },
    "range": {
      "value": null,
      "units": "close",
      "maxIncrements": 1,
      "minValue": null,
      "minUnits": ""
    },
    "uses": {
      "value": 0,
      "max": 0,
      "per": "",
      "autoDeductCharges": true,
      "autoDeductChargesCost": "1"
    },
    "measureTemplate": {
      "type": "",
      "size": "0",
      "overrideColor": false,
      "customColor": "",
      "overrideTexture": false,
      "customTexture": ""
    },
    "attackName": "",
    "actionType": "spellsave",
    "attackBonus": "",
    "critConfirmBonus": "",
    "damage": {
      "parts": [],
      "critParts": [],
      "nonCritParts": []
    },
    "attackParts": [],
    "formula": "",
    "ability": {
      "attack": "",
      "damage": "",
      "damageMult": 1,
      "critRange": 20,
      "critMult": 2
    },
    "save": {
      "dc": "0",
      "type": "ref",
      "description": "Reflex partial; see text"
    },
    "effectNotes": "",
    "attackNotes": "",
    "soundEffect": "",
    "links": {
      "children": []
    },
    "learnedAt": {
      "class": [
        [
          "sorcerer/wizard",
          3
        ],
        [
          "magus",
          3
        ],
        [
          "shaman",
          3
        ],
        [
          "psychic",
          3
        ],
        [
          "spiritualist",
          3
        ]
      ],
      "domain": [],
      "subDomain": [],
      "elementalSchool": [],
      "bloodline": [
        [
          "Ectoplasm",
          3
        ]
      ]
    },
    "level": 3,
    "clOffset": 0,
    "slOffset": 0,
    "school": "evo",
    "subschool": "",
    "types": "",
    "nonlethal": false,
    "conditionals": [],
    "components": {
      "value": "",
      "verbal": true,
      "somatic": true,
      "material": false,
      "focus": false,
      "divineFocus": 0
    },
    "castTime": "",
    "materials": {
      "value": "",
      "focus": "",
      "gpValue": 0
    },
    "spellbook": "primary",
    "preparation": {
      "preparedAmount": 0,
      "maxAmount": 0,
      "autoDeductCharges": true,
      "spontaneousPrepared": true,
      "mode": "prepared"
    },
    "atWill": false,
    "sr": true,
    "shortDescription": "<p>You unleash a writhing tendril of ectoplasm to grapple  or entangle a target creature. You must make a ranged touch attack to strike a target. If you hit, the target can attempt a Reflex save. On a successful save, the target is entangled for the duration of the spell and suffers no other effects. If the target fails this saving throw, the tendril is more restrictive, making the target grappled and dealing it 1d6+4 points of bludgeoning damage. Each round when you concentrate to maintain the spell, the snare attempts a grapple combat maneuver check to maintain the grapple. As normal when grappling, the snare gains a +5 bonus on grapple combat maneuver checks against opponents it is already grappling. The snare's CMB is equal to 6 + your caster level, and its CMD is equal to 16 + your caster level. Since the ectoplasm passes between planes, this spell affects incorporeal and ethereal creatures normally.  You remain tethered to the target for the duration of the spell. You can shrink or extend the snare, but if the distance between you and the target exceeds the spell's range, the snare disappears. The ectoplasmic tether has hardness 10 and a number of hit points equal to 10 + your caster level + your Constitution modifier, and the tether can be damaged or sundered anywhere along its length. You are not considered to have the grappled condition while tethered to the target. You can perform the move or damage action on a successfully grappled target, moving it up to half your speed or dealing an additional 1d6+4 points of bludgeoning damage to it on a successful grapple combat maneuver check. You can't pin your target.</p>",
    "spellDuration": "concentration, up to 1 round/level (D)",
    "spellEffect": "entangling web of ectoplasm",
    "spellArea": "",
    "showInQuickbar": false,
    "spellPoints": {
      "cost": "1 + @sl"
    },
    "domain": false,
    "slotCost": 1
  },
  "flags": {},
  "img": "systems/pf1/icons/misc/magic-swirl.png",
  "effects": []
}