{
  "_id": "ot28i48h4ghmangq",
  "name": "Emergency Force Sphere",
  "permission": {
    "default": 0
  },
  "type": "spell",
  "data": {
    "description": {
      "value": "<div class=\"spell-description\">\n  <p>\n    <strong>School</strong>&nbsp;evocation&nbsp;[force];\n    <strong>Level</strong>&nbsp;sorcerer/wizard 4;\n    \n    \n    \n    \n  </p>\n  <p>\n    <strong>Casting Time</strong>&nbsp;1 immediate<br>\n    <strong>Components</strong>&nbsp;V<br>\n  </p>\n  <p>\n    <strong>Range</strong>&nbsp;5 feet<br>\n    \n    \n    <strong>Effect</strong>&nbsp;5-ft.-radius hemisphere of force centered on you<br>\n    <strong>Duration</strong>&nbsp;1 round/level<br>\n    <strong>Saving Throw</strong>&nbsp;none;&nbsp;<strong>Spell Resistance</strong>&nbsp;no<br>\n  </p>\n  <h2>Description</h2>\n  <p>As <i>Wall of Force</i>, except you create a hemispherical dome of force with hardness 20 and a number of hit points equal to 10 per caster level. The bottom edge of the dome forms a relatively watertight space if you are standing on a reasonably flat surface. The dome shape means that falling debris (such as rocks from a collapsing ceiling) tend to tumble to the side and pile up around the base of the dome. If you make a DC 20 Craft (stonemasonry), Knowledge (engineering), or Profession (architect or engineer) check, the debris is stable enough that it retains its dome-like configuration when the spell ends, otherwise it collapses.</p><p>Normally this spell is used to buy time for dealing with avalanches, floods, and rockslides, though it is also handy in dealing with ambushes.</p>\n</div>\n",
      "chat": "",
      "unidentified": ""
    },
    "tags": [],
    "activation": {
      "cost": 1,
      "type": "immediate"
    },
    "unchainedAction": {
      "activation": {
        "cost": 1,
        "type": "reaction"
      }
    },
    "duration": {
      "value": null,
      "units": ""
    },
    "target": {
      "value": ""
    },
    "range": {
      "value": 5,
      "units": "ft",
      "maxIncrements": 1,
      "minValue": null,
      "minUnits": ""
    },
    "uses": {
      "value": 0,
      "max": 0,
      "per": "",
      "autoDeductCharges": true,
      "autoDeductChargesCost": "1"
    },
    "measureTemplate": {
      "type": "",
      "size": "0",
      "overrideColor": false,
      "customColor": "",
      "overrideTexture": false,
      "customTexture": ""
    },
    "attackName": "",
    "actionType": "other",
    "attackBonus": "",
    "critConfirmBonus": "",
    "damage": {
      "parts": [],
      "critParts": [],
      "nonCritParts": []
    },
    "attackParts": [],
    "formula": "",
    "ability": {
      "attack": "",
      "damage": "",
      "damageMult": 1,
      "critRange": 20,
      "critMult": 2
    },
    "save": {
      "dc": "0",
      "type": "",
      "description": ""
    },
    "effectNotes": "",
    "attackNotes": "",
    "soundEffect": "",
    "links": {
      "children": []
    },
    "learnedAt": {
      "class": [
        [
          "sorcerer/wizard",
          4
        ]
      ],
      "domain": [],
      "subDomain": [],
      "elementalSchool": [],
      "bloodline": []
    },
    "level": 4,
    "clOffset": 0,
    "slOffset": 0,
    "school": "evo",
    "subschool": "",
    "types": "force",
    "nonlethal": false,
    "conditionals": [],
    "components": {
      "value": "",
      "verbal": true,
      "somatic": false,
      "material": false,
      "focus": false,
      "divineFocus": 0
    },
    "castTime": "",
    "materials": {
      "value": "",
      "focus": "",
      "gpValue": 0
    },
    "spellbook": "primary",
    "preparation": {
      "preparedAmount": 0,
      "maxAmount": 0,
      "autoDeductCharges": true,
      "spontaneousPrepared": true,
      "mode": "prepared"
    },
    "atWill": false,
    "sr": false,
    "shortDescription": "<p>As <i>Wall of Force</i>, except you create a hemispherical dome of force with hardness 20 and a number of hit points equal to 10 per caster level. The bottom edge of the dome forms a relatively watertight space if you are standing on a reasonably flat surface. The dome shape means that falling debris (such as rocks from a collapsing ceiling) tend to tumble to the side and pile up around the base of the dome. If you make a DC 20 Craft (stonemasonry), Knowledge (engineering), or Profession (architect or engineer) check, the debris is stable enough that it retains its dome-like configuration when the spell ends, otherwise it collapses.</p><p>Normally this spell is used to buy time for dealing with avalanches, floods, and rockslides, though it is also handy in dealing with ambushes.</p>",
    "spellDuration": "1 round/level",
    "spellEffect": "5-ft.-radius hemisphere of force centered on you",
    "spellArea": "",
    "showInQuickbar": false,
    "spellPoints": {
      "cost": "1 + @sl"
    },
    "domain": false,
    "slotCost": 1
  },
  "flags": {},
  "img": "systems/pf1/icons/misc/magic-swirl.png",
  "effects": []
}