{
  "_id": "mc89tuid59nq1jgf",
  "name": "Fire Sneeze",
  "permission": {
    "default": 0
  },
  "type": "spell",
  "data": {
    "description": {
      "value": "<div class=\"spell-description\">\n  <p>\n    <strong>School</strong>&nbsp;evocation&nbsp;[air, fire];\n    <strong>Level</strong>&nbsp;alchemist 2, druid 2, hunter 2, sorcerer/wizard 2;\n    \n    \n    \n    \n  </p>\n  <p>\n    <strong>Casting Time</strong>&nbsp;1 standard action<br>\n    <strong>Components</strong>&nbsp;V, S, M (hot pepper soaked in oil)<br>\n  </p>\n  <p>\n    <strong>Range</strong>&nbsp;personal<br>\n    \n    <strong>Targets</strong>&nbsp;you<br>\n    \n    <strong>Duration</strong>&nbsp;1 round + 1 round/2 levels<br>\n    \n  </p>\n  <h2>Description</h2>\n  <p>This spell causes you to begin sneezing gouts of fire that can not only set creatures ablaze but also drop them flat on their backs.</p><p>Once you cast this spell, you must sneeze each round as a standard action-you can take no other standard action as long as this spell is in effect, nor can you take full-round actions. Each time you sneeze, you produce a 10-foot-long cone of fire and wind. All creatures caught in this cone take 2d6 points of fire damage-a successful Reflex save halves this damage. Any creature that fails to resist this spell with a Reflex save must immediately make a DC 12 Fortitude save or be knocked prone by the blast of wind associated with the sneeze.</p>\n</div>\n",
      "chat": "",
      "unidentified": ""
    },
    "tags": [],
    "activation": {
      "cost": 1,
      "type": "standard"
    },
    "unchainedAction": {
      "activation": {
        "cost": 2,
        "type": "action"
      }
    },
    "duration": {
      "value": null,
      "units": ""
    },
    "target": {
      "value": "you"
    },
    "range": {
      "value": null,
      "units": "personal",
      "maxIncrements": 1,
      "minValue": null,
      "minUnits": ""
    },
    "uses": {
      "value": 0,
      "max": 0,
      "per": "",
      "autoDeductCharges": true,
      "autoDeductChargesCost": "1"
    },
    "measureTemplate": {
      "type": "",
      "size": "0",
      "overrideColor": false,
      "customColor": "",
      "overrideTexture": false,
      "customTexture": ""
    },
    "attackName": "",
    "actionType": "spellsave",
    "attackBonus": "",
    "critConfirmBonus": "",
    "damage": {
      "parts": [],
      "critParts": [],
      "nonCritParts": []
    },
    "attackParts": [],
    "formula": "",
    "ability": {
      "attack": "",
      "damage": "",
      "damageMult": 1,
      "critRange": 20,
      "critMult": 2
    },
    "save": {
      "dc": "0",
      "type": "ref",
      "description": "Reflex half"
    },
    "effectNotes": "",
    "attackNotes": "",
    "soundEffect": "",
    "links": {
      "children": []
    },
    "learnedAt": {
      "class": [
        [
          "sorcerer/wizard",
          2
        ],
        [
          "druid",
          2
        ],
        [
          "alchemist",
          2
        ],
        [
          "hunter",
          2
        ]
      ],
      "domain": [],
      "subDomain": [],
      "elementalSchool": [],
      "bloodline": []
    },
    "level": 2,
    "clOffset": 0,
    "slOffset": 0,
    "school": "evo",
    "subschool": "",
    "types": "air, fire",
    "nonlethal": false,
    "conditionals": [],
    "components": {
      "value": "",
      "verbal": true,
      "somatic": true,
      "material": true,
      "focus": false,
      "divineFocus": 0
    },
    "castTime": "",
    "materials": {
      "value": "hot pepper soaked in oil",
      "focus": "",
      "gpValue": 0
    },
    "spellbook": "primary",
    "preparation": {
      "preparedAmount": 0,
      "maxAmount": 0,
      "autoDeductCharges": true,
      "spontaneousPrepared": true,
      "mode": "prepared"
    },
    "atWill": false,
    "sr": true,
    "shortDescription": "<p>This spell causes you to begin sneezing gouts of fire that can not only set creatures ablaze but also drop them flat on their backs.</p><p>Once you cast this spell, you must sneeze each round as a standard action-you can take no other standard action as long as this spell is in effect, nor can you take full-round actions. Each time you sneeze, you produce a 10-foot-long cone of fire and wind. All creatures caught in this cone take 2d6 points of fire damage-a successful Reflex save halves this damage. Any creature that fails to resist this spell with a Reflex save must immediately make a DC 12 Fortitude save or be knocked prone by the blast of wind associated with the sneeze.</p>",
    "spellDuration": "1 round + 1 round/2 levels",
    "spellEffect": "",
    "spellArea": "",
    "showInQuickbar": false,
    "spellPoints": {
      "cost": "1 + @sl"
    },
    "domain": false,
    "slotCost": 1
  },
  "flags": {},
  "img": "systems/pf1/icons/misc/magic-swirl.png",
  "effects": []
}