{
  "_id": "ob4f4lefisnk5lvk",
  "name": "Fleshcurdle",
  "permission": {
    "default": 0
  },
  "type": "spell",
  "data": {
    "description": {
      "value": "<div class=\"spell-description\">\n  <p>\n    <strong>School</strong>&nbsp;transmutation&nbsp;(polymorph);\n    <strong>Level</strong>&nbsp;sorcerer/wizard 2;\n    \n    \n    \n    \n  </p>\n  <p>\n    <strong>Casting Time</strong>&nbsp;1 standard action<br>\n    <strong>Components</strong>&nbsp;V, S, M (scrap of pickled flesh)<br>\n  </p>\n  <p>\n    <strong>Range</strong>&nbsp;close (25 ft. + 5 ft./2 levels)<br>\n    \n    <strong>Targets</strong>&nbsp;one living or undead creature<br>\n    \n    <strong>Duration</strong>&nbsp;1 round/level<br>\n    <strong>Saving Throw</strong>&nbsp;Fortitude negates;&nbsp;<strong>Spell Resistance</strong>&nbsp;yes<br>\n  </p>\n  <h2>Description</h2>\n  <p>You warp the target creature's flesh, discoloring it and causing it to become misshapen and impairing its function. When you cast this spell, you must choose one of three types of effects to inflict on the target-movement, attacks, or defense.</p><p><i>Attacks</i>: One of the creature's natural attacks takes a -2 penalty on attack and damage rolls, only scores a critical hit on a natural 20, and only deals x2 damage on a confirmed critical hit.</p><p><i>Defense</i>: The creature's natural armor bonus decreases by -4, to a minimum bonus of +0.</p><p><i>Movement</i>: One of the creature's movement speeds (chosen by you) is halved.</p><p>Most undead are susceptible to <i>fleshcurdle</i>, but amorphous creatures and creatures without flesh are immune (such as elementals, oozes, plants, gaseous or incorporeal creatures, and skeletons).</p>\n</div>\n",
      "chat": "",
      "unidentified": ""
    },
    "tags": [],
    "activation": {
      "cost": 1,
      "type": "standard"
    },
    "unchainedAction": {
      "activation": {
        "cost": 2,
        "type": "action"
      }
    },
    "duration": {
      "value": null,
      "units": ""
    },
    "target": {
      "value": "one living or undead creature"
    },
    "range": {
      "value": null,
      "units": "close",
      "maxIncrements": 1,
      "minValue": null,
      "minUnits": ""
    },
    "uses": {
      "value": 0,
      "max": 0,
      "per": "",
      "autoDeductCharges": true,
      "autoDeductChargesCost": "1"
    },
    "measureTemplate": {
      "type": "",
      "size": "0",
      "overrideColor": false,
      "customColor": "",
      "overrideTexture": false,
      "customTexture": ""
    },
    "attackName": "",
    "actionType": "spellsave",
    "attackBonus": "",
    "critConfirmBonus": "",
    "damage": {
      "parts": [],
      "critParts": [],
      "nonCritParts": []
    },
    "attackParts": [],
    "formula": "",
    "ability": {
      "attack": "",
      "damage": "",
      "damageMult": 1,
      "critRange": 20,
      "critMult": 2
    },
    "save": {
      "dc": "0",
      "type": "fort",
      "description": "Fortitude negates"
    },
    "effectNotes": "",
    "attackNotes": "",
    "soundEffect": "",
    "links": {
      "children": []
    },
    "learnedAt": {
      "class": [
        [
          "sorcerer/wizard",
          2
        ]
      ],
      "domain": [],
      "subDomain": [],
      "elementalSchool": [],
      "bloodline": []
    },
    "level": 2,
    "clOffset": 0,
    "slOffset": 0,
    "school": "trs",
    "subschool": "polymorph",
    "types": "",
    "nonlethal": false,
    "conditionals": [],
    "components": {
      "value": "",
      "verbal": true,
      "somatic": true,
      "material": true,
      "focus": false,
      "divineFocus": 0
    },
    "castTime": "",
    "materials": {
      "value": "scrap of pickled flesh",
      "focus": "",
      "gpValue": 0
    },
    "spellbook": "primary",
    "preparation": {
      "preparedAmount": 0,
      "maxAmount": 0,
      "autoDeductCharges": true,
      "spontaneousPrepared": true,
      "mode": "prepared"
    },
    "atWill": false,
    "sr": true,
    "shortDescription": "<p>You warp the target creature's flesh, discoloring it and causing it to become misshapen and impairing its function. When you cast this spell, you must choose one of three types of effects to inflict on the target-movement, attacks, or defense.</p><p><i>Attacks</i>: One of the creature's natural attacks takes a -2 penalty on attack and damage rolls, only scores a critical hit on a natural 20, and only deals x2 damage on a confirmed critical hit.</p><p><i>Defense</i>: The creature's natural armor bonus decreases by -4, to a minimum bonus of +0.</p><p><i>Movement</i>: One of the creature's movement speeds (chosen by you) is halved.</p><p>Most undead are susceptible to <i>fleshcurdle</i>, but amorphous creatures and creatures without flesh are immune (such as elementals, oozes, plants, gaseous or incorporeal creatures, and skeletons).</p>",
    "spellDuration": "1 round/level",
    "spellEffect": "",
    "spellArea": "",
    "showInQuickbar": false,
    "spellPoints": {
      "cost": "1 + @sl"
    },
    "domain": false,
    "slotCost": 1
  },
  "flags": {},
  "img": "systems/pf1/icons/misc/magic-swirl.png",
  "effects": []
}