{
  "_id": "gwyeoo4ksso71zfo",
  "name": "Form of the Exotic Dragon II",
  "permission": {
    "default": 0
  },
  "type": "spell",
  "data": {
    "description": {
      "value": "<div class=\"spell-description\">\n  <p>\n    <strong>School</strong>&nbsp;transmutation&nbsp;(polymorph);\n    <strong>Level</strong>&nbsp;druid 8, sorcerer/wizard 7;\n    \n    \n    \n    \n  </p>\n  <p>\n    <strong>Casting Time</strong>&nbsp;1 standard action<br>\n    <strong>Components</strong>&nbsp;V, S, M (a scale of the dragon type you plan to assume)<br>\n  </p>\n  <p>\n    <strong>Range</strong>&nbsp;personal<br>\n    \n    <strong>Targets</strong>&nbsp;you<br>\n    \n    <strong>Duration</strong>&nbsp;1 minute/level (D)<br>\n    \n  </p>\n  <h2>Description</h2>\n  <p>This spell functions as per <i>Form of the Exotic Dragon I</i>, except it also allows you to assume the form of a Large imperial or primal dragon. Druids can choose from the primal dragon (brine, cloud, crystal, magma, or umbral) forms only. You gain the following abilities: a +6 size bonus to your Strength, a +4 size bonus to your Constitution, a +6 natural armor bonus, a fly speed of 90 feet (poor), darkvision with a range of 60 feet, a breath weapon, damage reduction 5/magic, and resistance to one form of energy or some other bonus. You gain one bite attack (2d6), two claw attacks (1d8), a tail slap attack (1d8), and either a gore attack (2d6) if you assume the form of an imperial dragon or two wing attacks (1d6) if you assume the form of a primal dragon. All breath weapons deal 8d8 points of damage unless noted and allow a Reflex save to halve the normal damage. Line breath weapons increase to 80-foot lines and cones increase to 40-foot cones.</p>\n</div>\n",
      "chat": "",
      "unidentified": ""
    },
    "tags": [],
    "activation": {
      "cost": 1,
      "type": "standard"
    },
    "unchainedAction": {
      "activation": {
        "cost": 2,
        "type": "action"
      }
    },
    "duration": {
      "value": null,
      "units": ""
    },
    "target": {
      "value": "you"
    },
    "range": {
      "value": null,
      "units": "personal",
      "maxIncrements": 1,
      "minValue": null,
      "minUnits": ""
    },
    "uses": {
      "value": 0,
      "max": 0,
      "per": "",
      "autoDeductCharges": true,
      "autoDeductChargesCost": "1"
    },
    "measureTemplate": {
      "type": "",
      "size": "0",
      "overrideColor": false,
      "customColor": "",
      "overrideTexture": false,
      "customTexture": ""
    },
    "attackName": "",
    "actionType": "spellsave",
    "attackBonus": "",
    "critConfirmBonus": "",
    "damage": {
      "parts": [],
      "critParts": [],
      "nonCritParts": []
    },
    "attackParts": [],
    "formula": "",
    "ability": {
      "attack": "",
      "damage": "",
      "damageMult": 1,
      "critRange": 20,
      "critMult": 2
    },
    "save": {
      "dc": "0",
      "type": "",
      "description": "see below"
    },
    "effectNotes": "",
    "attackNotes": "",
    "soundEffect": "",
    "links": {
      "children": []
    },
    "learnedAt": {
      "class": [
        [
          "sorcerer/wizard",
          7
        ],
        [
          "druid",
          8
        ]
      ],
      "domain": [],
      "subDomain": [],
      "elementalSchool": [],
      "bloodline": []
    },
    "level": 7,
    "clOffset": 0,
    "slOffset": 0,
    "school": "trs",
    "subschool": "polymorph",
    "types": "",
    "nonlethal": false,
    "conditionals": [],
    "components": {
      "value": "",
      "verbal": true,
      "somatic": true,
      "material": true,
      "focus": false,
      "divineFocus": 0
    },
    "castTime": "",
    "materials": {
      "value": "a scale of the dragon type you plan to assume",
      "focus": "",
      "gpValue": 0
    },
    "spellbook": "primary",
    "preparation": {
      "preparedAmount": 0,
      "maxAmount": 0,
      "autoDeductCharges": true,
      "spontaneousPrepared": true,
      "mode": "prepared"
    },
    "atWill": false,
    "sr": false,
    "shortDescription": "<p>This spell functions as per <i>Form of the Exotic Dragon I</i>, except it also allows you to assume the form of a Large imperial or primal dragon. Druids can choose from the primal dragon (brine, cloud, crystal, magma, or umbral) forms only. You gain the following abilities: a +6 size bonus to your Strength, a +4 size bonus to your Constitution, a +6 natural armor bonus, a fly speed of 90 feet (poor), darkvision with a range of 60 feet, a breath weapon, damage reduction 5/magic, and resistance to one form of energy or some other bonus. You gain one bite attack (2d6), two claw attacks (1d8), a tail slap attack (1d8), and either a gore attack (2d6) if you assume the form of an imperial dragon or two wing attacks (1d6) if you assume the form of a primal dragon. All breath weapons deal 8d8 points of damage unless noted and allow a Reflex save to halve the normal damage. Line breath weapons increase to 80-foot lines and cones increase to 40-foot cones.</p>",
    "spellDuration": "1 minute/level (D)",
    "spellEffect": "",
    "spellArea": "",
    "showInQuickbar": false,
    "spellPoints": {
      "cost": "1 + @sl"
    },
    "domain": false,
    "slotCost": 1
  },
  "flags": {},
  "img": "systems/pf1/icons/misc/magic-swirl.png",
  "effects": []
}