{
  "_id": "g3d29t4amz91ewy5",
  "name": "Form of the Alien Dragon I",
  "permission": {
    "default": 0
  },
  "type": "spell",
  "data": {
    "description": {
      "value": "<div class=\"spell-description\">\n  <p>\n    <strong>School</strong>&nbsp;transmutation&nbsp;(polymorph);\n    <strong>Level</strong>&nbsp;alchemist 6, magus 6, psychic 7, sorcerer/wizard 6;\n    \n    \n    \n    \n  </p>\n  <p>\n    <strong>Casting Time</strong>&nbsp;1 standard action<br>\n    <strong>Components</strong>&nbsp;V, S, M (a scale of the dragon type you plan to assume)<br>\n  </p>\n  <p>\n    <strong>Range</strong>&nbsp;personal<br>\n    \n    <strong>Targets</strong>&nbsp;you<br>\n    \n    <strong>Duration</strong>&nbsp;1 minute/level (D)<br>\n    \n  </p>\n  <h2>Description</h2>\n  <p>You become a Medium esoteric or outer dragon. Psychics can choose from the esoteric dragon (astral, dream, etheric, nightmare, or occult) forms only. You gain a +4 size bonus to your Strength, a +2 size bonus to your Constitution, a +4 natural armor bonus, a fly speed of 60 feet (poor), darkvision with a range of 60 feet, a breath weapon, and resistance to one form of energy or effect. You also gain one bite attack (1d8), two claw attacks (1d6), and two wing attacks (1d4). Your breath weapon and resistance depend on the type of dragon. You can use the breath weapon only once per casting of this spell. All breath weapons deal 6d8 points of damage unless noted otherwise and allow a Reflex save to halve the normal damage. In addition, some of the dragon types grant additional abilities, as noted below.  <br><b>Astral</b> <b>Dragon</b>: 30-foot cone of force (damage dice are d4s instead of d8s), psychic resilience (<i>Pathfinder RPG <i>Bestiary 5</i></i> 297).  <br><b>Dream</b> <b>Dragon</b>: 30-foot cone of electricity, dream fortress, dreamsight (<i>Bestiary 5</i> 90).  <br><b>Etheric Dragon</b>: 30-foot line of force (damage dice are d4s instead of d8s), <i>gaseous form</i> (only when taking no actions other than move actions for a round, and only for a maximum of 1 round/ level for each casting of <i>form of the alien</i> dragon).  <br><b>Lunar Dragon</b>: 60-foot line of cold, cold resistance 20, burrow 20 feet.  <br><b>Nightmare Dragon</b>: 30-foot cone of acid, see in darkness, +4 on saves vs. mind-affecting effects.  <br><b>Occult Dragon</b>: 30-foot cone of cold or fire, +4 resistance bonus on saving throws against evil spells and effects, natural armor bonus to AC increases to +6.  <br><b>Solar Dragon</b>: 60-foot line of fire, fire resistance 30, vulnerability to cold.  <br><b>Time Dragon</b>: 30-foot cone of electricity, cold resistance 20, +4 bonus on initiative checks.  <br><b>Void Dragon</b>: 30-foot cone of cold, cold resistance 20, +4 bonus on saves vs. emotion spells and effects.  <br><b>Vortex Dragon</b>: 30-foot cone of fire, fire resistance 30, vulnerability to cold.</p>\n</div>\n",
      "chat": "",
      "unidentified": ""
    },
    "tags": [],
    "activation": {
      "cost": 1,
      "type": "standard"
    },
    "unchainedAction": {
      "activation": {
        "cost": 2,
        "type": "action"
      }
    },
    "duration": {
      "value": null,
      "units": ""
    },
    "target": {
      "value": "you"
    },
    "range": {
      "value": null,
      "units": "personal",
      "maxIncrements": 1,
      "minValue": null,
      "minUnits": ""
    },
    "uses": {
      "value": 0,
      "max": 0,
      "per": "",
      "autoDeductCharges": true,
      "autoDeductChargesCost": "1"
    },
    "measureTemplate": {
      "type": "",
      "size": "0",
      "overrideColor": false,
      "customColor": "",
      "overrideTexture": false,
      "customTexture": ""
    },
    "attackName": "",
    "actionType": "spellsave",
    "attackBonus": "",
    "critConfirmBonus": "",
    "damage": {
      "parts": [],
      "critParts": [],
      "nonCritParts": []
    },
    "attackParts": [],
    "formula": "",
    "ability": {
      "attack": "",
      "damage": "",
      "damageMult": 1,
      "critRange": 20,
      "critMult": 2
    },
    "save": {
      "dc": "0",
      "type": "",
      "description": "see text"
    },
    "effectNotes": "",
    "attackNotes": "",
    "soundEffect": "",
    "links": {
      "children": []
    },
    "learnedAt": {
      "class": [
        [
          "sorcerer/wizard",
          6
        ],
        [
          "alchemist",
          6
        ],
        [
          "magus",
          6
        ],
        [
          "psychic",
          7
        ]
      ],
      "domain": [],
      "subDomain": [],
      "elementalSchool": [],
      "bloodline": []
    },
    "level": 6,
    "clOffset": 0,
    "slOffset": 0,
    "school": "trs",
    "subschool": "polymorph",
    "types": "",
    "nonlethal": false,
    "conditionals": [],
    "components": {
      "value": "",
      "verbal": true,
      "somatic": true,
      "material": true,
      "focus": false,
      "divineFocus": 0
    },
    "castTime": "",
    "materials": {
      "value": "a scale of the dragon type you plan to assume",
      "focus": "",
      "gpValue": 0
    },
    "spellbook": "primary",
    "preparation": {
      "preparedAmount": 0,
      "maxAmount": 0,
      "autoDeductCharges": true,
      "spontaneousPrepared": true,
      "mode": "prepared"
    },
    "atWill": false,
    "sr": false,
    "shortDescription": "<p>You become a Medium esoteric or outer dragon. Psychics can choose from the esoteric dragon (astral, dream, etheric, nightmare, or occult) forms only. You gain a +4 size bonus to your Strength, a +2 size bonus to your Constitution, a +4 natural armor bonus, a fly speed of 60 feet (poor), darkvision with a range of 60 feet, a breath weapon, and resistance to one form of energy or effect. You also gain one bite attack (1d8), two claw attacks (1d6), and two wing attacks (1d4). Your breath weapon and resistance depend on the type of dragon. You can use the breath weapon only once per casting of this spell. All breath weapons deal 6d8 points of damage unless noted otherwise and allow a Reflex save to halve the normal damage. In addition, some of the dragon types grant additional abilities, as noted below.  <br><b>Astral</b> <b>Dragon</b>: 30-foot cone of force (damage dice are d4s instead of d8s), psychic resilience (<i>Pathfinder RPG <i>Bestiary 5</i></i> 297).  <br><b>Dream</b> <b>Dragon</b>: 30-foot cone of electricity, dream fortress, dreamsight (<i>Bestiary 5</i> 90).  <br><b>Etheric Dragon</b>: 30-foot line of force (damage dice are d4s instead of d8s), <i>gaseous form</i> (only when taking no actions other than move actions for a round, and only for a maximum of 1 round/ level for each casting of <i>form of the alien</i> dragon).  <br><b>Lunar Dragon</b>: 60-foot line of cold, cold resistance 20, burrow 20 feet.  <br><b>Nightmare Dragon</b>: 30-foot cone of acid, see in darkness, +4 on saves vs. mind-affecting effects.  <br><b>Occult Dragon</b>: 30-foot cone of cold or fire, +4 resistance bonus on saving throws against evil spells and effects, natural armor bonus to AC increases to +6.  <br><b>Solar Dragon</b>: 60-foot line of fire, fire resistance 30, vulnerability to cold.  <br><b>Time Dragon</b>: 30-foot cone of electricity, cold resistance 20, +4 bonus on initiative checks.  <br><b>Void Dragon</b>: 30-foot cone of cold, cold resistance 20, +4 bonus on saves vs. emotion spells and effects.  <br><b>Vortex Dragon</b>: 30-foot cone of fire, fire resistance 30, vulnerability to cold.</p>",
    "spellDuration": "1 minute/level (D)",
    "spellEffect": "",
    "spellArea": "",
    "showInQuickbar": false,
    "spellPoints": {
      "cost": "1 + @sl"
    },
    "domain": false,
    "slotCost": 1
  },
  "flags": {},
  "img": "systems/pf1/icons/misc/magic-swirl.png",
  "effects": []
}