{
  "_id": "ol05jfb606v0lzj9",
  "name": "Freezing Sphere",
  "permission": {
    "default": 0
  },
  "type": "spell",
  "data": {
    "description": {
      "value": "<div class=\"spell-description\">\n  <p>\n    <strong>School</strong>&nbsp;evocation&nbsp;[cold];\n    <strong>Level</strong>&nbsp;magus 6, occultist 6, sorcerer/wizard 6;\n    \n    <strong>Subdomain</strong>&nbsp;Ice 7;\n    \n    \n  </p>\n  <p>\n    <strong>Casting Time</strong>&nbsp;1 standard action<br>\n    <strong>Components</strong>&nbsp;V, S, F (a small crystal sphere)<br>\n  </p>\n  <p>\n    <strong>Range</strong>&nbsp;long (400 ft. + 40 ft./level)<br>\n    \n    <strong>Targets</strong>&nbsp;see Text<br>\n    \n    <strong>Duration</strong>&nbsp;instantaneous or 1 round/level; see text<br>\n    <strong>Saving Throw</strong>&nbsp;Reflex half; see text;&nbsp;<strong>Spell Resistance</strong>&nbsp;yes<br>\n  </p>\n  <h2>Description</h2>\n  <p><i>Freezing sphere</i> creates a frigid globe of cold energy that streaks from your fingertips to the location you select, where it explodes in a 40-foot-radius burst, dealing 1d6 points of cold damage per caster level (maximum 15d6) to each creature in the area. A creature of the water subtype instead takes 1d8 points of cold damage per caster level (maximum 15d8) and is staggered for 1d4 rounds.</p><p>If the <i>freezing sphere</i> strikes a body of water or a liquid that is principally water (not including water-based creatures), it freezes the liquid to a depth of 6 inches in a 40-foot radius. This ice lasts for 1 round per caster level. Creatures that were swimming on the surface of a targeted body of water become trapped in the ice. Attempting to break free is a full-round action. A trapped creature must make a DC 25 Strength check or a DC 25 Escape Artist check to do so.</p><p>You can refrain from firing the globe after completing the spell, if you wish. Treat this as a touch spell for which you are holding the charge. You can hold the charge for as long as 1 round per level, at the end of which time the <i>freezing sphere</i> bursts centered on you (and you receive no saving throw to resist its effect). Firing the globe in a later round is a standard action.</p>\n</div>\n",
      "chat": "",
      "unidentified": ""
    },
    "tags": [],
    "activation": {
      "cost": 1,
      "type": "standard"
    },
    "unchainedAction": {
      "activation": {
        "cost": 2,
        "type": "action"
      }
    },
    "duration": {
      "value": null,
      "units": ""
    },
    "target": {
      "value": "see Text"
    },
    "range": {
      "value": null,
      "units": "long",
      "maxIncrements": 1,
      "minValue": null,
      "minUnits": ""
    },
    "uses": {
      "value": 0,
      "max": 0,
      "per": "",
      "autoDeductCharges": true,
      "autoDeductChargesCost": "1"
    },
    "measureTemplate": {
      "type": "",
      "size": "0",
      "overrideColor": false,
      "customColor": "",
      "overrideTexture": false,
      "customTexture": ""
    },
    "attackName": "",
    "actionType": "spellsave",
    "attackBonus": "",
    "critConfirmBonus": "",
    "damage": {
      "parts": [],
      "critParts": [],
      "nonCritParts": []
    },
    "attackParts": [],
    "formula": "",
    "ability": {
      "attack": "",
      "damage": "",
      "damageMult": 1,
      "critRange": 20,
      "critMult": 2
    },
    "save": {
      "dc": "0",
      "type": "ref",
      "description": "Reflex half; see text"
    },
    "effectNotes": "",
    "attackNotes": "",
    "soundEffect": "",
    "links": {
      "children": []
    },
    "learnedAt": {
      "class": [
        [
          "sorcerer/wizard",
          6
        ],
        [
          "magus",
          6
        ],
        [
          "occultist",
          6
        ]
      ],
      "domain": [],
      "subDomain": [
        [
          "Ice",
          7
        ]
      ],
      "elementalSchool": [],
      "bloodline": []
    },
    "level": 6,
    "clOffset": 0,
    "slOffset": 0,
    "school": "evo",
    "subschool": "",
    "types": "cold",
    "nonlethal": false,
    "conditionals": [],
    "components": {
      "value": "",
      "verbal": true,
      "somatic": true,
      "material": false,
      "focus": true,
      "divineFocus": 0
    },
    "castTime": "",
    "materials": {
      "value": "",
      "focus": "a small crystal sphere",
      "gpValue": 0
    },
    "spellbook": "primary",
    "preparation": {
      "preparedAmount": 0,
      "maxAmount": 0,
      "autoDeductCharges": true,
      "spontaneousPrepared": true,
      "mode": "prepared"
    },
    "atWill": false,
    "sr": true,
    "shortDescription": "<p><i>Freezing sphere</i> creates a frigid globe of cold energy that streaks from your fingertips to the location you select, where it explodes in a 40-foot-radius burst, dealing 1d6 points of cold damage per caster level (maximum 15d6) to each creature in the area. A creature of the water subtype instead takes 1d8 points of cold damage per caster level (maximum 15d8) and is staggered for 1d4 rounds.</p><p>If the <i>freezing sphere</i> strikes a body of water or a liquid that is principally water (not including water-based creatures), it freezes the liquid to a depth of 6 inches in a 40-foot radius. This ice lasts for 1 round per caster level. Creatures that were swimming on the surface of a targeted body of water become trapped in the ice. Attempting to break free is a full-round action. A trapped creature must make a DC 25 Strength check or a DC 25 Escape Artist check to do so.</p><p>You can refrain from firing the globe after completing the spell, if you wish. Treat this as a touch spell for which you are holding the charge. You can hold the charge for as long as 1 round per level, at the end of which time the <i>freezing sphere</i> bursts centered on you (and you receive no saving throw to resist its effect). Firing the globe in a later round is a standard action.</p>",
    "spellDuration": "instantaneous or 1 round/level; see text",
    "spellEffect": "",
    "spellArea": "",
    "showInQuickbar": false,
    "spellPoints": {
      "cost": "1 + @sl"
    },
    "domain": false,
    "slotCost": 1
  },
  "flags": {},
  "img": "systems/pf1/icons/misc/magic-swirl.png",
  "effects": []
}