{
  "_id": "10nnddmxvgxo78og",
  "name": "Frigid Touch",
  "permission": {
    "default": 0
  },
  "type": "spell",
  "data": {
    "description": {
      "value": "<div class=\"spell-description\">\r\n  <p>\r\n    <strong>School</strong>&nbsp;evocation&nbsp;[cold];\r\n    <strong>Level</strong>&nbsp;bloodrager 2, druid 2, hunter 2, magus 2, sorcerer/wizard 2;\r\n    \r\n    \r\n    \r\n    \r\n  </p>\r\n  <p>\r\n    <strong>Casting Time</strong>&nbsp;1 standard action<br>\r\n    <strong>Components</strong>&nbsp;V, S<br>\r\n  </p>\r\n  <p>\r\n    <strong>Range</strong>&nbsp;touch<br>\r\n    \r\n    <strong>Targets</strong>&nbsp;creature touched<br>\r\n    \r\n    <strong>Duration</strong>&nbsp;instantaneous<br>\r\n      <strong>Saving Throw</strong>&nbsp;none;&nbsp;\r\n      <strong>Spell Resistance</strong>&nbsp;yes<br>\r\n  </p>\r\n  <h2>Description</h2>\r\n  <p>This spell causes your hand to glow with a pale blue radiance. Your melee touch attack deals 4d6 points of cold damage and causes the target to be staggered for 1 round.</p><p>If the attack is a critical hit, the target is staggered for 1 minute instead.</p>\r\n</div>\r\n",
      "chat": "",
      "unidentified": ""
    },
    "tags": [],
    "activation": {
      "cost": 1,
      "type": "standard"
    },
    "unchainedAction": {
      "activation": {
        "cost": 2,
        "type": "action"
      }
    },
    "duration": {
      "value": null,
      "units": ""
    },
    "target": {
      "value": "creature touched"
    },
    "range": {
      "value": null,
      "units": "touch",
      "maxIncrements": 1,
      "minValue": null,
      "minUnits": "",
      "long": null
    },
    "uses": {
      "value": 0,
      "max": 0,
      "per": "",
      "autoDeductCharges": true,
      "autoDeductChargesCost": "1"
    },
    "measureTemplate": {
      "type": "",
      "size": "0",
      "overrideColor": false,
      "customColor": "",
      "overrideTexture": false,
      "customTexture": ""
    },
    "attackName": "",
    "actionType": "msak",
    "attackBonus": "",
    "critConfirmBonus": "",
    "damage": {
      "parts": [
        [
          "4d6",
          "cold"
        ]
      ],
      "critParts": [],
      "nonCritParts": []
    },
    "attackParts": [],
    "formula": "",
    "ability": {
      "attack": "",
      "damage": "",
      "damageMult": 1,
      "critRange": 20,
      "critMult": 2
    },
    "save": {
      "dc": "0",
      "type": "",
      "description": ""
    },
    "effectNotes": "",
    "attackNotes": "",
    "soundEffect": "",
    "links": {
      "children": []
    },
    "learnedAt": {
      "class": [
        [
          "sorcerer/wizard",
          2
        ],
        [
          "druid",
          2
        ],
        [
          "magus",
          2
        ],
        [
          "bloodrager",
          2
        ],
        [
          "hunter",
          2
        ]
      ],
      "domain": [],
      "subDomain": [],
      "elementalSchool": [],
      "bloodline": []
    },
    "level": 2,
    "clOffset": 0,
    "slOffset": 0,
    "school": "evo",
    "subschool": "",
    "types": "cold",
    "nonlethal": false,
    "conditionals": [],
    "components": {
      "value": "",
      "verbal": true,
      "somatic": true,
      "material": false,
      "focus": false,
      "divineFocus": 0
    },
    "castTime": "",
    "materials": {
      "value": "",
      "focus": "",
      "gpValue": 0
    },
    "spellbook": "",
    "preparation": {
      "preparedAmount": 0,
      "maxAmount": 0,
      "autoDeductCharges": true,
      "spontaneousPrepared": true,
      "mode": "prepared"
    },
    "atWill": false,
    "sr": true,
    "shortDescription": "<p>This spell causes your hand to glow with a pale blue radiance. Your melee touch attack deals 4d6 points of cold damage and causes the target to be staggered for 1 round.</p><p>If the attack is a critical hit, the target is staggered for 1 minute instead.</p>",
    "spellDuration": "instantaneous",
    "spellEffect": "",
    "spellArea": "",
    "showInQuickbar": false,
    "spellPoints": {
      "cost": "1 + @sl"
    },
    "domain": false,
    "slotCost": 1,
    "attack": {
      "parts": []
    }
  },
  "flags": {},
  "img": "systems/pf1/icons/misc/magic-swirl.png",
  "effects": []
}