{
  "_id": "oo5rnb8jvssck8yw",
  "name": "Grand Curse",
  "permission": {
    "default": 0
  },
  "type": "spell",
  "data": {
    "description": {
      "value": "<div class=\"spell-description\">\n  <p>\n    <strong>School</strong>&nbsp;necromancy&nbsp;[curse];\n    <strong>Level</strong>&nbsp;cleric/oracle 8, sorcerer/wizard 9;\n    \n    \n    \n    \n  </p>\n  <p>\n    <strong>Casting Time</strong>&nbsp;1 standard action<br>\n    <strong>Components</strong>&nbsp;V, S, DF<br>\n  </p>\n  <p>\n    <strong>Range</strong>&nbsp;close (25 ft. + 5 ft./2 levels)<br>\n    <strong>Area</strong>&nbsp;see below<br>\n    <strong>Targets</strong>&nbsp;see below<br>\n    \n    <strong>Duration</strong>&nbsp;permanent<br>\n    <strong>Saving Throw</strong>&nbsp;Will negates;&nbsp;<strong>Spell Resistance</strong>&nbsp;yes<br>\n  </p>\n  <h2>Description</h2>\n  <p>You can use the <i>grand curse</i> to duplicate the effects of <i>major curse</i>, except the DC to remove the curse is equal to the save DC +10, or the <i>grand curse</i> can be used to place a permanent curse on an area.</p><p>If used to place a curse on an area, the caster may affect one 10 ft. by 10 ft. square per caster level.</p><p>The nature of the <i>grand curse</i> is decided by the spellcaster upon conclusion of the ritual, which takes 1 hour to complete; any of the effects of <i>bestow curse</i> may be placed upon the area, and any time a target comes into contact with the area they are subject to the curse. If another spell effect is desired, the <i>grand curse</i> may duplicate any compulsion spell of 4th level or less. The player should be creative with the types of curses available, but should be in line with the above restrictions.</p>\n</div>\n",
      "chat": "",
      "unidentified": ""
    },
    "tags": [],
    "activation": {
      "cost": 1,
      "type": "standard"
    },
    "unchainedAction": {
      "activation": {
        "cost": 2,
        "type": "action"
      }
    },
    "duration": {
      "value": null,
      "units": ""
    },
    "target": {
      "value": "see below"
    },
    "range": {
      "value": null,
      "units": "close",
      "maxIncrements": 1,
      "minValue": null,
      "minUnits": ""
    },
    "uses": {
      "value": 0,
      "max": 0,
      "per": "",
      "autoDeductCharges": true,
      "autoDeductChargesCost": "1"
    },
    "measureTemplate": {
      "type": "",
      "size": "0",
      "overrideColor": false,
      "customColor": "",
      "overrideTexture": false,
      "customTexture": ""
    },
    "attackName": "",
    "actionType": "spellsave",
    "attackBonus": "",
    "critConfirmBonus": "",
    "damage": {
      "parts": [],
      "critParts": [],
      "nonCritParts": []
    },
    "attackParts": [],
    "formula": "",
    "ability": {
      "attack": "",
      "damage": "",
      "damageMult": 1,
      "critRange": 20,
      "critMult": 2
    },
    "save": {
      "dc": "0",
      "type": "will",
      "description": "Will negates"
    },
    "effectNotes": "",
    "attackNotes": "",
    "soundEffect": "",
    "links": {
      "children": []
    },
    "learnedAt": {
      "class": [
        [
          "sorcerer/wizard",
          9
        ],
        [
          "cleric/oracle",
          8
        ]
      ],
      "domain": [],
      "subDomain": [],
      "elementalSchool": [],
      "bloodline": []
    },
    "level": 9,
    "clOffset": 0,
    "slOffset": 0,
    "school": "nec",
    "subschool": "",
    "types": "curse",
    "nonlethal": false,
    "conditionals": [],
    "components": {
      "value": "",
      "verbal": true,
      "somatic": true,
      "material": false,
      "focus": false,
      "divineFocus": 1
    },
    "castTime": "",
    "materials": {
      "value": "",
      "focus": "",
      "gpValue": 0
    },
    "spellbook": "primary",
    "preparation": {
      "preparedAmount": 0,
      "maxAmount": 0,
      "autoDeductCharges": true,
      "spontaneousPrepared": true,
      "mode": "prepared"
    },
    "atWill": false,
    "sr": true,
    "shortDescription": "<p>You can use the <i>grand curse</i> to duplicate the effects of <i>major curse</i>, except the DC to remove the curse is equal to the save DC +10, or the <i>grand curse</i> can be used to place a permanent curse on an area.</p><p>If used to place a curse on an area, the caster may affect one 10 ft. by 10 ft. square per caster level.</p><p>The nature of the <i>grand curse</i> is decided by the spellcaster upon conclusion of the ritual, which takes 1 hour to complete; any of the effects of <i>bestow curse</i> may be placed upon the area, and any time a target comes into contact with the area they are subject to the curse. If another spell effect is desired, the <i>grand curse</i> may duplicate any compulsion spell of 4th level or less. The player should be creative with the types of curses available, but should be in line with the above restrictions.</p>",
    "spellDuration": "permanent",
    "spellEffect": "",
    "spellArea": "see below",
    "showInQuickbar": false,
    "spellPoints": {
      "cost": "1 + @sl"
    },
    "domain": false,
    "slotCost": 1
  },
  "flags": {},
  "img": "systems/pf1/icons/misc/magic-swirl.png",
  "effects": []
}