{
  "_id": "1n5lzg61yjkv64wa",
  "name": "Handy Grapnel",
  "permission": {
    "default": 0
  },
  "type": "spell",
  "data": {
    "description": {
      "value": "<div class=\"spell-description\">\n  <p>\n    <strong>School</strong>&nbsp;transmutation;\n    <strong>Level</strong>&nbsp;hunter 1, inquisitor 1, ranger 1, sorcerer/wizard 1;\n    \n    \n    \n    \n  </p>\n  <p>\n    <strong>Casting Time</strong>&nbsp;1 standard action<br>\n    <strong>Components</strong>&nbsp;V, S, M (an arrowhead)<br>\n  </p>\n  <p>\n    <strong>Range</strong>&nbsp;touch<br>\n    \n    <strong>Targets</strong>&nbsp;one ropelike object, length up to 50 ft. + 5 ft./level<br>\n    \n    <strong>Duration</strong>&nbsp;1 minute/level (D)<br>\n    <strong>Saving Throw</strong>&nbsp;Fortitude negates (object);&nbsp;<strong>Spell Resistance</strong>&nbsp;no<br>\n  </p>\n  <h2>Description</h2>\n  <p>You cause the target rope to shrink and reshape itself into an arrow, bolt, or similar piece of ammunition, which you can shoot at any Medium or larger object. With a successful attack roll against an AC equal to 5 plus the hardness of the target object, the <i>handy grapnel</i> strikes and embeds itself in that object with the strength of an iron grappling hook.  As a move action, you can command the rope to extend from the arrow. If you are within a distance equal to the length of the rope and have a hand free, the end of the rope swings directly into your hand. With another move action, you can command the <i>handy grapnel</i> to retract itself up to the grappling hook, pulling up any creature or object supported by the rope at a speed of 50 feet per round.  Once embedded, the rope can be used for climbing or any other purpose a rope could serve, and it can bear up to 200 pounds per level of the caster at a time (maximum 1,000 pounds). If this weight limit is exceeded, the <i>handy grapnel</i> comes loose and any creature or object supported by the rope falls.</p>\n</div>\n",
      "chat": "",
      "unidentified": ""
    },
    "tags": [],
    "activation": {
      "cost": 1,
      "type": "standard"
    },
    "unchainedAction": {
      "activation": {
        "cost": 2,
        "type": "action"
      }
    },
    "duration": {
      "value": null,
      "units": ""
    },
    "target": {
      "value": "one ropelike object, length up to 50 ft. + 5 ft./level"
    },
    "range": {
      "value": null,
      "units": "touch",
      "maxIncrements": 1,
      "minValue": null,
      "minUnits": ""
    },
    "uses": {
      "value": 0,
      "max": 0,
      "per": "",
      "autoDeductCharges": true,
      "autoDeductChargesCost": "1"
    },
    "measureTemplate": {
      "type": "",
      "size": "0",
      "overrideColor": false,
      "customColor": "",
      "overrideTexture": false,
      "customTexture": ""
    },
    "attackName": "",
    "actionType": "spellsave",
    "attackBonus": "",
    "critConfirmBonus": "",
    "damage": {
      "parts": [],
      "critParts": [],
      "nonCritParts": []
    },
    "attackParts": [],
    "formula": "",
    "ability": {
      "attack": "",
      "damage": "",
      "damageMult": 1,
      "critRange": 20,
      "critMult": 2
    },
    "save": {
      "dc": "0",
      "type": "fort",
      "description": "Fortitude negates (object)"
    },
    "effectNotes": "",
    "attackNotes": "",
    "soundEffect": "",
    "links": {
      "children": []
    },
    "learnedAt": {
      "class": [
        [
          "sorcerer/wizard",
          1
        ],
        [
          "ranger",
          1
        ],
        [
          "inquisitor",
          1
        ],
        [
          "hunter",
          1
        ]
      ],
      "domain": [],
      "subDomain": [],
      "elementalSchool": [],
      "bloodline": []
    },
    "level": 1,
    "clOffset": 0,
    "slOffset": 0,
    "school": "trs",
    "subschool": "",
    "types": "",
    "nonlethal": false,
    "conditionals": [],
    "components": {
      "value": "",
      "verbal": true,
      "somatic": true,
      "material": true,
      "focus": false,
      "divineFocus": 0
    },
    "castTime": "",
    "materials": {
      "value": "an arrowhead",
      "focus": "",
      "gpValue": 0
    },
    "spellbook": "primary",
    "preparation": {
      "preparedAmount": 0,
      "maxAmount": 0,
      "autoDeductCharges": true,
      "spontaneousPrepared": true,
      "mode": "prepared"
    },
    "atWill": false,
    "sr": false,
    "shortDescription": "<p>You cause the target rope to shrink and reshape itself into an arrow, bolt, or similar piece of ammunition, which you can shoot at any Medium or larger object. With a successful attack roll against an AC equal to 5 plus the hardness of the target object, the <i>handy grapnel</i> strikes and embeds itself in that object with the strength of an iron grappling hook.  As a move action, you can command the rope to extend from the arrow. If you are within a distance equal to the length of the rope and have a hand free, the end of the rope swings directly into your hand. With another move action, you can command the <i>handy grapnel</i> to retract itself up to the grappling hook, pulling up any creature or object supported by the rope at a speed of 50 feet per round.  Once embedded, the rope can be used for climbing or any other purpose a rope could serve, and it can bear up to 200 pounds per level of the caster at a time (maximum 1,000 pounds). If this weight limit is exceeded, the <i>handy grapnel</i> comes loose and any creature or object supported by the rope falls.</p>",
    "spellDuration": "1 minute/level (D)",
    "spellEffect": "",
    "spellArea": "",
    "showInQuickbar": false,
    "spellPoints": {
      "cost": "1 + @sl"
    },
    "domain": false,
    "slotCost": 1
  },
  "flags": {},
  "img": "systems/pf1/icons/misc/magic-swirl.png",
  "effects": []
}