{
  "_id": "mh1xqo8ohh531mja",
  "name": "Horrific Doubles",
  "permission": {
    "default": 0
  },
  "type": "spell",
  "data": {
    "description": {
      "value": "<div class=\"spell-description\">\n  <p>\n    <strong>School</strong>&nbsp;illusion&nbsp;(figment);\n    <strong>Level</strong>&nbsp;bard 4, bloodrager 4, medium 3, mesmerist 4, psychic 4, sorcerer/wizard 4;\n    \n    \n    \n    \n  </p>\n  <p>\n    <strong>Casting Time</strong>&nbsp;1 standard action<br>\n    <strong>Components</strong>&nbsp;V, S<br>\n  </p>\n  <p>\n    <strong>Range</strong>&nbsp;personal<br>\n    \n    <strong>Targets</strong>&nbsp;you<br>\n    \n    <strong>Duration</strong>&nbsp;1 minute/level<br>\n    \n  </p>\n  <h2>Description</h2>\n  <p>You create several illusory doubles of yourself, where you and each image all seem slightly off or wrong in appearance. Treat this spell as <i><i>mirror</i> image</i>, except as noted.  Each creature that can see the doubles must succeed at a Will save or become shaken for as long as it can see any of the doubles. A successful saving throw negates the shaken condition  and renders the creature immune to the further effects of this spell (beyond the usual effects of <i><i>mirror</i> image</i>). In addition, the first time a creature that failed its initial saving throw destroys one of the images, it must succeed at a Will save or its perception of the double shifts at the last second. The double takes on the face of the attacker, the face of a loved one, or some other equally disturbing image, causing the attacker to become frightened for 1 round and take 1d3 points of Wisdom damage from the traumatic shock. Both additional effects are mind-affecting fear effects, and spell resistance applies against them.  If your campaign uses the sanity system (see page 12), a creature takes 1d8 points of sanity damage instead of Wisdom damage.</p>\n</div>\n",
      "chat": "",
      "unidentified": ""
    },
    "tags": [],
    "activation": {
      "cost": 1,
      "type": "standard"
    },
    "unchainedAction": {
      "activation": {
        "cost": 2,
        "type": "action"
      }
    },
    "duration": {
      "value": null,
      "units": ""
    },
    "target": {
      "value": "you"
    },
    "range": {
      "value": null,
      "units": "personal",
      "maxIncrements": 1,
      "minValue": null,
      "minUnits": ""
    },
    "uses": {
      "value": 0,
      "max": 0,
      "per": "",
      "autoDeductCharges": true,
      "autoDeductChargesCost": "1"
    },
    "measureTemplate": {
      "type": "",
      "size": "0",
      "overrideColor": false,
      "customColor": "",
      "overrideTexture": false,
      "customTexture": ""
    },
    "attackName": "",
    "actionType": "",
    "attackBonus": "",
    "critConfirmBonus": "",
    "damage": {
      "parts": [],
      "critParts": [],
      "nonCritParts": []
    },
    "attackParts": [],
    "formula": "",
    "ability": {
      "attack": "",
      "damage": "",
      "damageMult": 1,
      "critRange": 20,
      "critMult": 2
    },
    "save": {
      "dc": "0",
      "type": "",
      "description": ""
    },
    "effectNotes": "",
    "attackNotes": "",
    "soundEffect": "",
    "links": {
      "children": []
    },
    "learnedAt": {
      "class": [
        [
          "sorcerer/wizard",
          4
        ],
        [
          "bard",
          4
        ],
        [
          "bloodrager",
          4
        ],
        [
          "psychic",
          4
        ],
        [
          "medium",
          3
        ],
        [
          "mesmerist",
          4
        ]
      ],
      "domain": [],
      "subDomain": [],
      "elementalSchool": [],
      "bloodline": []
    },
    "level": 4,
    "clOffset": 0,
    "slOffset": 0,
    "school": "ill",
    "subschool": "figment",
    "types": "",
    "nonlethal": false,
    "conditionals": [],
    "components": {
      "value": "",
      "verbal": true,
      "somatic": true,
      "material": false,
      "focus": false,
      "divineFocus": 0
    },
    "castTime": "",
    "materials": {
      "value": "",
      "focus": "",
      "gpValue": 0
    },
    "spellbook": "primary",
    "preparation": {
      "preparedAmount": 0,
      "maxAmount": 0,
      "autoDeductCharges": true,
      "spontaneousPrepared": true,
      "mode": "prepared"
    },
    "atWill": false,
    "sr": false,
    "shortDescription": "<p>You create several illusory doubles of yourself, where you and each image all seem slightly off or wrong in appearance. Treat this spell as <i><i>mirror</i> image</i>, except as noted.  Each creature that can see the doubles must succeed at a Will save or become shaken for as long as it can see any of the doubles. A successful saving throw negates the shaken condition  and renders the creature immune to the further effects of this spell (beyond the usual effects of <i><i>mirror</i> image</i>). In addition, the first time a creature that failed its initial saving throw destroys one of the images, it must succeed at a Will save or its perception of the double shifts at the last second. The double takes on the face of the attacker, the face of a loved one, or some other equally disturbing image, causing the attacker to become frightened for 1 round and take 1d3 points of Wisdom damage from the traumatic shock. Both additional effects are mind-affecting fear effects, and spell resistance applies against them.  If your campaign uses the sanity system (see page 12), a creature takes 1d8 points of sanity damage instead of Wisdom damage.</p>",
    "spellDuration": "1 minute/level",
    "spellEffect": "",
    "spellArea": "",
    "showInQuickbar": false,
    "spellPoints": {
      "cost": "1 + @sl"
    },
    "domain": false,
    "slotCost": 1
  },
  "flags": {},
  "img": "systems/pf1/icons/misc/magic-swirl.png",
  "effects": []
}