{
  "_id": "j7xfcxbi5gbziz4o",
  "name": "Illusory Script",
  "permission": {
    "default": 0
  },
  "type": "spell",
  "data": {
    "description": {
      "value": "<div class=\"spell-description\">\n  <p>\n    <strong>School</strong>&nbsp;illusion&nbsp;(phantasm)&nbsp;[mind-affecting];\n    <strong>Level</strong>&nbsp;bard 3, mesmerist 3, occultist 3, psychic 3, sorcerer/wizard 3;\n    \n    \n    \n    \n  </p>\n  <p>\n    <strong>Casting Time</strong>&nbsp;1 minute<br>\n    <strong>Components</strong>&nbsp;V, S, M (lead-based ink worth 50 gp)<br>\n  </p>\n  <p>\n    <strong>Range</strong>&nbsp;touch<br>\n    \n    <strong>Targets</strong>&nbsp;one touched object weighing no more than 10 lbs.<br>\n    \n    <strong>Duration</strong>&nbsp;one day/level<br>\n      <strong>Saving Throw</strong>&nbsp;Will negates; see text;&nbsp;\n      <strong>Spell Resistance</strong>&nbsp;yes<br>\n  </p>\n  <h2>Description</h2>\n  <p>You write instructions or other information on parchment, paper, or any suitable writing material. The <i>illusory script</i> appears to be some form of foreign or magical writing. Only the person (or people) designated by you at the time of the casting can read the writing; it's unintelligible to any other character.</p><p>Any unauthorized creature attempting to read the script triggers a potent illusory effect and must make a saving throw. A successful saving throw means the creature can look away with only a mild sense of disorientation. Failure means the creature is subject to a <i>suggestion</i> implanted in the script by you at the time the <i>illusory script</i> spell was cast. The <i>suggestion</i> lasts only 30 minutes. Typical <i>suggestion</i>s include \"Close the book and leave,\" \"Forget the existence of this note,\" and so forth. If successfully dispelled by <i>dispel magic,</i> the <i>illusory script</i> and its secret message disappear.</p><p>The hidden message can be read by a combination of the <i>true seeing</i> spell with the <i>read magic</i> or <i>comprehend languages</i> spell.</p>\n</div>\n",
      "chat": "",
      "unidentified": ""
    },
    "tags": [],
    "activation": {
      "cost": 1,
      "type": "minute"
    },
    "unchainedAction": {
      "activation": {
        "cost": 1,
        "type": "minute"
      }
    },
    "duration": {
      "value": null,
      "units": ""
    },
    "target": {
      "value": "one touched object weighing no more than 10 lbs."
    },
    "range": {
      "value": null,
      "units": "touch",
      "maxIncrements": 1,
      "minValue": null,
      "minUnits": ""
    },
    "uses": {
      "value": 0,
      "max": 0,
      "per": "",
      "autoDeductCharges": true,
      "autoDeductChargesCost": "1"
    },
    "measureTemplate": {
      "type": "",
      "size": "0",
      "overrideColor": false,
      "customColor": "",
      "overrideTexture": false,
      "customTexture": ""
    },
    "attackName": "",
    "actionType": "spellsave",
    "attackBonus": "",
    "critConfirmBonus": "",
    "damage": {
      "parts": [],
      "critParts": [],
      "nonCritParts": []
    },
    "attackParts": [],
    "formula": "",
    "ability": {
      "attack": "",
      "damage": "",
      "damageMult": 1,
      "critRange": 20,
      "critMult": 2
    },
    "save": {
      "dc": "0",
      "type": "will",
      "description": "Will negates; see text"
    },
    "effectNotes": "",
    "attackNotes": "",
    "soundEffect": "",
    "links": {
      "children": []
    },
    "learnedAt": {
      "class": [
        [
          "sorcerer/wizard",
          3
        ],
        [
          "bard",
          3
        ],
        [
          "psychic",
          3
        ],
        [
          "mesmerist",
          3
        ],
        [
          "occultist",
          3
        ]
      ],
      "domain": [],
      "subDomain": [],
      "elementalSchool": [],
      "bloodline": []
    },
    "level": 3,
    "clOffset": 0,
    "slOffset": 0,
    "school": "ill",
    "subschool": "phantasm",
    "types": "mind-affecting",
    "nonlethal": false,
    "conditionals": [],
    "components": {
      "value": "",
      "verbal": true,
      "somatic": true,
      "material": true,
      "focus": false,
      "divineFocus": 0
    },
    "castTime": "",
    "materials": {
      "value": "lead-based ink worth 50 gp",
      "focus": "",
      "gpValue": 50
    },
    "spellbook": "",
    "preparation": {
      "preparedAmount": 0,
      "maxAmount": 0,
      "autoDeductCharges": false,
      "spontaneousPrepared": false,
      "mode": "prepared"
    },
    "atWill": false,
    "sr": true,
    "shortDescription": "<p>You write instructions or other information on parchment, paper, or any suitable writing material. The <i>illusory script</i> appears to be some form of foreign or magical writing. Only the person (or people) designated by you at the time of the casting can read the writing; it's unintelligible to any other character.</p><p>Any unauthorized creature attempting to read the script triggers a potent illusory effect and must make a saving throw. A successful saving throw means the creature can look away with only a mild sense of disorientation. Failure means the creature is subject to a <i>suggestion</i> implanted in the script by you at the time the <i>illusory script</i> spell was cast. The <i>suggestion</i> lasts only 30 minutes. Typical <i>suggestion</i>s include \"Close the book and leave,\" \"Forget the existence of this note,\" and so forth. If successfully dispelled by <i>dispel magic,</i> the <i>illusory script</i> and its secret message disappear.</p><p>The hidden message can be read by a combination of the <i>true seeing</i> spell with the <i>read magic</i> or <i>comprehend languages</i> spell.</p>",
    "spellDuration": "one day/level",
    "spellEffect": "",
    "spellArea": "",
    "showInQuickbar": false,
    "spellPoints": {
      "cost": ""
    },
    "domain": false,
    "slotCost": 1
  },
  "flags": {},
  "img": "systems/pf1/icons/misc/magic-swirl.png",
  "effects": []
}