{
  "_id": "s2p7a4biy7bl4ks2",
  "name": "Limited Wish",
  "permission": {
    "default": 0
  },
  "type": "spell",
  "data": {
    "description": {
      "value": "<div class=\"spell-description\">\n  <p>\n    <strong>School</strong>&nbsp;universal;\n    <strong>Level</strong>&nbsp;psychic 7, sorcerer/wizard 7;\n    \n    <strong>Subdomain</strong>&nbsp;Construct 7;\n    \n    \n  </p>\n  <p>\n    <strong>Casting Time</strong>&nbsp;1 standard action<br>\n    <strong>Components</strong>&nbsp;V, S, M (diamond worth 1,500 gp)<br>\n  </p>\n  <p>\n    \n    <strong>Area</strong>&nbsp;see text<br>\n    <strong>Targets</strong>&nbsp;see text<br>\n    <strong>Effect</strong>&nbsp;see text<br>\n    <strong>Duration</strong>&nbsp;see text<br>\n      <strong>Saving Throw</strong>&nbsp;none, see text;&nbsp;\n      <strong>Spell Resistance</strong>&nbsp;yes<br>\n  </p>\n  <h2>Description</h2>\n  <p>A <i>limited wish</i> lets you create nearly any type of effect. For example, a <i>limited wish</i> can do any of the following things.</p><p><ul><li> Duplicate any sorcerer/wizard spell of 6th level or lower, provided the spell does not belong to one of your opposition schools.</p><p><li> Duplicate any non-sorcerer/wizard spell of 5th level or lower, provided the spell does not belong to one of your opposition schools.</p><p><li> Duplicate any sorcerer/wizard spell of 5th level or lower, even if it belongs to one of your opposition schools.</p><p><li> Duplicate any non-sorcerer/wizard spell of 4th level or lower, even if it belongs to one of your opposition schools.</p><p><li> Undo the harmful effects of many spells, such as <i>geas/quest</i> or <i>insanity</i>.</p><p><li> Produce any other effect whose power level is in line with the above effects, such as a single creature automatically hitting on its next attack or taking a -7 penalty on its next saving throw.</p><p>A duplicated spell allows saving throws and spell resistance as normal, but the save DC is for a 7th-level spell. When a <i>limited wish</i> spell duplicates a spell with a material component that costs more than 1,000 gp, you must provide that component (in addition to the 1,500 gp diamond component for this spell).</ul></p>\n</div>\n",
      "chat": "",
      "unidentified": ""
    },
    "tags": [],
    "activation": {
      "cost": 1,
      "type": "standard"
    },
    "unchainedAction": {
      "activation": {
        "cost": 2,
        "type": "action"
      }
    },
    "duration": {
      "value": null,
      "units": ""
    },
    "target": {
      "value": "see text"
    },
    "range": {
      "value": null,
      "units": "",
      "maxIncrements": 1,
      "minValue": null,
      "minUnits": ""
    },
    "uses": {
      "value": 0,
      "max": 0,
      "per": "",
      "autoDeductCharges": true,
      "autoDeductChargesCost": "1"
    },
    "measureTemplate": {
      "type": "",
      "size": "0",
      "overrideColor": false,
      "customColor": "",
      "overrideTexture": false,
      "customTexture": ""
    },
    "attackName": "",
    "actionType": "spellsave",
    "attackBonus": "",
    "critConfirmBonus": "",
    "damage": {
      "parts": [],
      "critParts": [],
      "nonCritParts": []
    },
    "attackParts": [],
    "formula": "",
    "ability": {
      "attack": "",
      "damage": "",
      "damageMult": 1,
      "critRange": 20,
      "critMult": 2
    },
    "save": {
      "dc": "0",
      "type": "",
      "description": "none, see text"
    },
    "effectNotes": "",
    "attackNotes": "",
    "soundEffect": "",
    "links": {
      "children": []
    },
    "learnedAt": {
      "class": [
        [
          "sorcerer/wizard",
          7
        ],
        [
          "psychic",
          7
        ]
      ],
      "domain": [],
      "subDomain": [
        [
          "Construct",
          7
        ]
      ],
      "elementalSchool": [],
      "bloodline": []
    },
    "level": 7,
    "clOffset": 0,
    "slOffset": 0,
    "school": "uni",
    "subschool": "",
    "types": "",
    "nonlethal": false,
    "conditionals": [],
    "components": {
      "value": "",
      "verbal": true,
      "somatic": true,
      "material": true,
      "focus": false,
      "divineFocus": 0
    },
    "castTime": "",
    "materials": {
      "value": "diamond worth 1,500 gp",
      "focus": "",
      "gpValue": 1500
    },
    "spellbook": "",
    "preparation": {
      "preparedAmount": 0,
      "maxAmount": 0,
      "autoDeductCharges": false,
      "spontaneousPrepared": false,
      "mode": "prepared"
    },
    "atWill": false,
    "sr": true,
    "shortDescription": "<p>A <i>limited wish</i> lets you create nearly any type of effect. For example, a <i>limited wish</i> can do any of the following things.</p><p><ul><li> Duplicate any sorcerer/wizard spell of 6th level or lower, provided the spell does not belong to one of your opposition schools.</p><p><li> Duplicate any non-sorcerer/wizard spell of 5th level or lower, provided the spell does not belong to one of your opposition schools.</p><p><li> Duplicate any sorcerer/wizard spell of 5th level or lower, even if it belongs to one of your opposition schools.</p><p><li> Duplicate any non-sorcerer/wizard spell of 4th level or lower, even if it belongs to one of your opposition schools.</p><p><li> Undo the harmful effects of many spells, such as <i>geas/quest</i> or <i>insanity</i>.</p><p><li> Produce any other effect whose power level is in line with the above effects, such as a single creature automatically hitting on its next attack or taking a -7 penalty on its next saving throw.</p><p>A duplicated spell allows saving throws and spell resistance as normal, but the save DC is for a 7th-level spell. When a <i>limited wish</i> spell duplicates a spell with a material component that costs more than 1,000 gp, you must provide that component (in addition to the 1,500 gp diamond component for this spell).</ul></p>",
    "spellDuration": "see text",
    "spellEffect": "see text",
    "spellArea": "see text",
    "showInQuickbar": false,
    "spellPoints": {
      "cost": ""
    },
    "domain": false,
    "slotCost": 1
  },
  "flags": {},
  "img": "systems/pf1/icons/misc/magic-swirl.png",
  "effects": []
}