{
  "_id": "j9b3l9g3hcds8wy9",
  "name": "Loathsome Veil",
  "permission": {
    "default": 0
  },
  "type": "spell",
  "data": {
    "description": {
      "value": "<div class=\"spell-description\">\n  <p>\n    <strong>School</strong>&nbsp;illusion&nbsp;(pattern)&nbsp;[mind-affecting];\n    <strong>Level</strong>&nbsp;mesmerist 3, psychic 3, sorcerer/wizard 3, witch 3;\n    \n    \n    \n    \n  </p>\n  <p>\n    <strong>Casting Time</strong>&nbsp;1 standard action<br>\n    <strong>Components</strong>&nbsp;V, S, M (a tangle of multicolored threads)<br>\n  </p>\n  <p>\n    <strong>Range</strong>&nbsp;close (25 ft. + 5 ft./2 levels)<br>\n    \n    \n    <strong>Effect</strong>&nbsp;transparent pattern 40 ft. long, 20 ft. high<br>\n    <strong>Duration</strong>&nbsp;concentration + 1 round/level (D)<br>\n    <strong>Saving Throw</strong>&nbsp;Will negates;&nbsp;<strong>Spell Resistance</strong>&nbsp;yes<br>\n  </p>\n  <h2>Description</h2>\n  <p>This spell creates a transparent veil of shifting, multicolored strands of light that form into endlessly varied and alien patterns. One side of the veil, chosen by you at the time of casting, is harmless. The other side twists and turns into impossible shapes, affecting any creature with 60 feet who views the veil. The veil affects a maximum of 24 Hit Dice of creatures. Creatures with the fewest HD are affected first.</p><p>Among creatures with equal HD, those who are closest to the spell are affected first. The effect is according to the creature's HD.</p><p>4 HD or fewer: The creature is nauseated while it can see the veil, nauseated for 1d4 rounds after it last saw the veil, then sickened for 2d4 rounds after it last saw the veil.</p><p>8 HD or fewer: The creature is nauseated for 1d4 rounds, sickened while it can see the veil, then sickened for 1d4 rounds after it last saw the veil.</p><p><i>9 or more H</i>D: The creature is sickened while it can see the veil.</p><p>A successful saving throw ignores all effects of the veil.</p><p>Sightless creatures are not affected by <i>loathsome veil</i>.</p><p>Affected creatures can avert or close their eyes to avoid seeing the veil, similar to avoiding a gaze attack.</p><p><i>Loathsome veil</i> can be made permanent with the <i>permanency</i> spell by a caster of 10th level or higher for the cost of 7,500 gp.</p>\n</div>\n",
      "chat": "",
      "unidentified": ""
    },
    "tags": [],
    "activation": {
      "cost": 1,
      "type": "standard"
    },
    "unchainedAction": {
      "activation": {
        "cost": 2,
        "type": "action"
      }
    },
    "duration": {
      "value": null,
      "units": ""
    },
    "target": {
      "value": ""
    },
    "range": {
      "value": null,
      "units": "close",
      "maxIncrements": 1,
      "minValue": null,
      "minUnits": ""
    },
    "uses": {
      "value": 0,
      "max": 0,
      "per": "",
      "autoDeductCharges": true,
      "autoDeductChargesCost": "1"
    },
    "measureTemplate": {
      "type": "",
      "size": "0",
      "overrideColor": false,
      "customColor": "",
      "overrideTexture": false,
      "customTexture": ""
    },
    "attackName": "",
    "actionType": "spellsave",
    "attackBonus": "",
    "critConfirmBonus": "",
    "damage": {
      "parts": [],
      "critParts": [],
      "nonCritParts": []
    },
    "attackParts": [],
    "formula": "",
    "ability": {
      "attack": "",
      "damage": "",
      "damageMult": 1,
      "critRange": 20,
      "critMult": 2
    },
    "save": {
      "dc": "0",
      "type": "will",
      "description": "Will negates"
    },
    "effectNotes": "",
    "attackNotes": "",
    "soundEffect": "",
    "links": {
      "children": []
    },
    "learnedAt": {
      "class": [
        [
          "sorcerer/wizard",
          3
        ],
        [
          "witch",
          3
        ],
        [
          "psychic",
          3
        ],
        [
          "mesmerist",
          3
        ]
      ],
      "domain": [],
      "subDomain": [],
      "elementalSchool": [],
      "bloodline": []
    },
    "level": 3,
    "clOffset": 0,
    "slOffset": 0,
    "school": "ill",
    "subschool": "pattern",
    "types": "mind-affecting",
    "nonlethal": false,
    "conditionals": [],
    "components": {
      "value": "",
      "verbal": true,
      "somatic": true,
      "material": true,
      "focus": false,
      "divineFocus": 0
    },
    "castTime": "",
    "materials": {
      "value": "a tangle of multicolored threads",
      "focus": "",
      "gpValue": 0
    },
    "spellbook": "primary",
    "preparation": {
      "preparedAmount": 0,
      "maxAmount": 0,
      "autoDeductCharges": true,
      "spontaneousPrepared": true,
      "mode": "prepared"
    },
    "atWill": false,
    "sr": true,
    "shortDescription": "<p>This spell creates a transparent veil of shifting, multicolored strands of light that form into endlessly varied and alien patterns. One side of the veil, chosen by you at the time of casting, is harmless. The other side twists and turns into impossible shapes, affecting any creature with 60 feet who views the veil. The veil affects a maximum of 24 Hit Dice of creatures. Creatures with the fewest HD are affected first.</p><p>Among creatures with equal HD, those who are closest to the spell are affected first. The effect is according to the creature's HD.</p><p>4 HD or fewer: The creature is nauseated while it can see the veil, nauseated for 1d4 rounds after it last saw the veil, then sickened for 2d4 rounds after it last saw the veil.</p><p>8 HD or fewer: The creature is nauseated for 1d4 rounds, sickened while it can see the veil, then sickened for 1d4 rounds after it last saw the veil.</p><p><i>9 or more H</i>D: The creature is sickened while it can see the veil.</p><p>A successful saving throw ignores all effects of the veil.</p><p>Sightless creatures are not affected by <i>loathsome veil</i>.</p><p>Affected creatures can avert or close their eyes to avoid seeing the veil, similar to avoiding a gaze attack.</p><p><i>Loathsome veil</i> can be made permanent with the <i>permanency</i> spell by a caster of 10th level or higher for the cost of 7,500 gp.</p>",
    "spellDuration": "concentration + 1 round/level (D)",
    "spellEffect": "transparent pattern 40 ft. long, 20 ft. high",
    "spellArea": "",
    "showInQuickbar": false,
    "spellPoints": {
      "cost": "1 + @sl"
    },
    "domain": false,
    "slotCost": 1
  },
  "flags": {},
  "img": "systems/pf1/icons/misc/magic-swirl.png",
  "effects": []
}