{
  "_id": "0jc850iz31ys87vn",
  "name": "Maddening Oubliette",
  "permission": {
    "default": 0
  },
  "type": "spell",
  "data": {
    "description": {
      "value": "<div class=\"spell-description\">\n  <p>\n    <strong>School</strong>&nbsp;conjuration&nbsp;(teleportation);\n    <strong>Level</strong>&nbsp;cleric/oracle 7, sorcerer/wizard 7, witch 7;\n    \n    \n    \n    \n  </p>\n  <p>\n    <strong>Casting Time</strong>&nbsp;1 round<br>\n    <strong>Components</strong>&nbsp;V, S, M (the powdered bones of a creature that died in prison)<br>\n  </p>\n  <p>\n    <strong>Range</strong>&nbsp;close (25 ft. + 5 ft./2 levels)<br>\n    \n    <strong>Targets</strong>&nbsp;one creature<br>\n    \n    <strong>Duration</strong>&nbsp;special; see text<br>\n    <strong>Saving Throw</strong>&nbsp;Will negates; see text;&nbsp;<strong>Spell Resistance</strong>&nbsp;yes<br>\n  </p>\n  <h2>Description</h2>\n  <p>The target is transported to a dark and dank prison in some unspecified horrific demiplane, where tentacles writhe around, clawed fingers grab at the creature (though they deal no damage), and harsh, whispering voices speak blasphemies and maddening secrets. At the end of each round within this terrifying oubliette, the target can attempt a Will saving throw in order to escape the prison. The saving throw has a penalty equal to the number of rounds the target has spent in the oubliette (minimum -1 and maximum -5). If the target succeeds at its saving throw, it returns to its former space. If that space is occupied or otherwise unavailable, the target is shunted to the nearest available space. When the target returns from the oubliette, it is confused for a number of rounds equal to the number of rounds of imprisonment (minimum 1), unless it was confined in the oubliette for 10 or more rounds, in which case the target is affected as if it were subject to an <i>insanity</i> spell instead.</p>\n</div>\n",
      "chat": "",
      "unidentified": ""
    },
    "tags": [],
    "activation": {
      "cost": 1,
      "type": "round"
    },
    "unchainedAction": {
      "activation": {
        "cost": 3,
        "type": "action"
      }
    },
    "duration": {
      "value": null,
      "units": ""
    },
    "target": {
      "value": "one creature"
    },
    "range": {
      "value": null,
      "units": "close",
      "maxIncrements": 1,
      "minValue": null,
      "minUnits": ""
    },
    "uses": {
      "value": 0,
      "max": 0,
      "per": "",
      "autoDeductCharges": true,
      "autoDeductChargesCost": "1"
    },
    "measureTemplate": {
      "type": "",
      "size": "0",
      "overrideColor": false,
      "customColor": "",
      "overrideTexture": false,
      "customTexture": ""
    },
    "attackName": "",
    "actionType": "spellsave",
    "attackBonus": "",
    "critConfirmBonus": "",
    "damage": {
      "parts": [],
      "critParts": [],
      "nonCritParts": []
    },
    "attackParts": [],
    "formula": "",
    "ability": {
      "attack": "",
      "damage": "",
      "damageMult": 1,
      "critRange": 20,
      "critMult": 2
    },
    "save": {
      "dc": "0",
      "type": "will",
      "description": "Will negates; see text"
    },
    "effectNotes": "",
    "attackNotes": "",
    "soundEffect": "",
    "links": {
      "children": []
    },
    "learnedAt": {
      "class": [
        [
          "sorcerer/wizard",
          7
        ],
        [
          "cleric/oracle",
          7
        ],
        [
          "witch",
          7
        ]
      ],
      "domain": [],
      "subDomain": [],
      "elementalSchool": [],
      "bloodline": []
    },
    "level": 7,
    "clOffset": 0,
    "slOffset": 0,
    "school": "con",
    "subschool": "teleportation",
    "types": "",
    "nonlethal": false,
    "conditionals": [],
    "components": {
      "value": "",
      "verbal": true,
      "somatic": true,
      "material": true,
      "focus": false,
      "divineFocus": 0
    },
    "castTime": "",
    "materials": {
      "value": "the powdered bones of a creature that died in prison",
      "focus": "",
      "gpValue": 0
    },
    "spellbook": "primary",
    "preparation": {
      "preparedAmount": 0,
      "maxAmount": 0,
      "autoDeductCharges": true,
      "spontaneousPrepared": true,
      "mode": "prepared"
    },
    "atWill": false,
    "sr": true,
    "shortDescription": "<p>The target is transported to a dark and dank prison in some unspecified horrific demiplane, where tentacles writhe around, clawed fingers grab at the creature (though they deal no damage), and harsh, whispering voices speak blasphemies and maddening secrets. At the end of each round within this terrifying oubliette, the target can attempt a Will saving throw in order to escape the prison. The saving throw has a penalty equal to the number of rounds the target has spent in the oubliette (minimum -1 and maximum -5). If the target succeeds at its saving throw, it returns to its former space. If that space is occupied or otherwise unavailable, the target is shunted to the nearest available space. When the target returns from the oubliette, it is confused for a number of rounds equal to the number of rounds of imprisonment (minimum 1), unless it was confined in the oubliette for 10 or more rounds, in which case the target is affected as if it were subject to an <i>insanity</i> spell instead.</p>",
    "spellDuration": "special; see text",
    "spellEffect": "",
    "spellArea": "",
    "showInQuickbar": false,
    "spellPoints": {
      "cost": "1 + @sl"
    },
    "domain": false,
    "slotCost": 1
  },
  "flags": {},
  "img": "systems/pf1/icons/misc/magic-swirl.png",
  "effects": []
}