{
  "_id": "3h6xbwxd3gvuvp77",
  "name": "Magical Beast Shape",
  "permission": {
    "default": 0
  },
  "type": "spell",
  "data": {
    "description": {
      "value": "<div class=\"spell-description\">\n  <p>\n    <strong>School</strong>&nbsp;transmutation&nbsp;(polymorph);\n    <strong>Level</strong>&nbsp;sorcerer/wizard 7;\n    \n    \n    \n    \n  </p>\n  <p>\n    <strong>Casting Time</strong>&nbsp;1 standard action<br>\n    <strong>Components</strong>&nbsp;V, S, M (a piece of the creature whose form you plan to assume)<br>\n  </p>\n  <p>\n    <strong>Range</strong>&nbsp;personal<br>\n    \n    <strong>Targets</strong>&nbsp;you<br>\n    \n    <strong>Duration</strong>&nbsp;1 min./level (D)<br>\n    \n  </p>\n  <h2>Description</h2>\n  <p>This spell functions as <i>beast shape IV</i> except you can assume the form of only a magical beast of a size between Diminutive and Huge. If the form you assume has any of the following abilities, you gain those abilities: burrow speed 60 feet, climb speed 90 feet, fly speed 120 feet (good maneuverability), swim speed 120 feet, blindsense 60 feet, blindsight 30 feet, darkvision 90 feet, low-light vision, scent, see in darkness, tremorsense 60 feet, blood drain, blood frenzy, breath weapon (if damage, up to 12d6 points), constrict, fast healing 5, ferocity, grab, hold breath, jet, no breath, poison, pounce, powerful charge, pull, rake, rend, roar, spikes, trample, trip, and web. If the creature has immunity to poison, you gain a +8 resistance bonus on saves against poison. If the creature has immunity or resistance to any energy types, you gain resistance 20 to those energy types. If the creature has vulnerability to an energy type, you gain that vulnerability.</p><p><b>Diminutive Magical Beast</b>: If you assume this form, you gain a +10 size bonus to your Dexterity score and take a -4 penalty to your Strength score.</p><p><b>Huge Magical Beast</b>: If you assume this form, you gain a +8 size bonus to your Strength score, take a -4 penalty on your Dexterity score, a +2 size bonus to your Constitution score, and gain a +7 natural armor bonus.</p>\n</div>\n",
      "chat": "",
      "unidentified": ""
    },
    "tags": [],
    "activation": {
      "cost": 1,
      "type": "standard"
    },
    "unchainedAction": {
      "activation": {
        "cost": 2,
        "type": "action"
      }
    },
    "duration": {
      "value": null,
      "units": ""
    },
    "target": {
      "value": "you"
    },
    "range": {
      "value": null,
      "units": "personal",
      "maxIncrements": 1,
      "minValue": null,
      "minUnits": ""
    },
    "uses": {
      "value": 0,
      "max": 0,
      "per": "",
      "autoDeductCharges": true,
      "autoDeductChargesCost": "1"
    },
    "measureTemplate": {
      "type": "",
      "size": "0",
      "overrideColor": false,
      "customColor": "",
      "overrideTexture": false,
      "customTexture": ""
    },
    "attackName": "",
    "actionType": "",
    "attackBonus": "",
    "critConfirmBonus": "",
    "damage": {
      "parts": [],
      "critParts": [],
      "nonCritParts": []
    },
    "attackParts": [],
    "formula": "",
    "ability": {
      "attack": "",
      "damage": "",
      "damageMult": 1,
      "critRange": 20,
      "critMult": 2
    },
    "save": {
      "dc": "0",
      "type": "",
      "description": ""
    },
    "effectNotes": "",
    "attackNotes": "",
    "soundEffect": "",
    "links": {
      "children": []
    },
    "learnedAt": {
      "class": [
        [
          "sorcerer/wizard",
          7
        ]
      ],
      "domain": [],
      "subDomain": [],
      "elementalSchool": [],
      "bloodline": []
    },
    "level": 7,
    "clOffset": 0,
    "slOffset": 0,
    "school": "trs",
    "subschool": "polymorph",
    "types": "",
    "nonlethal": false,
    "conditionals": [],
    "components": {
      "value": "",
      "verbal": true,
      "somatic": true,
      "material": true,
      "focus": false,
      "divineFocus": 0
    },
    "castTime": "",
    "materials": {
      "value": "a piece of the creature whose form you plan to assume",
      "focus": "",
      "gpValue": 0
    },
    "spellbook": "primary",
    "preparation": {
      "preparedAmount": 0,
      "maxAmount": 0,
      "autoDeductCharges": true,
      "spontaneousPrepared": true,
      "mode": "prepared"
    },
    "atWill": false,
    "sr": false,
    "shortDescription": "<p>This spell functions as <i>beast shape IV</i> except you can assume the form of only a magical beast of a size between Diminutive and Huge. If the form you assume has any of the following abilities, you gain those abilities: burrow speed 60 feet, climb speed 90 feet, fly speed 120 feet (good maneuverability), swim speed 120 feet, blindsense 60 feet, blindsight 30 feet, darkvision 90 feet, low-light vision, scent, see in darkness, tremorsense 60 feet, blood drain, blood frenzy, breath weapon (if damage, up to 12d6 points), constrict, fast healing 5, ferocity, grab, hold breath, jet, no breath, poison, pounce, powerful charge, pull, rake, rend, roar, spikes, trample, trip, and web. If the creature has immunity to poison, you gain a +8 resistance bonus on saves against poison. If the creature has immunity or resistance to any energy types, you gain resistance 20 to those energy types. If the creature has vulnerability to an energy type, you gain that vulnerability.</p><p><b>Diminutive Magical Beast</b>: If you assume this form, you gain a +10 size bonus to your Dexterity score and take a -4 penalty to your Strength score.</p><p><b>Huge Magical Beast</b>: If you assume this form, you gain a +8 size bonus to your Strength score, take a -4 penalty on your Dexterity score, a +2 size bonus to your Constitution score, and gain a +7 natural armor bonus.</p>",
    "spellDuration": "1 min./level (D)",
    "spellEffect": "",
    "spellArea": "",
    "showInQuickbar": false,
    "spellPoints": {
      "cost": "1 + @sl"
    },
    "domain": false,
    "slotCost": 1
  },
  "flags": {},
  "img": "systems/pf1/icons/misc/magic-swirl.png",
  "effects": []
}