{
  "_id": "b8lt1275mz4ez4d8",
  "name": "Major Creation",
  "permission": {
    "default": 0
  },
  "type": "spell",
  "data": {
    "description": {
      "value": "<div class=\"spell-description\">\n  <p>\n    <strong>School</strong>&nbsp;conjuration&nbsp;(creation);\n    <strong>Level</strong>&nbsp;adept 5, occultist 4, psychic 5, sorcerer/wizard 5, summoner 4, unchained Summoner 4, witch 5;\n    <strong>Domain</strong>&nbsp;Artifice 6;\n    <strong>Subdomain</strong>&nbsp;Flotsam 5;\n    \n    <strong>Bloodline</strong>&nbsp;Protean 5;\n  </p>\n  <p>\n    <strong>Casting Time</strong>&nbsp;10 minutes<br>\n    <strong>Components</strong>&nbsp;V, S, M (a tiny piece of matter of the same sort of item you plan to create with minor creation)<br>\n  </p>\n  <p>\n    <strong>Range</strong>&nbsp;close (25 ft. + 5 ft./2 levels)<br>\n    \n    \n    <strong>Effect</strong>&nbsp;unattended, nonmagical object of nonliving plant matter, up to 1 cu. ft./level<br>\n    <strong>Duration</strong>&nbsp;see text<br>\n    <strong>Saving Throw</strong>&nbsp;none;&nbsp;<strong>Spell Resistance</strong>&nbsp;no<br>\n  </p>\n  <h2>Description</h2>\n  <p>This spell functions like <i>minor creation,</i> except that you can also create an object of mineral nature: stone, crystal, metal, or the like. The duration of the created item varies with its relative hardness and rarity, as indicated on the following table.</p><p> <table><tr><th>Hardness and Rarity Examples</th><th>Duration</th></tr><tr><td>Vegetable matter</td><td>2 hr./level</td></tr><tr><td>Stone, crystal, base metals</td><td>1 hr./level</td></tr><tr><td>Precious metals</td><td>20 min./level</td></tr><tr><td>Gems</td><td>10 min./level</td></tr><tr><td>Rare metal*</td><td>1 round/level</td></tr><tr><td colspan=\"2\">*Includes adamantine, alchemical silver, and mithral. You can't use major creation to create a cold iron item.</td></tr></table> </p>\n</div>\n",
      "chat": "",
      "unidentified": ""
    },
    "tags": [],
    "activation": {
      "cost": 10,
      "type": "minute"
    },
    "unchainedAction": {
      "activation": {
        "cost": 10,
        "type": "minute"
      }
    },
    "duration": {
      "value": null,
      "units": ""
    },
    "target": {
      "value": ""
    },
    "range": {
      "value": null,
      "units": "close",
      "maxIncrements": 1,
      "minValue": null,
      "minUnits": ""
    },
    "uses": {
      "value": 0,
      "max": 0,
      "per": "",
      "autoDeductCharges": true,
      "autoDeductChargesCost": "1"
    },
    "measureTemplate": {
      "type": "",
      "size": "0",
      "overrideColor": false,
      "customColor": "",
      "overrideTexture": false,
      "customTexture": ""
    },
    "attackName": "",
    "actionType": "other",
    "attackBonus": "",
    "critConfirmBonus": "",
    "damage": {
      "parts": [],
      "critParts": [],
      "nonCritParts": []
    },
    "attackParts": [],
    "formula": "",
    "ability": {
      "attack": "",
      "damage": "",
      "damageMult": 1,
      "critRange": 20,
      "critMult": 2
    },
    "save": {
      "dc": "0",
      "type": "",
      "description": ""
    },
    "effectNotes": "",
    "attackNotes": "",
    "soundEffect": "",
    "links": {
      "children": []
    },
    "learnedAt": {
      "class": [
        [
          "sorcerer/wizard",
          5
        ],
        [
          "summoner",
          4
        ],
        [
          "witch",
          5
        ],
        [
          "adept",
          5
        ],
        [
          "psychic",
          5
        ],
        [
          "occultist",
          4
        ],
        [
          "unchained Summoner",
          4
        ]
      ],
      "domain": [
        [
          "Artifice",
          6
        ]
      ],
      "subDomain": [
        [
          "Flotsam",
          5
        ]
      ],
      "elementalSchool": [],
      "bloodline": [
        [
          "Protean",
          5
        ]
      ]
    },
    "level": 5,
    "clOffset": 0,
    "slOffset": 0,
    "school": "con",
    "subschool": "creation",
    "types": "",
    "nonlethal": false,
    "conditionals": [],
    "components": {
      "value": "",
      "verbal": true,
      "somatic": true,
      "material": true,
      "focus": false,
      "divineFocus": 0
    },
    "castTime": "",
    "materials": {
      "value": "a tiny piece of matter of the same sort of item you plan to create with minor creation",
      "focus": "",
      "gpValue": 0
    },
    "spellbook": "primary",
    "preparation": {
      "preparedAmount": 0,
      "maxAmount": 0,
      "autoDeductCharges": true,
      "spontaneousPrepared": true,
      "mode": "prepared"
    },
    "atWill": false,
    "sr": false,
    "shortDescription": "<p>This spell functions like <i>minor creation,</i> except that you can also create an object of mineral nature: stone, crystal, metal, or the like. The duration of the created item varies with its relative hardness and rarity, as indicated on the following table.</p><p> <table><tr><th>Hardness and Rarity Examples</th><th>Duration</th></tr><tr><td>Vegetable matter</td><td>2 hr./level</td></tr><tr><td>Stone, crystal, base metals</td><td>1 hr./level</td></tr><tr><td>Precious metals</td><td>20 min./level</td></tr><tr><td>Gems</td><td>10 min./level</td></tr><tr><td>Rare metal*</td><td>1 round/level</td></tr><tr><td colspan=\"2\">*Includes adamantine, alchemical silver, and mithral. You can't use major creation to create a cold iron item.</td></tr></table> </p>",
    "spellDuration": "see text",
    "spellEffect": "unattended, nonmagical object of nonliving plant matter, up to 1 cu. ft./level",
    "spellArea": "",
    "showInQuickbar": false,
    "spellPoints": {
      "cost": "1 + @sl"
    },
    "domain": false,
    "slotCost": 1
  },
  "flags": {},
  "img": "systems/pf1/icons/misc/magic-swirl.png",
  "effects": []
}