{
  "_id": "s2qrizgokj6t6u7i",
  "name": "Mindwipe",
  "permission": {
    "default": 0
  },
  "type": "spell",
  "data": {
    "description": {
      "value": "<div class=\"spell-description\">\n  <p>\n    <strong>School</strong>&nbsp;enchantment&nbsp;(compulsion)&nbsp;[mind-affecting];\n    <strong>Level</strong>&nbsp;medium 4, mesmerist 4, occultist 4, psychic 4, sorcerer/wizard 4, spiritualist 4;\n    \n    \n    \n    \n  </p>\n  <p>\n    <strong>Casting Time</strong>&nbsp;1 standard action<br>\n    <strong>Components</strong>&nbsp;V<br>\n  </p>\n  <p>\n    <strong>Range</strong>&nbsp;close (25 ft. + 5 ft./2 levels)<br>\n    \n    <strong>Targets</strong>&nbsp;one creature<br>\n    \n    <strong>Duration</strong>&nbsp;instantaneous; see text<br>\n    <strong>Saving Throw</strong>&nbsp;Will negates;&nbsp;<strong>Spell Resistance</strong>&nbsp;yes<br>\n  </p>\n  <h2>Description</h2>\n  <p>You erase a portion of the target's mind and experiences, inflicting 2 temporary negative levels on the target for 1 day per caster level. If the target is a spellcaster who must choose and prepare spells in advance, each negative level imposed by <i>mindwipe</i> also causes the target to lose one prepared spell from her highest level of spells known for each of her spellcasting classes for which she must prepare spells. These lost spells are no longer considered known by the target until the corresponding negative levels are removed.  If the target is a spontaneous spellcaster, each negative level inflicted by <i>mindwipe</i> causes her to lose one spell slot of her highest level of spells for each spontaneous spellcasting class in which she has levels and to lose knowledge of one random spell known of that level (or the next lowest level if she has already lost knowledge of all spells known of that level, and so on). The target cannot use the lost spell slots and spells known as long as the corresponding negative levels last. When the target loses a spell known, the spell remains on her class list but she cannot prepare or cast the spell.  If the negative levels from <i>mindwipe</i> cause the target's total number of negative levels to equal or exceed her character level, instead of dying, she enters a catatonic state as long as the negative levels from <i>mindwipe</i> continue to cause her total number of negative levels to equal or exceed her character level.</p>\n</div>\n",
      "chat": "",
      "unidentified": ""
    },
    "tags": [],
    "activation": {
      "cost": 1,
      "type": "standard"
    },
    "unchainedAction": {
      "activation": {
        "cost": 2,
        "type": "action"
      }
    },
    "duration": {
      "value": null,
      "units": ""
    },
    "target": {
      "value": "one creature"
    },
    "range": {
      "value": null,
      "units": "close",
      "maxIncrements": 1,
      "minValue": null,
      "minUnits": ""
    },
    "uses": {
      "value": 0,
      "max": 0,
      "per": "",
      "autoDeductCharges": true,
      "autoDeductChargesCost": "1"
    },
    "measureTemplate": {
      "type": "",
      "size": "0",
      "overrideColor": false,
      "customColor": "",
      "overrideTexture": false,
      "customTexture": ""
    },
    "attackName": "",
    "actionType": "spellsave",
    "attackBonus": "",
    "critConfirmBonus": "",
    "damage": {
      "parts": [],
      "critParts": [],
      "nonCritParts": []
    },
    "attackParts": [],
    "formula": "",
    "ability": {
      "attack": "",
      "damage": "",
      "damageMult": 1,
      "critRange": 20,
      "critMult": 2
    },
    "save": {
      "dc": "0",
      "type": "will",
      "description": "Will negates"
    },
    "effectNotes": "",
    "attackNotes": "",
    "soundEffect": "",
    "links": {
      "children": []
    },
    "learnedAt": {
      "class": [
        [
          "sorcerer/wizard",
          4
        ],
        [
          "psychic",
          4
        ],
        [
          "medium",
          4
        ],
        [
          "mesmerist",
          4
        ],
        [
          "occultist",
          4
        ],
        [
          "spiritualist",
          4
        ]
      ],
      "domain": [],
      "subDomain": [],
      "elementalSchool": [],
      "bloodline": []
    },
    "level": 4,
    "clOffset": 0,
    "slOffset": 0,
    "school": "enc",
    "subschool": "compulsion",
    "types": "mind-affecting",
    "nonlethal": false,
    "conditionals": [],
    "components": {
      "value": "",
      "verbal": true,
      "somatic": false,
      "material": false,
      "focus": false,
      "divineFocus": 0
    },
    "castTime": "",
    "materials": {
      "value": "",
      "focus": "",
      "gpValue": 0
    },
    "spellbook": "primary",
    "preparation": {
      "preparedAmount": 0,
      "maxAmount": 0,
      "autoDeductCharges": true,
      "spontaneousPrepared": true,
      "mode": "prepared"
    },
    "atWill": false,
    "sr": true,
    "shortDescription": "<p>You erase a portion of the target's mind and experiences, inflicting 2 temporary negative levels on the target for 1 day per caster level. If the target is a spellcaster who must choose and prepare spells in advance, each negative level imposed by <i>mindwipe</i> also causes the target to lose one prepared spell from her highest level of spells known for each of her spellcasting classes for which she must prepare spells. These lost spells are no longer considered known by the target until the corresponding negative levels are removed.  If the target is a spontaneous spellcaster, each negative level inflicted by <i>mindwipe</i> causes her to lose one spell slot of her highest level of spells for each spontaneous spellcasting class in which she has levels and to lose knowledge of one random spell known of that level (or the next lowest level if she has already lost knowledge of all spells known of that level, and so on). The target cannot use the lost spell slots and spells known as long as the corresponding negative levels last. When the target loses a spell known, the spell remains on her class list but she cannot prepare or cast the spell.  If the negative levels from <i>mindwipe</i> cause the target's total number of negative levels to equal or exceed her character level, instead of dying, she enters a catatonic state as long as the negative levels from <i>mindwipe</i> continue to cause her total number of negative levels to equal or exceed her character level.</p>",
    "spellDuration": "instantaneous; see text",
    "spellEffect": "",
    "spellArea": "",
    "showInQuickbar": false,
    "spellPoints": {
      "cost": "1 + @sl"
    },
    "domain": false,
    "slotCost": 1
  },
  "flags": {},
  "img": "systems/pf1/icons/misc/magic-swirl.png",
  "effects": []
}