{
  "_id": "blvetbc929cfx4m8",
  "name": "Mind Blank",
  "permission": {
    "default": 0
  },
  "type": "spell",
  "data": {
    "description": {
      "value": "<div class=\"spell-description\">\n  <p>\n    <strong>School</strong>&nbsp;abjuration;\n    <strong>Level</strong>&nbsp;psychic 7, sorcerer/wizard 8, witch 8;\n    <strong>Domain</strong>&nbsp;Liberation 8, Protection 8, Vermin 9;\n    <strong>Subdomain</strong>&nbsp;Espionage 9, Flowing 8, Thought 8;\n    \n    <strong>Bloodline</strong>&nbsp;Martyred 8, Rakshasa 8;\n  </p>\n  <p>\n    <strong>Casting Time</strong>&nbsp;1 standard action<br>\n    <strong>Components</strong>&nbsp;V, S<br>\n  </p>\n  <p>\n    <strong>Range</strong>&nbsp;close (25 ft. + 5 ft./2 levels)<br>\n    \n    <strong>Targets</strong>&nbsp;one creature<br>\n    \n    <strong>Duration</strong>&nbsp;24 hours<br>\n    <strong>Saving Throw</strong>&nbsp;Will negates (harmless);&nbsp;<strong>Spell Resistance</strong>&nbsp;yes<br>\n  </p>\n  <h2>Description</h2>\n  <p>The subject is protected from all devices and spells that gather information about the target through divination magic (such as <i>detect evil, locate creature, scry,</i> and <i>see invisible</i>). This spell also grants a +8 resistance bonus on saving throws against all mindaffecting spells and effects. <i>Mind blank</i> even foils limited <i>wish</i>, miracle, and <i>wish</i> spells when they are used in such a way as to gain information about the target. In the case of scrying that scans an area the creature is in, such as <i>arcane eye,</i> the spell works but the creature simply isn't detected. Scrying attempts that are targeted specifically at the subject do not work at all.</p>\n</div>\n",
      "chat": "",
      "unidentified": ""
    },
    "tags": [],
    "activation": {
      "cost": 1,
      "type": "standard"
    },
    "unchainedAction": {
      "activation": {
        "cost": 2,
        "type": "action"
      }
    },
    "duration": {
      "value": null,
      "units": ""
    },
    "target": {
      "value": "one creature"
    },
    "range": {
      "value": null,
      "units": "close",
      "maxIncrements": 1,
      "minValue": null,
      "minUnits": ""
    },
    "uses": {
      "value": 0,
      "max": 0,
      "per": "",
      "autoDeductCharges": true,
      "autoDeductChargesCost": "1"
    },
    "measureTemplate": {
      "type": "",
      "size": "0",
      "overrideColor": false,
      "customColor": "",
      "overrideTexture": false,
      "customTexture": ""
    },
    "attackName": "",
    "actionType": "spellsave",
    "attackBonus": "",
    "critConfirmBonus": "",
    "damage": {
      "parts": [],
      "critParts": [],
      "nonCritParts": []
    },
    "attackParts": [],
    "formula": "",
    "ability": {
      "attack": "",
      "damage": "",
      "damageMult": 1,
      "critRange": 20,
      "critMult": 2
    },
    "save": {
      "dc": "0",
      "type": "will",
      "description": "Will negates (harmless)"
    },
    "effectNotes": "",
    "attackNotes": "",
    "soundEffect": "",
    "links": {
      "children": []
    },
    "learnedAt": {
      "class": [
        [
          "sorcerer/wizard",
          8
        ],
        [
          "witch",
          8
        ],
        [
          "psychic",
          7
        ]
      ],
      "domain": [
        [
          "Liberation",
          8
        ],
        [
          "Protection",
          8
        ],
        [
          "Vermin",
          9
        ]
      ],
      "subDomain": [
        [
          "Thought",
          8
        ],
        [
          "Espionage",
          9
        ],
        [
          "Flowing",
          8
        ]
      ],
      "elementalSchool": [],
      "bloodline": [
        [
          "Martyred",
          8
        ],
        [
          "Rakshasa",
          8
        ]
      ]
    },
    "level": 8,
    "clOffset": 0,
    "slOffset": 0,
    "school": "abj",
    "subschool": "",
    "types": "",
    "nonlethal": false,
    "conditionals": [],
    "components": {
      "value": "",
      "verbal": true,
      "somatic": true,
      "material": false,
      "focus": false,
      "divineFocus": 0
    },
    "castTime": "",
    "materials": {
      "value": "",
      "focus": "",
      "gpValue": 0
    },
    "spellbook": "primary",
    "preparation": {
      "preparedAmount": 0,
      "maxAmount": 0,
      "autoDeductCharges": true,
      "spontaneousPrepared": true,
      "mode": "prepared"
    },
    "atWill": false,
    "sr": true,
    "shortDescription": "<p>The subject is protected from all devices and spells that gather information about the target through divination magic (such as <i>detect evil, locate creature, scry,</i> and <i>see invisible</i>). This spell also grants a +8 resistance bonus on saving throws against all mindaffecting spells and effects. <i>Mind blank</i> even foils limited <i>wish</i>, miracle, and <i>wish</i> spells when they are used in such a way as to gain information about the target. In the case of scrying that scans an area the creature is in, such as <i>arcane eye,</i> the spell works but the creature simply isn't detected. Scrying attempts that are targeted specifically at the subject do not work at all.</p>",
    "spellDuration": "24 hours",
    "spellEffect": "",
    "spellArea": "",
    "showInQuickbar": false,
    "spellPoints": {
      "cost": "1 + @sl"
    },
    "domain": false,
    "slotCost": 1
  },
  "flags": {},
  "img": "systems/pf1/icons/misc/magic-swirl.png",
  "effects": []
}