{
  "_id": "suel7sgnztenv551",
  "name": "Miracle",
  "permission": {
    "default": 0
  },
  "type": "spell",
  "data": {
    "description": {
      "value": "<div class=\"spell-description\">\n  <p>\n    <strong>School</strong>&nbsp;evocation;\n    <strong>Level</strong>&nbsp;cleric/oracle 9;\n    <strong>Domain</strong>&nbsp;Community 9, Luck 9;\n    <strong>Subdomain</strong>&nbsp;Divine 9;\n    \n    \n  </p>\n  <p>\n    <strong>Casting Time</strong>&nbsp;1 standard action<br>\n    <strong>Components</strong>&nbsp;V<br>\n  </p>\n  <p>\n    \n    <strong>Area</strong>&nbsp;see text<br>\n    \n    \n    <strong>Duration</strong>&nbsp;see text<br>\n    <strong>Saving Throw</strong>&nbsp;see text;&nbsp;<strong>Spell Resistance</strong>&nbsp;yes<br>\n  </p>\n  <h2>Description</h2>\n  <p>You don't so much cast a <i>miracle</i> as request one. You state what you would like to have happen and request that your deity (or the power you pray to for spells) intercede.</p><p>A <i>miracle</i> can do any of the following things.</p><p><ul><li> Duplicate any cleric spell of 8th level or lower.</p><p><li> Duplicate any other spell of 7th level or lower.</p><p><li> Undo the harmful effects of certain spells, such as <i>feeblemind</i> or <i>insanity.</i></p><p><li> Have any effect whose power level is in line with the above effects.</ul></p><p>Alternatively, a cleric can make a very powerful request. Casting such a <i>miracle</i> costs the cleric 25,000 gp in powdered diamond because of the powerful divine energies involved. Examples of especially powerful <i>miracle</i>s of this sort could include the following: <ul><li> Swinging the tide of a battle in your favor by raising fallen allies to continue fighting.</p><p><li> Moving you and your allies, with all your and their gear, from one plane to a specific locale through planar barriers with no chance of error.</p><p><li> Protecting a city from an earthquake, volcanic eruption, flood, or other major natural disaster.</ul></p><p>In any event, a request that is out of line with the deity's (or alignment's) nature is refused.</p><p>A duplicated spell allows saving throws and spell resistance as normal, but the save DCs are as for a 9th-level spell. When a <i>miracle</i> spell duplicates a spell with a material component that costs more than 100 gp, you must provide that component.</p>\n</div>\n",
      "chat": "",
      "unidentified": ""
    },
    "tags": [],
    "activation": {
      "cost": 1,
      "type": "standard"
    },
    "unchainedAction": {
      "activation": {
        "cost": 2,
        "type": "action"
      }
    },
    "duration": {
      "value": null,
      "units": ""
    },
    "target": {
      "value": ""
    },
    "range": {
      "value": null,
      "units": "",
      "maxIncrements": 1,
      "minValue": null,
      "minUnits": ""
    },
    "uses": {
      "value": 0,
      "max": 0,
      "per": "",
      "autoDeductCharges": true,
      "autoDeductChargesCost": "1"
    },
    "measureTemplate": {
      "type": "",
      "size": "0",
      "overrideColor": false,
      "customColor": "",
      "overrideTexture": false,
      "customTexture": ""
    },
    "attackName": "",
    "actionType": "spellsave",
    "attackBonus": "",
    "critConfirmBonus": "",
    "damage": {
      "parts": [],
      "critParts": [],
      "nonCritParts": []
    },
    "attackParts": [],
    "formula": "",
    "ability": {
      "attack": "",
      "damage": "",
      "damageMult": 1,
      "critRange": 20,
      "critMult": 2
    },
    "save": {
      "dc": "0",
      "type": "",
      "description": "see text"
    },
    "effectNotes": "",
    "attackNotes": "",
    "soundEffect": "",
    "links": {
      "children": []
    },
    "learnedAt": {
      "class": [
        [
          "cleric/oracle",
          9
        ]
      ],
      "domain": [
        [
          "Community",
          9
        ],
        [
          "Luck",
          9
        ]
      ],
      "subDomain": [
        [
          "Divine",
          9
        ]
      ],
      "elementalSchool": [],
      "bloodline": []
    },
    "level": 9,
    "clOffset": 0,
    "slOffset": 0,
    "school": "evo",
    "subschool": "",
    "types": "",
    "nonlethal": false,
    "conditionals": [],
    "components": {
      "value": "",
      "verbal": true,
      "somatic": false,
      "material": false,
      "focus": false,
      "divineFocus": 0
    },
    "castTime": "",
    "materials": {
      "value": "",
      "focus": "",
      "gpValue": 0
    },
    "spellbook": "primary",
    "preparation": {
      "preparedAmount": 0,
      "maxAmount": 0,
      "autoDeductCharges": true,
      "spontaneousPrepared": true,
      "mode": "prepared"
    },
    "atWill": false,
    "sr": true,
    "shortDescription": "<p>You don't so much cast a <i>miracle</i> as request one. You state what you would like to have happen and request that your deity (or the power you pray to for spells) intercede.</p><p>A <i>miracle</i> can do any of the following things.</p><p><ul><li> Duplicate any cleric spell of 8th level or lower.</p><p><li> Duplicate any other spell of 7th level or lower.</p><p><li> Undo the harmful effects of certain spells, such as <i>feeblemind</i> or <i>insanity.</i></p><p><li> Have any effect whose power level is in line with the above effects.</ul></p><p>Alternatively, a cleric can make a very powerful request. Casting such a <i>miracle</i> costs the cleric 25,000 gp in powdered diamond because of the powerful divine energies involved. Examples of especially powerful <i>miracle</i>s of this sort could include the following: <ul><li> Swinging the tide of a battle in your favor by raising fallen allies to continue fighting.</p><p><li> Moving you and your allies, with all your and their gear, from one plane to a specific locale through planar barriers with no chance of error.</p><p><li> Protecting a city from an earthquake, volcanic eruption, flood, or other major natural disaster.</ul></p><p>In any event, a request that is out of line with the deity's (or alignment's) nature is refused.</p><p>A duplicated spell allows saving throws and spell resistance as normal, but the save DCs are as for a 9th-level spell. When a <i>miracle</i> spell duplicates a spell with a material component that costs more than 100 gp, you must provide that component.</p>",
    "spellDuration": "see text",
    "spellEffect": "",
    "spellArea": "see text",
    "showInQuickbar": false,
    "spellPoints": {
      "cost": "1 + @sl"
    },
    "domain": false,
    "slotCost": 1
  },
  "flags": {},
  "img": "systems/pf1/icons/misc/magic-swirl.png",
  "effects": []
}