{
  "_id": "1ziz3r5a1gzd1jw2",
  "name": "Nap Stack",
  "permission": {
    "default": 0
  },
  "type": "spell",
  "data": {
    "description": {
      "value": "<div class=\"spell-description\">\n  <p>\n    <strong>School</strong>&nbsp;necromancy;\n    <strong>Level</strong>&nbsp;cleric/oracle 3;\n    \n    \n    \n    \n  </p>\n  <p>\n    <strong>Casting Time</strong>&nbsp;1 minute<br>\n    <strong>Components</strong>&nbsp;V, S, M (a little silk pillow worth 100 gp)<br>\n  </p>\n  <p>\n    <strong>Range</strong>&nbsp;30 feet<br>\n    <strong>Area</strong>&nbsp;30-ft.-radius emanation<br>\n    \n    \n    <strong>Duration</strong>&nbsp;8 hours<br>\n      <strong>Saving Throw</strong>&nbsp;Will negates (harmless);&nbsp;\n      <strong>Spell Resistance</strong>&nbsp;yes<br>\n  </p>\n  <h2>Description</h2>\n  <p>You reduce the amount of uninterrupted sleep or rest creatures within the spell's area need in order to recover from injuries, regain spells, or other special abilities to 2 hours instead of the normal eight. In addition, if creatures continue to sleep or rest beyond the initial 2 hours, every additional 2 hours counts as a day of rest for the purpose of recovering hit points, ability damage, as well as for enduring diseases, poisons, or other afflictions. This means 8 total hours of sleep counts as 4 days for natural healing and for saving throws as diseases or similar afflictions run their course. When suffering from diseases, poison, or other afflictions, sleepers experience vivid dreams that help them track their recovery. If things go poorly they can, at any time, wake themselves up in order to seek a better alternative. If awoken or otherwise disturbed during this 8-hour period, creatures may return to sleep but they no longer enjoy the benefits of the accelerated recovery time. Creatures can only enjoy the benefits of this spell once in any 1-week period.</p>\n</div>\n",
      "chat": "",
      "unidentified": ""
    },
    "tags": [],
    "activation": {
      "cost": 1,
      "type": "minute"
    },
    "unchainedAction": {
      "activation": {
        "cost": 1,
        "type": "minute"
      }
    },
    "duration": {
      "value": null,
      "units": ""
    },
    "target": {
      "value": ""
    },
    "range": {
      "value": "30",
      "units": "ft",
      "maxIncrements": 1,
      "minValue": null,
      "minUnits": ""
    },
    "uses": {
      "value": 0,
      "max": 0,
      "per": "",
      "autoDeductCharges": true,
      "autoDeductChargesCost": "1"
    },
    "measureTemplate": {
      "type": "",
      "size": "0",
      "overrideColor": false,
      "customColor": "",
      "overrideTexture": false,
      "customTexture": ""
    },
    "attackName": "",
    "actionType": "spellsave",
    "attackBonus": "",
    "critConfirmBonus": "",
    "damage": {
      "parts": [],
      "critParts": [],
      "nonCritParts": []
    },
    "attackParts": [],
    "formula": "",
    "ability": {
      "attack": "",
      "damage": "",
      "damageMult": 1,
      "critRange": 20,
      "critMult": 2
    },
    "save": {
      "dc": "0",
      "type": "will",
      "description": "Will negates (harmless)"
    },
    "effectNotes": "",
    "attackNotes": "",
    "soundEffect": "",
    "links": {
      "children": []
    },
    "learnedAt": {
      "class": [
        [
          "cleric/oracle",
          3
        ]
      ],
      "domain": [],
      "subDomain": [],
      "elementalSchool": [],
      "bloodline": []
    },
    "level": 3,
    "clOffset": 0,
    "slOffset": 0,
    "school": "nec",
    "subschool": "",
    "types": "",
    "nonlethal": false,
    "conditionals": [],
    "components": {
      "value": "",
      "verbal": true,
      "somatic": true,
      "material": true,
      "focus": false,
      "divineFocus": 0
    },
    "castTime": "",
    "materials": {
      "value": "a little silk pillow worth 100 gp",
      "focus": "",
      "gpValue": 100
    },
    "spellbook": "",
    "preparation": {
      "preparedAmount": 0,
      "maxAmount": 0,
      "autoDeductCharges": false,
      "spontaneousPrepared": false,
      "mode": "prepared"
    },
    "atWill": false,
    "sr": true,
    "shortDescription": "<p>You reduce the amount of uninterrupted sleep or rest creatures within the spell's area need in order to recover from injuries, regain spells, or other special abilities to 2 hours instead of the normal eight. In addition, if creatures continue to sleep or rest beyond the initial 2 hours, every additional 2 hours counts as a day of rest for the purpose of recovering hit points, ability damage, as well as for enduring diseases, poisons, or other afflictions. This means 8 total hours of sleep counts as 4 days for natural healing and for saving throws as diseases or similar afflictions run their course. When suffering from diseases, poison, or other afflictions, sleepers experience vivid dreams that help them track their recovery. If things go poorly they can, at any time, wake themselves up in order to seek a better alternative. If awoken or otherwise disturbed during this 8-hour period, creatures may return to sleep but they no longer enjoy the benefits of the accelerated recovery time. Creatures can only enjoy the benefits of this spell once in any 1-week period.</p>",
    "spellDuration": "8 hours",
    "spellEffect": "",
    "spellArea": "30-ft.-radius emanation",
    "showInQuickbar": false,
    "spellPoints": {
      "cost": ""
    },
    "domain": false,
    "slotCost": 1
  },
  "flags": {},
  "img": "systems/pf1/icons/misc/magic-swirl.png",
  "effects": []
}