{
  "_id": "7s7njmjixqkytskw",
  "name": "Node of Blasting",
  "permission": {
    "default": 0
  },
  "type": "spell",
  "data": {
    "description": {
      "value": "<div class=\"spell-description\">\n  <p>\n    <strong>School</strong>&nbsp;abjuration&nbsp;[mind-affecting];\n    <strong>Level</strong>&nbsp;medium 3, mesmerist 3, occultist 2, psychic 3;\n    \n    \n    \n    \n  </p>\n  <p>\n    <strong>Casting Time</strong>&nbsp;1 standard action<br>\n    <strong>Components</strong>&nbsp;V<br>\n  </p>\n  <p>\n    <strong>Range</strong>&nbsp;touch<br>\n    \n    <strong>Targets</strong>&nbsp;one touched object weighing no more than 10 lbs.<br>\n    \n    <strong>Duration</strong>&nbsp;permanent until discharged (D)<br>\n    <strong>Saving Throw</strong>&nbsp;Will partial; see text;&nbsp;<strong>Spell Resistance</strong>&nbsp;no<br>\n  </p>\n  <h2>Description</h2>\n  <p>You imbue an object with psychic energy. The <i>Node of Blasting</i> unleashes a mental blast when a creature with a mind touches the object, dealing 6d6 points of damage to the creature touching the object and causing the creature to be staggered for 1 minute. A successful saving throw halves the damage and negates the staggered condition.  Magic traps such as <i>Node of Blasting</i> are hard to detect and disable. A character with the trapfinding class feature can use Disable Device to thwart <i>Node of Blasting</i>. The DCs to find a <i>Node of Blasting</i> using Perception and to disable it using Disable  Device are both equal to 25 + the spell's level. Additionally, a creature with the read aura occult skill unlock (see page 197) can attempt the same Perception check to notice a <i>Node of Blasting</i>.</p>\n</div>\n",
      "chat": "",
      "unidentified": ""
    },
    "tags": [],
    "activation": {
      "cost": 1,
      "type": "standard"
    },
    "unchainedAction": {
      "activation": {
        "cost": 2,
        "type": "action"
      }
    },
    "duration": {
      "value": null,
      "units": ""
    },
    "target": {
      "value": "one touched object weighing no more than 10 lbs."
    },
    "range": {
      "value": null,
      "units": "touch",
      "maxIncrements": 1,
      "minValue": null,
      "minUnits": ""
    },
    "uses": {
      "value": 0,
      "max": 0,
      "per": "",
      "autoDeductCharges": true,
      "autoDeductChargesCost": "1"
    },
    "measureTemplate": {
      "type": "",
      "size": "0",
      "overrideColor": false,
      "customColor": "",
      "overrideTexture": false,
      "customTexture": ""
    },
    "attackName": "",
    "actionType": "spellsave",
    "attackBonus": "",
    "critConfirmBonus": "",
    "damage": {
      "parts": [],
      "critParts": [],
      "nonCritParts": []
    },
    "attackParts": [],
    "formula": "",
    "ability": {
      "attack": "",
      "damage": "",
      "damageMult": 1,
      "critRange": 20,
      "critMult": 2
    },
    "save": {
      "dc": "0",
      "type": "will",
      "description": "Will partial; see text"
    },
    "effectNotes": "",
    "attackNotes": "",
    "soundEffect": "",
    "links": {
      "children": []
    },
    "learnedAt": {
      "class": [
        [
          "psychic",
          3
        ],
        [
          "medium",
          3
        ],
        [
          "mesmerist",
          3
        ],
        [
          "occultist",
          2
        ]
      ],
      "domain": [],
      "subDomain": [],
      "elementalSchool": [],
      "bloodline": []
    },
    "level": 3,
    "clOffset": 0,
    "slOffset": 0,
    "school": "abj",
    "subschool": "",
    "types": "mind-affecting",
    "nonlethal": false,
    "conditionals": [],
    "components": {
      "value": "",
      "verbal": true,
      "somatic": false,
      "material": false,
      "focus": false,
      "divineFocus": 0
    },
    "castTime": "",
    "materials": {
      "value": "",
      "focus": "",
      "gpValue": 0
    },
    "spellbook": "primary",
    "preparation": {
      "preparedAmount": 0,
      "maxAmount": 0,
      "autoDeductCharges": true,
      "spontaneousPrepared": true,
      "mode": "prepared"
    },
    "atWill": false,
    "sr": false,
    "shortDescription": "<p>You imbue an object with psychic energy. The <i>Node of Blasting</i> unleashes a mental blast when a creature with a mind touches the object, dealing 6d6 points of damage to the creature touching the object and causing the creature to be staggered for 1 minute. A successful saving throw halves the damage and negates the staggered condition.  Magic traps such as <i>Node of Blasting</i> are hard to detect and disable. A character with the trapfinding class feature can use Disable Device to thwart <i>Node of Blasting</i>. The DCs to find a <i>Node of Blasting</i> using Perception and to disable it using Disable  Device are both equal to 25 + the spell's level. Additionally, a creature with the read aura occult skill unlock (see page 197) can attempt the same Perception check to notice a <i>Node of Blasting</i>.</p>",
    "spellDuration": "permanent until discharged (D)",
    "spellEffect": "",
    "spellArea": "",
    "showInQuickbar": false,
    "spellPoints": {
      "cost": "1 + @sl"
    },
    "domain": false,
    "slotCost": 1
  },
  "flags": {},
  "img": "systems/pf1/icons/misc/magic-swirl.png",
  "effects": []
}