{
  "_id": "v5i28j1imuannezt",
  "name": "Ooze Form I",
  "permission": {
    "default": 0
  },
  "type": "spell",
  "data": {
    "description": {
      "value": "<div class=\"spell-description\">\n  <p>\n    <strong>School</strong>&nbsp;transmutation&nbsp;(polymorph);\n    <strong>Level</strong>&nbsp;alchemist 5, magus 5, sorcerer/wizard 5;\n    \n    \n    \n    \n  </p>\n  <p>\n    <strong>Casting Time</strong>&nbsp;1 standard action<br>\n    <strong>Components</strong>&nbsp;V, S, M (a bit of the creature whose form you plan to assume)<br>\n  </p>\n  <p>\n    <strong>Range</strong>&nbsp;personal<br>\n    \n    <strong>Targets</strong>&nbsp;you<br>\n    \n    <strong>Duration</strong>&nbsp;1 minute/level (D)<br>\n    \n  </p>\n  <h2>Description</h2>\n  <p>You assume the form of a Small or Medium ooze. Regardless of the type of ooze you transform into, you gain base speed 10 feet, climb speed 10 feet, swim speed 20 feet, and blindsense 30 feet. You gain a +4 resistance bonus on saving throws against mindaffecting effects and poison. A wood or metal weapon that strikes you takes acid damage as if from your slam unless the wielder succeeds at a Reflex saving throw.</p><p><b>Small Ooze</b>: If you assume this form, you gain a +4 size bonus to your Constitution score, a slam attack (1d3 plus 1d3 acid), and constrict (1d3), and take , a -4 penalty to your Dexterity score.</p><p><b>Medium Ooze</b>: If you assume this form, you gain a +6 size bonus to your Constitution score, a -6 penalty to your Dexterity score, a slam attack (1d4 plus 1d4 acid), and constrict (1d4).</p>\n</div>\n",
      "chat": "",
      "unidentified": ""
    },
    "tags": [],
    "activation": {
      "cost": 1,
      "type": "standard"
    },
    "unchainedAction": {
      "activation": {
        "cost": 2,
        "type": "action"
      }
    },
    "duration": {
      "value": null,
      "units": ""
    },
    "target": {
      "value": "you"
    },
    "range": {
      "value": null,
      "units": "personal",
      "maxIncrements": 1,
      "minValue": null,
      "minUnits": ""
    },
    "uses": {
      "value": 0,
      "max": 0,
      "per": "",
      "autoDeductCharges": true,
      "autoDeductChargesCost": "1"
    },
    "measureTemplate": {
      "type": "",
      "size": "0",
      "overrideColor": false,
      "customColor": "",
      "overrideTexture": false,
      "customTexture": ""
    },
    "attackName": "",
    "actionType": "",
    "attackBonus": "",
    "critConfirmBonus": "",
    "damage": {
      "parts": [],
      "critParts": [],
      "nonCritParts": []
    },
    "attackParts": [],
    "formula": "",
    "ability": {
      "attack": "",
      "damage": "",
      "damageMult": 1,
      "critRange": 20,
      "critMult": 2
    },
    "save": {
      "dc": "0",
      "type": "",
      "description": ""
    },
    "effectNotes": "",
    "attackNotes": "",
    "soundEffect": "",
    "links": {
      "children": []
    },
    "learnedAt": {
      "class": [
        [
          "sorcerer/wizard",
          5
        ],
        [
          "alchemist",
          5
        ],
        [
          "magus",
          5
        ]
      ],
      "domain": [],
      "subDomain": [],
      "elementalSchool": [],
      "bloodline": []
    },
    "level": 5,
    "clOffset": 0,
    "slOffset": 0,
    "school": "trs",
    "subschool": "polymorph",
    "types": "",
    "nonlethal": false,
    "conditionals": [],
    "components": {
      "value": "",
      "verbal": true,
      "somatic": true,
      "material": true,
      "focus": false,
      "divineFocus": 0
    },
    "castTime": "",
    "materials": {
      "value": "a bit of the creature whose form you plan to assume",
      "focus": "",
      "gpValue": 0
    },
    "spellbook": "primary",
    "preparation": {
      "preparedAmount": 0,
      "maxAmount": 0,
      "autoDeductCharges": true,
      "spontaneousPrepared": true,
      "mode": "prepared"
    },
    "atWill": false,
    "sr": false,
    "shortDescription": "<p>You assume the form of a Small or Medium ooze. Regardless of the type of ooze you transform into, you gain base speed 10 feet, climb speed 10 feet, swim speed 20 feet, and blindsense 30 feet. You gain a +4 resistance bonus on saving throws against mindaffecting effects and poison. A wood or metal weapon that strikes you takes acid damage as if from your slam unless the wielder succeeds at a Reflex saving throw.</p><p><b>Small Ooze</b>: If you assume this form, you gain a +4 size bonus to your Constitution score, a slam attack (1d3 plus 1d3 acid), and constrict (1d3), and take , a -4 penalty to your Dexterity score.</p><p><b>Medium Ooze</b>: If you assume this form, you gain a +6 size bonus to your Constitution score, a -6 penalty to your Dexterity score, a slam attack (1d4 plus 1d4 acid), and constrict (1d4).</p>",
    "spellDuration": "1 minute/level (D)",
    "spellEffect": "",
    "spellArea": "",
    "showInQuickbar": false,
    "spellPoints": {
      "cost": "1 + @sl"
    },
    "domain": false,
    "slotCost": 1
  },
  "flags": {},
  "img": "systems/pf1/icons/misc/magic-swirl.png",
  "effects": []
}