{
  "_id": "0evx195gmtcpdxef",
  "name": "Perceive Betrayal",
  "permission": {
    "default": 0
  },
  "type": "spell",
  "data": {
    "description": {
      "value": "<div class=\"spell-description\">\n  <p>\n    <strong>School</strong>&nbsp;divination;\n    <strong>Level</strong>&nbsp;cleric/oracle 6, inquisitor 4, sorcerer/wizard 7, witch 6;\n    \n    \n    \n    \n  </p>\n  <p>\n    <strong>Casting Time</strong>&nbsp;1 minute<br>\n    <strong>Components</strong>&nbsp;V, S, M (12 drops of blood), F (a silver circlet worth 500 gp)<br>\n  </p>\n  <p>\n    <strong>Range</strong>&nbsp;personal<br>\n    \n    <strong>Targets</strong>&nbsp;you<br>\n    \n    <strong>Duration</strong>&nbsp;1 hour/level<br>\n    \n  </p>\n  <h2>Description</h2>\n  <p>By donning a silver circlet anointed with blood, you gain the ability to sense traitorous intent toward a single person to whom you defer, designated when you cast the spell. The spell alerts you when a creature with traitorous intent is within 200 feet, although it doesn't identify the source. By concentrating, you can learn the strength of the greatest threat, based on the following categories.  <i>Ill Will</i>: Someone dislikes your liege, but isn't planning to act against her.  <i>Plotting</i>: Someone is actively conspiring against your liege.  <i>Imminent</i>: Someone is in the process of carrying out a plot against your liege.  Creatures that are immune to mind-affecting or thought-detecting effects cannot have their intent detected by <i>perceive betrayal</i>.</p>\n</div>\n",
      "chat": "",
      "unidentified": ""
    },
    "tags": [],
    "activation": {
      "cost": 1,
      "type": "minute"
    },
    "unchainedAction": {
      "activation": {
        "cost": 1,
        "type": "minute"
      }
    },
    "duration": {
      "value": null,
      "units": ""
    },
    "target": {
      "value": "you"
    },
    "range": {
      "value": null,
      "units": "personal",
      "maxIncrements": 1,
      "minValue": null,
      "minUnits": ""
    },
    "uses": {
      "value": 0,
      "max": 0,
      "per": "",
      "autoDeductCharges": true,
      "autoDeductChargesCost": "1"
    },
    "measureTemplate": {
      "type": "",
      "size": "0",
      "overrideColor": false,
      "customColor": "",
      "overrideTexture": false,
      "customTexture": ""
    },
    "attackName": "",
    "actionType": "",
    "attackBonus": "",
    "critConfirmBonus": "",
    "damage": {
      "parts": [],
      "critParts": [],
      "nonCritParts": []
    },
    "attackParts": [],
    "formula": "",
    "ability": {
      "attack": "",
      "damage": "",
      "damageMult": 1,
      "critRange": 20,
      "critMult": 2
    },
    "save": {
      "dc": "0",
      "type": "",
      "description": ""
    },
    "effectNotes": "",
    "attackNotes": "",
    "soundEffect": "",
    "links": {
      "children": []
    },
    "learnedAt": {
      "class": [
        [
          "sorcerer/wizard",
          7
        ],
        [
          "cleric/oracle",
          6
        ],
        [
          "witch",
          6
        ],
        [
          "inquisitor",
          4
        ]
      ],
      "domain": [],
      "subDomain": [],
      "elementalSchool": [],
      "bloodline": []
    },
    "level": 7,
    "clOffset": 0,
    "slOffset": 0,
    "school": "div",
    "subschool": "",
    "types": "",
    "nonlethal": false,
    "conditionals": [],
    "components": {
      "value": "",
      "verbal": true,
      "somatic": true,
      "material": true,
      "focus": true,
      "divineFocus": 0
    },
    "castTime": "",
    "materials": {
      "value": "12 drops of blood",
      "focus": "a silver circlet worth 500 gp",
      "gpValue": 0
    },
    "spellbook": "primary",
    "preparation": {
      "preparedAmount": 0,
      "maxAmount": 0,
      "autoDeductCharges": true,
      "spontaneousPrepared": true,
      "mode": "prepared"
    },
    "atWill": false,
    "sr": false,
    "shortDescription": "<p>By donning a silver circlet anointed with blood, you gain the ability to sense traitorous intent toward a single person to whom you defer, designated when you cast the spell. The spell alerts you when a creature with traitorous intent is within 200 feet, although it doesn't identify the source. By concentrating, you can learn the strength of the greatest threat, based on the following categories.  <i>Ill Will</i>: Someone dislikes your liege, but isn't planning to act against her.  <i>Plotting</i>: Someone is actively conspiring against your liege.  <i>Imminent</i>: Someone is in the process of carrying out a plot against your liege.  Creatures that are immune to mind-affecting or thought-detecting effects cannot have their intent detected by <i>perceive betrayal</i>.</p>",
    "spellDuration": "1 hour/level",
    "spellEffect": "",
    "spellArea": "",
    "showInQuickbar": false,
    "spellPoints": {
      "cost": "1 + @sl"
    },
    "domain": false,
    "slotCost": 1
  },
  "flags": {},
  "img": "systems/pf1/icons/misc/magic-swirl.png",
  "effects": []
}