{
  "_id": "enp0cwf0itsgjxv7",
  "name": "Persistent Image",
  "permission": {
    "default": 0
  },
  "type": "spell",
  "data": {
    "description": {
      "value": "<div class=\"spell-description\">\n  <p>\n    <strong>School</strong>&nbsp;illusion&nbsp;(figment);\n    <strong>Level</strong>&nbsp;bard 5, medium 4, mesmerist 5, occultist 5, psychic 5, sorcerer/wizard 5;\n    \n    \n    \n    <strong>Bloodline</strong>&nbsp;Efreeti 5, Marid 5;\n  </p>\n  <p>\n    <strong>Casting Time</strong>&nbsp;1 standard action<br>\n    <strong>Components</strong>&nbsp;V, S, F (a bit of fleece)<br>\n  </p>\n  <p>\n    <strong>Range</strong>&nbsp;long (400 ft. + 40 ft./level)<br>\n    \n    \n    <strong>Effect</strong>&nbsp;visual figment that cannot extend beyond four 10-ft. cubes + one 10-ft. cube/level (S)<br>\n    <strong>Duration</strong>&nbsp;1 min./level<br>\n    <strong>Saving Throw</strong>&nbsp;Will disbelief (if interacted with);&nbsp;<strong>Spell Resistance</strong>&nbsp;no<br>\n  </p>\n  <h2>Description</h2>\n  <p>This spell functions like <i>silent image,</i> except that the figment includes visual, auditory, olfactory, and thermal components, and the figment follows a script determined by you. The figment follows that script without your having to concentrate on it. The illusion can include intelligible speech if you wish.</p>\n</div>\n",
      "chat": "",
      "unidentified": ""
    },
    "tags": [],
    "activation": {
      "cost": 1,
      "type": "standard"
    },
    "unchainedAction": {
      "activation": {
        "cost": 2,
        "type": "action"
      }
    },
    "duration": {
      "value": null,
      "units": ""
    },
    "target": {
      "value": ""
    },
    "range": {
      "value": null,
      "units": "long",
      "maxIncrements": 1,
      "minValue": null,
      "minUnits": ""
    },
    "uses": {
      "value": 0,
      "max": 0,
      "per": "",
      "autoDeductCharges": true,
      "autoDeductChargesCost": "1"
    },
    "measureTemplate": {
      "type": "",
      "size": "0",
      "overrideColor": false,
      "customColor": "",
      "overrideTexture": false,
      "customTexture": ""
    },
    "attackName": "",
    "actionType": "spellsave",
    "attackBonus": "",
    "critConfirmBonus": "",
    "damage": {
      "parts": [],
      "critParts": [],
      "nonCritParts": []
    },
    "attackParts": [],
    "formula": "",
    "ability": {
      "attack": "",
      "damage": "",
      "damageMult": 1,
      "critRange": 20,
      "critMult": 2
    },
    "save": {
      "dc": "0",
      "type": "will",
      "description": "Will disbelief (if interacted with)"
    },
    "effectNotes": "",
    "attackNotes": "",
    "soundEffect": "",
    "links": {
      "children": []
    },
    "learnedAt": {
      "class": [
        [
          "sorcerer/wizard",
          5
        ],
        [
          "bard",
          5
        ],
        [
          "psychic",
          5
        ],
        [
          "medium",
          4
        ],
        [
          "mesmerist",
          5
        ],
        [
          "occultist",
          5
        ]
      ],
      "domain": [],
      "subDomain": [],
      "elementalSchool": [],
      "bloodline": [
        [
          "Efreeti",
          5
        ],
        [
          "Marid",
          5
        ]
      ]
    },
    "level": 5,
    "clOffset": 0,
    "slOffset": 0,
    "school": "ill",
    "subschool": "figment",
    "types": "",
    "nonlethal": false,
    "conditionals": [],
    "components": {
      "value": "",
      "verbal": true,
      "somatic": true,
      "material": false,
      "focus": true,
      "divineFocus": 0
    },
    "castTime": "",
    "materials": {
      "value": "",
      "focus": "a bit of fleece",
      "gpValue": 0
    },
    "spellbook": "primary",
    "preparation": {
      "preparedAmount": 0,
      "maxAmount": 0,
      "autoDeductCharges": true,
      "spontaneousPrepared": true,
      "mode": "prepared"
    },
    "atWill": false,
    "sr": false,
    "shortDescription": "<p>This spell functions like <i>silent image,</i> except that the figment includes visual, auditory, olfactory, and thermal components, and the figment follows a script determined by you. The figment follows that script without your having to concentrate on it. The illusion can include intelligible speech if you wish.</p>",
    "spellDuration": "1 min./level",
    "spellEffect": "visual figment that cannot extend beyond four 10-ft. cubes + one 10-ft. cube/level (S)",
    "spellArea": "",
    "showInQuickbar": false,
    "spellPoints": {
      "cost": "1 + @sl"
    },
    "domain": false,
    "slotCost": 1
  },
  "flags": {},
  "img": "systems/pf1/icons/misc/magic-swirl.png",
  "effects": []
}