{
  "_id": "7pta0efwxofbk3r1",
  "name": "Planar Inquiry",
  "permission": {
    "default": 0
  },
  "type": "spell",
  "data": {
    "description": {
      "value": "<div class=\"spell-description\">\n  <p>\n    <strong>School</strong>&nbsp;conjuration&nbsp;(calling);\n    <strong>Level</strong>&nbsp;cleric/oracle 3, druid 3, hunter 3, inquisitor 3, shaman 3, sorcerer/wizard 3, summoner 3, unchained Summoner 3, witch 3;\n    \n    \n    \n    \n  </p>\n  <p>\n    <strong>Casting Time</strong>&nbsp;10 minutes<br>\n    <strong>Components</strong>&nbsp;V, S, M (offerings worth 100 gp per HD of creature called)<br>\n  </p>\n  <p>\n    <strong>Range</strong>&nbsp;close (25 ft. + 5 ft./2 levels)<br>\n    \n    \n    <strong>Effect</strong>&nbsp;one called outsider who answers questions<br>\n    <strong>Duration</strong>&nbsp;instantaneous; see text<br>\n    <strong>Saving Throw</strong>&nbsp;none;&nbsp;<strong>Spell Resistance</strong>&nbsp;no<br>\n  </p>\n  <h2>Description</h2>\n  <p>Although he was hardly the first to turn to the Outer Planes for answers, Jatembe's dealings with outsiders in his pursuit of enlightenment are legendary, and the Magaambya credits the Old-Mage with the creation of this spell. This spell calls a creature from another plane to your precise location, functioning like <i>lesser planar ally</i> except as noted. When you call a creature using <i>planar inquiry</i>, the only task that you can ask of the creature is for it to answer questions or gather information regarding a specific topic (a person, a place, or a thing). After hearing your request, if the creature has an appropriate Knowledge skill, it can attempt a check to provide the information it has. If it lacks such a skill, the called creature leaves for 1d4 hours to gather this information. Upon its return, you roll 1d20 + your caster level, and use the result to determine what information the creature has gathered about the subject (as if using Diplomacy). The called creature stays for up to 10 minutes as it relays this information to you, after which it departs to its home plane. If the creature is attacked or damaged at any time during the spell's duration, the spell ends and the creature returns to the plane from which you summoned it. When you cast this spell, you can choose a specific kind of outsider to call, even calling an individual creature by name. The kind of outsider called doesn't alter the effects of the spell, but when you use <i>planar inquiry</i> to summon a creature with an alignment or elemental subtype, the spell gains that descriptor. You cannot call an outsider whose Hit Dice exceed your caster level (maximum 18 HD) and you cannot use this spell to contact a unique outsider (such as a deity's herald) or an outsider with mythic ranks.</p>\n</div>\n",
      "chat": "",
      "unidentified": ""
    },
    "tags": [],
    "activation": {
      "cost": 10,
      "type": "minute"
    },
    "unchainedAction": {
      "activation": {
        "cost": 10,
        "type": "minute"
      }
    },
    "duration": {
      "value": null,
      "units": ""
    },
    "target": {
      "value": ""
    },
    "range": {
      "value": null,
      "units": "close",
      "maxIncrements": 1,
      "minValue": null,
      "minUnits": ""
    },
    "uses": {
      "value": 0,
      "max": 0,
      "per": "",
      "autoDeductCharges": true,
      "autoDeductChargesCost": "1"
    },
    "measureTemplate": {
      "type": "",
      "size": "0",
      "overrideColor": false,
      "customColor": "",
      "overrideTexture": false,
      "customTexture": ""
    },
    "attackName": "",
    "actionType": "other",
    "attackBonus": "",
    "critConfirmBonus": "",
    "damage": {
      "parts": [],
      "critParts": [],
      "nonCritParts": []
    },
    "attackParts": [],
    "formula": "",
    "ability": {
      "attack": "",
      "damage": "",
      "damageMult": 1,
      "critRange": 20,
      "critMult": 2
    },
    "save": {
      "dc": "0",
      "type": "",
      "description": ""
    },
    "effectNotes": "",
    "attackNotes": "",
    "soundEffect": "",
    "links": {
      "children": []
    },
    "learnedAt": {
      "class": [
        [
          "sorcerer/wizard",
          3
        ],
        [
          "cleric/oracle",
          3
        ],
        [
          "druid",
          3
        ],
        [
          "summoner",
          3
        ],
        [
          "witch",
          3
        ],
        [
          "inquisitor",
          3
        ],
        [
          "shaman",
          3
        ],
        [
          "hunter",
          3
        ],
        [
          "unchained Summoner",
          3
        ]
      ],
      "domain": [],
      "subDomain": [],
      "elementalSchool": [],
      "bloodline": []
    },
    "level": 3,
    "clOffset": 0,
    "slOffset": 0,
    "school": "con",
    "subschool": "calling",
    "types": "",
    "nonlethal": false,
    "conditionals": [],
    "components": {
      "value": "",
      "verbal": true,
      "somatic": true,
      "material": true,
      "focus": false,
      "divineFocus": 0
    },
    "castTime": "",
    "materials": {
      "value": "offerings worth 100 gp per HD of creature called",
      "focus": "",
      "gpValue": 0
    },
    "spellbook": "primary",
    "preparation": {
      "preparedAmount": 0,
      "maxAmount": 0,
      "autoDeductCharges": true,
      "spontaneousPrepared": true,
      "mode": "prepared"
    },
    "atWill": false,
    "sr": false,
    "shortDescription": "<p>Although he was hardly the first to turn to the Outer Planes for answers, Jatembe's dealings with outsiders in his pursuit of enlightenment are legendary, and the Magaambya credits the Old-Mage with the creation of this spell. This spell calls a creature from another plane to your precise location, functioning like <i>lesser planar ally</i> except as noted. When you call a creature using <i>planar inquiry</i>, the only task that you can ask of the creature is for it to answer questions or gather information regarding a specific topic (a person, a place, or a thing). After hearing your request, if the creature has an appropriate Knowledge skill, it can attempt a check to provide the information it has. If it lacks such a skill, the called creature leaves for 1d4 hours to gather this information. Upon its return, you roll 1d20 + your caster level, and use the result to determine what information the creature has gathered about the subject (as if using Diplomacy). The called creature stays for up to 10 minutes as it relays this information to you, after which it departs to its home plane. If the creature is attacked or damaged at any time during the spell's duration, the spell ends and the creature returns to the plane from which you summoned it. When you cast this spell, you can choose a specific kind of outsider to call, even calling an individual creature by name. The kind of outsider called doesn't alter the effects of the spell, but when you use <i>planar inquiry</i> to summon a creature with an alignment or elemental subtype, the spell gains that descriptor. You cannot call an outsider whose Hit Dice exceed your caster level (maximum 18 HD) and you cannot use this spell to contact a unique outsider (such as a deity's herald) or an outsider with mythic ranks.</p>",
    "spellDuration": "instantaneous; see text",
    "spellEffect": "one called outsider who answers questions",
    "spellArea": "",
    "showInQuickbar": false,
    "spellPoints": {
      "cost": "1 + @sl"
    },
    "domain": false,
    "slotCost": 1
  },
  "flags": {},
  "img": "systems/pf1/icons/misc/magic-swirl.png",
  "effects": []
}