{
  "_id": "utf4h7pte468n7f6",
  "name": "Planar Refuge",
  "permission": {
    "default": 0
  },
  "type": "spell",
  "data": {
    "description": {
      "value": "<div class=\"spell-description\">\n  <p>\n    <strong>School</strong>&nbsp;conjuration&nbsp;(creation);\n    <strong>Level</strong>&nbsp;cleric/oracle 7, druid 7, shaman 7, sorcerer/wizard 7, summoner 6, unchained Summoner 6, witch 7;\n    \n    \n    \n    \n  </p>\n  <p>\n    <strong>Casting Time</strong>&nbsp;1 hour<br>\n    <strong>Components</strong>&nbsp;V, S, M (precious stones worth 500 gp)<br>\n  </p>\n  <p>\n    <strong>Range</strong>&nbsp;close (25 ft. + 5 ft./2 levels)<br>\n    \n    \n    <strong>Effect</strong>&nbsp;50-ft.-radius area of safe environment<br>\n    <strong>Duration</strong>&nbsp;1 day/level<br>\n      <strong>Saving Throw</strong>&nbsp;none;&nbsp;\n      <strong>Spell Resistance</strong>&nbsp;no<br>\n  </p>\n  <h2>Description</h2>\n  <p>This spell enforces the rules of the Material Plane on other planes of existence. Upon casting this spell on another plane, a spherical pocket of wilderness terrain forms around the designated point. The affected area defies the local climate and planar traits, suppressing any harmful environmental effects such as toxicity, extreme temperatures, or lack of air (though this spell doesn't affect gravity). The area also becomes lush with edible plants whose appearance, taste, and smell bear characteristics distinct to the environment. On a negative-dominant planeGMG, for example, the plants grow ghastly white leaves and taste bitter. Though <i>planar refuge</i> can be cast on any plane of existence other than the Material Plane, it requires a body of solid matter at least as large as its area to function.  <i>Planar refuge</i> can be made permanent with a <i>permanency</i> spell cast by a caster of 11th level or higher at a cost of 7,500 gp.</p>\n</div>\n",
      "chat": "",
      "unidentified": ""
    },
    "tags": [],
    "activation": {
      "cost": 1,
      "type": "hour"
    },
    "unchainedAction": {
      "activation": {
        "cost": 1,
        "type": "hour"
      }
    },
    "duration": {
      "value": null,
      "units": ""
    },
    "target": {
      "value": ""
    },
    "range": {
      "value": null,
      "units": "close",
      "maxIncrements": 1,
      "minValue": null,
      "minUnits": ""
    },
    "uses": {
      "value": 0,
      "max": 0,
      "per": "",
      "autoDeductCharges": true,
      "autoDeductChargesCost": "1"
    },
    "measureTemplate": {
      "type": "",
      "size": "0",
      "overrideColor": false,
      "customColor": "",
      "overrideTexture": false,
      "customTexture": ""
    },
    "attackName": "",
    "actionType": "other",
    "attackBonus": "",
    "critConfirmBonus": "",
    "damage": {
      "parts": [],
      "critParts": [],
      "nonCritParts": []
    },
    "attackParts": [],
    "formula": "",
    "ability": {
      "attack": "",
      "damage": "",
      "damageMult": 1,
      "critRange": 20,
      "critMult": 2
    },
    "save": {
      "dc": "0",
      "type": "",
      "description": ""
    },
    "effectNotes": "",
    "attackNotes": "",
    "soundEffect": "",
    "links": {
      "children": []
    },
    "learnedAt": {
      "class": [
        [
          "sorcerer/wizard",
          7
        ],
        [
          "cleric/oracle",
          7
        ],
        [
          "druid",
          7
        ],
        [
          "summoner",
          6
        ],
        [
          "witch",
          7
        ],
        [
          "shaman",
          7
        ],
        [
          "unchained Summoner",
          6
        ]
      ],
      "domain": [],
      "subDomain": [],
      "elementalSchool": [],
      "bloodline": []
    },
    "level": 7,
    "clOffset": 0,
    "slOffset": 0,
    "school": "con",
    "subschool": "creation",
    "types": "",
    "nonlethal": false,
    "conditionals": [],
    "components": {
      "value": "",
      "verbal": true,
      "somatic": true,
      "material": true,
      "focus": false,
      "divineFocus": 0
    },
    "castTime": "",
    "materials": {
      "value": "precious stones worth 500 gp",
      "focus": "",
      "gpValue": 500
    },
    "spellbook": "",
    "preparation": {
      "preparedAmount": 0,
      "maxAmount": 0,
      "autoDeductCharges": false,
      "spontaneousPrepared": false,
      "mode": "prepared"
    },
    "atWill": false,
    "sr": false,
    "shortDescription": "<p>This spell enforces the rules of the Material Plane on other planes of existence. Upon casting this spell on another plane, a spherical pocket of wilderness terrain forms around the designated point. The affected area defies the local climate and planar traits, suppressing any harmful environmental effects such as toxicity, extreme temperatures, or lack of air (though this spell doesn't affect gravity). The area also becomes lush with edible plants whose appearance, taste, and smell bear characteristics distinct to the environment. On a negative-dominant planeGMG, for example, the plants grow ghastly white leaves and taste bitter. Though <i>planar refuge</i> can be cast on any plane of existence other than the Material Plane, it requires a body of solid matter at least as large as its area to function.  <i>Planar refuge</i> can be made permanent with a <i>permanency</i> spell cast by a caster of 11th level or higher at a cost of 7,500 gp.</p>",
    "spellDuration": "1 day/level",
    "spellEffect": "50-ft.-radius area of safe environment",
    "spellArea": "",
    "showInQuickbar": false,
    "spellPoints": {
      "cost": ""
    },
    "domain": false,
    "slotCost": 1
  },
  "flags": {},
  "img": "systems/pf1/icons/misc/magic-swirl.png",
  "effects": []
}