{
  "_id": "t44p3oeq43jwcgwg",
  "name": "Polymorph, Greater",
  "permission": {
    "default": 0
  },
  "type": "spell",
  "data": {
    "description": {
      "value": "<div class=\"spell-description\">\n  <p>\n    <strong>School</strong>&nbsp;transmutation&nbsp;(polymorph);\n    <strong>Level</strong>&nbsp;sorcerer/wizard 7;\n    \n    \n    \n    <strong>Bloodline</strong>&nbsp;Protean 7, Rakshasa 7;\n  </p>\n  <p>\n    <strong>Casting Time</strong>&nbsp;1 standard action<br>\n    <strong>Components</strong>&nbsp;V, S, M (a piece of the creature whose form you choose)<br>\n  </p>\n  <p>\n    <strong>Range</strong>&nbsp;touch<br>\n    \n    <strong>Targets</strong>&nbsp;living creature touched<br>\n    \n    <strong>Duration</strong>&nbsp;1 min./level<br>\n      <strong>Saving Throw</strong>&nbsp;Will negates (harmless);&nbsp;\n      <strong>Spell Resistance</strong>&nbsp;yes<br>\n  </p>\n  <h2>Description</h2>\n  <p>This spell functions as @Compendium[pf1.spells.d40ia71c2eljm91k]{Polymorph} except that it allows the creature to take on the form of a dragon or plant creature. If you use this spell to cause the target to take on the form of an animal or magical beast, it functions as @Compendium[pf1.spells.br37848gchetel0q]{Beast Shape IV}. If the form is that of an elemental, the spell functions as @Compendium[pf1.spells.hd32fuc6e7j4isbn]{Elemental Body III}<em>.</em> If the form is that of a humanoid, the spell functions as @Compendium[pf1.spells.kouqz0pm1xl8xilm]{Alter Self}. If the form is that of a plant, the spell functions as @Compendium[pf1.spells.ik4riccm7tozdwox]{Plant Shape II}<em>.</em> If the form is that of a dragon, the spell functions as @Compendium[pf1.spells.iqcjiyi9leldfzxt]{Form of the Dragon I}<em>.</em> The subject may choose to resume its normal form as a full-round action; doing so ends the spell.</p>\n</div>\n",
      "chat": "",
      "unidentified": ""
    },
    "tags": [],
    "activation": {
      "cost": 1,
      "type": "standard"
    },
    "unchainedAction": {
      "activation": {
        "cost": 2,
        "type": "action"
      }
    },
    "duration": {
      "value": null,
      "units": ""
    },
    "target": {
      "value": "living creature touched"
    },
    "range": {
      "value": null,
      "units": "touch",
      "maxIncrements": 1,
      "minValue": null,
      "minUnits": ""
    },
    "uses": {
      "value": 0,
      "max": 0,
      "per": "",
      "autoDeductCharges": true,
      "autoDeductChargesCost": "1"
    },
    "measureTemplate": {
      "type": "",
      "size": "0",
      "overrideColor": false,
      "customColor": "",
      "overrideTexture": false,
      "customTexture": ""
    },
    "attackName": "",
    "actionType": "spellsave",
    "attackBonus": "",
    "critConfirmBonus": "",
    "damage": {
      "parts": [],
      "critParts": [],
      "nonCritParts": []
    },
    "attackParts": [],
    "formula": "",
    "ability": {
      "attack": "",
      "damage": "",
      "damageMult": 1,
      "critRange": 20,
      "critMult": 2
    },
    "save": {
      "dc": "0",
      "type": "will",
      "description": "Will negates (harmless)"
    },
    "effectNotes": "",
    "attackNotes": "",
    "soundEffect": "",
    "links": {
      "children": []
    },
    "learnedAt": {
      "class": [
        [
          "sorcerer/wizard",
          7
        ]
      ],
      "domain": [],
      "subDomain": [],
      "elementalSchool": [],
      "bloodline": [
        [
          "Rakshasa",
          7
        ],
        [
          "Protean",
          7
        ]
      ]
    },
    "level": 7,
    "clOffset": 0,
    "slOffset": 0,
    "school": "trs",
    "subschool": "polymorph",
    "types": "",
    "nonlethal": false,
    "conditionals": [],
    "components": {
      "value": "",
      "verbal": true,
      "somatic": true,
      "material": true,
      "focus": false,
      "divineFocus": 0
    },
    "castTime": "",
    "materials": {
      "value": "a piece of the creature whose form you choose",
      "focus": "",
      "gpValue": 0
    },
    "spellbook": "",
    "preparation": {
      "preparedAmount": 0,
      "maxAmount": 0,
      "autoDeductCharges": true,
      "spontaneousPrepared": true,
      "mode": "prepared"
    },
    "atWill": false,
    "sr": true,
    "shortDescription": "<p>This spell functions as @Compendium[pf1.spells.d40ia71c2eljm91k]{Polymorph} except that it allows the creature to take on the form of a dragon or plant creature. If you use this spell to cause the target to take on the form of an animal or magical beast, it functions as @Compendium[pf1.spells.br37848gchetel0q]{Beast Shape IV}. If the form is that of an elemental, the spell functions as @Compendium[pf1.spells.hd32fuc6e7j4isbn]{Elemental Body III}<em>.</em> If the form is that of a humanoid, the spell functions as @Compendium[pf1.spells.kouqz0pm1xl8xilm]{Alter Self}. If the form is that of a plant, the spell functions as @Compendium[pf1.spells.ik4riccm7tozdwox]{Plant Shape II}<em>.</em> If the form is that of a dragon, the spell functions as @Compendium[pf1.spells.iqcjiyi9leldfzxt]{Form of the Dragon I}<em>.</em> The subject may choose to resume its normal form as a full-round action; doing so ends the spell.</p>",
    "spellDuration": "1 min./level",
    "spellEffect": "",
    "spellArea": "",
    "showInQuickbar": false,
    "spellPoints": {
      "cost": "1 + @sl"
    },
    "domain": false,
    "slotCost": 1,
    "identifiedName": "Polymorph, Greater"
  },
  "flags": {},
  "img": "systems/pf1/icons/misc/magic-swirl.png",
  "effects": []
}