{
  "_id": "mb819hvwpk0zmw53",
  "name": "Prismatic Spray",
  "permission": {
    "default": 0
  },
  "type": "spell",
  "data": {
    "description": {
      "value": "<div class=\"spell-description\">\n  <p>\n    <strong>School</strong>&nbsp;evocation;\n    <strong>Level</strong>&nbsp;sorcerer/wizard 7;\n    \n    \n    \n    \n  </p>\n  <p>\n    <strong>Casting Time</strong>&nbsp;1 standard action<br>\n    <strong>Components</strong>&nbsp;V, S<br>\n  </p>\n  <p>\n    <strong>Range</strong>&nbsp;60 feet<br>\n    <strong>Area</strong>&nbsp;cone-shaped burst<br>\n    \n    \n    <strong>Duration</strong>&nbsp;instantaneous<br>\n    <strong>Saving Throw</strong>&nbsp;see text;&nbsp;<strong>Spell Resistance</strong>&nbsp;yes<br>\n  </p>\n  <h2>Description</h2>\n  <p>This spell causes seven shimmering, multicolored beams of light to spray from your hand. Each beam has a different power. Creatures in the area of the spell with 8 HD or less are automatically blinded for 2d4 rounds. Every creature in the area is randomly struck by one or more beams, which have additional effects.</p>  <table border ='1'><tr><th>1d8</th><th>Color of Beam</th></tr><tr><td>1</td><td>Red 20 points fire damage (Reflex half )</td></tr><tr><td>2</td><td>Orange 40 points acid damage (Reflex half )</td></tr><tr><td>3</td><td>Yellow 80 points electricity damage (Reflex half)</td></tr><tr><td>4</td><td>Green Poison (Frequency 1/rd. for 6 rd.; Init. effect death; Sec. effect 1 Con/rd.; Cure 2 consecutive Fort saves)*</td></tr><tr><td>5</td><td>Blue Flesh to stone (Fortitude negates)</td></tr><tr><td>6</td><td>Indigo Insane, as insanity spell (Will negates)</td></tr><tr><td>7</td><td>Violet Sent to another plane (Will negates)</td></tr><tr><td>8</td><td>Struck by Roll twice more, ignoring any \"8\" two rays results</td></tr><tr><td>* See poisons on page 557.</td></tr></table>   </p>\n</div>\n",
      "chat": "",
      "unidentified": ""
    },
    "tags": [],
    "activation": {
      "cost": 1,
      "type": "standard"
    },
    "unchainedAction": {
      "activation": {
        "cost": 2,
        "type": "action"
      }
    },
    "duration": {
      "value": null,
      "units": ""
    },
    "target": {
      "value": ""
    },
    "range": {
      "value": "60",
      "units": "ft",
      "maxIncrements": 1,
      "minValue": null,
      "minUnits": ""
    },
    "uses": {
      "value": 0,
      "max": 0,
      "per": "",
      "autoDeductCharges": true,
      "autoDeductChargesCost": "1"
    },
    "measureTemplate": {
      "type": "cone",
      "size": "60",
      "overrideColor": false,
      "customColor": "",
      "overrideTexture": false,
      "customTexture": ""
    },
    "attackName": "",
    "actionType": "spellsave",
    "attackBonus": "",
    "critConfirmBonus": "",
    "damage": {
      "parts": [],
      "critParts": [],
      "nonCritParts": []
    },
    "attackParts": [],
    "formula": "",
    "ability": {
      "attack": "",
      "damage": "",
      "damageMult": 1,
      "critRange": 20,
      "critMult": 2
    },
    "save": {
      "dc": "0",
      "type": "",
      "description": "see text"
    },
    "effectNotes": "",
    "attackNotes": "",
    "soundEffect": "",
    "links": {
      "children": []
    },
    "learnedAt": {
      "class": [
        [
          "sorcerer/wizard",
          7
        ]
      ],
      "domain": [],
      "subDomain": [],
      "elementalSchool": [],
      "bloodline": []
    },
    "level": 7,
    "clOffset": 0,
    "slOffset": 0,
    "school": "evo",
    "subschool": "",
    "types": "",
    "nonlethal": false,
    "conditionals": [],
    "components": {
      "value": "",
      "verbal": true,
      "somatic": true,
      "material": false,
      "focus": false,
      "divineFocus": 0
    },
    "castTime": "",
    "materials": {
      "value": "",
      "focus": "",
      "gpValue": 0
    },
    "spellbook": "primary",
    "preparation": {
      "preparedAmount": 0,
      "maxAmount": 0,
      "autoDeductCharges": true,
      "spontaneousPrepared": true,
      "mode": "prepared"
    },
    "atWill": false,
    "sr": true,
    "shortDescription": "<p>This spell causes seven shimmering, multicolored beams of light to spray from your hand. Each beam has a different power. Creatures in the area of the spell with 8 HD or less are automatically blinded for 2d4 rounds. Every creature in the area is randomly struck by one or more beams, which have additional effects.</p>  <table border ='1'><tr><th>1d8</th><th>Color of Beam</th></tr><tr><td>1</td><td>Red 20 points fire damage (Reflex half )</td></tr><tr><td>2</td><td>Orange 40 points acid damage (Reflex half )</td></tr><tr><td>3</td><td>Yellow 80 points electricity damage (Reflex half)</td></tr><tr><td>4</td><td>Green Poison (Frequency 1/rd. for 6 rd.; Init. effect death; Sec. effect 1 Con/rd.; Cure 2 consecutive Fort saves)*</td></tr><tr><td>5</td><td>Blue Flesh to stone (Fortitude negates)</td></tr><tr><td>6</td><td>Indigo Insane, as insanity spell (Will negates)</td></tr><tr><td>7</td><td>Violet Sent to another plane (Will negates)</td></tr><tr><td>8</td><td>Struck by Roll twice more, ignoring any \"8\" two rays results</td></tr><tr><td>* See poisons on page 557.</td></tr></table>   </p>",
    "spellDuration": "instantaneous",
    "spellEffect": "",
    "spellArea": "cone-shaped burst",
    "showInQuickbar": false,
    "spellPoints": {
      "cost": "1 + @sl"
    },
    "domain": false,
    "slotCost": 1
  },
  "flags": {},
  "img": "systems/pf1/icons/misc/magic-swirl.png",
  "effects": []
}