{
  "_id": "p3mgpxw7ug23mgr8",
  "name": "Recentering Drone",
  "permission": {
    "default": 0
  },
  "type": "spell",
  "data": {
    "description": {
      "value": "<div class=\"spell-description\">\n  <p>\n    <strong>School</strong>&nbsp;abjuration;\n    <strong>Level</strong>&nbsp;cleric/oracle 2, druid 2, hunter 2;\n    \n    \n    \n    \n  </p>\n  <p>\n    <strong>Casting Time</strong>&nbsp;1 standard action<br>\n    <strong>Components</strong>&nbsp;V, S, DF<br>\n  </p>\n  <p>\n    <strong>Range</strong>&nbsp;close (25 ft. + 5 ft./2 levels)<br>\n    \n    <strong>Targets</strong>&nbsp;one creature/2 levels (no two of which may be more than 30 ft. apart)<br>\n    \n    <strong>Duration</strong>&nbsp;concentration<br>\n    <strong>Saving Throw</strong>&nbsp;Will negates (harmless);&nbsp;<strong>Spell Resistance</strong>&nbsp;yes<br>\n  </p>\n  <h2>Description</h2>\n  <p>You emit a calming subsonic drone that allows the targets to temporarily refocus and restore their balance when they're suffering from debilitating conditions. A target with the dazzled, fatigued, shaken, or sickened condition ignores the penalties of those conditions for the duration of this spell. A target with one of the following conditions is treated as having the associated lesser condition for the duration of the spell, as shown by the following table.</p><p>   <table border ='1'><tr><th>Condition</th><th>Lesser Condition</th></tr><tr><td>Blinded</td><td>Dazzled</td></tr><tr><td>Exhausted</td><td>Fatigued</td></tr><tr><td>Frightened</td><td>Shaken</td></tr><tr><td>Nauseated</td><td>Sickened</td></tr></table>    At the end of the spell's duration, the targets are again subject to the appropriate penalties if the original conditions affecting the target are still in effect.</p>\n</div>\n",
      "chat": "",
      "unidentified": ""
    },
    "tags": [],
    "activation": {
      "cost": 1,
      "type": "standard"
    },
    "unchainedAction": {
      "activation": {
        "cost": 2,
        "type": "action"
      }
    },
    "duration": {
      "value": null,
      "units": ""
    },
    "target": {
      "value": "one creature/2 levels (no two of which may be more than 30 ft. apart)"
    },
    "range": {
      "value": null,
      "units": "close",
      "maxIncrements": 1,
      "minValue": null,
      "minUnits": ""
    },
    "uses": {
      "value": 0,
      "max": 0,
      "per": "",
      "autoDeductCharges": true,
      "autoDeductChargesCost": "1"
    },
    "measureTemplate": {
      "type": "",
      "size": "0",
      "overrideColor": false,
      "customColor": "",
      "overrideTexture": false,
      "customTexture": ""
    },
    "attackName": "",
    "actionType": "spellsave",
    "attackBonus": "",
    "critConfirmBonus": "",
    "damage": {
      "parts": [],
      "critParts": [],
      "nonCritParts": []
    },
    "attackParts": [],
    "formula": "",
    "ability": {
      "attack": "",
      "damage": "",
      "damageMult": 1,
      "critRange": 20,
      "critMult": 2
    },
    "save": {
      "dc": "0",
      "type": "will",
      "description": "Will negates (harmless)"
    },
    "effectNotes": "",
    "attackNotes": "",
    "soundEffect": "",
    "links": {
      "children": []
    },
    "learnedAt": {
      "class": [
        [
          "cleric/oracle",
          2
        ],
        [
          "druid",
          2
        ],
        [
          "hunter",
          2
        ]
      ],
      "domain": [],
      "subDomain": [],
      "elementalSchool": [],
      "bloodline": []
    },
    "level": 2,
    "clOffset": 0,
    "slOffset": 0,
    "school": "abj",
    "subschool": "",
    "types": "",
    "nonlethal": false,
    "conditionals": [],
    "components": {
      "value": "",
      "verbal": true,
      "somatic": true,
      "material": false,
      "focus": false,
      "divineFocus": 1
    },
    "castTime": "",
    "materials": {
      "value": "",
      "focus": "",
      "gpValue": 0
    },
    "spellbook": "primary",
    "preparation": {
      "preparedAmount": 0,
      "maxAmount": 0,
      "autoDeductCharges": true,
      "spontaneousPrepared": true,
      "mode": "prepared"
    },
    "atWill": false,
    "sr": true,
    "shortDescription": "<p>You emit a calming subsonic drone that allows the targets to temporarily refocus and restore their balance when they're suffering from debilitating conditions. A target with the dazzled, fatigued, shaken, or sickened condition ignores the penalties of those conditions for the duration of this spell. A target with one of the following conditions is treated as having the associated lesser condition for the duration of the spell, as shown by the following table.</p><p>   <table border ='1'><tr><th>Condition</th><th>Lesser Condition</th></tr><tr><td>Blinded</td><td>Dazzled</td></tr><tr><td>Exhausted</td><td>Fatigued</td></tr><tr><td>Frightened</td><td>Shaken</td></tr><tr><td>Nauseated</td><td>Sickened</td></tr></table>    At the end of the spell's duration, the targets are again subject to the appropriate penalties if the original conditions affecting the target are still in effect.</p>",
    "spellDuration": "concentration",
    "spellEffect": "",
    "spellArea": "",
    "showInQuickbar": false,
    "spellPoints": {
      "cost": "1 + @sl"
    },
    "domain": false,
    "slotCost": 1
  },
  "flags": {},
  "img": "systems/pf1/icons/misc/magic-swirl.png",
  "effects": []
}