{
  "_id": "1rl77z8qja3ylbi6",
  "name": "Repress Memory",
  "permission": {
    "default": 0
  },
  "type": "spell",
  "data": {
    "description": {
      "value": "<div class=\"spell-description\">\n  <p>\n    <strong>School</strong>&nbsp;enchantment&nbsp;(compulsion)&nbsp;[mind-affecting];\n    <strong>Level</strong>&nbsp;bard 5, mesmerist 5, psychic 6;\n    \n    \n    \n    \n  </p>\n  <p>\n    <strong>Casting Time</strong>&nbsp;1 round<br>\n    <strong>Components</strong>&nbsp;V, S<br>\n  </p>\n  <p>\n    <strong>Range</strong>&nbsp;personal<br>\n    \n    <strong>Targets</strong>&nbsp;you<br>\n    \n    <strong>Duration</strong>&nbsp;instantaneous<br>\n    \n  </p>\n  <h2>Description</h2>\n  <p>This spell allows you to safeguard important knowledge, even from yourself. When casting this spell, you recount one piece of knowledge you possess (up to a maximum of 50 words). This knowledge disappears utterly from your mind, and you might not realize you forgot something. The magic of the spell patches omissions in your memory with indistinct haze  <i>Repress memory</i> protects against <i>detect thoughts</i>, <i>discern lies</i>, <i>zone of truth</i>, and similar spells, though careful questioning may reveal the gaps in your memory, or that your memory has been affected by the spell.  A repressed memory can be restored only by <i>break enchantment</i>, <i>psychic surgery</i>, <i>limited <i>wish</i></i>, <i>miracle</i>, or <i>wish</i>. If you use this spell to negate the memory of a magical compulsion, it doesn't remove the compulsion, nor does it remove procedural memories that might affect your skills or class abilities.  At the GM's discretion, multiple castings of this spell might erase memories of a lengthier event or all memory of a place or individual from your memory.</p>\n</div>\n",
      "chat": "",
      "unidentified": ""
    },
    "tags": [],
    "activation": {
      "cost": 1,
      "type": "round"
    },
    "unchainedAction": {
      "activation": {
        "cost": 3,
        "type": "action"
      }
    },
    "duration": {
      "value": null,
      "units": ""
    },
    "target": {
      "value": "you"
    },
    "range": {
      "value": null,
      "units": "personal",
      "maxIncrements": 1,
      "minValue": null,
      "minUnits": ""
    },
    "uses": {
      "value": 0,
      "max": 0,
      "per": "",
      "autoDeductCharges": true,
      "autoDeductChargesCost": "1"
    },
    "measureTemplate": {
      "type": "",
      "size": "0",
      "overrideColor": false,
      "customColor": "",
      "overrideTexture": false,
      "customTexture": ""
    },
    "attackName": "",
    "actionType": "",
    "attackBonus": "",
    "critConfirmBonus": "",
    "damage": {
      "parts": [],
      "critParts": [],
      "nonCritParts": []
    },
    "attackParts": [],
    "formula": "",
    "ability": {
      "attack": "",
      "damage": "",
      "damageMult": 1,
      "critRange": 20,
      "critMult": 2
    },
    "save": {
      "dc": "0",
      "type": "",
      "description": ""
    },
    "effectNotes": "",
    "attackNotes": "",
    "soundEffect": "",
    "links": {
      "children": []
    },
    "learnedAt": {
      "class": [
        [
          "bard",
          5
        ],
        [
          "psychic",
          6
        ],
        [
          "mesmerist",
          5
        ]
      ],
      "domain": [],
      "subDomain": [],
      "elementalSchool": [],
      "bloodline": []
    },
    "level": 5,
    "clOffset": 0,
    "slOffset": 0,
    "school": "enc",
    "subschool": "compulsion",
    "types": "mind-affecting",
    "nonlethal": false,
    "conditionals": [],
    "components": {
      "value": "",
      "verbal": true,
      "somatic": true,
      "material": false,
      "focus": false,
      "divineFocus": 0
    },
    "castTime": "",
    "materials": {
      "value": "",
      "focus": "",
      "gpValue": 0
    },
    "spellbook": "primary",
    "preparation": {
      "preparedAmount": 0,
      "maxAmount": 0,
      "autoDeductCharges": true,
      "spontaneousPrepared": true,
      "mode": "prepared"
    },
    "atWill": false,
    "sr": false,
    "shortDescription": "<p>This spell allows you to safeguard important knowledge, even from yourself. When casting this spell, you recount one piece of knowledge you possess (up to a maximum of 50 words). This knowledge disappears utterly from your mind, and you might not realize you forgot something. The magic of the spell patches omissions in your memory with indistinct haze  <i>Repress memory</i> protects against <i>detect thoughts</i>, <i>discern lies</i>, <i>zone of truth</i>, and similar spells, though careful questioning may reveal the gaps in your memory, or that your memory has been affected by the spell.  A repressed memory can be restored only by <i>break enchantment</i>, <i>psychic surgery</i>, <i>limited <i>wish</i></i>, <i>miracle</i>, or <i>wish</i>. If you use this spell to negate the memory of a magical compulsion, it doesn't remove the compulsion, nor does it remove procedural memories that might affect your skills or class abilities.  At the GM's discretion, multiple castings of this spell might erase memories of a lengthier event or all memory of a place or individual from your memory.</p>",
    "spellDuration": "instantaneous",
    "spellEffect": "",
    "spellArea": "",
    "showInQuickbar": false,
    "spellPoints": {
      "cost": "1 + @sl"
    },
    "domain": false,
    "slotCost": 1
  },
  "flags": {},
  "img": "systems/pf1/icons/misc/magic-swirl.png",
  "effects": []
}