{
  "_id": "1x9wrynd3mrc1dsr",
  "name": "Righteous Blood",
  "permission": {
    "default": 0
  },
  "type": "spell",
  "data": {
    "description": {
      "value": "<div class=\"spell-description\">\n  <p>\n    <strong>School</strong>&nbsp;abjuration&nbsp;[good];\n    <strong>Level</strong>&nbsp;inquisitor 2, paladin 2;\n    \n    \n    \n    \n  </p>\n  <p>\n    <strong>Casting Time</strong>&nbsp;1 standard action<br>\n    <strong>Components</strong>&nbsp;V, S, DF<br>\n  </p>\n  <p>\n    <strong>Range</strong>&nbsp;touch<br>\n    \n    <strong>Targets</strong>&nbsp;one creature of good alignment<br>\n    \n    <strong>Duration</strong>&nbsp;10 minutes/level (D)<br>\n    <strong>Saving Throw</strong>&nbsp;Will negates (harmless);&nbsp;<strong>Spell Resistance</strong>&nbsp;yes<br>\n  </p>\n  <h2>Description</h2>\n  <p>The target creature's innate goodness infuses its body with holy energy. While this energy does not directly empower the target, it can harm embodiments of evil. Any creature that damages the target with a slashing or piercing melee weapon is sprayed by the target's holy blood. If the attacker is a creature with the evil subtype, it takes 1d6 points of damage from divine power each time it successfully hits the target. If the target has the good subtype or an ability that grants it an aura of good (like paladins or some clerics), its blood instead deals 2d6 points of damage. Creatures that don't have the evil subtype or that are using reach weapons are not subject to this damage.</p>\n</div>\n",
      "chat": "",
      "unidentified": ""
    },
    "tags": [],
    "activation": {
      "cost": 1,
      "type": "standard"
    },
    "unchainedAction": {
      "activation": {
        "cost": 2,
        "type": "action"
      }
    },
    "duration": {
      "value": null,
      "units": ""
    },
    "target": {
      "value": "one creature of good alignment"
    },
    "range": {
      "value": null,
      "units": "touch",
      "maxIncrements": 1,
      "minValue": null,
      "minUnits": ""
    },
    "uses": {
      "value": 0,
      "max": 0,
      "per": "",
      "autoDeductCharges": true,
      "autoDeductChargesCost": "1"
    },
    "measureTemplate": {
      "type": "",
      "size": "0",
      "overrideColor": false,
      "customColor": "",
      "overrideTexture": false,
      "customTexture": ""
    },
    "attackName": "",
    "actionType": "spellsave",
    "attackBonus": "",
    "critConfirmBonus": "",
    "damage": {
      "parts": [],
      "critParts": [],
      "nonCritParts": []
    },
    "attackParts": [],
    "formula": "",
    "ability": {
      "attack": "",
      "damage": "",
      "damageMult": 1,
      "critRange": 20,
      "critMult": 2
    },
    "save": {
      "dc": "0",
      "type": "will",
      "description": "Will negates (harmless)"
    },
    "effectNotes": "",
    "attackNotes": "",
    "soundEffect": "",
    "links": {
      "children": []
    },
    "learnedAt": {
      "class": [
        [
          "paladin",
          2
        ],
        [
          "inquisitor",
          2
        ]
      ],
      "domain": [],
      "subDomain": [],
      "elementalSchool": [],
      "bloodline": []
    },
    "level": 2,
    "clOffset": 0,
    "slOffset": 0,
    "school": "abj",
    "subschool": "",
    "types": "good",
    "nonlethal": false,
    "conditionals": [],
    "components": {
      "value": "",
      "verbal": true,
      "somatic": true,
      "material": false,
      "focus": false,
      "divineFocus": 1
    },
    "castTime": "",
    "materials": {
      "value": "",
      "focus": "",
      "gpValue": 0
    },
    "spellbook": "primary",
    "preparation": {
      "preparedAmount": 0,
      "maxAmount": 0,
      "autoDeductCharges": true,
      "spontaneousPrepared": true,
      "mode": "prepared"
    },
    "atWill": false,
    "sr": true,
    "shortDescription": "<p>The target creature's innate goodness infuses its body with holy energy. While this energy does not directly empower the target, it can harm embodiments of evil. Any creature that damages the target with a slashing or piercing melee weapon is sprayed by the target's holy blood. If the attacker is a creature with the evil subtype, it takes 1d6 points of damage from divine power each time it successfully hits the target. If the target has the good subtype or an ability that grants it an aura of good (like paladins or some clerics), its blood instead deals 2d6 points of damage. Creatures that don't have the evil subtype or that are using reach weapons are not subject to this damage.</p>",
    "spellDuration": "10 minutes/level (D)",
    "spellEffect": "",
    "spellArea": "",
    "showInQuickbar": false,
    "spellPoints": {
      "cost": "1 + @sl"
    },
    "domain": false,
    "slotCost": 1
  },
  "flags": {},
  "img": "systems/pf1/icons/misc/magic-swirl.png",
  "effects": []
}