{
  "_id": "cl8la3rhhfb0imdo",
  "name": "Shadow Invasion",
  "permission": {
    "default": 0
  },
  "type": "spell",
  "data": {
    "description": {
      "value": "<div class=\"spell-description\">\n  <p>\n    <strong>School</strong>&nbsp;conjuration&nbsp;(summoning);\n    <strong>Level</strong>&nbsp;magus 4, sorcerer/wizard 4, summoner 4;\n    \n    \n    \n    \n  </p>\n  <p>\n    <strong>Casting Time</strong>&nbsp;1 standard action<br>\n    <strong>Components</strong>&nbsp;V, S, F (a masterwork piercing or slashing weapon)<br>\n  </p>\n  <p>\n    <strong>Range</strong>&nbsp;30 feet<br>\n    <strong>Area</strong>&nbsp;30-ft. radius emanation centered on you<br>\n    \n    \n    <strong>Duration</strong>&nbsp;1 round/level (D); see text<br>\n    <strong>Saving Throw</strong>&nbsp;none;&nbsp;<strong>Spell Resistance</strong>&nbsp;no<br>\n  </p>\n  <h2>Description</h2>\n  <p>Using a slashing motion with the spell's focus as part of the casting of <i><i>shadow</i> invasion</i>, you cut open a rift to the Plane of Shadow that fills a 30-foot area with <i>shadow</i>y energies. This area is stationary and becomes dark and gloomy, reducing the light level by one step (as darkness). Certain spells are enhanced within the area; spells of the <i>shadow</i> subschool that have reduced effects when disbelieved (such as <i>shadow</i> evocation) have their reduced effects increased by 20% (to a maximum of 90%) when determining their effects on targets within the area of <i><i>shadow</i> invasion</i>.  In addition, the rift created by <i><i>shadow</i> invasion</i> has a chance of attracting attention from the other side, and the spell can be inverted to bring these watchers through. When <i><i>shadow</i> invasion</i> is dismissed as a standard action, there is a chance that a single evangelist kyton (<i>Pathfinder RPG Bestiary</i> 185) will be summoned under the caster's command (as per <i>summon monster</i> V). This chance is 5% for every full round that <i><i>shadow</i> invasion</i> was active. If the caster level of <i><i>shadow</i> invasion</i> is 16th or greater, this effect summons an interlocutorB3 kyton instead. A kyton summoned this way remains for a number of rounds equal to what the remaining duration of <i><i>shadow</i> invasion</i> would have been had it not been dismissed. Successfully summoning a kyton this way is a lawful and evil act, as though casting a spell with the lawful and evil descriptors.</p>\n</div>\n",
      "chat": "",
      "unidentified": ""
    },
    "tags": [],
    "activation": {
      "cost": 1,
      "type": "standard"
    },
    "unchainedAction": {
      "activation": {
        "cost": 2,
        "type": "action"
      }
    },
    "duration": {
      "value": null,
      "units": ""
    },
    "target": {
      "value": ""
    },
    "range": {
      "value": 30,
      "units": "ft",
      "maxIncrements": 1,
      "minValue": null,
      "minUnits": ""
    },
    "uses": {
      "value": 0,
      "max": 0,
      "per": "",
      "autoDeductCharges": true,
      "autoDeductChargesCost": "1"
    },
    "measureTemplate": {
      "type": "",
      "size": "0",
      "overrideColor": false,
      "customColor": "",
      "overrideTexture": false,
      "customTexture": ""
    },
    "attackName": "",
    "actionType": "",
    "attackBonus": "",
    "critConfirmBonus": "",
    "damage": {
      "parts": [],
      "critParts": [],
      "nonCritParts": []
    },
    "attackParts": [],
    "formula": "",
    "ability": {
      "attack": "",
      "damage": "",
      "damageMult": 1,
      "critRange": 20,
      "critMult": 2
    },
    "save": {
      "dc": "0",
      "type": "",
      "description": ""
    },
    "effectNotes": "",
    "attackNotes": "",
    "soundEffect": "",
    "links": {
      "children": []
    },
    "learnedAt": {
      "class": [
        [
          "sorcerer/wizard",
          4
        ],
        [
          "summoner",
          4
        ],
        [
          "magus",
          4
        ]
      ],
      "domain": [],
      "subDomain": [],
      "elementalSchool": [],
      "bloodline": []
    },
    "level": 4,
    "clOffset": 0,
    "slOffset": 0,
    "school": "con",
    "subschool": "summoning",
    "types": "",
    "nonlethal": false,
    "conditionals": [],
    "components": {
      "value": "",
      "verbal": true,
      "somatic": true,
      "material": false,
      "focus": true,
      "divineFocus": 0
    },
    "castTime": "",
    "materials": {
      "value": "",
      "focus": "a masterwork piercing or slashing weapon",
      "gpValue": 0
    },
    "spellbook": "primary",
    "preparation": {
      "preparedAmount": 0,
      "maxAmount": 0,
      "autoDeductCharges": true,
      "spontaneousPrepared": true,
      "mode": "prepared"
    },
    "atWill": false,
    "sr": false,
    "shortDescription": "<p>Using a slashing motion with the spell's focus as part of the casting of <i><i>shadow</i> invasion</i>, you cut open a rift to the Plane of Shadow that fills a 30-foot area with <i>shadow</i>y energies. This area is stationary and becomes dark and gloomy, reducing the light level by one step (as darkness). Certain spells are enhanced within the area; spells of the <i>shadow</i> subschool that have reduced effects when disbelieved (such as <i>shadow</i> evocation) have their reduced effects increased by 20% (to a maximum of 90%) when determining their effects on targets within the area of <i><i>shadow</i> invasion</i>.  In addition, the rift created by <i><i>shadow</i> invasion</i> has a chance of attracting attention from the other side, and the spell can be inverted to bring these watchers through. When <i><i>shadow</i> invasion</i> is dismissed as a standard action, there is a chance that a single evangelist kyton (<i>Pathfinder RPG Bestiary</i> 185) will be summoned under the caster's command (as per <i>summon monster</i> V). This chance is 5% for every full round that <i><i>shadow</i> invasion</i> was active. If the caster level of <i><i>shadow</i> invasion</i> is 16th or greater, this effect summons an interlocutorB3 kyton instead. A kyton summoned this way remains for a number of rounds equal to what the remaining duration of <i><i>shadow</i> invasion</i> would have been had it not been dismissed. Successfully summoning a kyton this way is a lawful and evil act, as though casting a spell with the lawful and evil descriptors.</p>",
    "spellDuration": "1 round/level (D); see text",
    "spellEffect": "",
    "spellArea": "30-ft. radius emanation centered on you",
    "showInQuickbar": false,
    "spellPoints": {
      "cost": "1 + @sl"
    },
    "domain": false,
    "slotCost": 1
  },
  "flags": {},
  "img": "systems/pf1/icons/misc/magic-swirl.png",
  "effects": []
}