{
  "_id": "jojn72j6k6hs8vvp",
  "name": "Shard of Chaos",
  "permission": {
    "default": 0
  },
  "type": "spell",
  "data": {
    "description": {
      "value": "<div class=\"spell-description\">\n  <p>\n    <strong>School</strong>&nbsp;evocation&nbsp;[chaos];\n    <strong>Level</strong>&nbsp;cleric/oracle 2;\n    \n    \n    \n    \n  </p>\n  <p>\n    <strong>Casting Time</strong>&nbsp;1 standard action<br>\n    <strong>Components</strong>&nbsp;V, S, DF<br>\n  </p>\n  <p>\n    <strong>Range</strong>&nbsp;close (25 ft. + 5 ft./2 levels)<br>\n    \n    \n    <strong>Effect</strong>&nbsp;dart-shaped projectile of chaotic energy<br>\n    <strong>Duration</strong>&nbsp;instantaneous (1d6 rounds)<br>\n    <strong>Saving Throw</strong>&nbsp;Will partial (see text);&nbsp;<strong>Spell Resistance</strong>&nbsp;yes<br>\n  </p>\n  <h2>Description</h2>\n  <p>You hurl a multicolored shard of congealed chaos from your holy symbol, affecting any one target in range as a ranged touch attack.</p><p>A lawful creature struck by the shard takes 1d8 points of damage per two caster levels (maximum 5d8). A lawful outsider instead takes 1d6 points of damage per caster level (maximum 10d6) and is slowed (as slow) for 1 round. A successful Will save reduces the damage to half and negates the slow effect. The bolt has no effect on chaotic creatures. This spell deals only half damage to creatures that are neither lawful nor chaotic, and they are not slowed.</p>\n</div>\n",
      "chat": "",
      "unidentified": ""
    },
    "tags": [],
    "activation": {
      "cost": 1,
      "type": "standard"
    },
    "unchainedAction": {
      "activation": {
        "cost": 2,
        "type": "action"
      }
    },
    "duration": {
      "value": null,
      "units": ""
    },
    "target": {
      "value": ""
    },
    "range": {
      "value": null,
      "units": "close",
      "maxIncrements": 1,
      "minValue": null,
      "minUnits": ""
    },
    "uses": {
      "value": 0,
      "max": 0,
      "per": "",
      "autoDeductCharges": true,
      "autoDeductChargesCost": "1"
    },
    "measureTemplate": {
      "type": "",
      "size": "0",
      "overrideColor": false,
      "customColor": "",
      "overrideTexture": false,
      "customTexture": ""
    },
    "attackName": "",
    "actionType": "spellsave",
    "attackBonus": "",
    "critConfirmBonus": "",
    "damage": {
      "parts": [],
      "critParts": [],
      "nonCritParts": []
    },
    "attackParts": [],
    "formula": "",
    "ability": {
      "attack": "",
      "damage": "",
      "damageMult": 1,
      "critRange": 20,
      "critMult": 2
    },
    "save": {
      "dc": "0",
      "type": "will",
      "description": "Will partial (see text)"
    },
    "effectNotes": "",
    "attackNotes": "",
    "soundEffect": "",
    "links": {
      "children": []
    },
    "learnedAt": {
      "class": [
        [
          "cleric/oracle",
          2
        ]
      ],
      "domain": [],
      "subDomain": [],
      "elementalSchool": [],
      "bloodline": []
    },
    "level": 2,
    "clOffset": 0,
    "slOffset": 0,
    "school": "evo",
    "subschool": "",
    "types": "chaos",
    "nonlethal": false,
    "conditionals": [],
    "components": {
      "value": "",
      "verbal": true,
      "somatic": true,
      "material": false,
      "focus": false,
      "divineFocus": 1
    },
    "castTime": "",
    "materials": {
      "value": "",
      "focus": "",
      "gpValue": 0
    },
    "spellbook": "primary",
    "preparation": {
      "preparedAmount": 0,
      "maxAmount": 0,
      "autoDeductCharges": true,
      "spontaneousPrepared": true,
      "mode": "prepared"
    },
    "atWill": false,
    "sr": true,
    "shortDescription": "<p>You hurl a multicolored shard of congealed chaos from your holy symbol, affecting any one target in range as a ranged touch attack.</p><p>A lawful creature struck by the shard takes 1d8 points of damage per two caster levels (maximum 5d8). A lawful outsider instead takes 1d6 points of damage per caster level (maximum 10d6) and is slowed (as slow) for 1 round. A successful Will save reduces the damage to half and negates the slow effect. The bolt has no effect on chaotic creatures. This spell deals only half damage to creatures that are neither lawful nor chaotic, and they are not slowed.</p>",
    "spellDuration": "instantaneous (1d6 rounds)",
    "spellEffect": "dart-shaped projectile of chaotic energy",
    "spellArea": "",
    "showInQuickbar": false,
    "spellPoints": {
      "cost": "1 + @sl"
    },
    "domain": false,
    "slotCost": 1
  },
  "flags": {},
  "img": "systems/pf1/icons/misc/magic-swirl.png",
  "effects": []
}