{
  "_id": "4llo1o1rrtyzp1xw",
  "name": "Shifted Steps",
  "permission": {
    "default": 0
  },
  "type": "spell",
  "data": {
    "description": {
      "value": "<div class=\"spell-description\">\n  <p>\n    <strong>School</strong>&nbsp;illusion&nbsp;(glamer)&nbsp;[sonic];\n    <strong>Level</strong>&nbsp;alchemist 2, antipaladin 2, bard 2, inquisitor 2, magus 2, medium 2, mesmerist 2, occultist 2, psychic 2, sorcerer/wizard 2, spiritualist 2;\n    \n    \n    \n    \n  </p>\n  <p>\n    <strong>Casting Time</strong>&nbsp;1 standard action<br>\n    <strong>Components</strong>&nbsp;V, S<br>\n  </p>\n  <p>\n    <strong>Range</strong>&nbsp;close (25 ft. + 5 ft./2 levels)<br>\n    \n    <strong>Targets</strong>&nbsp;one creature or object up to 10 feet across<br>\n    \n    <strong>Duration</strong>&nbsp;concentration + 1 round/level (D)<br>\n    <strong>Saving Throw</strong>&nbsp;Will negates (harmless) and Will disbelief (if interacted with); see text;&nbsp;<strong>Spell Resistance</strong>&nbsp;no<br>\n  </p>\n  <h2>Description</h2>\n  <p>You cause the target to sound as if it is elsewhere within range, including its movements, speech, and all other sounds. As long as you concentrate, you can cause the sound's apparent location to change as you see fit within range from your current location. Once you cease concentrating, the sound moves so that it remains the same relative distance and direction from the target. This spell can fool any sound-based blindsense or blindsight (including echolocation), but it can't fool other forms of detection such as other forms of blindsense or blindsight, lifesense, normal vision, and tremorsense. The target receives a saving throw against the effect if it doesn't wish for you to shift its sound, and any creature that interacts with the illusion receives a Will save to disbelieve the glamer.</p>\n</div>\n",
      "chat": "",
      "unidentified": ""
    },
    "tags": [],
    "activation": {
      "cost": 1,
      "type": "standard"
    },
    "unchainedAction": {
      "activation": {
        "cost": 2,
        "type": "action"
      }
    },
    "duration": {
      "value": null,
      "units": ""
    },
    "target": {
      "value": "one creature or object up to 10 feet across"
    },
    "range": {
      "value": null,
      "units": "close",
      "maxIncrements": 1,
      "minValue": null,
      "minUnits": ""
    },
    "uses": {
      "value": 0,
      "max": 0,
      "per": "",
      "autoDeductCharges": true,
      "autoDeductChargesCost": "1"
    },
    "measureTemplate": {
      "type": "",
      "size": "0",
      "overrideColor": false,
      "customColor": "",
      "overrideTexture": false,
      "customTexture": ""
    },
    "attackName": "",
    "actionType": "spellsave",
    "attackBonus": "",
    "critConfirmBonus": "",
    "damage": {
      "parts": [],
      "critParts": [],
      "nonCritParts": []
    },
    "attackParts": [],
    "formula": "",
    "ability": {
      "attack": "",
      "damage": "",
      "damageMult": 1,
      "critRange": 20,
      "critMult": 2
    },
    "save": {
      "dc": "0",
      "type": "will",
      "description": "Will negates (harmless) and Will disbelief (if interacted with); see text"
    },
    "effectNotes": "",
    "attackNotes": "",
    "soundEffect": "",
    "links": {
      "children": []
    },
    "learnedAt": {
      "class": [
        [
          "sorcerer/wizard",
          2
        ],
        [
          "bard",
          2
        ],
        [
          "alchemist",
          2
        ],
        [
          "inquisitor",
          2
        ],
        [
          "antipaladin",
          2
        ],
        [
          "magus",
          2
        ],
        [
          "psychic",
          2
        ],
        [
          "medium",
          2
        ],
        [
          "mesmerist",
          2
        ],
        [
          "occultist",
          2
        ],
        [
          "spiritualist",
          2
        ]
      ],
      "domain": [],
      "subDomain": [],
      "elementalSchool": [],
      "bloodline": []
    },
    "level": 2,
    "clOffset": 0,
    "slOffset": 0,
    "school": "ill",
    "subschool": "glamer",
    "types": "sonic",
    "nonlethal": false,
    "conditionals": [],
    "components": {
      "value": "",
      "verbal": true,
      "somatic": true,
      "material": false,
      "focus": false,
      "divineFocus": 0
    },
    "castTime": "",
    "materials": {
      "value": "",
      "focus": "",
      "gpValue": 0
    },
    "spellbook": "primary",
    "preparation": {
      "preparedAmount": 0,
      "maxAmount": 0,
      "autoDeductCharges": true,
      "spontaneousPrepared": true,
      "mode": "prepared"
    },
    "atWill": false,
    "sr": false,
    "shortDescription": "<p>You cause the target to sound as if it is elsewhere within range, including its movements, speech, and all other sounds. As long as you concentrate, you can cause the sound's apparent location to change as you see fit within range from your current location. Once you cease concentrating, the sound moves so that it remains the same relative distance and direction from the target. This spell can fool any sound-based blindsense or blindsight (including echolocation), but it can't fool other forms of detection such as other forms of blindsense or blindsight, lifesense, normal vision, and tremorsense. The target receives a saving throw against the effect if it doesn't wish for you to shift its sound, and any creature that interacts with the illusion receives a Will save to disbelieve the glamer.</p>",
    "spellDuration": "concentration + 1 round/level (D)",
    "spellEffect": "",
    "spellArea": "",
    "showInQuickbar": false,
    "spellPoints": {
      "cost": "1 + @sl"
    },
    "domain": false,
    "slotCost": 1
  },
  "flags": {},
  "img": "systems/pf1/icons/misc/magic-swirl.png",
  "effects": []
}