{
  "_id": "ztg59cklsxxtuodl",
  "name": "Shroud of Innocuity",
  "permission": {
    "default": 0
  },
  "type": "spell",
  "data": {
    "description": {
      "value": "<div class=\"spell-description\">\n  <p>\n    <strong>School</strong>&nbsp;illusion&nbsp;(glamer);\n    <strong>Level</strong>&nbsp;bard 3, medium 3, mesmerist 3, psychic 3, shaman 3, sorcerer/wizard 3, witch 3;\n    \n    \n    \n    \n  </p>\n  <p>\n    <strong>Casting Time</strong>&nbsp;1 minute<br>\n    <strong>Components</strong>&nbsp;V, S<br>\n  </p>\n  <p>\n    <strong>Range</strong>&nbsp;close (25 ft. + 5 ft./2 levels)<br>\n    \n    <strong>Targets</strong>&nbsp;one willing creature plus one/2 caster levels, no two of which can be more than 30 ft. apart<br>\n    \n    <strong>Duration</strong>&nbsp;1 hour/level (D)<br>\n    <strong>Saving Throw</strong>&nbsp;none (harmless); see text;&nbsp;<strong>Spell Resistance</strong>&nbsp;no<br>\n  </p>\n  <h2>Description</h2>\n  <p>All affected creatures are veiled with a commonplace appearance. This appearance varies based on the viewer, but is always an ordinary member of that viewer's race, ethnicity, or nationality. This familiarity grants a +2 bonus on Diplomacy checks attempted by affected targets against those not affected by the spell.  Creatures with an attitude of unfriendly or hostile toward an affected target can attempt a Will save to disbelieve the effect the first time they encounter that target.</p>\n</div>\n",
      "chat": "",
      "unidentified": ""
    },
    "tags": [],
    "activation": {
      "cost": 1,
      "type": "minute"
    },
    "unchainedAction": {
      "activation": {
        "cost": 1,
        "type": "minute"
      }
    },
    "duration": {
      "value": null,
      "units": ""
    },
    "target": {
      "value": "one willing creature plus one/2 caster levels, no two of which can be more than 30 ft. apart"
    },
    "range": {
      "value": null,
      "units": "close",
      "maxIncrements": 1,
      "minValue": null,
      "minUnits": ""
    },
    "uses": {
      "value": 0,
      "max": 0,
      "per": "",
      "autoDeductCharges": true,
      "autoDeductChargesCost": "1"
    },
    "measureTemplate": {
      "type": "",
      "size": "0",
      "overrideColor": false,
      "customColor": "",
      "overrideTexture": false,
      "customTexture": ""
    },
    "attackName": "",
    "actionType": "spellsave",
    "attackBonus": "",
    "critConfirmBonus": "",
    "damage": {
      "parts": [],
      "critParts": [],
      "nonCritParts": []
    },
    "attackParts": [],
    "formula": "",
    "ability": {
      "attack": "",
      "damage": "",
      "damageMult": 1,
      "critRange": 20,
      "critMult": 2
    },
    "save": {
      "dc": "0",
      "type": "",
      "description": "none (harmless); see text"
    },
    "effectNotes": "",
    "attackNotes": "",
    "soundEffect": "",
    "links": {
      "children": []
    },
    "learnedAt": {
      "class": [
        [
          "sorcerer/wizard",
          3
        ],
        [
          "bard",
          3
        ],
        [
          "witch",
          3
        ],
        [
          "shaman",
          3
        ],
        [
          "psychic",
          3
        ],
        [
          "medium",
          3
        ],
        [
          "mesmerist",
          3
        ]
      ],
      "domain": [],
      "subDomain": [],
      "elementalSchool": [],
      "bloodline": []
    },
    "level": 3,
    "clOffset": 0,
    "slOffset": 0,
    "school": "ill",
    "subschool": "glamer",
    "types": "",
    "nonlethal": false,
    "conditionals": [],
    "components": {
      "value": "",
      "verbal": true,
      "somatic": true,
      "material": false,
      "focus": false,
      "divineFocus": 0
    },
    "castTime": "",
    "materials": {
      "value": "",
      "focus": "",
      "gpValue": 0
    },
    "spellbook": "primary",
    "preparation": {
      "preparedAmount": 0,
      "maxAmount": 0,
      "autoDeductCharges": true,
      "spontaneousPrepared": true,
      "mode": "prepared"
    },
    "atWill": false,
    "sr": false,
    "shortDescription": "<p>All affected creatures are veiled with a commonplace appearance. This appearance varies based on the viewer, but is always an ordinary member of that viewer's race, ethnicity, or nationality. This familiarity grants a +2 bonus on Diplomacy checks attempted by affected targets against those not affected by the spell.  Creatures with an attitude of unfriendly or hostile toward an affected target can attempt a Will save to disbelieve the effect the first time they encounter that target.</p>",
    "spellDuration": "1 hour/level (D)",
    "spellEffect": "",
    "spellArea": "",
    "showInQuickbar": false,
    "spellPoints": {
      "cost": "1 + @sl"
    },
    "domain": false,
    "slotCost": 1
  },
  "flags": {},
  "img": "systems/pf1/icons/misc/magic-swirl.png",
  "effects": []
}