{
  "_id": "d7pa11ex8f58n8xb",
  "name": "Soulswitch",
  "permission": {
    "default": 0
  },
  "type": "spell",
  "data": {
    "description": {
      "value": "<div class=\"spell-description\">\n  <p>\n    <strong>School</strong>&nbsp;necromancy;\n    <strong>Level</strong>&nbsp;bard 5, cleric/oracle 5, druid 5, hunter 5, inquisitor 5, magus 5, shaman 5, sorcerer/wizard 5, witch 5;\n    \n    \n    \n    \n  </p>\n  <p>\n    <strong>Casting Time</strong>&nbsp;1 standard action<br>\n    <strong>Components</strong>&nbsp;V, S, F (two brass collars worth 50 gp each)<br>\n  </p>\n  <p>\n    <strong>Range</strong>&nbsp;touch<br>\n    \n    <strong>Targets</strong>&nbsp;you and your familiar<br>\n    \n    <strong>Duration</strong>&nbsp;10 minutes/level<br>\n    <strong>Saving Throw</strong>&nbsp;Will negates (harmless);&nbsp;<strong>Spell Resistance</strong>&nbsp;yes<br>\n  </p>\n  <h2>Description</h2>\n  <p>You may only cast this spell if you currently have a familiar. You place your soul into the body of your familiar, and your familiar's soul is placed in your body. This functions as if you possessed your familiar using <i>magic jar</i>; your familiar simultaneously possesses your body in the same manner. You can't freely transfer your soul between your body and your familiar's-if you choose to return to your body as a standard action, the spell ends. If either body is killed, both spirits return to their original bodies, the spell ends, and the original owner of the slain body dies.</p>\n</div>\n",
      "chat": "",
      "unidentified": ""
    },
    "tags": [],
    "activation": {
      "cost": 1,
      "type": "standard"
    },
    "unchainedAction": {
      "activation": {
        "cost": 2,
        "type": "action"
      }
    },
    "duration": {
      "value": null,
      "units": ""
    },
    "target": {
      "value": "you and your familiar"
    },
    "range": {
      "value": null,
      "units": "touch",
      "maxIncrements": 1,
      "minValue": null,
      "minUnits": ""
    },
    "uses": {
      "value": 0,
      "max": 0,
      "per": "",
      "autoDeductCharges": true,
      "autoDeductChargesCost": "1"
    },
    "measureTemplate": {
      "type": "",
      "size": "0",
      "overrideColor": false,
      "customColor": "",
      "overrideTexture": false,
      "customTexture": ""
    },
    "attackName": "",
    "actionType": "spellsave",
    "attackBonus": "",
    "critConfirmBonus": "",
    "damage": {
      "parts": [],
      "critParts": [],
      "nonCritParts": []
    },
    "attackParts": [],
    "formula": "",
    "ability": {
      "attack": "",
      "damage": "",
      "damageMult": 1,
      "critRange": 20,
      "critMult": 2
    },
    "save": {
      "dc": "0",
      "type": "will",
      "description": "Will negates (harmless)"
    },
    "effectNotes": "",
    "attackNotes": "",
    "soundEffect": "",
    "links": {
      "children": []
    },
    "learnedAt": {
      "class": [
        [
          "sorcerer/wizard",
          5
        ],
        [
          "cleric/oracle",
          5
        ],
        [
          "druid",
          5
        ],
        [
          "bard",
          5
        ],
        [
          "witch",
          5
        ],
        [
          "inquisitor",
          5
        ],
        [
          "magus",
          5
        ],
        [
          "shaman",
          5
        ],
        [
          "hunter",
          5
        ]
      ],
      "domain": [],
      "subDomain": [],
      "elementalSchool": [],
      "bloodline": []
    },
    "level": 5,
    "clOffset": 0,
    "slOffset": 0,
    "school": "nec",
    "subschool": "",
    "types": "",
    "nonlethal": false,
    "conditionals": [],
    "components": {
      "value": "",
      "verbal": true,
      "somatic": true,
      "material": false,
      "focus": true,
      "divineFocus": 0
    },
    "castTime": "",
    "materials": {
      "value": "",
      "focus": "two brass collars worth 50 gp each",
      "gpValue": 0
    },
    "spellbook": "primary",
    "preparation": {
      "preparedAmount": 0,
      "maxAmount": 0,
      "autoDeductCharges": true,
      "spontaneousPrepared": true,
      "mode": "prepared"
    },
    "atWill": false,
    "sr": true,
    "shortDescription": "<p>You may only cast this spell if you currently have a familiar. You place your soul into the body of your familiar, and your familiar's soul is placed in your body. This functions as if you possessed your familiar using <i>magic jar</i>; your familiar simultaneously possesses your body in the same manner. You can't freely transfer your soul between your body and your familiar's-if you choose to return to your body as a standard action, the spell ends. If either body is killed, both spirits return to their original bodies, the spell ends, and the original owner of the slain body dies.</p>",
    "spellDuration": "10 minutes/level",
    "spellEffect": "",
    "spellArea": "",
    "showInQuickbar": false,
    "spellPoints": {
      "cost": "1 + @sl"
    },
    "domain": false,
    "slotCost": 1
  },
  "flags": {},
  "img": "systems/pf1/icons/misc/magic-swirl.png",
  "effects": []
}