{
  "_id": "tkvnbxbmbqe49bg0",
  "name": "Sow Thought",
  "permission": {
    "default": 0
  },
  "type": "spell",
  "data": {
    "description": {
      "value": "<div class=\"spell-description\">\n  <p>\n    <strong>School</strong>&nbsp;enchantment&nbsp;(compulsion)&nbsp;[mind-affecting];\n    <strong>Level</strong>&nbsp;bard 1, mesmerist 1, psychic 1, sorcerer/wizard 1, witch 1;\n    \n    <strong>Subdomain</strong>&nbsp;Innuendo 1;\n    \n    \n  </p>\n  <p>\n    <strong>Casting Time</strong>&nbsp;1 standard action<br>\n    <strong>Components</strong>&nbsp;V, S<br>\n  </p>\n  <p>\n    <strong>Range</strong>&nbsp;close (25 ft. + 5 ft./2 levels)<br>\n    \n    <strong>Targets</strong>&nbsp;one creature<br>\n    \n    <strong>Duration</strong>&nbsp;permanent<br>\n    <strong>Saving Throw</strong>&nbsp;Will negates;&nbsp;<strong>Spell Resistance</strong>&nbsp;yes<br>\n  </p>\n  <h2>Description</h2>\n  <p>You plant an idea, concept, or suspicion in the mind of the subject. The target genuinely believes that the idea is his own, but is not required to act upon it. If the idea is contrary to the target's normal thoughts (such as making a paladin think, \"I should murder my friends\") the target may suspect mind-altering magic is at play. The idea must be fairly clear, enough so that it can be conveyed in one or two sentences. You do not need to share a common language for the spell to succeed, but without a common language you can only sow the most basic rudimentary ideas.</p>\n</div>\n",
      "chat": "",
      "unidentified": ""
    },
    "tags": [],
    "activation": {
      "cost": 1,
      "type": "standard"
    },
    "unchainedAction": {
      "activation": {
        "cost": 2,
        "type": "action"
      }
    },
    "duration": {
      "value": null,
      "units": ""
    },
    "target": {
      "value": "one creature"
    },
    "range": {
      "value": null,
      "units": "close",
      "maxIncrements": 1,
      "minValue": null,
      "minUnits": ""
    },
    "uses": {
      "value": 0,
      "max": 0,
      "per": "",
      "autoDeductCharges": true,
      "autoDeductChargesCost": "1"
    },
    "measureTemplate": {
      "type": "",
      "size": "0",
      "overrideColor": false,
      "customColor": "",
      "overrideTexture": false,
      "customTexture": ""
    },
    "attackName": "",
    "actionType": "spellsave",
    "attackBonus": "",
    "critConfirmBonus": "",
    "damage": {
      "parts": [],
      "critParts": [],
      "nonCritParts": []
    },
    "attackParts": [],
    "formula": "",
    "ability": {
      "attack": "",
      "damage": "",
      "damageMult": 1,
      "critRange": 20,
      "critMult": 2
    },
    "save": {
      "dc": "0",
      "type": "will",
      "description": "Will negates"
    },
    "effectNotes": "",
    "attackNotes": "",
    "soundEffect": "",
    "links": {
      "children": []
    },
    "learnedAt": {
      "class": [
        [
          "sorcerer/wizard",
          1
        ],
        [
          "bard",
          1
        ],
        [
          "witch",
          1
        ],
        [
          "psychic",
          1
        ],
        [
          "mesmerist",
          1
        ]
      ],
      "domain": [],
      "subDomain": [
        [
          "Innuendo",
          1
        ]
      ],
      "elementalSchool": [],
      "bloodline": []
    },
    "level": 1,
    "clOffset": 0,
    "slOffset": 0,
    "school": "enc",
    "subschool": "compulsion",
    "types": "mind-affecting",
    "nonlethal": false,
    "conditionals": [],
    "components": {
      "value": "",
      "verbal": true,
      "somatic": true,
      "material": false,
      "focus": false,
      "divineFocus": 0
    },
    "castTime": "",
    "materials": {
      "value": "",
      "focus": "",
      "gpValue": 0
    },
    "spellbook": "primary",
    "preparation": {
      "preparedAmount": 0,
      "maxAmount": 0,
      "autoDeductCharges": true,
      "spontaneousPrepared": true,
      "mode": "prepared"
    },
    "atWill": false,
    "sr": true,
    "shortDescription": "<p>You plant an idea, concept, or suspicion in the mind of the subject. The target genuinely believes that the idea is his own, but is not required to act upon it. If the idea is contrary to the target's normal thoughts (such as making a paladin think, \"I should murder my friends\") the target may suspect mind-altering magic is at play. The idea must be fairly clear, enough so that it can be conveyed in one or two sentences. You do not need to share a common language for the spell to succeed, but without a common language you can only sow the most basic rudimentary ideas.</p>",
    "spellDuration": "permanent",
    "spellEffect": "",
    "spellArea": "",
    "showInQuickbar": false,
    "spellPoints": {
      "cost": "1 + @sl"
    },
    "domain": false,
    "slotCost": 1
  },
  "flags": {},
  "img": "systems/pf1/icons/misc/magic-swirl.png",
  "effects": []
}