{
  "_id": "6d4s6bh9ndvwnlvn",
  "name": "Spellcrash, Lesser",
  "permission": {
    "default": 0
  },
  "type": "spell",
  "data": {
    "description": {
      "value": "<div class=\"spell-description\">\n  <p>\n    <strong>School</strong>&nbsp;abjuration;\n    <strong>Level</strong>&nbsp;cleric/oracle 4, psychic 4, sorcerer/wizard 4, witch 4;\n    \n    \n    \n    \n  </p>\n  <p>\n    <strong>Casting Time</strong>&nbsp;1 standard action<br>\n    <strong>Components</strong>&nbsp;V, S<br>\n  </p>\n  <p>\n    <strong>Range</strong>&nbsp;medium (100 ft. + 10 ft./level)<br>\n    \n    <strong>Targets</strong>&nbsp;one creature<br>\n    \n    <strong>Duration</strong>&nbsp;1 round/level<br>\n    <strong>Saving Throw</strong>&nbsp;Will negates; see text;&nbsp;<strong>Spell Resistance</strong>&nbsp;yes<br>\n  </p>\n  <h2>Description</h2>\n  <p>You create a discordant blast of energy that disrupts the target's available magic each round at the start of its turn.  If the target prepares spells, it must choose one of its prepared 3rd-level spells, which is immediately lost; if the target has no 3rd-level spells prepared, it must lose a 2nd-level spell it has prepared (progressing down to a 1st-level spell if it has no 2nd-level spells prepared).  If the target is a spontaneous spellcaster, it loses one of its available 3rd-level spell slots; if the target has no available 3rd-level spell slots, it must lose a 2nd-level spell slot (progressing down to a 1st-level spell slot if it has no 2nd-level spell slots available).  There is no initial saving throw for this spell, but the target can attempt a Will save each round at the end of its turn.  If the target has more than one spellcasting class, choose one at random to be affected. This spell has no effect on spell-like abilities.  Any spell or spell slot lost because of this spell is treated as if the caster had failed a concentration check while trying to cast it-the spell or the spell slot is wasted and has no effect, but is recovered normally the next time the character prepares spells or regains spell slots.</p>\n</div>\n",
      "chat": "",
      "unidentified": ""
    },
    "tags": [],
    "activation": {
      "cost": 1,
      "type": "standard"
    },
    "unchainedAction": {
      "activation": {
        "cost": 2,
        "type": "action"
      }
    },
    "duration": {
      "value": null,
      "units": ""
    },
    "target": {
      "value": "one creature"
    },
    "range": {
      "value": null,
      "units": "medium",
      "maxIncrements": 1,
      "minValue": null,
      "minUnits": ""
    },
    "uses": {
      "value": 0,
      "max": 0,
      "per": "",
      "autoDeductCharges": true,
      "autoDeductChargesCost": "1"
    },
    "measureTemplate": {
      "type": "",
      "size": "0",
      "overrideColor": false,
      "customColor": "",
      "overrideTexture": false,
      "customTexture": ""
    },
    "attackName": "",
    "actionType": "spellsave",
    "attackBonus": "",
    "critConfirmBonus": "",
    "damage": {
      "parts": [],
      "critParts": [],
      "nonCritParts": []
    },
    "attackParts": [],
    "formula": "",
    "ability": {
      "attack": "",
      "damage": "",
      "damageMult": 1,
      "critRange": 20,
      "critMult": 2
    },
    "save": {
      "dc": "0",
      "type": "will",
      "description": "Will negates; see text"
    },
    "effectNotes": "",
    "attackNotes": "",
    "soundEffect": "",
    "links": {
      "children": []
    },
    "learnedAt": {
      "class": [
        [
          "sorcerer/wizard",
          4
        ],
        [
          "cleric/oracle",
          4
        ],
        [
          "witch",
          4
        ],
        [
          "psychic",
          4
        ]
      ],
      "domain": [],
      "subDomain": [],
      "elementalSchool": [],
      "bloodline": []
    },
    "level": 4,
    "clOffset": 0,
    "slOffset": 0,
    "school": "abj",
    "subschool": "",
    "types": "",
    "nonlethal": false,
    "conditionals": [],
    "components": {
      "value": "",
      "verbal": true,
      "somatic": true,
      "material": false,
      "focus": false,
      "divineFocus": 0
    },
    "castTime": "",
    "materials": {
      "value": "",
      "focus": "",
      "gpValue": 0
    },
    "spellbook": "primary",
    "preparation": {
      "preparedAmount": 0,
      "maxAmount": 0,
      "autoDeductCharges": true,
      "spontaneousPrepared": true,
      "mode": "prepared"
    },
    "atWill": false,
    "sr": true,
    "shortDescription": "<p>You create a discordant blast of energy that disrupts the target's available magic each round at the start of its turn.  If the target prepares spells, it must choose one of its prepared 3rd-level spells, which is immediately lost; if the target has no 3rd-level spells prepared, it must lose a 2nd-level spell it has prepared (progressing down to a 1st-level spell if it has no 2nd-level spells prepared).  If the target is a spontaneous spellcaster, it loses one of its available 3rd-level spell slots; if the target has no available 3rd-level spell slots, it must lose a 2nd-level spell slot (progressing down to a 1st-level spell slot if it has no 2nd-level spell slots available).  There is no initial saving throw for this spell, but the target can attempt a Will save each round at the end of its turn.  If the target has more than one spellcasting class, choose one at random to be affected. This spell has no effect on spell-like abilities.  Any spell or spell slot lost because of this spell is treated as if the caster had failed a concentration check while trying to cast it-the spell or the spell slot is wasted and has no effect, but is recovered normally the next time the character prepares spells or regains spell slots.</p>",
    "spellDuration": "1 round/level",
    "spellEffect": "",
    "spellArea": "",
    "showInQuickbar": false,
    "spellPoints": {
      "cost": "1 + @sl"
    },
    "domain": false,
    "slotCost": 1
  },
  "flags": {},
  "img": "systems/pf1/icons/misc/magic-swirl.png",
  "effects": []
}