{
  "_id": "knyako6zopc1chrv",
  "name": "Stoneskin",
  "permission": {
    "default": 0
  },
  "type": "spell",
  "data": {
    "description": {
      "value": "<div class=\"spell-description\">\n  <p>\n    <strong>School</strong>&nbsp;abjuration;\n    <strong>Level</strong>&nbsp;adept 4, alchemist 4, bloodrager 4, druid 5, hunter 5, inquisitor 4, magus 4, occultist 4, psychic 4, shaman 5, sorcerer/wizard 4, summoner 3, unchained Summoner 4;\n    <strong>Domain</strong>&nbsp;Earth 6, Strength 6;\n    \n    \n    <strong>Bloodline</strong>&nbsp;Abyssal 4, Shaitan 4;\n  </p>\n  <p>\n    <strong>Casting Time</strong>&nbsp;1 standard action<br>\n    <strong>Components</strong>&nbsp;V, S, M (granite and diamond dust worth 250 gp)<br>\n  </p>\n  <p>\n    <strong>Range</strong>&nbsp;touch<br>\n    \n    <strong>Targets</strong>&nbsp;creature touched<br>\n    \n    <strong>Duration</strong>&nbsp;10 min./level or until discharged<br>\n      <strong>Saving Throw</strong>&nbsp;Will negates (harmless);&nbsp;\n      <strong>Spell Resistance</strong>&nbsp;yes<br>\n  </p>\n  <h2>Description</h2>\n  <p>The warded creature gains resistance to blows, cuts, stabs, and slashes. The subject gains DR 10/adamantine. It ignores the first 10 points of damage each time it takes damage from a weapon, though an adamantine weapon bypasses the reduction. Once the spell has prevented a total of 10 points of damage per caster level (maximum 150 points), it is discharged.</p>\n</div>\n",
      "chat": "",
      "unidentified": ""
    },
    "tags": [],
    "activation": {
      "cost": 1,
      "type": "standard"
    },
    "unchainedAction": {
      "activation": {
        "cost": 2,
        "type": "action"
      }
    },
    "duration": {
      "value": null,
      "units": ""
    },
    "target": {
      "value": "creature touched"
    },
    "range": {
      "value": null,
      "units": "touch",
      "maxIncrements": 1,
      "minValue": null,
      "minUnits": ""
    },
    "uses": {
      "value": 0,
      "max": 0,
      "per": "",
      "autoDeductCharges": true,
      "autoDeductChargesCost": "1"
    },
    "measureTemplate": {
      "type": "",
      "size": "0",
      "overrideColor": false,
      "customColor": "",
      "overrideTexture": false,
      "customTexture": ""
    },
    "attackName": "",
    "actionType": "spellsave",
    "attackBonus": "",
    "critConfirmBonus": "",
    "damage": {
      "parts": [],
      "critParts": [],
      "nonCritParts": []
    },
    "attackParts": [],
    "formula": "",
    "ability": {
      "attack": "",
      "damage": "",
      "damageMult": 1,
      "critRange": 20,
      "critMult": 2
    },
    "save": {
      "dc": "0",
      "type": "will",
      "description": "Will negates (harmless)"
    },
    "effectNotes": "",
    "attackNotes": "",
    "soundEffect": "",
    "links": {
      "children": []
    },
    "learnedAt": {
      "class": [
        [
          "sorcerer/wizard",
          4
        ],
        [
          "druid",
          5
        ],
        [
          "alchemist",
          4
        ],
        [
          "summoner",
          3
        ],
        [
          "inquisitor",
          4
        ],
        [
          "magus",
          4
        ],
        [
          "adept",
          4
        ],
        [
          "bloodrager",
          4
        ],
        [
          "shaman",
          5
        ],
        [
          "psychic",
          4
        ],
        [
          "occultist",
          4
        ],
        [
          "hunter",
          5
        ],
        [
          "unchained Summoner",
          4
        ]
      ],
      "domain": [
        [
          "Earth",
          6
        ],
        [
          "Strength",
          6
        ]
      ],
      "subDomain": [],
      "elementalSchool": [],
      "bloodline": [
        [
          "Abyssal",
          4
        ],
        [
          "Shaitan",
          4
        ]
      ]
    },
    "level": 4,
    "clOffset": 0,
    "slOffset": 0,
    "school": "abj",
    "subschool": "",
    "types": "",
    "nonlethal": false,
    "conditionals": [],
    "components": {
      "value": "",
      "verbal": true,
      "somatic": true,
      "material": true,
      "focus": false,
      "divineFocus": 0
    },
    "castTime": "",
    "materials": {
      "value": "granite and diamond dust worth 250 gp",
      "focus": "",
      "gpValue": 250
    },
    "spellbook": "",
    "preparation": {
      "preparedAmount": 0,
      "maxAmount": 0,
      "autoDeductCharges": false,
      "spontaneousPrepared": false,
      "mode": "prepared"
    },
    "atWill": false,
    "sr": true,
    "shortDescription": "<p>The warded creature gains resistance to blows, cuts, stabs, and slashes. The subject gains DR 10/adamantine. It ignores the first 10 points of damage each time it takes damage from a weapon, though an adamantine weapon bypasses the reduction. Once the spell has prevented a total of 10 points of damage per caster level (maximum 150 points), it is discharged.</p>",
    "spellDuration": "10 min./level or until discharged",
    "spellEffect": "",
    "spellArea": "",
    "showInQuickbar": false,
    "spellPoints": {
      "cost": ""
    },
    "domain": false,
    "slotCost": 1
  },
  "flags": {},
  "img": "systems/pf1/icons/misc/magic-swirl.png",
  "effects": []
}