{
  "_id": "6l4stx2qxjq9pns7",
  "name": "Summon Ancestral Guardian",
  "permission": {
    "default": 0
  },
  "type": "spell",
  "data": {
    "description": {
      "value": "<div class=\"spell-description\">\n  <p>\n    <strong>School</strong>&nbsp;conjuration&nbsp;(summoning);\n    <strong>Level</strong>&nbsp;bard 3, cleric/oracle 3;\n    \n    \n    \n    \n  </p>\n  <p>\n    <strong>Casting Time</strong>&nbsp;1 standard action<br>\n    <strong>Components</strong>&nbsp;V, S, F/DF (stone or metal image of your ancestor)<br>\n  </p>\n  <p>\n    <strong>Range</strong>&nbsp;medium (100 ft. + 10 ft./level)<br>\n    \n    \n    <strong>Effect</strong>&nbsp;two summoned ancestor spirits<br>\n    <strong>Duration</strong>&nbsp;1 round/level<br>\n    <strong>Saving Throw</strong>&nbsp;none;&nbsp;<strong>Spell Resistance</strong>&nbsp;yes<br>\n  </p>\n  <h2>Description</h2>\n  <p>You call the spirits of two ancestors to manifest in the mortal world and attack your enemies. Each appears as a transparent image of a powerful, wise dwarf armed with a traditional dwarven weapon of your choice. These spirits move and attack at your direction, each having the abilities of a <i>spiritual weapon</i>, except they can attack different targets and deal physical damage (bludgeoning, piercing, or slashing, according to the weapon the spirit wields) instead of force damage. Like creatures conjured with a <i>summon monster</i> spell, your ancestors are not harmed if these manifestations are destroyed.</p>\n</div>\n",
      "chat": "",
      "unidentified": ""
    },
    "tags": [],
    "activation": {
      "cost": 1,
      "type": "standard"
    },
    "unchainedAction": {
      "activation": {
        "cost": 2,
        "type": "action"
      }
    },
    "duration": {
      "value": null,
      "units": ""
    },
    "target": {
      "value": ""
    },
    "range": {
      "value": null,
      "units": "medium",
      "maxIncrements": 1,
      "minValue": null,
      "minUnits": ""
    },
    "uses": {
      "value": 0,
      "max": 0,
      "per": "",
      "autoDeductCharges": true,
      "autoDeductChargesCost": "1"
    },
    "measureTemplate": {
      "type": "",
      "size": "0",
      "overrideColor": false,
      "customColor": "",
      "overrideTexture": false,
      "customTexture": ""
    },
    "attackName": "",
    "actionType": "other",
    "attackBonus": "",
    "critConfirmBonus": "",
    "damage": {
      "parts": [],
      "critParts": [],
      "nonCritParts": []
    },
    "attackParts": [],
    "formula": "",
    "ability": {
      "attack": "",
      "damage": "",
      "damageMult": 1,
      "critRange": 20,
      "critMult": 2
    },
    "save": {
      "dc": "0",
      "type": "",
      "description": ""
    },
    "effectNotes": "",
    "attackNotes": "",
    "soundEffect": "",
    "links": {
      "children": []
    },
    "learnedAt": {
      "class": [
        [
          "cleric/oracle",
          3
        ],
        [
          "bard",
          3
        ]
      ],
      "domain": [],
      "subDomain": [],
      "elementalSchool": [],
      "bloodline": []
    },
    "level": 3,
    "clOffset": 0,
    "slOffset": 0,
    "school": "con",
    "subschool": "summoning",
    "types": "",
    "nonlethal": false,
    "conditionals": [],
    "components": {
      "value": "",
      "verbal": true,
      "somatic": true,
      "material": false,
      "focus": true,
      "divineFocus": 3
    },
    "castTime": "",
    "materials": {
      "value": "",
      "focus": "stone or metal image of your ancestor",
      "gpValue": 0
    },
    "spellbook": "primary",
    "preparation": {
      "preparedAmount": 0,
      "maxAmount": 0,
      "autoDeductCharges": true,
      "spontaneousPrepared": true,
      "mode": "prepared"
    },
    "atWill": false,
    "sr": true,
    "shortDescription": "<p>You call the spirits of two ancestors to manifest in the mortal world and attack your enemies. Each appears as a transparent image of a powerful, wise dwarf armed with a traditional dwarven weapon of your choice. These spirits move and attack at your direction, each having the abilities of a <i>spiritual weapon</i>, except they can attack different targets and deal physical damage (bludgeoning, piercing, or slashing, according to the weapon the spirit wields) instead of force damage. Like creatures conjured with a <i>summon monster</i> spell, your ancestors are not harmed if these manifestations are destroyed.</p>",
    "spellDuration": "1 round/level",
    "spellEffect": "two summoned ancestor spirits",
    "spellArea": "",
    "showInQuickbar": false,
    "spellPoints": {
      "cost": "1 + @sl"
    },
    "domain": false,
    "slotCost": 1
  },
  "flags": {},
  "img": "systems/pf1/icons/misc/magic-swirl.png",
  "effects": []
}