{
  "_id": "kikowbnn4h6anegq",
  "name": "Symbol of Strife",
  "permission": {
    "default": 0
  },
  "type": "spell",
  "data": {
    "description": {
      "value": "<div class=\"spell-description\">\n  <p>\n    <strong>School</strong>&nbsp;enchantment&nbsp;(compulsion)&nbsp;[mind-affecting];\n    <strong>Level</strong>&nbsp;cleric/oracle 9, occultist 6, sorcerer/wizard 9, witch 9;\n    \n    <strong>Subdomain</strong>&nbsp;Riot 9;\n    \n    \n  </p>\n  <p>\n    <strong>Casting Time</strong>&nbsp;10 minutes<br>\n    <strong>Components</strong>&nbsp;V, S, M (mercury and phosphorous, plus powdered diamond and opal worth a total of 15,000 gp)<br>\n  </p>\n  <p>\n    <strong>Range</strong>&nbsp;0 feet<br>\n    \n    \n    <strong>Effect</strong>&nbsp;one symbol<br>\n    <strong>Duration</strong>&nbsp;see text<br>\n      <strong>Saving Throw</strong>&nbsp;Will negates;&nbsp;\n      <strong>Spell Resistance</strong>&nbsp;yes<br>\n  </p>\n  <h2>Description</h2>\n  <p>This spell functions as <i>symbol of death</i>, except all creatures within the radius of a <i>symbol of strife</i> are compelled to attack the nearest conscious creaturefor 1 round per caster level (similar to the \"attack nearest creature\" result of the <i>confusion</i> spell), even after leaving the symbol's area of effect. If no other creatures are visible, an affected creature can act normally. Once triggered, the symbol remains active for 10 minutes per caster level.</p><p><i>Symbol of strife</i> can be made permanent with a <i>permanency</i> spell by a caster of 18th level or higher for the cost of 25,000 gp.</p>\n</div>\n",
      "chat": "",
      "unidentified": ""
    },
    "tags": [],
    "activation": {
      "cost": 10,
      "type": "minute"
    },
    "unchainedAction": {
      "activation": {
        "cost": 10,
        "type": "minute"
      }
    },
    "duration": {
      "value": null,
      "units": ""
    },
    "target": {
      "value": ""
    },
    "range": {
      "value": "0",
      "units": "ft",
      "maxIncrements": 1,
      "minValue": null,
      "minUnits": ""
    },
    "uses": {
      "value": 0,
      "max": 0,
      "per": "",
      "autoDeductCharges": true,
      "autoDeductChargesCost": "1"
    },
    "measureTemplate": {
      "type": "",
      "size": "0",
      "overrideColor": false,
      "customColor": "",
      "overrideTexture": false,
      "customTexture": ""
    },
    "attackName": "",
    "actionType": "spellsave",
    "attackBonus": "",
    "critConfirmBonus": "",
    "damage": {
      "parts": [],
      "critParts": [],
      "nonCritParts": []
    },
    "attackParts": [],
    "formula": "",
    "ability": {
      "attack": "",
      "damage": "",
      "damageMult": 1,
      "critRange": 20,
      "critMult": 2
    },
    "save": {
      "dc": "0",
      "type": "will",
      "description": "Will negates"
    },
    "effectNotes": "",
    "attackNotes": "",
    "soundEffect": "",
    "links": {
      "children": []
    },
    "learnedAt": {
      "class": [
        [
          "sorcerer/wizard",
          9
        ],
        [
          "cleric/oracle",
          9
        ],
        [
          "witch",
          9
        ],
        [
          "occultist",
          6
        ]
      ],
      "domain": [],
      "subDomain": [
        [
          "Riot",
          9
        ]
      ],
      "elementalSchool": [],
      "bloodline": []
    },
    "level": 9,
    "clOffset": 0,
    "slOffset": 0,
    "school": "enc",
    "subschool": "compulsion",
    "types": "mind-affecting",
    "nonlethal": false,
    "conditionals": [],
    "components": {
      "value": "",
      "verbal": true,
      "somatic": true,
      "material": true,
      "focus": false,
      "divineFocus": 0
    },
    "castTime": "",
    "materials": {
      "value": "mercury and phosphorous, plus powdered diamond and opal worth a total of 15,000 gp",
      "focus": "",
      "gpValue": 15000
    },
    "spellbook": "",
    "preparation": {
      "preparedAmount": 0,
      "maxAmount": 0,
      "autoDeductCharges": false,
      "spontaneousPrepared": false,
      "mode": "prepared"
    },
    "atWill": false,
    "sr": true,
    "shortDescription": "<p>This spell functions as <i>symbol of death</i>, except all creatures within the radius of a <i>symbol of strife</i> are compelled to attack the nearest conscious creaturefor 1 round per caster level (similar to the \"attack nearest creature\" result of the <i>confusion</i> spell), even after leaving the symbol's area of effect. If no other creatures are visible, an affected creature can act normally. Once triggered, the symbol remains active for 10 minutes per caster level.</p><p><i>Symbol of strife</i> can be made permanent with a <i>permanency</i> spell by a caster of 18th level or higher for the cost of 25,000 gp.</p>",
    "spellDuration": "see text",
    "spellEffect": "one symbol",
    "spellArea": "",
    "showInQuickbar": false,
    "spellPoints": {
      "cost": ""
    },
    "domain": false,
    "slotCost": 1
  },
  "flags": {},
  "img": "systems/pf1/icons/misc/magic-swirl.png",
  "effects": []
}