{
  "_id": "gpj46hcsawa41jeo",
  "name": "Symbol of Sealing",
  "permission": {
    "default": 0
  },
  "type": "spell",
  "data": {
    "description": {
      "value": "<div class=\"spell-description\">\n  <p>\n    <strong>School</strong>&nbsp;abjuration&nbsp;[force];\n    <strong>Level</strong>&nbsp;cleric/oracle 6, occultist 4, sorcerer/wizard 6, witch 6;\n    \n    \n    \n    \n  </p>\n  <p>\n    <strong>Casting Time</strong>&nbsp;10 minutes<br>\n    <strong>Components</strong>&nbsp;V, S, M (mercury and phosphorous, plus powdered diamond and opal worth a total of 5,000 gp)<br>\n  </p>\n  <p>\n    <strong>Range</strong>&nbsp;0 feet<br>\n    \n    \n    <strong>Effect</strong>&nbsp;one symbol<br>\n    <strong>Duration</strong>&nbsp;permanent<br>\n      <strong>Saving Throw</strong>&nbsp;none;&nbsp;\n      <strong>Spell Resistance</strong>&nbsp;no<br>\n  </p>\n  <h2>Description</h2>\n  <p>This spell allows you to scribe a potent rune of power upon or above a door or other opening measuring no more than 20 square feet/level in size. When the casting is completed, the symbol immediately triggers, glowing visibly and sealing the door or opening with an invisible barrier of force equivalent to a <i>Wall of Force</i>. Destroying the symbol ends the effect, though destroying it once the symbol has been activated requires destroying the <i>Wall of Force</i> first. Once triggered, the wall remains for 10 minutes per caster level.</p><p>When scribing a <i>symbol of sealing</i>, you can specify a password or phrase that allows a creature speaking it to bypass the seal and pass through the opening. You can also attune any number of creatures to the <i>symbol of sealing</i>, but doing this extends the casting time as described under <i>symbol of death</i> (Core <i>Rulebook</i> 355). However, the force wall created by the symbol blocks attacks and line of effect even for creatures that know the password or are attuned-the password only prevents them from triggering the symbol, not from ignoring its effects if triggered.</p><p>A <i>disintegrate</i> spell or similar effect can destroy the <i>Wall of Force</i> created by the symbol if the caster makes a caster level check against a DC of 11 + your caster level. A <i>knock</i> spell has no effect on a <i>symbol of sealing</i> or its force wall. A <i>symbol of sealing</i> cannot be dispelled, but mage's disjunction automatically destroys it.</p>\n</div>\n",
      "chat": "",
      "unidentified": ""
    },
    "tags": [],
    "activation": {
      "cost": 10,
      "type": "minute"
    },
    "unchainedAction": {
      "activation": {
        "cost": 10,
        "type": "minute"
      }
    },
    "duration": {
      "value": null,
      "units": ""
    },
    "target": {
      "value": ""
    },
    "range": {
      "value": "0",
      "units": "ft",
      "maxIncrements": 1,
      "minValue": null,
      "minUnits": ""
    },
    "uses": {
      "value": 0,
      "max": 0,
      "per": "",
      "autoDeductCharges": true,
      "autoDeductChargesCost": "1"
    },
    "measureTemplate": {
      "type": "",
      "size": "0",
      "overrideColor": false,
      "customColor": "",
      "overrideTexture": false,
      "customTexture": ""
    },
    "attackName": "",
    "actionType": "other",
    "attackBonus": "",
    "critConfirmBonus": "",
    "damage": {
      "parts": [],
      "critParts": [],
      "nonCritParts": []
    },
    "attackParts": [],
    "formula": "",
    "ability": {
      "attack": "",
      "damage": "",
      "damageMult": 1,
      "critRange": 20,
      "critMult": 2
    },
    "save": {
      "dc": "0",
      "type": "",
      "description": ""
    },
    "effectNotes": "",
    "attackNotes": "",
    "soundEffect": "",
    "links": {
      "children": []
    },
    "learnedAt": {
      "class": [
        [
          "sorcerer/wizard",
          6
        ],
        [
          "cleric/oracle",
          6
        ],
        [
          "witch",
          6
        ],
        [
          "occultist",
          4
        ]
      ],
      "domain": [],
      "subDomain": [],
      "elementalSchool": [],
      "bloodline": []
    },
    "level": 6,
    "clOffset": 0,
    "slOffset": 0,
    "school": "abj",
    "subschool": "",
    "types": "force",
    "nonlethal": false,
    "conditionals": [],
    "components": {
      "value": "",
      "verbal": true,
      "somatic": true,
      "material": true,
      "focus": false,
      "divineFocus": 0
    },
    "castTime": "",
    "materials": {
      "value": "mercury and phosphorous, plus powdered diamond and opal worth a total of 5,000 gp",
      "focus": "",
      "gpValue": 5000
    },
    "spellbook": "",
    "preparation": {
      "preparedAmount": 0,
      "maxAmount": 0,
      "autoDeductCharges": false,
      "spontaneousPrepared": false,
      "mode": "prepared"
    },
    "atWill": false,
    "sr": false,
    "shortDescription": "<p>This spell allows you to scribe a potent rune of power upon or above a door or other opening measuring no more than 20 square feet/level in size. When the casting is completed, the symbol immediately triggers, glowing visibly and sealing the door or opening with an invisible barrier of force equivalent to a <i>Wall of Force</i>. Destroying the symbol ends the effect, though destroying it once the symbol has been activated requires destroying the <i>Wall of Force</i> first. Once triggered, the wall remains for 10 minutes per caster level.</p><p>When scribing a <i>symbol of sealing</i>, you can specify a password or phrase that allows a creature speaking it to bypass the seal and pass through the opening. You can also attune any number of creatures to the <i>symbol of sealing</i>, but doing this extends the casting time as described under <i>symbol of death</i> (Core <i>Rulebook</i> 355). However, the force wall created by the symbol blocks attacks and line of effect even for creatures that know the password or are attuned-the password only prevents them from triggering the symbol, not from ignoring its effects if triggered.</p><p>A <i>disintegrate</i> spell or similar effect can destroy the <i>Wall of Force</i> created by the symbol if the caster makes a caster level check against a DC of 11 + your caster level. A <i>knock</i> spell has no effect on a <i>symbol of sealing</i> or its force wall. A <i>symbol of sealing</i> cannot be dispelled, but mage's disjunction automatically destroys it.</p>",
    "spellDuration": "permanent",
    "spellEffect": "one symbol",
    "spellArea": "",
    "showInQuickbar": false,
    "spellPoints": {
      "cost": ""
    },
    "domain": false,
    "slotCost": 1
  },
  "flags": {},
  "img": "systems/pf1/icons/misc/magic-swirl.png",
  "effects": []
}