{
  "_id": "a8gphahx0vu294yj",
  "name": "Tail Strike",
  "permission": {
    "default": 0
  },
  "type": "spell",
  "data": {
    "description": {
      "value": "<div class=\"spell-description\">\n  <p>\n    <strong>School</strong>&nbsp;transmutation&nbsp;[draconic];\n    <strong>Level</strong>&nbsp;alchemist 4, antipaladin 3, bloodrager 3, medium 3, paladin 3, sorcerer/wizard 3;\n    \n    \n    \n    \n  </p>\n  <p>\n    <strong>Casting Time</strong>&nbsp;1 standard action<br>\n    <strong>Components</strong>&nbsp;V, M (a dragon scale)<br>\n  </p>\n  <p>\n    <strong>Range</strong>&nbsp;personal<br>\n    \n    <strong>Targets</strong>&nbsp;you<br>\n    \n    <strong>Duration</strong>&nbsp;1 minute/level (see text)<br>\n    \n  </p>\n  <h2>Description</h2>\n  <p>You grow a draconic tail (clothing and armor adjust as necessary), or if you already have a tail, it takes on a draconic appearance. If you have a draconic bloodline, the tail matches the appearance of that dragon type; otherwise, it matches the appearance of a dragon type whose alignment matches your own. You gain a tail slam attack that deals 1d6 points of damage (1d4 if Small, 1d8 if Large) + your Strength modifier. If you already have a tail attack, you instead extend the reach of your tail attack by 5 feet. If you have a tail sweep attack, this spell increases its radius by 10 feet.  If used as part of a full-attack action, the tail slam is considered a secondary attack, is made at your full base attack bonus - 5, and adds half your Strength modifier to its damage. You can end this spell before its normal duration by uttering a bestial roar as a swift action. When you do, you can attempt an Intimidate check to demoralize all foes within a 30-foot radius that can hear the roar.  Clerics, inquisitors, oracles, and warpriests who worship dragon deities add <i>tail strike</i> to their class spell lists as a 4th-level spell.</p>\n</div>\n",
      "chat": "",
      "unidentified": ""
    },
    "tags": [],
    "activation": {
      "cost": 1,
      "type": "standard"
    },
    "unchainedAction": {
      "activation": {
        "cost": 2,
        "type": "action"
      }
    },
    "duration": {
      "value": null,
      "units": ""
    },
    "target": {
      "value": "you"
    },
    "range": {
      "value": null,
      "units": "personal",
      "maxIncrements": 1,
      "minValue": null,
      "minUnits": ""
    },
    "uses": {
      "value": 0,
      "max": 0,
      "per": "",
      "autoDeductCharges": true,
      "autoDeductChargesCost": "1"
    },
    "measureTemplate": {
      "type": "",
      "size": "0",
      "overrideColor": false,
      "customColor": "",
      "overrideTexture": false,
      "customTexture": ""
    },
    "attackName": "",
    "actionType": "",
    "attackBonus": "",
    "critConfirmBonus": "",
    "damage": {
      "parts": [],
      "critParts": [],
      "nonCritParts": []
    },
    "attackParts": [],
    "formula": "",
    "ability": {
      "attack": "",
      "damage": "",
      "damageMult": 1,
      "critRange": 20,
      "critMult": 2
    },
    "save": {
      "dc": "0",
      "type": "",
      "description": ""
    },
    "effectNotes": "",
    "attackNotes": "",
    "soundEffect": "",
    "links": {
      "children": []
    },
    "learnedAt": {
      "class": [
        [
          "sorcerer/wizard",
          3
        ],
        [
          "paladin",
          3
        ],
        [
          "alchemist",
          4
        ],
        [
          "antipaladin",
          3
        ],
        [
          "bloodrager",
          3
        ],
        [
          "medium",
          3
        ]
      ],
      "domain": [],
      "subDomain": [],
      "elementalSchool": [],
      "bloodline": []
    },
    "level": 3,
    "clOffset": 0,
    "slOffset": 0,
    "school": "trs",
    "subschool": "",
    "types": "draconic",
    "nonlethal": false,
    "conditionals": [],
    "components": {
      "value": "",
      "verbal": true,
      "somatic": false,
      "material": true,
      "focus": false,
      "divineFocus": 0
    },
    "castTime": "",
    "materials": {
      "value": "a dragon scale",
      "focus": "",
      "gpValue": 0
    },
    "spellbook": "primary",
    "preparation": {
      "preparedAmount": 0,
      "maxAmount": 0,
      "autoDeductCharges": true,
      "spontaneousPrepared": true,
      "mode": "prepared"
    },
    "atWill": false,
    "sr": false,
    "shortDescription": "<p>You grow a draconic tail (clothing and armor adjust as necessary), or if you already have a tail, it takes on a draconic appearance. If you have a draconic bloodline, the tail matches the appearance of that dragon type; otherwise, it matches the appearance of a dragon type whose alignment matches your own. You gain a tail slam attack that deals 1d6 points of damage (1d4 if Small, 1d8 if Large) + your Strength modifier. If you already have a tail attack, you instead extend the reach of your tail attack by 5 feet. If you have a tail sweep attack, this spell increases its radius by 10 feet.  If used as part of a full-attack action, the tail slam is considered a secondary attack, is made at your full base attack bonus - 5, and adds half your Strength modifier to its damage. You can end this spell before its normal duration by uttering a bestial roar as a swift action. When you do, you can attempt an Intimidate check to demoralize all foes within a 30-foot radius that can hear the roar.  Clerics, inquisitors, oracles, and warpriests who worship dragon deities add <i>tail strike</i> to their class spell lists as a 4th-level spell.</p>",
    "spellDuration": "1 minute/level (see text)",
    "spellEffect": "",
    "spellArea": "",
    "showInQuickbar": false,
    "spellPoints": {
      "cost": "1 + @sl"
    },
    "domain": false,
    "slotCost": 1
  },
  "flags": {},
  "img": "systems/pf1/icons/misc/magic-swirl.png",
  "effects": []
}