{
  "_id": "eomy5i7x2ml5wzp8",
  "name": "Temporal Regression",
  "permission": {
    "default": 0
  },
  "type": "spell",
  "data": {
    "description": {
      "value": "<div class=\"spell-description\">\n  <p>\n    <strong>School</strong>&nbsp;conjuration&nbsp;(teleportation);\n    <strong>Level</strong>&nbsp;druid 9, psychic 8, sorcerer/wizard 8, witch 8;\n    \n    \n    \n    \n  </p>\n  <p>\n    <strong>Casting Time</strong>&nbsp;1 standard action<br>\n    <strong>Components</strong>&nbsp;V, S, F (hourglass filled with powdered horacalcum worth 1,500 gp)<br>\n  </p>\n  <p>\n    <strong>Range</strong>&nbsp;personal<br>\n    \n    \n    \n    <strong>Duration</strong>&nbsp;1 round/level or until discharged<br>\n    \n  </p>\n  <h2>Description</h2>\n  <p>When you complete this spell, note your current location and condition, including your hit point total and any ongoing conditions affecting you as well as their durations (e.g. poison, sickened, ability damage, and spell effects). This spell creates a beacon in space-time that's imperceptible to anyone but you. As a standard action while you are within range of the beacon before the spell's duration expires, you can discharge the spell to transport yourself back to the marked location and restore yourself to the condition you were in when you cast the spell; this does not restore any expended items, charges, or spells you may have used during that time. This does not reverse effects for anyone else, and to bystanders it appears as though you teleported to the beacon location and regained conditions you had when the beacon was set. <i>Temporal regression</i> strains your body; when the spell is discharged, you gain 1 temporary negative level for every 2 rounds that passed since you cast the spell. These negative levels disappear after 24 hours.  You can discharge the spell to transport yourself back to your beacon as an immediate action instead of a standard action, but doing so utterly and entirely consumes the spell's focus.</p>\n</div>\n",
      "chat": "",
      "unidentified": ""
    },
    "tags": [],
    "activation": {
      "cost": 1,
      "type": "standard"
    },
    "unchainedAction": {
      "activation": {
        "cost": 2,
        "type": "action"
      }
    },
    "duration": {
      "value": null,
      "units": ""
    },
    "target": {
      "value": ""
    },
    "range": {
      "value": null,
      "units": "personal",
      "maxIncrements": 1,
      "minValue": null,
      "minUnits": ""
    },
    "uses": {
      "value": 0,
      "max": 0,
      "per": "",
      "autoDeductCharges": true,
      "autoDeductChargesCost": "1"
    },
    "measureTemplate": {
      "type": "",
      "size": "0",
      "overrideColor": false,
      "customColor": "",
      "overrideTexture": false,
      "customTexture": ""
    },
    "attackName": "",
    "actionType": "",
    "attackBonus": "",
    "critConfirmBonus": "",
    "damage": {
      "parts": [],
      "critParts": [],
      "nonCritParts": []
    },
    "attackParts": [],
    "formula": "",
    "ability": {
      "attack": "",
      "damage": "",
      "damageMult": 1,
      "critRange": 20,
      "critMult": 2
    },
    "save": {
      "dc": "0",
      "type": "",
      "description": ""
    },
    "effectNotes": "",
    "attackNotes": "",
    "soundEffect": "",
    "links": {
      "children": []
    },
    "learnedAt": {
      "class": [
        [
          "sorcerer/wizard",
          8
        ],
        [
          "druid",
          9
        ],
        [
          "witch",
          8
        ],
        [
          "psychic",
          8
        ]
      ],
      "domain": [],
      "subDomain": [],
      "elementalSchool": [],
      "bloodline": []
    },
    "level": 8,
    "clOffset": 0,
    "slOffset": 0,
    "school": "con",
    "subschool": "teleportation",
    "types": "",
    "nonlethal": false,
    "conditionals": [],
    "components": {
      "value": "",
      "verbal": true,
      "somatic": true,
      "material": false,
      "focus": true,
      "divineFocus": 0
    },
    "castTime": "",
    "materials": {
      "value": "",
      "focus": "hourglass filled with powdered horacalcum worth 1,500 gp",
      "gpValue": 0
    },
    "spellbook": "primary",
    "preparation": {
      "preparedAmount": 0,
      "maxAmount": 0,
      "autoDeductCharges": true,
      "spontaneousPrepared": true,
      "mode": "prepared"
    },
    "atWill": false,
    "sr": false,
    "shortDescription": "<p>When you complete this spell, note your current location and condition, including your hit point total and any ongoing conditions affecting you as well as their durations (e.g. poison, sickened, ability damage, and spell effects). This spell creates a beacon in space-time that's imperceptible to anyone but you. As a standard action while you are within range of the beacon before the spell's duration expires, you can discharge the spell to transport yourself back to the marked location and restore yourself to the condition you were in when you cast the spell; this does not restore any expended items, charges, or spells you may have used during that time. This does not reverse effects for anyone else, and to bystanders it appears as though you teleported to the beacon location and regained conditions you had when the beacon was set. <i>Temporal regression</i> strains your body; when the spell is discharged, you gain 1 temporary negative level for every 2 rounds that passed since you cast the spell. These negative levels disappear after 24 hours.  You can discharge the spell to transport yourself back to your beacon as an immediate action instead of a standard action, but doing so utterly and entirely consumes the spell's focus.</p>",
    "spellDuration": "1 round/level or until discharged",
    "spellEffect": "",
    "spellArea": "",
    "showInQuickbar": false,
    "spellPoints": {
      "cost": "1 + @sl"
    },
    "domain": false,
    "slotCost": 1
  },
  "flags": {},
  "img": "systems/pf1/icons/misc/magic-swirl.png",
  "effects": []
}