{
  "_id": "vyqvubccx5m8ie3r",
  "name": "Vision of Lamashtu",
  "permission": {
    "default": 0
  },
  "type": "spell",
  "data": {
    "description": {
      "value": "<div class=\"spell-description\">\n  <p>\n    <strong>School</strong>&nbsp;illusion&nbsp;(phantasm)&nbsp;[mind-affecting, evil];\n    <strong>Level</strong>&nbsp;cleric/oracle 7, inquisitor 6, witch 7;\n    \n    \n    \n    \n  </p>\n  <p>\n    <strong>Casting Time</strong>&nbsp;10 minutes<br>\n    <strong>Components</strong>&nbsp;V, S<br>\n  </p>\n  <p>\n    \n    \n    <strong>Targets</strong>&nbsp;one living creature<br>\n    \n    <strong>Duration</strong>&nbsp;instantaneous<br>\n    <strong>Saving Throw</strong>&nbsp;Will negates (see text);&nbsp;<strong>Spell Resistance</strong>&nbsp;yes<br>\n  </p>\n  <h2>Description</h2>\n  <p>This spell functions exactly as the spell <i>nightmare</i>. In addition to the effects of that spell, you can cause a second spell to be delivered when the target wakes at the <i>nightmare</i>'s conclusion.</p><p>You must have this second spell prepared, and it must be cast immediately after <i>vision of Lamashtu</i> (effectively adding the two spells' casting times). This second spell \"rides along\" with the <i>nightmare</i>, affecting the target as soon as it wakes from its fitful sleep. Any spell can be sent along with the <i>nightmare</i>, so long as it is of 6th level or lower, affects one target (which is always the <i>nightmare</i>'s recipient), and does not deal hit point damage. The second spell's range is irrelevant for the purposes of <i>vision of Lamashtu</i>, and even touch attacks can be delivered in this manner (you must still make a successful touch attack in order to affect the target, though, with the act of touching occurring within the context of the victim's <i>nightmare</i>). The target is allowed to save against the second spell if a save is allowed. For example, a cleric of Lamashtu could send <i>bestow curse</i> along as part of a <i>vision of Lamashtu</i>, but not <i>blade barrier</i> (affects an area), <i>destruction</i> (too high level), or <i>inflict moderate wounds</i> (deals hit point damage).</p>\n</div>\n",
      "chat": "",
      "unidentified": ""
    },
    "tags": [],
    "activation": {
      "cost": 10,
      "type": "minute"
    },
    "unchainedAction": {
      "activation": {
        "cost": 10,
        "type": "minute"
      }
    },
    "duration": {
      "value": null,
      "units": ""
    },
    "target": {
      "value": "one living creature"
    },
    "range": {
      "value": null,
      "units": "",
      "maxIncrements": 1,
      "minValue": null,
      "minUnits": ""
    },
    "uses": {
      "value": 0,
      "max": 0,
      "per": "",
      "autoDeductCharges": true,
      "autoDeductChargesCost": "1"
    },
    "measureTemplate": {
      "type": "",
      "size": "0",
      "overrideColor": false,
      "customColor": "",
      "overrideTexture": false,
      "customTexture": ""
    },
    "attackName": "",
    "actionType": "spellsave",
    "attackBonus": "",
    "critConfirmBonus": "",
    "damage": {
      "parts": [],
      "critParts": [],
      "nonCritParts": []
    },
    "attackParts": [],
    "formula": "",
    "ability": {
      "attack": "",
      "damage": "",
      "damageMult": 1,
      "critRange": 20,
      "critMult": 2
    },
    "save": {
      "dc": "0",
      "type": "will",
      "description": "Will negates (see text)"
    },
    "effectNotes": "",
    "attackNotes": "",
    "soundEffect": "",
    "links": {
      "children": []
    },
    "learnedAt": {
      "class": [
        [
          "cleric/oracle",
          7
        ],
        [
          "witch",
          7
        ],
        [
          "inquisitor",
          6
        ]
      ],
      "domain": [],
      "subDomain": [],
      "elementalSchool": [],
      "bloodline": []
    },
    "level": 7,
    "clOffset": 0,
    "slOffset": 0,
    "school": "ill",
    "subschool": "phantasm",
    "types": "mind-affecting, evil",
    "nonlethal": false,
    "conditionals": [],
    "components": {
      "value": "",
      "verbal": true,
      "somatic": true,
      "material": false,
      "focus": false,
      "divineFocus": 0
    },
    "castTime": "",
    "materials": {
      "value": "",
      "focus": "",
      "gpValue": 0
    },
    "spellbook": "primary",
    "preparation": {
      "preparedAmount": 0,
      "maxAmount": 0,
      "autoDeductCharges": true,
      "spontaneousPrepared": true,
      "mode": "prepared"
    },
    "atWill": false,
    "sr": true,
    "shortDescription": "<p>This spell functions exactly as the spell <i>nightmare</i>. In addition to the effects of that spell, you can cause a second spell to be delivered when the target wakes at the <i>nightmare</i>'s conclusion.</p><p>You must have this second spell prepared, and it must be cast immediately after <i>vision of Lamashtu</i> (effectively adding the two spells' casting times). This second spell \"rides along\" with the <i>nightmare</i>, affecting the target as soon as it wakes from its fitful sleep. Any spell can be sent along with the <i>nightmare</i>, so long as it is of 6th level or lower, affects one target (which is always the <i>nightmare</i>'s recipient), and does not deal hit point damage. The second spell's range is irrelevant for the purposes of <i>vision of Lamashtu</i>, and even touch attacks can be delivered in this manner (you must still make a successful touch attack in order to affect the target, though, with the act of touching occurring within the context of the victim's <i>nightmare</i>). The target is allowed to save against the second spell if a save is allowed. For example, a cleric of Lamashtu could send <i>bestow curse</i> along as part of a <i>vision of Lamashtu</i>, but not <i>blade barrier</i> (affects an area), <i>destruction</i> (too high level), or <i>inflict moderate wounds</i> (deals hit point damage).</p>",
    "spellDuration": "instantaneous",
    "spellEffect": "",
    "spellArea": "",
    "showInQuickbar": false,
    "spellPoints": {
      "cost": "1 + @sl"
    },
    "domain": false,
    "slotCost": 1
  },
  "flags": {},
  "img": "systems/pf1/icons/misc/magic-swirl.png",
  "effects": []
}