{
  "_id": "oo4abx7ojjnce8lq",
  "name": "Wall of Light",
  "permission": {
    "default": 0
  },
  "type": "spell",
  "data": {
    "description": {
      "value": "<div class=\"spell-description\">\n  <p>\n    <strong>School</strong>&nbsp;evocation&nbsp;[light];\n    <strong>Level</strong>&nbsp;druid 5, hunter 5, sorcerer/wizard 5;\n    \n    \n    \n    \n  </p>\n  <p>\n    <strong>Casting Time</strong>&nbsp;1 standard action<br>\n    <strong>Components</strong>&nbsp;V, S, M/DF (a chip of mica)<br>\n  </p>\n  <p>\n    <strong>Range</strong>&nbsp;medium (100 ft. + 10 ft./level)<br>\n    \n    \n    <strong>Effect</strong>&nbsp;10-ft.-high vertical sheet of light up to 5 ft. long/level<br>\n    <strong>Duration</strong>&nbsp;1 minute/level (D)<br>\n    <strong>Saving Throw</strong>&nbsp;Fortitude partial, see text;&nbsp;<strong>Spell Resistance</strong>&nbsp;yes<br>\n  </p>\n  <h2>Description</h2>\n  <p>An immobile, blinding curtain of white light that blocks line of sight springs into existence. The wall sheds bright light to a range of 60 feet in all directions. A creature adjacent to the wall is blinded as long as it remains adjacent plus an additional 1d4 rounds thereafter-closing its eyes or succeeding at a Fortitude save negates the effect for 1 round. A creature that passes through the wall is automatically blinded, even if its eyes are closed. A creature from the Plane of Shadow gains 1d4 negative levels each round it spends within 5 feet of the wall (Fortitude negates). Passing through the wall imposes a -4 penalty on the save for that round. Twenty-four hours after gaining these negative levels, the subject must attempt a new Fortitude saving throw for each negative level. If a save succeeds, 1 negative level is removed. If it fails, the negative level becomes permanent. <i>Wall of Light</i> can be made permanent with <i>permanency</i> (with a minimum caster level of 13th and cost of 11,000 gp).</p>\n</div>\n",
      "chat": "",
      "unidentified": ""
    },
    "tags": [],
    "activation": {
      "cost": 1,
      "type": "standard"
    },
    "unchainedAction": {
      "activation": {
        "cost": 2,
        "type": "action"
      }
    },
    "duration": {
      "value": null,
      "units": ""
    },
    "target": {
      "value": ""
    },
    "range": {
      "value": null,
      "units": "medium",
      "maxIncrements": 1,
      "minValue": null,
      "minUnits": ""
    },
    "uses": {
      "value": 0,
      "max": 0,
      "per": "",
      "autoDeductCharges": true,
      "autoDeductChargesCost": "1"
    },
    "measureTemplate": {
      "type": "",
      "size": "0",
      "overrideColor": false,
      "customColor": "",
      "overrideTexture": false,
      "customTexture": ""
    },
    "attackName": "",
    "actionType": "spellsave",
    "attackBonus": "",
    "critConfirmBonus": "",
    "damage": {
      "parts": [],
      "critParts": [],
      "nonCritParts": []
    },
    "attackParts": [],
    "formula": "",
    "ability": {
      "attack": "",
      "damage": "",
      "damageMult": 1,
      "critRange": 20,
      "critMult": 2
    },
    "save": {
      "dc": "0",
      "type": "fort",
      "description": "Fortitude partial, see text"
    },
    "effectNotes": "",
    "attackNotes": "",
    "soundEffect": "",
    "links": {
      "children": []
    },
    "learnedAt": {
      "class": [
        [
          "sorcerer/wizard",
          5
        ],
        [
          "druid",
          5
        ],
        [
          "hunter",
          5
        ]
      ],
      "domain": [],
      "subDomain": [],
      "elementalSchool": [],
      "bloodline": []
    },
    "level": 5,
    "clOffset": 0,
    "slOffset": 0,
    "school": "evo",
    "subschool": "",
    "types": "light",
    "nonlethal": false,
    "conditionals": [],
    "components": {
      "value": "",
      "verbal": true,
      "somatic": true,
      "material": true,
      "focus": false,
      "divineFocus": 2
    },
    "castTime": "",
    "materials": {
      "value": "a chip of mica",
      "focus": "",
      "gpValue": 0
    },
    "spellbook": "primary",
    "preparation": {
      "preparedAmount": 0,
      "maxAmount": 0,
      "autoDeductCharges": true,
      "spontaneousPrepared": true,
      "mode": "prepared"
    },
    "atWill": false,
    "sr": true,
    "shortDescription": "<p>An immobile, blinding curtain of white light that blocks line of sight springs into existence. The wall sheds bright light to a range of 60 feet in all directions. A creature adjacent to the wall is blinded as long as it remains adjacent plus an additional 1d4 rounds thereafter-closing its eyes or succeeding at a Fortitude save negates the effect for 1 round. A creature that passes through the wall is automatically blinded, even if its eyes are closed. A creature from the Plane of Shadow gains 1d4 negative levels each round it spends within 5 feet of the wall (Fortitude negates). Passing through the wall imposes a -4 penalty on the save for that round. Twenty-four hours after gaining these negative levels, the subject must attempt a new Fortitude saving throw for each negative level. If a save succeeds, 1 negative level is removed. If it fails, the negative level becomes permanent. <i>Wall of Light</i> can be made permanent with <i>permanency</i> (with a minimum caster level of 13th and cost of 11,000 gp).</p>",
    "spellDuration": "1 minute/level (D)",
    "spellEffect": "10-ft.-high vertical sheet of light up to 5 ft. long/level",
    "spellArea": "",
    "showInQuickbar": false,
    "spellPoints": {
      "cost": "1 + @sl"
    },
    "domain": false,
    "slotCost": 1
  },
  "flags": {},
  "img": "systems/pf1/icons/misc/magic-swirl.png",
  "effects": []
}