{
  "_id": "c4kdcyco9k6nq5um",
  "name": "Zone of Foul Flames",
  "permission": {
    "default": 0
  },
  "type": "spell",
  "data": {
    "description": {
      "value": "<div class=\"spell-description\">\n  <p>\n    <strong>School</strong>&nbsp;transmutation;\n    <strong>Level</strong>&nbsp;druid 4, hunter 4;\n    \n    \n    \n    \n  </p>\n  <p>\n    <strong>Casting Time</strong>&nbsp;1 standard action<br>\n    <strong>Components</strong>&nbsp;V, S, M (a sliver of tree bark from a burnt tree from the Uskwood)<br>\n  </p>\n  <p>\n    <strong>Range</strong>&nbsp;close (25 ft. + 5 ft./2 levels)<br>\n    <strong>Area</strong>&nbsp;20-ft.-radius spread<br>\n    \n    \n    <strong>Duration</strong>&nbsp;1 minute/level<br>\n    <strong>Saving Throw</strong>&nbsp;Will negates;&nbsp;<strong>Spell Resistance</strong>&nbsp;yes<br>\n  </p>\n  <h2>Description</h2>\n  <p>The twisted druids of the Uskwood forsook fire in ages past for the glory of Zon-Kuthon. Despite this aversion, these servants of Nidal know well the sting of flame, and have learned to turn it back on those that wield it. This spell creates a zone where magical fire effects twist and lash out against those who create the effects. A <i>zone of foul flames</i> looks unremarkable to the casual observer, but a Perception check (DC = 20 + the caster's level) reveals a faint rippling effect in the area, as if of heat distortions in the air.</p><p>Whenever a creature casts a spell with the fire descriptor or activates a magical fire effect (as from a magic item or a special attack) while that creature is located in a <i>zone of foul flames</i>, that creature takes full fire damage from the effect.</p><p>If the effect allows a saving throw to reduce the damage, the victim may attempt the same saving throw to reduce the damage. All creatures in a <i>zone of foul flames</i> gain a +4 circumstance bonus on all saving throws against fire effects, except for those made by a creature attempting to save against fire damage from his own magic. Nonmagical fire in a <i>zone of foul flames</i> burns half as brightly but is otherwise not affected.</p>\n</div>\n",
      "chat": "",
      "unidentified": ""
    },
    "tags": [],
    "activation": {
      "cost": 1,
      "type": "standard"
    },
    "unchainedAction": {
      "activation": {
        "cost": 2,
        "type": "action"
      }
    },
    "duration": {
      "value": null,
      "units": ""
    },
    "target": {
      "value": ""
    },
    "range": {
      "value": null,
      "units": "close",
      "maxIncrements": 1,
      "minValue": null,
      "minUnits": ""
    },
    "uses": {
      "value": 0,
      "max": 0,
      "per": "",
      "autoDeductCharges": true,
      "autoDeductChargesCost": "1"
    },
    "measureTemplate": {
      "type": "",
      "size": "0",
      "overrideColor": false,
      "customColor": "",
      "overrideTexture": false,
      "customTexture": ""
    },
    "attackName": "",
    "actionType": "spellsave",
    "attackBonus": "",
    "critConfirmBonus": "",
    "damage": {
      "parts": [],
      "critParts": [],
      "nonCritParts": []
    },
    "attackParts": [],
    "formula": "",
    "ability": {
      "attack": "",
      "damage": "",
      "damageMult": 1,
      "critRange": 20,
      "critMult": 2
    },
    "save": {
      "dc": "0",
      "type": "will",
      "description": "Will negates"
    },
    "effectNotes": "",
    "attackNotes": "",
    "soundEffect": "",
    "links": {
      "children": []
    },
    "learnedAt": {
      "class": [
        [
          "druid",
          4
        ],
        [
          "hunter",
          4
        ]
      ],
      "domain": [],
      "subDomain": [],
      "elementalSchool": [],
      "bloodline": []
    },
    "level": 4,
    "clOffset": 0,
    "slOffset": 0,
    "school": "trs",
    "subschool": "",
    "types": "",
    "nonlethal": false,
    "conditionals": [],
    "components": {
      "value": "",
      "verbal": true,
      "somatic": true,
      "material": true,
      "focus": false,
      "divineFocus": 0
    },
    "castTime": "",
    "materials": {
      "value": "a sliver of tree bark from a burnt tree from the Uskwood",
      "focus": "",
      "gpValue": 0
    },
    "spellbook": "primary",
    "preparation": {
      "preparedAmount": 0,
      "maxAmount": 0,
      "autoDeductCharges": true,
      "spontaneousPrepared": true,
      "mode": "prepared"
    },
    "atWill": false,
    "sr": true,
    "shortDescription": "<p>The twisted druids of the Uskwood forsook fire in ages past for the glory of Zon-Kuthon. Despite this aversion, these servants of Nidal know well the sting of flame, and have learned to turn it back on those that wield it. This spell creates a zone where magical fire effects twist and lash out against those who create the effects. A <i>zone of foul flames</i> looks unremarkable to the casual observer, but a Perception check (DC = 20 + the caster's level) reveals a faint rippling effect in the area, as if of heat distortions in the air.</p><p>Whenever a creature casts a spell with the fire descriptor or activates a magical fire effect (as from a magic item or a special attack) while that creature is located in a <i>zone of foul flames</i>, that creature takes full fire damage from the effect.</p><p>If the effect allows a saving throw to reduce the damage, the victim may attempt the same saving throw to reduce the damage. All creatures in a <i>zone of foul flames</i> gain a +4 circumstance bonus on all saving throws against fire effects, except for those made by a creature attempting to save against fire damage from his own magic. Nonmagical fire in a <i>zone of foul flames</i> burns half as brightly but is otherwise not affected.</p>",
    "spellDuration": "1 minute/level",
    "spellEffect": "",
    "spellArea": "20-ft.-radius spread",
    "showInQuickbar": false,
    "spellPoints": {
      "cost": "1 + @sl"
    },
    "domain": false,
    "slotCost": 1
  },
  "flags": {},
  "img": "systems/pf1/icons/misc/magic-swirl.png",
  "effects": []
}