{
  "_id": "iDlGMIezGuqqt8Us",
  "name": "Brawler",
  "permission": {
    "default": 0
  },
  "type": "class",
  "data": {
    "description": {
      "value": "<p>Deadly even with nothing in her hands, a brawler eschews using the fighter’s heavy armor and the monk’s mysticism, focusing instead on perfecting many styles of brutal unarmed combat. Versatile, agile, and able to adapt to most enemy attacks, a brawler’s body is a powerful weapon.</p>\n<p><strong>Role</strong>: Brawlers are maneuverable and well suited for creating flanking situations or dealing with lightly armored enemies, as well as quickly adapting to a rapidly changing battlefield.</p>\n<p><strong>Alignment</strong>: Any.</p>\n<p><strong>Hit Die</strong>: d10.</p>\n<p><strong>Parent Classes</strong>:&nbsp;<a href=\"https://www.d20pfsrd.com/classes/core-classes/fighter\">Fighter</a>&nbsp;and&nbsp;<a href=\"https://www.d20pfsrd.com/classes/core-classes/monk\">monk</a>.</p>\n<p><strong>Starting Wealth</strong>: 3d6 × 10 gp (average 105 gp.) In addition, each character begins play with an outfit worth 10 gp or less.</p>\n<h2><span id=\"Class_Skills\">Class Skills</span></h2>\n<p>The brawler’s class skills are&nbsp;<a href=\"https://www.d20pfsrd.com/skills/acrobatics\">Acrobatics</a>&nbsp;(<a href=\"https://www.d20pfsrd.com/basics-ability-scores/ability-scores#TOC-Dexterity-Dex-\">Dex</a>),&nbsp;<a href=\"https://www.d20pfsrd.com/skills/climb\">Climb</a>&nbsp;(<a href=\"https://www.d20pfsrd.com/basics-ability-scores/ability-scores#TOC-Strength-Str-\">Str</a>),&nbsp;<a href=\"https://www.d20pfsrd.com/skills/craft\">Craft</a>&nbsp;(<a href=\"https://www.d20pfsrd.com/basics-ability-scores/ability-scores#TOC-Intelligence-Int-\">Int</a>),&nbsp;<a href=\"https://www.d20pfsrd.com/skills/escape-artist\">Escape Artist</a>&nbsp;(<a href=\"https://www.d20pfsrd.com/basics-ability-scores/ability-scores#TOC-Dexterity-Dex-\">Dex</a>),&nbsp;<a href=\"https://www.d20pfsrd.com/skills/handle-animal\">Handle Animal</a>&nbsp;(<a href=\"https://www.d20pfsrd.com/basics-ability-scores/ability-scores#TOC-Charisma-Cha-\">Cha</a>),&nbsp;<a href=\"https://www.d20pfsrd.com/skills/intimidate\">Intimidate</a>&nbsp;(<a href=\"https://www.d20pfsrd.com/basics-ability-scores/ability-scores#TOC-Charisma-Cha-\">Cha</a>),&nbsp;<a href=\"https://www.d20pfsrd.com/skills/knowledge\">Knowledge</a>&nbsp;(dungeoneering) (<a href=\"https://www.d20pfsrd.com/basics-ability-scores/ability-scores#TOC-Intelligence-Int-\">Int</a>),&nbsp;<a href=\"https://www.d20pfsrd.com/skills/knowledge\">Knowledge</a>&nbsp;(local) (<a href=\"https://www.d20pfsrd.com/basics-ability-scores/ability-scores#TOC-Intelligence-Int-\">Int</a>),&nbsp;<a href=\"https://www.d20pfsrd.com/skills/perception\">Perception</a>&nbsp;(<a href=\"https://www.d20pfsrd.com/basics-ability-scores/ability-scores#TOC-Wisdom-Wis-\">Wis</a>),&nbsp;<a href=\"https://www.d20pfsrd.com/skills/profession\">Profession</a>&nbsp;(<a href=\"https://www.d20pfsrd.com/basics-ability-scores/ability-scores#TOC-Wisdom-Wis-\">Wis</a>),&nbsp;<a href=\"https://www.d20pfsrd.com/skills/ride\">Ride</a>&nbsp;(<a href=\"https://www.d20pfsrd.com/basics-ability-scores/ability-scores#TOC-Dexterity-Dex-\">Dex</a>),&nbsp;<a href=\"https://www.d20pfsrd.com/skills/sense-motive\">Sense Motive</a>&nbsp;(<a href=\"https://www.d20pfsrd.com/basics-ability-scores/ability-scores#TOC-Wisdom-Wis-\">Wis</a>), and&nbsp;<a href=\"https://www.d20pfsrd.com/skills/swim\">Swim</a>&nbsp;(<a href=\"https://www.d20pfsrd.com/basics-ability-scores/ability-scores#TOC-Strength-Str-\">Str</a>).</p>\n<p><strong>Skill Ranks per Level</strong>: 4 +&nbsp;<a href=\"https://www.d20pfsrd.com/basics-ability-scores/ability-scores#TOC-Intelligence-Int-\">Int</a> modifier.</p>",
      "chat": "",
      "unidentified": ""
    },
    "tags": [],
    "changes": [],
    "changeFlags": {
      "loseDexToAC": false,
      "noStr": false,
      "noDex": false,
      "oneInt": false,
      "oneWis": false,
      "oneCha": false,
      "noEncumbrance": false,
      "mediumArmorFullSpeed": false,
      "heavyArmorFullSpeed": false
    },
    "links": {
      "children": [],
      "classAssociations": [
        {
          "id": "pf1.class-abilities.W6lurGAdeDsAch3G",
          "dataType": "compendium",
          "name": "Improved Awesome Blow",
          "img": "systems/pf1/icons/skills/yellow_10.jpg",
          "hiddenLinks": {},
          "level": 20,
          "_index": 0
        },
        {
          "id": "pf1.class-abilities.EnMgClQRxY1GXg4e",
          "dataType": "compendium",
          "name": "Awesome Blow",
          "img": "systems/pf1/icons/skills/violet_28.jpg",
          "hiddenLinks": {},
          "level": 16,
          "_index": 1
        },
        {
          "id": "pf1.class-abilities.o8AEIzEXMjEZ2EX1",
          "dataType": "compendium",
          "name": "Bonus Combat Feats (BRA)",
          "img": "systems/pf1/icons/skills/gray_08.jpg",
          "hiddenLinks": {},
          "level": 2,
          "_index": 2
        },
        {
          "id": "pf1.class-abilities.6wtTc1PRWBKZuF9D",
          "dataType": "compendium",
          "name": "Brawler's Cunning",
          "img": "systems/pf1/icons/skills/yellow_08.jpg",
          "hiddenLinks": {},
          "level": 1,
          "_index": 3
        },
        {
          "id": "pf1.class-abilities.sOwXPOtI5IlEBKwr",
          "dataType": "compendium",
          "name": "Martial Flexibility",
          "img": "systems/pf1/icons/skills/yellow_27.jpg",
          "hiddenLinks": {},
          "level": 1,
          "_index": 4
        },
        {
          "id": "pf1.class-abilities.agVFqf3mfxf0l8oT",
          "dataType": "compendium",
          "name": "Martial Training",
          "img": "systems/pf1/icons/skills/blue_23.jpg",
          "hiddenLinks": {},
          "level": 1,
          "_index": 5
        },
        {
          "id": "pf1.class-abilities.dlrAyDyBF8ldtpH8",
          "dataType": "compendium",
          "name": "Unarmed Strike (BRA)",
          "img": "systems/pf1/icons/skills/blood_11.jpg",
          "hiddenLinks": {},
          "level": 1,
          "_index": 6
        },
        {
          "id": "pf1.class-abilities.UwcsrKHgN6mEo8Bd",
          "dataType": "compendium",
          "name": "Brawler's Flurry",
          "img": "systems/pf1/icons/skills/fire_07.jpg",
          "hiddenLinks": {},
          "level": 2,
          "_index": 7
        },
        {
          "id": "pf1.class-abilities.n1PlbzPfZGklyUVV",
          "dataType": "compendium",
          "name": "Maneuver Training (BRA)",
          "img": "systems/pf1/icons/feats/greater-sunder.jpg",
          "hiddenLinks": {},
          "level": 3,
          "_index": 8
        },
        {
          "id": "pf1.class-abilities.Z53orCz6KeTS5LOb",
          "dataType": "compendium",
          "name": "AC Bonus (BRA)",
          "img": "systems/pf1/icons/feats/dodge.jpg",
          "hiddenLinks": {},
          "level": 4,
          "_index": 9
        },
        {
          "id": "pf1.class-abilities.SQXP7EIAIH22DM39",
          "dataType": "compendium",
          "name": "Knockout",
          "img": "systems/pf1/icons/feats/extra-rage.jpg",
          "hiddenLinks": {},
          "level": 4,
          "_index": 10
        },
        {
          "id": "pf1.class-abilities.7ORiNdGyLzGddgNK",
          "dataType": "compendium",
          "name": "Brawler's Strike",
          "img": "systems/pf1/icons/feats/stunning-fist.jpg",
          "hiddenLinks": {},
          "level": 5,
          "_index": 11
        }
      ]
    },
    "tag": "brawler",
    "useCustomTag": true,
    "armorProf": {
      "value": [
        "lgt",
        "shl"
      ],
      "custom": ""
    },
    "weaponProf": {
      "value": [
        "sim"
      ],
      "custom": "Handaxe;Short sword;Close Weapon Group"
    },
    "classType": "base",
    "levels": {
      "value": 0,
      "_deprecated": true
    },
    "level": 1,
    "hd": 10,
    "hp": 10,
    "bab": "high",
    "skillsPerLevel": 4,
    "savingThrows": {
      "fort": {
        "value": "high"
      },
      "ref": {
        "value": "high"
      },
      "will": {
        "value": "low"
      }
    },
    "fc": {
      "hp": {
        "value": 0
      },
      "skill": {
        "value": 0
      },
      "alt": {
        "value": 0
      }
    },
    "classSkills": {
      "acr": true,
      "apr": false,
      "art": false,
      "blf": false,
      "clm": true,
      "crf": true,
      "dip": false,
      "dev": false,
      "dis": false,
      "esc": true,
      "fly": false,
      "han": true,
      "hea": false,
      "int": true,
      "kar": false,
      "kdu": true,
      "ken": false,
      "kge": false,
      "khi": false,
      "klo": true,
      "kna": false,
      "kno": false,
      "kpl": false,
      "kre": false,
      "lin": false,
      "lor": false,
      "per": true,
      "prf": false,
      "pro": true,
      "rid": true,
      "sen": true,
      "slt": false,
      "spl": false,
      "ste": false,
      "sur": false,
      "swm": true,
      "umd": false
    },
    "extraDescription": {
      "value": "<h2>Weapon and Armor Proficiency</h2>\n<p>A brawler is proficient with all simple weapons plus the&nbsp;<a href=\"https://www.d20pfsrd.com/equipment/weapons/weapon-descriptions/handaxe\">handaxe</a>, short sword, and weapons from the close&nbsp;<a href=\"https://www.d20pfsrd.com/classes/core-classes/fighter\">fighter</a>&nbsp;weapon group. She is proficient with light armor and shields (except tower shields).</p>\n<h2>Brawler's Cunning (Ex)</h2>\n<p>If the brawler’s&nbsp;<a href=\"https://www.d20pfsrd.com/basics-ability-scores/ability-scores#TOC-Intelligence-Int-\">Intelligence</a>&nbsp;score is less than 13, it counts as 13 for the purpose of meeting the prerequisites of&nbsp;<a href=\"https://www.d20pfsrd.com/feats/combat-feats\">combat feats</a>.</p>\n<h2>Martial Flexibility (Ex)</h2>\n<p>A brawler can take a&nbsp;<a href=\"https://www.d20pfsrd.com/gamemastering/combat#TOC-Move-Actions\">move action</a>&nbsp;to gain the benefit of a&nbsp;<a href=\"https://www.d20pfsrd.com/feats/combat-feats\">combat feat</a>&nbsp;she doesn’t possess. This effect lasts for 1 minute. The brawler must meet all the feat’s prerequisites. She may use this ability a number of times per day equal to 3 + 1/2 her brawler level (minimum 1).</p>\n<p>The brawler can use this ability again before the duration expires in order to replace the previous&nbsp;<a href=\"https://www.d20pfsrd.com/feats/combat-feats\">combat feat</a>&nbsp;with another choice.</p>\n<p>If a&nbsp;<a href=\"https://www.d20pfsrd.com/feats/combat-feats\">combat feat</a>&nbsp;has a daily use limitation (such as&nbsp;<a href=\"https://www.d20pfsrd.com/feats/combat-feats/stunning-fist-combat\">Stunning Fist</a>), any uses of that&nbsp;<a href=\"https://www.d20pfsrd.com/feats/combat-feats\">combat feat</a>&nbsp;while using this ability count toward that feat’s daily limit.</p>\n<p>At 6th level, a brawler can use this ability to gain the benefit of two&nbsp;<a href=\"https://www.d20pfsrd.com/feats/combat-feats\">combat feats</a>&nbsp;at the same time. She may select one feat as a&nbsp;<a href=\"https://www.d20pfsrd.com/gamemastering/combat#TOC-Swift-Actions\">swift action</a>&nbsp;or two feats as a&nbsp;<a href=\"https://www.d20pfsrd.com/gamemastering/combat#TOC-Move-Actions\">move action</a>. She may use one of these feats to meet a prerequisite of the second feat; doing so means that she cannot replace a feat currently fulfilling another’s prerequisite without also replacing those feats that require it. Each individual feat selected counts toward her daily uses of this ability.</p>\n<p>At 10th level, a brawler can use this ability to gain the benefit of three&nbsp;<a href=\"https://www.d20pfsrd.com/feats/combat-feats\">combat feats</a>&nbsp;at the same time. She may select one feat as a&nbsp;<a href=\"https://www.d20pfsrd.com/gamemastering/combat#TOC-Free-Actions\">free action</a>, two feats as a&nbsp;<a href=\"https://www.d20pfsrd.com/gamemastering/combat#TOC-Swift-Actions\">swift action</a>, or three feats as a&nbsp;<a href=\"https://www.d20pfsrd.com/gamemastering/combat#TOC-Move-Actions\">move action</a>. She may use one of the feats to meet a prerequisite of the second and third feats, and use the second feat to meet a prerequisite of the third feat. Each individual feat selected counts toward her daily uses of this ability.</p>\n<p>At 12th level, a brawler can use this ability to gain the benefit of one&nbsp;<a href=\"https://www.d20pfsrd.com/feats/combat-feats\">combat feat</a>&nbsp;as an&nbsp;<a href=\"https://www.d20pfsrd.com/gamemastering/combat#TOC-Immediate-Actions\">immediate action</a>&nbsp;or three&nbsp;<a href=\"https://www.d20pfsrd.com/feats/combat-feats\">combat feats</a>&nbsp;as a&nbsp;<a href=\"https://www.d20pfsrd.com/gamemastering/combat#TOC-Swift-Actions\">swift action</a>. Each individual feat selected counts toward her daily uses of this ability.</p>\n<p>At 20th level, a brawler can use this ability to gain the benefit of any number of&nbsp;<a href=\"https://www.d20pfsrd.com/feats/combat-feats\">combat feats</a>&nbsp;as a&nbsp;<a href=\"https://www.d20pfsrd.com/gamemastering/combat#TOC-Swift-Actions\">swift action</a>. Each feat selected counts toward her daily uses of this ability.</p>\n<h2>Martial Training (Ex)</h2>\n<p>At 1st level, a brawler counts her total brawler levels as both&nbsp;<a href=\"https://www.d20pfsrd.com/classes/core-classes/fighter\">fighter</a>&nbsp;levels and&nbsp;<a href=\"https://www.d20pfsrd.com/classes/core-classes/monk\">monk</a>&nbsp;levels for the purpose of qualifying for feats. She also counts as both a&nbsp;<a href=\"https://www.d20pfsrd.com/classes/core-classes/fighter\">fighter</a>&nbsp;and a&nbsp;<a href=\"https://www.d20pfsrd.com/classes/core-classes/monk\">monk</a>&nbsp;for feats and magic items that have different effects based on whether the character has levels in those classes (such as&nbsp;<a href=\"https://www.d20pfsrd.com/feats/combat-feats/stunning-fist-combat\">Stunning Fist</a>&nbsp;and a&nbsp;<a href=\"https://www.d20pfsrd.com/magic-items/wondrous-items/wondrous-items/r-z/robe-monk-s\">monk’s robe</a>). This ability does not automatically grant feats normally granted to&nbsp;<a href=\"https://www.d20pfsrd.com/classes/core-classes/fighter\">fighters</a>&nbsp;and&nbsp;<a href=\"https://www.d20pfsrd.com/classes/core-classes/monk\">monks</a>&nbsp;based on class level, namely&nbsp;<a href=\"https://www.d20pfsrd.com/feats/combat-feats/stunning-fist-combat\">Stunning Fist</a>.</p>\n<h2>Unarmed Strike</h2>\n<p>At 1st level, a brawler gains&nbsp;<a href=\"https://www.d20pfsrd.com/feats/combat-feats/improved-unarmed-strike-combat\">Improved Unarmed Strike</a>&nbsp;as a bonus feat. A brawler may attack with fists, elbows, knees, and feet. This means that a brawler may make unarmed strikes with her hands full. A brawler applies her full&nbsp;<a href=\"https://www.d20pfsrd.com/basics-ability-scores/ability-scores#TOC-Strength-Str-\">Strength</a>&nbsp;modifier (not half ) on damage rolls for all her unarmed strikes.</p>\n<p>Usually, a brawler’s unarmed strikes deal lethal damage, but she can choose to deal&nbsp;<a href=\"https://www.d20pfsrd.com/gamemastering/combat#TOC-Nonlethal-Damage\">nonlethal damage</a>&nbsp;instead with no penalty on her&nbsp;<a href=\"https://www.d20pfsrd.com/gamemastering/combat#TOC-Attack-Roll\">attack roll</a>. She has the same choice to deal lethal or&nbsp;<a href=\"https://www.d20pfsrd.com/gamemastering/combat#TOC-Nonlethal-Damage\">nonlethal damage</a>&nbsp;while&nbsp;<a href=\"https://www.d20pfsrd.com/gamemastering/combat#TOC-Grapple\">grappling</a>.</p>\n<p>A brawler’s&nbsp;<a href=\"https://www.d20pfsrd.com/equipment/weapons/weapon-descriptions/strike-unarmed\">unarmed strike</a>&nbsp;is treated as both a manufactured weapon and a&nbsp;<a href=\"https://www.d20pfsrd.com/bestiary/rules-for-monsters/universal-monster-rules#TOC-Natural-Attacks\">natural weapon</a>&nbsp;for the purpose of spells and effects that modify either manufactured weapons or&nbsp;<a href=\"https://www.d20pfsrd.com/bestiary/rules-for-monsters/universal-monster-rules#TOC-Natural-Attacks\">natural weapons</a>.</p>\n<p>A brawler also deals more damage with her unarmed strikes than others, as shown on&nbsp;Table: Brawler. The unarmed damage values listed on that table are for Medium brawlers. A Small brawler deals less damage than the amount given there with her unarmed attacks, while a Large brawler deals more damage; see the following table.</p>\n<table style=\"box-sizing: border-box; border-spacing: 0px; background-color: #ffffff; margin: 10px; table-layout: fixed; border-color: #888888; min-width: 200px; color: #333333; font-family: Varela, sans-serif;\" border=\"1\" cellpadding=\"5\"><caption style=\"box-sizing: border-box; padding: 10px 0px; color: black; text-align: left; font-weight: bold;\">Table: Small or Large Brawler Unarmed Damage</caption>\n<thead style=\"box-sizing: border-box; background-color: #cfe2f3;\">\n<tr style=\"box-sizing: border-box;\">\n<th class=\"text\" style=\"box-sizing: border-box; padding: 2px; text-align: left; border: 1px solid #888888;\">Level</th>\n<th class=\"text\" style=\"box-sizing: border-box; padding: 2px; text-align: left; border: 1px solid #888888;\">Small Brawler</th>\n<th class=\"text\" style=\"box-sizing: border-box; padding: 2px; text-align: left; border: 1px solid #888888;\">Large Brawler</th>\n</tr>\n</thead>\n<tbody style=\"box-sizing: border-box;\">\n<tr style=\"box-sizing: border-box;\">\n<td class=\"number\" style=\"box-sizing: border-box; padding: 2px; vertical-align: top; text-align: center; border: 1px solid #888888;\">1st-3rd</td>\n<td class=\"number\" style=\"box-sizing: border-box; padding: 2px; vertical-align: top; text-align: center; border: 1px solid #888888;\">1d4</td>\n<td class=\"number\" style=\"box-sizing: border-box; padding: 2px; vertical-align: top; text-align: center; border: 1px solid #888888;\">1d8</td>\n</tr>\n<tr style=\"box-sizing: border-box; background-color: #f3f3f3;\">\n<td class=\"number\" style=\"box-sizing: border-box; padding: 2px; vertical-align: top; text-align: center; border: 1px solid #888888;\">4th-7th</td>\n<td class=\"number\" style=\"box-sizing: border-box; padding: 2px; vertical-align: top; text-align: center; border: 1px solid #888888;\">1d6</td>\n<td class=\"number\" style=\"box-sizing: border-box; padding: 2px; vertical-align: top; text-align: center; border: 1px solid #888888;\">2d6</td>\n</tr>\n<tr style=\"box-sizing: border-box;\">\n<td class=\"number\" style=\"box-sizing: border-box; padding: 2px; vertical-align: top; text-align: center; border: 1px solid #888888;\">8th-11th</td>\n<td class=\"number\" style=\"box-sizing: border-box; padding: 2px; vertical-align: top; text-align: center; border: 1px solid #888888;\">1d8</td>\n<td class=\"number\" style=\"box-sizing: border-box; padding: 2px; vertical-align: top; text-align: center; border: 1px solid #888888;\">2d8</td>\n</tr>\n<tr style=\"box-sizing: border-box; background-color: #f3f3f3;\">\n<td class=\"number\" style=\"box-sizing: border-box; padding: 2px; vertical-align: top; text-align: center; border: 1px solid #888888;\">12th-15th</td>\n<td class=\"number\" style=\"box-sizing: border-box; padding: 2px; vertical-align: top; text-align: center; border: 1px solid #888888;\">1d10</td>\n<td class=\"number\" style=\"box-sizing: border-box; padding: 2px; vertical-align: top; text-align: center; border: 1px solid #888888;\">3d6</td>\n</tr>\n<tr style=\"box-sizing: border-box;\">\n<td class=\"number\" style=\"box-sizing: border-box; padding: 2px; vertical-align: top; text-align: center; border: 1px solid #888888;\">16th-19th</td>\n<td class=\"number\" style=\"box-sizing: border-box; padding: 2px; vertical-align: top; text-align: center; border: 1px solid #888888;\">2d6</td>\n<td class=\"number\" style=\"box-sizing: border-box; padding: 2px; vertical-align: top; text-align: center; border: 1px solid #888888;\">3d8</td>\n</tr>\n<tr style=\"box-sizing: border-box; background-color: #f3f3f3;\">\n<td class=\"number\" style=\"box-sizing: border-box; padding: 2px; vertical-align: top; text-align: center; border: 1px solid #888888;\">20th</td>\n<td class=\"number\" style=\"box-sizing: border-box; padding: 2px; vertical-align: top; text-align: center; border: 1px solid #888888;\">2d8</td>\n<td class=\"number\" style=\"box-sizing: border-box; padding: 2px; vertical-align: top; text-align: center; border: 1px solid #888888;\">4d8</td>\n</tr>\n</tbody>\n</table>\n<h2>Bonus Combat Feats</h2>\n<p>At 2nd level and every 3 levels thereafter, a brawler gains a bonus&nbsp;<a href=\"https://www.d20pfsrd.com/feats/combat-feats\">combat feat</a>&nbsp;in addition to those gained from normal advancement. These bonus feats must be ones that affect or improve her defenses or melee attacks. The brawler must meet the prerequisites of the selected bonus&nbsp;<a href=\"https://www.d20pfsrd.com/feats/combat-feats\">combat feat</a>.</p>\n<p>Upon reaching 5th level and every 3 levels thereafter, a brawler can choose to learn a new bonus&nbsp;<a href=\"https://www.d20pfsrd.com/feats/combat-feats\">combat feat</a>&nbsp;in place of a bonus&nbsp;<a href=\"https://www.d20pfsrd.com/feats/combat-feats\">combat feat</a>&nbsp;she has already learned. In effect, the brawler loses the bonus&nbsp;<a href=\"https://www.d20pfsrd.com/feats/combat-feats\">combat feat</a>&nbsp;in exchange for the new one. The old feat cannot be one that was used as a prerequisite for another feat, prestige class, or other ability. A brawler can only change one feat at any given level, and must choose whether or not to swap the feat at the time she gains a new bonus&nbsp;<a href=\"https://www.d20pfsrd.com/feats/combat-feats\">combat feat</a>&nbsp;for the level.</p>\n<h2>Brawler's Flurry (Ex)</h2>\n<p>Starting at 2nd level, a brawler can make a brawler’s flurry as a full-attack action. When doing so, a brawler has the&nbsp;<a href=\"https://www.d20pfsrd.com/feats/combat-feats/two-weapon-fighting-combat\">Two-Weapon Fighting</a>&nbsp;feat when attacking with any combination of unarmed strikes, weapons from the close&nbsp;<a href=\"https://www.d20pfsrd.com/classes/core-classes/fighter\">fighter</a>&nbsp;weapon group, or weapons with the “<a href=\"https://www.d20pfsrd.com/classes/core-classes/monk\">monk</a>” special feature. She does not need to use two different weapons to use this ability.</p>\n<p>A brawler applies her full&nbsp;<a href=\"https://www.d20pfsrd.com/basics-ability-scores/ability-scores#TOC-Strength-Str-\">Strength</a>&nbsp;modifier to her damage rolls for all attacks made with brawler’s flurry, whether the attacks are made with an off-hand weapon or a weapon wielded in both hands. A brawler can substitute&nbsp;<a href=\"https://www.d20pfsrd.com/gamemastering/combat#TOC-Disarm\">disarm</a>,&nbsp;<a href=\"https://www.d20pfsrd.com/gamemastering/combat#TOC-Sunder\">sunder</a>, and&nbsp;<a href=\"https://www.d20pfsrd.com/gamemastering/combat#TOC-Trip\">trip</a>&nbsp;<a href=\"https://www.d20pfsrd.com/gamemastering/combat#TOC-Combat-Maneuvers\">combat maneuvers</a>&nbsp;for unarmed attacks as part of brawler’s flurry. A brawler with&nbsp;<a href=\"https://www.d20pfsrd.com/bestiary/rules-for-monsters/universal-monster-rules#TOC-Natural-Attacks\">natural weapons</a>&nbsp;can’t use such weapons as part of brawler’s flurry, nor can she make&nbsp;<a href=\"https://www.d20pfsrd.com/bestiary/rules-for-monsters/universal-monster-rules#TOC-Natural-Attacks\">natural weapon</a>&nbsp;attacks in addition to her brawler’s flurry attacks.</p>\n<p>At 8th level, the brawler gains use of the&nbsp;<a href=\"https://www.d20pfsrd.com/feats/combat-feats/improved-two-weapon-fighting-combat\">Improved Two-Weapon Fighting</a>&nbsp;feat when using brawler’s flurry. At 15th level, she gains use of the&nbsp;<a href=\"https://www.d20pfsrd.com/feats/combat-feats/greater-two-weapon-fighting-combat\">Greater Two-Weapon Fighting</a>&nbsp;feat when using brawler’s flurry.</p>\n<h2>Maneuver Training (Ex)</h2>\n<p>At 3rd level, a brawler can select one&nbsp;<a href=\"https://www.d20pfsrd.com/gamemastering/combat#TOC-Combat-Maneuvers\">combat maneuver</a>&nbsp;to receive additional training. She gains a +1 bonus on&nbsp;<a href=\"https://www.d20pfsrd.com/gamemastering/combat#TOC-Combat-Maneuvers\">combat maneuver</a>&nbsp;checks when performing that&nbsp;<a href=\"https://www.d20pfsrd.com/gamemastering/combat#TOC-Combat-Maneuvers\">combat maneuver</a>&nbsp;and a +1 bonus to her&nbsp;<a href=\"https://www.d20pfsrd.com/gamemastering/combat#TOC-Combat-Maneuver-Defense\">CMD</a>&nbsp;when defending against that maneuver.</p>\n<p>At 7th level and every 4 levels thereafter, the brawler becomes further trained in another&nbsp;<a href=\"https://www.d20pfsrd.com/gamemastering/combat#TOC-Combat-Maneuvers\">combat maneuver</a>, gaining the above +1 bonus&nbsp;<a href=\"https://www.d20pfsrd.com/gamemastering/combat#TOC-Combat-Maneuvers\">combat maneuver</a>&nbsp;checks and to&nbsp;<a href=\"https://www.d20pfsrd.com/gamemastering/combat#TOC-Combat-Maneuver-Defense\">CMD</a>. In addition, the bonuses granted by all previous&nbsp;<a href=\"https://www.d20pfsrd.com/classes/core-classes/monk#TOC-Maneuver-Training-Ex-\">maneuver training</a>&nbsp;increase by 1 each. (For example, if a brawler chooses&nbsp;<a href=\"https://www.d20pfsrd.com/gamemastering/combat#TOC-Grapple\">grapple</a>&nbsp;at 3rd level and&nbsp;<a href=\"https://www.d20pfsrd.com/gamemastering/combat#TOC-Sunder\">sunder</a>&nbsp;at 7th level, her bonuses to&nbsp;<a href=\"https://www.d20pfsrd.com/gamemastering/combat#TOC-Grapple\">grapple</a>&nbsp;are +2 and bonuses to&nbsp;<a href=\"https://www.d20pfsrd.com/gamemastering/combat#TOC-Sunder\">sunder</a>&nbsp;are +1. If she then chooses&nbsp;<a href=\"https://www.d20pfsrd.com/gamemastering/combat#TOC-Bull-Rush\">bull rush</a>&nbsp;upon reaching 11th level, her bonuses to&nbsp;<a href=\"https://www.d20pfsrd.com/gamemastering/combat#TOC-Grapple\">grapple</a>&nbsp;are +3, to&nbsp;<a href=\"https://www.d20pfsrd.com/gamemastering/combat#TOC-Sunder\">sunder</a>&nbsp;are +2, and to&nbsp;<a href=\"https://www.d20pfsrd.com/gamemastering/combat#TOC-Bull-Rush\">bull rush</a>&nbsp;are +1.)</p>\n<h2>AC Bonus (Ex)</h2>\n<p>At 4th level, when a brawler wears light or no&nbsp;<a href=\"https://www.d20pfsrd.com/basics-ability-scores/glossary#TOC-Armor-Bonus\">armor</a>, she gains a +1&nbsp;<a href=\"https://www.d20pfsrd.com/basics-ability-scores/glossary#TOC-Dodge-Bonus\">dodge bonus</a>&nbsp;to AC and&nbsp;<a href=\"https://www.d20pfsrd.com/gamemastering/combat#TOC-Combat-Maneuver-Defense\">CMD</a>. This bonus increases by 1 at 9th, 13th, and 18th levels.</p>\n<p>These bonuses to AC apply against&nbsp;<a href=\"https://www.d20pfsrd.com/gamemastering/combat#TOC-Touch-Attacks\">touch</a>&nbsp;attacks. She loses these bonuses while immobilized or&nbsp;<a href=\"https://www.d20pfsrd.com/gamemastering/conditions#TOC-Helpless\">helpless</a>, wearing medium or heavy&nbsp;<a href=\"https://www.d20pfsrd.com/basics-ability-scores/glossary#TOC-Armor-Bonus\">armor</a>, or carrying a medium or heavy load.</p>\n<h2>Knockout (Ex)</h2>\n<p>At 4th level, once per day a brawler can unleash a devastating attack that can instantly knock a target&nbsp;<a href=\"https://www.d20pfsrd.com/gamemastering/conditions#TOC-Unconscious\">unconscious</a>. She must announce this intent before making her&nbsp;<a href=\"https://www.d20pfsrd.com/gamemastering/combat#TOC-Attack-Roll\">attack roll</a>. If the brawler hits and the target takes damage from the blow, the target must succeed at a&nbsp;<a href=\"https://www.d20pfsrd.com/gamemastering/combat#TOC-Fortitude\">Fortitude</a>&nbsp;saving throw (DC = 10 + 1/2 the brawler’s level + the higher of the brawler’s&nbsp;<a href=\"https://www.d20pfsrd.com/basics-ability-scores/ability-scores#TOC-Strength-Str-\">Strength</a>&nbsp;or&nbsp;<a href=\"https://www.d20pfsrd.com/basics-ability-scores/ability-scores#TOC-Dexterity-Dex-\">Dexterity</a>&nbsp;modifier) or fall&nbsp;<a href=\"https://www.d20pfsrd.com/gamemastering/conditions#TOC-Unconscious\">unconscious</a>&nbsp;for 1d6 rounds. Each round on its turn, the&nbsp;<a href=\"https://www.d20pfsrd.com/gamemastering/conditions#TOC-Unconscious\">unconscious</a>&nbsp;target may attempt a new saving throw to end the effect as a&nbsp;<a href=\"https://www.d20pfsrd.com/gamemastering/combat#TOC-Full-Round-Actions\">full-round action</a>&nbsp;that does not provoke&nbsp;<a href=\"https://www.d20pfsrd.com/gamemastering/combat#TOC-Attacks-of-Opportunity\">attacks of opportunity</a>. Creatures immune to critical hits or&nbsp;<a href=\"https://www.d20pfsrd.com/gamemastering/combat#TOC-Nonlethal-Damage\">nonlethal damage</a>&nbsp;are immune to this ability. At 10th level, the brawler may use this ability twice per day; at 16th level, she may use it three times per day.</p>\n<h2>Brawler's Strike (Ex)</h2>\n<p>At 5th level, a brawler’s unarmed strikes are treated as magic weapons for the purpose of overcoming&nbsp;<a href=\"https://www.d20pfsrd.com/gamemastering/special-abilities#TOC-Damage-Reduction\">damage reduction</a>. At 9th level, her unarmed attacks are also treated as&nbsp;<a href=\"https://www.d20pfsrd.com/equipment/special-materials#TOC-Iron-Cold\">cold iron</a>&nbsp;and silver for the purpose of overcoming&nbsp;<a href=\"https://www.d20pfsrd.com/gamemastering/special-abilities#TOC-Damage-Reduction\">damage reduction</a>. At 12th level, she chooses one&nbsp;<a href=\"https://www.d20pfsrd.com/basics-ability-scores/glossary#TOC-Alignment\">alignment</a>&nbsp;component: chaotic, evil, good, or lawful; her unarmed strikes also count as this&nbsp;<a href=\"https://www.d20pfsrd.com/basics-ability-scores/glossary#TOC-Alignment\">alignment</a>&nbsp;for the purpose of overcoming&nbsp;<a href=\"https://www.d20pfsrd.com/gamemastering/special-abilities#TOC-Damage-Reduction\">damage reduction</a>. (This&nbsp;<a href=\"https://www.d20pfsrd.com/basics-ability-scores/glossary#TOC-Alignment\">alignment</a>&nbsp;component cannot be the opposite of the brawler’s actual&nbsp;<a href=\"https://www.d20pfsrd.com/basics-ability-scores/glossary#TOC-Alignment\">alignment</a>, such as a good brawler choosing evil strikes.) At 17th level, her unarmed attacks are also treated as&nbsp;<a href=\"https://www.d20pfsrd.com/equipment/special-materials#TOC-Adamantine\">adamantine</a>&nbsp;weapons for the purpose of overcoming&nbsp;<a href=\"https://www.d20pfsrd.com/gamemastering/special-abilities#TOC-Damage-Reduction\">damage reduction</a>&nbsp;and bypassing&nbsp;<a href=\"https://www.d20pfsrd.com/equipment/damaging-objects#TOC-Hardness\">hardness</a>.</p>\n<h2>Close Weapon Mastery (Ex)</h2>\n<p>At 5th level, a brawler’s damage with close weapons increases. When wielding a close weapon, she uses the&nbsp;<a href=\"https://www.d20pfsrd.com/equipment/weapons/weapon-descriptions/strike-unarmed\">unarmed strike</a>&nbsp;damage of a brawler 4 levels lower instead of the base damage for that weapon (for example, a 5th-level Medium brawler wielding a punching&nbsp;<a href=\"https://www.d20pfsrd.com/equipment/weapons/weapon-descriptions/dagger\">dagger</a>&nbsp;deals 1d6 points of damage instead of the weapon’s normal 1d4). If the weapon normally deals more damage than this, its damage is unchanged. This ability does not affect any other aspect of the weapon. The brawler can decide to use the weapon’s base damage instead of her adjusted&nbsp;<a href=\"https://www.d20pfsrd.com/equipment/weapons/weapon-descriptions/strike-unarmed\">unarmed strike</a>&nbsp;damage—this must be declared before the&nbsp;<a href=\"https://www.d20pfsrd.com/gamemastering/combat#TOC-Attack-Roll\">attack roll</a>&nbsp;is made.</p>\n<h2>Awesome Blow (Ex)</h2>\n<p>At 16th level, the brawler can as a&nbsp;<a href=\"https://www.d20pfsrd.com/gamemastering/combat#TOC-Standard-Actions\">standard action</a>&nbsp;perform an awesome blow&nbsp;<a href=\"https://www.d20pfsrd.com/gamemastering/combat#TOC-Combat-Maneuvers\">combat maneuver</a>&nbsp;against a corporeal creature of her size or smaller. If the&nbsp;<a href=\"https://www.d20pfsrd.com/gamemastering/combat#TOC-Combat-Maneuvers\">combat maneuver</a>&nbsp;check succeeds, the opponent takes damage as if the brawler hit it with the close weapon she is wielding or an&nbsp;<a href=\"https://www.d20pfsrd.com/equipment/weapons/weapon-descriptions/strike-unarmed\">unarmed strike</a>, it is knocked flying 10 feet in a direction of the brawler’s choice, and it falls&nbsp;<a href=\"https://www.d20pfsrd.com/gamemastering/conditions#TOC-Prone\">prone</a>. The brawler can only push the opponent in a straight line, and the opponent can’t move closer to the brawler than the square it started in. If an obstacle prevents the completion of the opponent’s move, the opponent and the obstacle each take 1d6 points of damage, and the opponent is knocked&nbsp;<a href=\"https://www.d20pfsrd.com/gamemastering/conditions#TOC-Prone\">prone</a>&nbsp;in the space adjacent to the obstacle. (Unlike the&nbsp;<a href=\"https://www.d20pfsrd.com/feats/monster-feats/awesome-blow\">Awesome Blow</a>&nbsp;monster feat, the brawler can be of any size to use this ability.)</p>\n<h2>Improved Awesome Blow (Ex)</h2>\n<p>At 20th level, the brawler can use her awesome blow ability as an attack rather than as a&nbsp;<a href=\"https://www.d20pfsrd.com/gamemastering/combat#TOC-Standard-Actions\">standard action</a>. She may use it on creatures of any size. If the maneuver roll is a natural 20, the brawler can immediately attempt to confirm the critical by rolling another&nbsp;<a href=\"https://www.d20pfsrd.com/gamemastering/combat#TOC-Combat-Maneuvers\">combat maneuver</a>&nbsp;check with all the same modifiers as the one just rolled; if the confirmation roll is successful, the attack deals double damage, and the damage from hitting an obstacle (if any) is also doubled.</p>",
      "chat": "",
      "unidentified": ""
    },
    "damage": {
      "parts": [],
      "critParts": [],
      "nonCritParts": []
    },
    "preparation": {
      "maxAmount": 0
    },
    "weaponData": {
      "critRange": 20,
      "critMult": 2
    },
    "uses": {
      "value": 0,
      "max": 0
    }
  },
  "flags": {},
  "img": "systems/pf1/icons/skills/blood_11.jpg",
  "effects": []
}