{
  "_id": "Immo2BuSe5WGdRW9",
  "name": "Hunter",
  "permission": {
    "default": 0
  },
  "type": "class",
  "data": {
    "description": {
      "value": "<p>Hunters are warriors of the wilds that have forged close bonds with trusted animal companions. They focus their tactics on fighting alongside their companion animals as a formidable team of two. Able to cast a wide variety of nature spells and take on the abilities and attributes of beasts, hunters magically improve both themselves and their animal companions.</p>\n<p><strong>Role</strong>: Hunters can adapt their tactics to many kinds of opponents, and cherish their highly trained animal companions. As a team, the hunter and her companion can react to danger with incredible speed, making them excellent scouts, explorers, and saboteurs.</p>\n<p><strong>Alignment</strong>: Any neutral.</p>\n<p><strong>Hit Die</strong>: d8.</p>\n<p><strong>Parent Classes</strong>:&nbsp;<a href=\"https://www.d20pfsrd.com/classes/core-classes/druid\">Druid</a>&nbsp;and&nbsp;<a href=\"https://www.d20pfsrd.com/classes/core-classes/ranger\">ranger</a>.</p>\n<p><strong>Starting Wealth</strong>: 4d6 × 10 gp (average 140 gp.) In addition, each character begins play with an outfit worth 10 gp or less.</p>\n<h2><span id=\"Class_Skills\">Class Skills</span></h2>\n<p>The hunter’s class skills are <a href=\"https://www.d20pfsrd.com/skills/climb\">Climb</a>&nbsp;(<a href=\"https://www.d20pfsrd.com/basics-ability-scores/ability-scores#TOC-Strength-Str-\">Str</a>), <a href=\"https://www.d20pfsrd.com/skills/craft\">Craft</a>&nbsp;(<a href=\"https://www.d20pfsrd.com/basics-ability-scores/ability-scores#TOC-Intelligence-Int-\">Int</a>), <a href=\"https://www.d20pfsrd.com/skills/handle-animal\">Handle Animal</a>&nbsp;(<a href=\"https://www.d20pfsrd.com/basics-ability-scores/ability-scores#TOC-Charisma-Cha-\">Cha</a>), <a href=\"https://www.d20pfsrd.com/skills/heal\">Heal</a>&nbsp;(<a href=\"https://www.d20pfsrd.com/basics-ability-scores/ability-scores#TOC-Wisdom-Wis-\">Wis</a>), <a href=\"https://www.d20pfsrd.com/skills/intimidate\">Intimidate</a>&nbsp;(<a href=\"https://www.d20pfsrd.com/basics-ability-scores/ability-scores#TOC-Charisma-Cha-\">Cha</a>), <a href=\"https://www.d20pfsrd.com/skills/knowledge\">Knowledge</a>&nbsp;(dungeoneering) (<a href=\"https://www.d20pfsrd.com/basics-ability-scores/ability-scores#TOC-Intelligence-Int-\">Int</a>), <a href=\"https://www.d20pfsrd.com/skills/knowledge\">Knowledge</a>&nbsp;(geography) (<a href=\"https://www.d20pfsrd.com/basics-ability-scores/ability-scores#TOC-Intelligence-Int-\">Int</a>), <a href=\"https://www.d20pfsrd.com/skills/knowledge\">Knowledge</a>&nbsp;(nature) (<a href=\"https://www.d20pfsrd.com/basics-ability-scores/ability-scores#TOC-Intelligence-Int-\">Int</a>), <a href=\"https://www.d20pfsrd.com/skills/perception\">Perception</a>&nbsp;(<a href=\"https://www.d20pfsrd.com/basics-ability-scores/ability-scores#TOC-Wisdom-Wis-\">Wis</a>), <a href=\"https://www.d20pfsrd.com/skills/profession\">Profession</a>&nbsp;(<a href=\"https://www.d20pfsrd.com/basics-ability-scores/ability-scores#TOC-Wisdom-Wis-\">Wis</a>), <a href=\"https://www.d20pfsrd.com/skills/ride\">Ride</a>&nbsp;(<a href=\"https://www.d20pfsrd.com/basics-ability-scores/ability-scores#TOC-Dexterity-Dex-\">Dex</a>), <a href=\"https://www.d20pfsrd.com/skills/spellcraft\">Spellcraft</a>&nbsp;(<a href=\"https://www.d20pfsrd.com/basics-ability-scores/ability-scores#TOC-Intelligence-Int-\">Int</a>), <a href=\"https://www.d20pfsrd.com/skills/stealth\">Stealth</a>&nbsp;(<a href=\"https://www.d20pfsrd.com/basics-ability-scores/ability-scores#TOC-Dexterity-Dex-\">Dex</a>), <a href=\"https://www.d20pfsrd.com/skills/survival\">Survival</a>&nbsp;(<a href=\"https://www.d20pfsrd.com/basics-ability-scores/ability-scores#TOC-Wisdom-Wis-\">Wis</a>), and <a href=\"https://www.d20pfsrd.com/skills/swim\">Swim</a>&nbsp;(<a href=\"https://www.d20pfsrd.com/basics-ability-scores/ability-scores#TOC-Strength-Str-\">Str</a>).</p>\n<p><strong>Skill Ranks per Level</strong>: 6 +&nbsp;<a href=\"https://www.d20pfsrd.com/basics-ability-scores/ability-scores#TOC-Intelligence-Int-\">Int</a> modifier.</p>",
      "chat": "",
      "unidentified": ""
    },
    "tags": [],
    "changes": [],
    "changeFlags": {
      "loseDexToAC": false,
      "noStr": false,
      "noDex": false,
      "oneInt": false,
      "oneWis": false,
      "oneCha": false,
      "noEncumbrance": false,
      "mediumArmorFullSpeed": false,
      "heavyArmorFullSpeed": false
    },
    "links": {
      "children": [],
      "classAssociations": [
        {
          "id": "pf1.class-abilities.V7cGG7vKN0BY2Bhb",
          "dataType": "compendium",
          "name": "Animal Companion (HUN)",
          "img": "systems/pf1/icons/skills/blue_29.jpg",
          "hiddenLinks": {},
          "level": 1,
          "_index": 0
        },
        {
          "id": "pf1.class-abilities.4r83TfLHXrRmXtIn",
          "dataType": "compendium",
          "name": "Animal Focus",
          "img": "systems/pf1/icons/skills/blue_26.jpg",
          "hiddenLinks": {},
          "level": 1,
          "_index": 1
        },
        {
          "id": "pf1.class-abilities.qqfc9I2awuSdfCxf",
          "dataType": "compendium",
          "name": "Nature Training",
          "img": "systems/pf1/icons/skills/green_20.jpg",
          "hiddenLinks": {},
          "level": 1,
          "_index": 2
        },
        {
          "id": "pf1.class-abilities.Yr8dfM2d8JEWoYkr",
          "dataType": "compendium",
          "name": "Wild Empathy",
          "img": "systems/pf1/icons/skills/green_13.jpg",
          "hiddenLinks": {},
          "level": 1,
          "_index": 3
        },
        {
          "id": "pf1.class-abilities.sxpGOVklEiwzkRjM",
          "dataType": "compendium",
          "name": "Precise Companion",
          "img": "systems/pf1/icons/skills/arrow_07.jpg",
          "hiddenLinks": {},
          "level": 2,
          "_index": 4
        },
        {
          "id": "pf1.class-abilities.r8wPs0bB3WhOLxbX",
          "dataType": "compendium",
          "name": "Track",
          "img": "systems/pf1/icons/skills/beast_01.jpg",
          "hiddenLinks": {},
          "level": 2,
          "_index": 5
        },
        {
          "id": "pf1.class-abilities.nE79k9XBL67xrLCT",
          "dataType": "compendium",
          "name": "Hunter Tactics",
          "img": "systems/pf1/icons/skills/beast_01.jpg",
          "hiddenLinks": {},
          "level": 3,
          "_index": 6
        },
        {
          "id": "pf1.class-abilities.Rh0LztkmetWVC6jk",
          "dataType": "compendium",
          "name": "Teamwork Feat (HUN)",
          "img": "systems/pf1/icons/skills/violet_03.jpg",
          "hiddenLinks": {},
          "level": 3,
          "_index": 7
        },
        {
          "id": "pf1.class-abilities.pGDnMUhjGfphXiJB",
          "dataType": "compendium",
          "name": "Improved Empathic Link",
          "img": "systems/pf1/icons/spells/link-spirit-2.jpg",
          "hiddenLinks": {},
          "level": 4,
          "_index": 8
        },
        {
          "id": "pf1.class-abilities.fkZVfqo0SOHAfJhh",
          "dataType": "compendium",
          "name": "Greater Empathic Link",
          "img": "systems/pf1/icons/spells/link-spirit-3.jpg",
          "hiddenLinks": {},
          "level": 14,
          "_index": 9
        },
        {
          "id": "pf1.class-abilities.5iXq1igb1Cq0qobT",
          "dataType": "compendium",
          "name": "Woodland Stride",
          "img": "systems/pf1/icons/skills/green_16.jpg",
          "hiddenLinks": {},
          "level": 5,
          "_index": 10
        },
        {
          "id": "pf1.class-abilities.VNAsksfmUCMQsoZE",
          "dataType": "compendium",
          "name": "Bonus Tricks",
          "img": "systems/pf1/icons/spells/wild-eerie-2.jpg",
          "hiddenLinks": {},
          "level": 7,
          "_index": 11
        },
        {
          "id": "pf1.class-abilities.sk0HNTe9lKBpHQpN",
          "dataType": "compendium",
          "name": "Swift Tracker",
          "img": "systems/pf1/icons/skills/green_20.jpg",
          "hiddenLinks": {},
          "level": 8,
          "_index": 12
        },
        {
          "id": "pf1.class-abilities.h0hqYiLG7hkjPCin",
          "dataType": "compendium",
          "name": "Raise Animal Companion",
          "img": "systems/pf1/icons/spells/heal-jade-2.jpg",
          "hiddenLinks": {},
          "level": 10,
          "_index": 13
        },
        {
          "id": "pf1.class-abilities.DnQK1UZ09ufe1Jmn",
          "dataType": "compendium",
          "name": "Speak with Master",
          "img": "systems/pf1/icons/spells/wild-orange-1.jpg",
          "hiddenLinks": {},
          "level": 11,
          "_index": 14
        },
        {
          "id": "pf1.class-abilities.A56OUZnIsE8ZMda2",
          "dataType": "compendium",
          "name": "One with the Wild",
          "img": "systems/pf1/icons/feats/deceitful.jpg",
          "hiddenLinks": {},
          "level": 17,
          "_index": 15
        },
        {
          "id": "pf1.class-abilities.GAHaeOGTBeR6LJ3K",
          "dataType": "compendium",
          "name": "Master Hunter",
          "img": "systems/pf1/icons/skills/arrow_06.jpg",
          "hiddenLinks": {},
          "level": 20,
          "_index": 16
        }
      ]
    },
    "tag": "hunter",
    "useCustomTag": true,
    "armorProf": {
      "value": [
        "lgt",
        "med",
        "shl"
      ],
      "custom": ""
    },
    "weaponProf": {
      "value": [
        "sim",
        "mar"
      ],
      "custom": ""
    },
    "classType": "base",
    "levels": {
      "value": 0,
      "_deprecated": true
    },
    "level": 1,
    "hd": 8,
    "hp": 8,
    "bab": "med",
    "skillsPerLevel": 6,
    "savingThrows": {
      "fort": {
        "value": "high"
      },
      "ref": {
        "value": "high"
      },
      "will": {
        "value": "low"
      }
    },
    "fc": {
      "hp": {
        "value": 0
      },
      "skill": {
        "value": 0
      },
      "alt": {
        "value": 0
      }
    },
    "classSkills": {
      "acr": false,
      "apr": false,
      "art": false,
      "blf": false,
      "clm": true,
      "crf": true,
      "dip": false,
      "dev": false,
      "dis": false,
      "esc": false,
      "fly": false,
      "han": true,
      "hea": true,
      "int": true,
      "kar": false,
      "kdu": true,
      "ken": false,
      "kge": true,
      "khi": false,
      "klo": false,
      "kna": true,
      "kno": false,
      "kpl": false,
      "kre": false,
      "lin": false,
      "lor": false,
      "per": true,
      "prf": false,
      "pro": true,
      "rid": true,
      "sen": false,
      "slt": false,
      "spl": true,
      "ste": true,
      "sur": true,
      "swm": true,
      "umd": false
    },
    "extraDescription": {
      "value": "<h2>Weapon and Armor Proficiency</h2>\n<p>A hunter is proficient with all simple and martial weapons and with light&nbsp;<a href=\"https://www.d20pfsrd.com/basics-ability-scores/glossary#TOC-Armor-Bonus\">armor</a>, medium&nbsp;<a href=\"https://www.d20pfsrd.com/basics-ability-scores/glossary#TOC-Armor-Bonus\">armor</a>, and shields (except tower shields).</p>\n<h2>Spell Casting</h2>\n<p>A hunter casts divine spells drawn from the&nbsp;<a href=\"https://www.d20pfsrd.com/magic/spell-lists-and-domains/spell-lists-druid\">druid</a>&nbsp;and&nbsp;<a href=\"https://www.d20pfsrd.com/magic/spell-lists-and-domains/spell-lists-ranger\">ranger</a>&nbsp;spell lists. Only&nbsp;<a href=\"https://www.d20pfsrd.com/magic/spell-lists-and-domains/spell-lists-druid\">druid spells</a>&nbsp;of 6th level and lower and&nbsp;<a href=\"https://www.d20pfsrd.com/magic/spell-lists-and-domains/spell-lists-ranger\">ranger spells</a>&nbsp;are considered to be part of the hunter spell list. If a spell appears on both the&nbsp;<a href=\"https://www.d20pfsrd.com/classes/core-classes/druid\">druid</a>&nbsp;and&nbsp;<a href=\"https://www.d20pfsrd.com/classes/core-classes/ranger\">ranger</a>&nbsp;spell lists, the hunter uses the lower of the two spell levels listed for the spell. For instance,&nbsp;<a href=\"https://www.d20pfsrd.com/magic/all-spells/r/reduce-animal\">reduce animal</a>&nbsp;is a 2nd-level&nbsp;<a href=\"https://www.d20pfsrd.com/magic/spell-lists-and-domains/spell-lists-druid\">druid spell</a>&nbsp;and a 3rd-level&nbsp;<a href=\"https://www.d20pfsrd.com/magic/spell-lists-and-domains/spell-lists-ranger\">ranger spell</a>, making it a 2nd-level hunter spell. Likewise,&nbsp;<a href=\"https://www.d20pfsrd.com/magic/all-spells/d/detect-poison\">detect poison</a>&nbsp;is a 0-level&nbsp;<a href=\"https://www.d20pfsrd.com/magic/spell-lists-and-domains/spell-lists-druid\">druid spell</a>&nbsp;and a 2nd-level&nbsp;<a href=\"https://www.d20pfsrd.com/magic/spell-lists-and-domains/spell-lists-ranger\">ranger spell</a>, making it a 0-level hunter spell. The hunter can cast any spell she knows without preparing it ahead of time. To learn or cast a spell, a hunter must have a&nbsp;<a href=\"https://www.d20pfsrd.com/basics-ability-scores/ability-scores#TOC-Wisdom-Wis-\">Wisdom</a>&nbsp;score equal to at least 10 + the spell’s level. The&nbsp;<a href=\"https://www.d20pfsrd.com/basics-ability-scores/glossary#TOC-Difficulty-Class-DC-\">Difficulty Class</a>&nbsp;for a saving throw against a hunter’s spell is 10 + the spell’s level + the hunter’s&nbsp;<a href=\"https://www.d20pfsrd.com/basics-ability-scores/ability-scores#TOC-Wisdom-Wis-\">Wisdom</a>&nbsp;modifier.</p>\n<p>A hunter cannot use spell completion or spell trigger magic items (without making a successful&nbsp;<a href=\"https://www.d20pfsrd.com/skills/use-magic-device\">Use Magic Device</a>&nbsp;check) of&nbsp;<a href=\"https://www.d20pfsrd.com/classes/core-classes/druid\">druid</a>&nbsp;spells of 7th level or higher. Her&nbsp;<a href=\"https://www.d20pfsrd.com/basics-ability-scores/glossary#TOC-Alignment\">alignment</a>&nbsp;may restrict her from casting certain spells opposed to her moral or ethical beliefs; see Chaotic, Evil, Good, and Lawful Spells below.</p>\n<p>Like other spellcasters, a hunter can cast only a certain number of spells of each spell level per day. Her base daily spell allotment is given on&nbsp;Table: Hunter. In addition, she receives bonus spells per day if she has a high&nbsp;<a href=\"https://www.d20pfsrd.com/basics-ability-scores/ability-scores#TOC-Wisdom-Wis-\">Wisdom</a>&nbsp;score.</p>\n<p>Unlike&nbsp;<a href=\"https://www.d20pfsrd.com/classes/core-classes/druid\">druids</a>&nbsp;and&nbsp;<a href=\"https://www.d20pfsrd.com/classes/core-classes/ranger\">rangers</a>, a hunter’s selection of spells is extremely limited. A hunter begins play knowing four 0-level spells and two 1st-level spells of her choice. At each new hunter level, she gains one or more new spells, as indicated on&nbsp;Table: Hunter Spells Known. Unlike spells per day, the number of spells a hunter knows is not affected by her&nbsp;<a href=\"https://www.d20pfsrd.com/basics-ability-scores/ability-scores#TOC-Wisdom-Wis-\">Wisdom</a>&nbsp;score; the numbers on&nbsp;Table: Hunter Spells Known&nbsp;are fixed.</p>\n<p>In addition to the spells gained by hunters as they gain levels, each hunter also automatically adds all&nbsp;<a href=\"https://www.d20pfsrd.com/magic/all-spells/s/summon-natures-ally\">summon nature’s ally</a>&nbsp;spells to her list of spells known. These spells are added as soon as the hunter is capable of casting them.</p>\n<p>At 5th level and at every 3 levels thereafter, a hunter can choose to learn a new spell in place of one she already knows. In effect, the hunter loses the old spell in exchange for the new one. The new spell’s level must be the same as that of the spell being exchanged. A hunter may swap only a single spell at any given level, and must choose whether or not to swap the spell at the same time that she gains new spells known for the level. She cannot swap any&nbsp;<a href=\"https://www.d20pfsrd.com/magic/all-spells/s/summon-natures-ally\">summon nature’s ally</a>&nbsp;spells.</p>\n<p>Unlike a&nbsp;<a href=\"https://www.d20pfsrd.com/classes/core-classes/druid\">druid</a>&nbsp;or&nbsp;<a href=\"https://www.d20pfsrd.com/classes/core-classes/ranger\">ranger</a>, a hunter need not prepare her spells in advance. She can cast any spell she knows at any time, assuming she has not yet used up her spells per day for that spell level.</p>\n<p><strong>Chaotic, Evil, Good, and Lawful Spells</strong>: A hunter can’t cast spells of an&nbsp;<a href=\"https://www.d20pfsrd.com/basics-ability-scores/glossary#TOC-Alignment\">alignment</a>&nbsp;opposed to her own or her deity’s (if she has one). Spells associated with particular alignments are indicated by the chaos, evil, good, and law descriptors in their spell descriptions.</p>\n<table style=\"box-sizing: border-box; border-spacing: 0px; background-color: #ffffff; margin: 10px; table-layout: fixed; border-color: #888888; min-width: 200px; color: #333333; font-family: Varela, sans-serif;\" border=\"1\" cellpadding=\"5\"><caption style=\"box-sizing: border-box; padding-top: 8px; padding-bottom: 8px; color: black; text-align: left; font-weight: bold;\">Table: Hunter Spells Known</caption>\n<thead style=\"box-sizing: border-box; background-color: #cfe2f3;\">\n<tr style=\"box-sizing: border-box;\">\n<th class=\"text\" style=\"box-sizing: border-box; padding: 2px; text-align: left; border: 1px solid #888888;\">Level</th>\n<th class=\"number\" style=\"box-sizing: border-box; padding: 2px; text-align: left; border: 1px solid #888888;\">0th</th>\n<th class=\"number\" style=\"box-sizing: border-box; padding: 2px; text-align: left; border: 1px solid #888888;\">1st</th>\n<th class=\"number\" style=\"box-sizing: border-box; padding: 2px; text-align: left; border: 1px solid #888888;\">2nd</th>\n<th class=\"number\" style=\"box-sizing: border-box; padding: 2px; text-align: left; border: 1px solid #888888;\">3rd</th>\n<th class=\"number\" style=\"box-sizing: border-box; padding: 2px; text-align: left; border: 1px solid #888888;\">4th</th>\n<th class=\"number\" style=\"box-sizing: border-box; padding: 2px; text-align: left; border: 1px solid #888888;\">5th</th>\n<th class=\"number\" style=\"box-sizing: border-box; padding: 2px; text-align: left; border: 1px solid #888888;\">6th</th>\n</tr>\n</thead>\n<tbody style=\"box-sizing: border-box;\">\n<tr style=\"box-sizing: border-box;\">\n<td class=\"number\" style=\"box-sizing: border-box; padding: 2px; vertical-align: top; text-align: center; border: 1px solid #888888;\">1st</td>\n<td class=\"number\" style=\"box-sizing: border-box; padding: 2px; vertical-align: top; text-align: center; border: 1px solid #888888;\">4</td>\n<td class=\"number\" style=\"box-sizing: border-box; padding: 2px; vertical-align: top; text-align: center; border: 1px solid #888888;\">2</td>\n<td class=\"marker\" style=\"box-sizing: border-box; padding: 2px; vertical-align: top; text-align: center; border: 1px solid #888888;\">—</td>\n<td class=\"marker\" style=\"box-sizing: border-box; padding: 2px; vertical-align: top; text-align: center; border: 1px solid #888888;\">—</td>\n<td class=\"marker\" style=\"box-sizing: border-box; padding: 2px; vertical-align: top; text-align: center; border: 1px solid #888888;\">—</td>\n<td class=\"marker\" style=\"box-sizing: border-box; padding: 2px; vertical-align: top; text-align: center; border: 1px solid #888888;\">—</td>\n<td class=\"marker\" style=\"box-sizing: border-box; padding: 2px; vertical-align: top; text-align: center; border: 1px solid #888888;\">—</td>\n</tr>\n<tr style=\"box-sizing: border-box; background-color: #f3f3f3;\">\n<td class=\"number\" style=\"box-sizing: border-box; padding: 2px; vertical-align: top; text-align: center; border: 1px solid #888888;\">2nd</td>\n<td class=\"number\" style=\"box-sizing: border-box; padding: 2px; vertical-align: top; text-align: center; border: 1px solid #888888;\">5</td>\n<td class=\"number\" style=\"box-sizing: border-box; padding: 2px; vertical-align: top; text-align: center; border: 1px solid #888888;\">3</td>\n<td class=\"marker\" style=\"box-sizing: border-box; padding: 2px; vertical-align: top; text-align: center; border: 1px solid #888888;\">—</td>\n<td class=\"marker\" style=\"box-sizing: border-box; padding: 2px; vertical-align: top; text-align: center; border: 1px solid #888888;\">—</td>\n<td class=\"marker\" style=\"box-sizing: border-box; padding: 2px; vertical-align: top; text-align: center; border: 1px solid #888888;\">—</td>\n<td class=\"marker\" style=\"box-sizing: border-box; padding: 2px; vertical-align: top; text-align: center; border: 1px solid #888888;\">—</td>\n<td class=\"marker\" style=\"box-sizing: border-box; padding: 2px; vertical-align: top; text-align: center; border: 1px solid #888888;\">—</td>\n</tr>\n<tr style=\"box-sizing: border-box;\">\n<td class=\"number\" style=\"box-sizing: border-box; padding: 2px; vertical-align: top; text-align: center; border: 1px solid #888888;\">3rd</td>\n<td class=\"number\" style=\"box-sizing: border-box; padding: 2px; vertical-align: top; text-align: center; border: 1px solid #888888;\">6</td>\n<td class=\"number\" style=\"box-sizing: border-box; padding: 2px; vertical-align: top; text-align: center; border: 1px solid #888888;\">4</td>\n<td class=\"marker\" style=\"box-sizing: border-box; padding: 2px; vertical-align: top; text-align: center; border: 1px solid #888888;\">—</td>\n<td class=\"marker\" style=\"box-sizing: border-box; padding: 2px; vertical-align: top; text-align: center; border: 1px solid #888888;\">—</td>\n<td class=\"marker\" style=\"box-sizing: border-box; padding: 2px; vertical-align: top; text-align: center; border: 1px solid #888888;\">—</td>\n<td class=\"marker\" style=\"box-sizing: border-box; padding: 2px; vertical-align: top; text-align: center; border: 1px solid #888888;\">—</td>\n<td class=\"marker\" style=\"box-sizing: border-box; padding: 2px; vertical-align: top; text-align: center; border: 1px solid #888888;\">—</td>\n</tr>\n<tr style=\"box-sizing: border-box; background-color: #f3f3f3;\">\n<td class=\"number\" style=\"box-sizing: border-box; padding: 2px; vertical-align: top; text-align: center; border: 1px solid #888888;\">4th</td>\n<td class=\"number\" style=\"box-sizing: border-box; padding: 2px; vertical-align: top; text-align: center; border: 1px solid #888888;\">6</td>\n<td class=\"number\" style=\"box-sizing: border-box; padding: 2px; vertical-align: top; text-align: center; border: 1px solid #888888;\">4</td>\n<td class=\"number\" style=\"box-sizing: border-box; padding: 2px; vertical-align: top; text-align: center; border: 1px solid #888888;\">2</td>\n<td class=\"marker\" style=\"box-sizing: border-box; padding: 2px; vertical-align: top; text-align: center; border: 1px solid #888888;\">—</td>\n<td class=\"marker\" style=\"box-sizing: border-box; padding: 2px; vertical-align: top; text-align: center; border: 1px solid #888888;\">—</td>\n<td class=\"marker\" style=\"box-sizing: border-box; padding: 2px; vertical-align: top; text-align: center; border: 1px solid #888888;\">—</td>\n<td class=\"marker\" style=\"box-sizing: border-box; padding: 2px; vertical-align: top; text-align: center; border: 1px solid #888888;\">—</td>\n</tr>\n<tr style=\"box-sizing: border-box;\">\n<td class=\"number\" style=\"box-sizing: border-box; padding: 2px; vertical-align: top; text-align: center; border: 1px solid #888888;\">5th</td>\n<td class=\"number\" style=\"box-sizing: border-box; padding: 2px; vertical-align: top; text-align: center; border: 1px solid #888888;\">6</td>\n<td class=\"number\" style=\"box-sizing: border-box; padding: 2px; vertical-align: top; text-align: center; border: 1px solid #888888;\">4</td>\n<td class=\"number\" style=\"box-sizing: border-box; padding: 2px; vertical-align: top; text-align: center; border: 1px solid #888888;\">3</td>\n<td class=\"marker\" style=\"box-sizing: border-box; padding: 2px; vertical-align: top; text-align: center; border: 1px solid #888888;\">—</td>\n<td class=\"marker\" style=\"box-sizing: border-box; padding: 2px; vertical-align: top; text-align: center; border: 1px solid #888888;\">—</td>\n<td class=\"marker\" style=\"box-sizing: border-box; padding: 2px; vertical-align: top; text-align: center; border: 1px solid #888888;\">—</td>\n<td class=\"marker\" style=\"box-sizing: border-box; padding: 2px; vertical-align: top; text-align: center; border: 1px solid #888888;\">—</td>\n</tr>\n<tr style=\"box-sizing: border-box; background-color: #f3f3f3;\">\n<td class=\"number\" style=\"box-sizing: border-box; padding: 2px; vertical-align: top; text-align: center; border: 1px solid #888888;\">6th</td>\n<td class=\"number\" style=\"box-sizing: border-box; padding: 2px; vertical-align: top; text-align: center; border: 1px solid #888888;\">6</td>\n<td class=\"number\" style=\"box-sizing: border-box; padding: 2px; vertical-align: top; text-align: center; border: 1px solid #888888;\">4</td>\n<td class=\"number\" style=\"box-sizing: border-box; padding: 2px; vertical-align: top; text-align: center; border: 1px solid #888888;\">4</td>\n<td class=\"marker\" style=\"box-sizing: border-box; padding: 2px; vertical-align: top; text-align: center; border: 1px solid #888888;\">—</td>\n<td class=\"marker\" style=\"box-sizing: border-box; padding: 2px; vertical-align: top; text-align: center; border: 1px solid #888888;\">—</td>\n<td class=\"marker\" style=\"box-sizing: border-box; padding: 2px; vertical-align: top; text-align: center; border: 1px solid #888888;\">—</td>\n<td class=\"marker\" style=\"box-sizing: border-box; padding: 2px; vertical-align: top; text-align: center; border: 1px solid #888888;\">—</td>\n</tr>\n<tr style=\"box-sizing: border-box;\">\n<td class=\"number\" style=\"box-sizing: border-box; padding: 2px; vertical-align: top; text-align: center; border: 1px solid #888888;\">7th</td>\n<td class=\"number\" style=\"box-sizing: border-box; padding: 2px; vertical-align: top; text-align: center; border: 1px solid #888888;\">6</td>\n<td class=\"number\" style=\"box-sizing: border-box; padding: 2px; vertical-align: top; text-align: center; border: 1px solid #888888;\">5</td>\n<td class=\"number\" style=\"box-sizing: border-box; padding: 2px; vertical-align: top; text-align: center; border: 1px solid #888888;\">4</td>\n<td class=\"number\" style=\"box-sizing: border-box; padding: 2px; vertical-align: top; text-align: center; border: 1px solid #888888;\">2</td>\n<td class=\"marker\" style=\"box-sizing: border-box; padding: 2px; vertical-align: top; text-align: center; border: 1px solid #888888;\">—</td>\n<td class=\"marker\" style=\"box-sizing: border-box; padding: 2px; vertical-align: top; text-align: center; border: 1px solid #888888;\">—</td>\n<td class=\"marker\" style=\"box-sizing: border-box; padding: 2px; vertical-align: top; text-align: center; border: 1px solid #888888;\">—</td>\n</tr>\n<tr style=\"box-sizing: border-box; background-color: #f3f3f3;\">\n<td class=\"number\" style=\"box-sizing: border-box; padding: 2px; vertical-align: top; text-align: center; border: 1px solid #888888;\">8th</td>\n<td class=\"number\" style=\"box-sizing: border-box; padding: 2px; vertical-align: top; text-align: center; border: 1px solid #888888;\">6</td>\n<td class=\"number\" style=\"box-sizing: border-box; padding: 2px; vertical-align: top; text-align: center; border: 1px solid #888888;\">5</td>\n<td class=\"number\" style=\"box-sizing: border-box; padding: 2px; vertical-align: top; text-align: center; border: 1px solid #888888;\">4</td>\n<td class=\"number\" style=\"box-sizing: border-box; padding: 2px; vertical-align: top; text-align: center; border: 1px solid #888888;\">3</td>\n<td class=\"marker\" style=\"box-sizing: border-box; padding: 2px; vertical-align: top; text-align: center; border: 1px solid #888888;\">—</td>\n<td class=\"marker\" style=\"box-sizing: border-box; padding: 2px; vertical-align: top; text-align: center; border: 1px solid #888888;\">—</td>\n<td class=\"marker\" style=\"box-sizing: border-box; padding: 2px; vertical-align: top; text-align: center; border: 1px solid #888888;\">—</td>\n</tr>\n<tr style=\"box-sizing: border-box;\">\n<td class=\"number\" style=\"box-sizing: border-box; padding: 2px; vertical-align: top; text-align: center; border: 1px solid #888888;\">9th</td>\n<td class=\"number\" style=\"box-sizing: border-box; padding: 2px; vertical-align: top; text-align: center; border: 1px solid #888888;\">6</td>\n<td class=\"number\" style=\"box-sizing: border-box; padding: 2px; vertical-align: top; text-align: center; border: 1px solid #888888;\">5</td>\n<td class=\"number\" style=\"box-sizing: border-box; padding: 2px; vertical-align: top; text-align: center; border: 1px solid #888888;\">4</td>\n<td class=\"number\" style=\"box-sizing: border-box; padding: 2px; vertical-align: top; text-align: center; border: 1px solid #888888;\">4</td>\n<td class=\"marker\" style=\"box-sizing: border-box; padding: 2px; vertical-align: top; text-align: center; border: 1px solid #888888;\">—</td>\n<td class=\"marker\" style=\"box-sizing: border-box; padding: 2px; vertical-align: top; text-align: center; border: 1px solid #888888;\">—</td>\n<td class=\"marker\" style=\"box-sizing: border-box; padding: 2px; vertical-align: top; text-align: center; border: 1px solid #888888;\">—</td>\n</tr>\n<tr style=\"box-sizing: border-box; background-color: #f3f3f3;\">\n<td class=\"number\" style=\"box-sizing: border-box; padding: 2px; vertical-align: top; text-align: center; border: 1px solid #888888;\">10th</td>\n<td class=\"number\" style=\"box-sizing: border-box; padding: 2px; vertical-align: top; text-align: center; border: 1px solid #888888;\">6</td>\n<td class=\"number\" style=\"box-sizing: border-box; padding: 2px; vertical-align: top; text-align: center; border: 1px solid #888888;\">5</td>\n<td class=\"number\" style=\"box-sizing: border-box; padding: 2px; vertical-align: top; text-align: center; border: 1px solid #888888;\">5</td>\n<td class=\"number\" style=\"box-sizing: border-box; padding: 2px; vertical-align: top; text-align: center; border: 1px solid #888888;\">4</td>\n<td class=\"number\" style=\"box-sizing: border-box; padding: 2px; vertical-align: top; text-align: center; border: 1px solid #888888;\">2</td>\n<td class=\"marker\" style=\"box-sizing: border-box; padding: 2px; vertical-align: top; text-align: center; border: 1px solid #888888;\">—</td>\n<td class=\"marker\" style=\"box-sizing: border-box; padding: 2px; vertical-align: top; text-align: center; border: 1px solid #888888;\">—</td>\n</tr>\n<tr style=\"box-sizing: border-box;\">\n<td class=\"number\" style=\"box-sizing: border-box; padding: 2px; vertical-align: top; text-align: center; border: 1px solid #888888;\">11th</td>\n<td class=\"number\" style=\"box-sizing: border-box; padding: 2px; vertical-align: top; text-align: center; border: 1px solid #888888;\">6</td>\n<td class=\"number\" style=\"box-sizing: border-box; padding: 2px; vertical-align: top; text-align: center; border: 1px solid #888888;\">6</td>\n<td class=\"number\" style=\"box-sizing: border-box; padding: 2px; vertical-align: top; text-align: center; border: 1px solid #888888;\">5</td>\n<td class=\"number\" style=\"box-sizing: border-box; padding: 2px; vertical-align: top; text-align: center; border: 1px solid #888888;\">4</td>\n<td class=\"number\" style=\"box-sizing: border-box; padding: 2px; vertical-align: top; text-align: center; border: 1px solid #888888;\">3</td>\n<td class=\"marker\" style=\"box-sizing: border-box; padding: 2px; vertical-align: top; text-align: center; border: 1px solid #888888;\">—</td>\n<td class=\"marker\" style=\"box-sizing: border-box; padding: 2px; vertical-align: top; text-align: center; border: 1px solid #888888;\">—</td>\n</tr>\n<tr style=\"box-sizing: border-box; background-color: #f3f3f3;\">\n<td class=\"number\" style=\"box-sizing: border-box; padding: 2px; vertical-align: top; text-align: center; border: 1px solid #888888;\">12th</td>\n<td class=\"number\" style=\"box-sizing: border-box; padding: 2px; vertical-align: top; text-align: center; border: 1px solid #888888;\">6</td>\n<td class=\"number\" style=\"box-sizing: border-box; padding: 2px; vertical-align: top; text-align: center; border: 1px solid #888888;\">6</td>\n<td class=\"number\" style=\"box-sizing: border-box; padding: 2px; vertical-align: top; text-align: center; border: 1px solid #888888;\">5</td>\n<td class=\"number\" style=\"box-sizing: border-box; padding: 2px; vertical-align: top; text-align: center; border: 1px solid #888888;\">4</td>\n<td class=\"number\" style=\"box-sizing: border-box; padding: 2px; vertical-align: top; text-align: center; border: 1px solid #888888;\">4</td>\n<td class=\"marker\" style=\"box-sizing: border-box; padding: 2px; vertical-align: top; text-align: center; border: 1px solid #888888;\">—</td>\n<td class=\"marker\" style=\"box-sizing: border-box; padding: 2px; vertical-align: top; text-align: center; border: 1px solid #888888;\">—</td>\n</tr>\n<tr style=\"box-sizing: border-box;\">\n<td class=\"number\" style=\"box-sizing: border-box; padding: 2px; vertical-align: top; text-align: center; border: 1px solid #888888;\">13th</td>\n<td class=\"number\" style=\"box-sizing: border-box; padding: 2px; vertical-align: top; text-align: center; border: 1px solid #888888;\">6</td>\n<td class=\"number\" style=\"box-sizing: border-box; padding: 2px; vertical-align: top; text-align: center; border: 1px solid #888888;\">6</td>\n<td class=\"number\" style=\"box-sizing: border-box; padding: 2px; vertical-align: top; text-align: center; border: 1px solid #888888;\">5</td>\n<td class=\"number\" style=\"box-sizing: border-box; padding: 2px; vertical-align: top; text-align: center; border: 1px solid #888888;\">5</td>\n<td class=\"number\" style=\"box-sizing: border-box; padding: 2px; vertical-align: top; text-align: center; border: 1px solid #888888;\">4</td>\n<td class=\"number\" style=\"box-sizing: border-box; padding: 2px; vertical-align: top; text-align: center; border: 1px solid #888888;\">2</td>\n<td class=\"marker\" style=\"box-sizing: border-box; padding: 2px; vertical-align: top; text-align: center; border: 1px solid #888888;\">—</td>\n</tr>\n<tr style=\"box-sizing: border-box; background-color: #f3f3f3;\">\n<td class=\"number\" style=\"box-sizing: border-box; padding: 2px; vertical-align: top; text-align: center; border: 1px solid #888888;\">14th</td>\n<td class=\"number\" style=\"box-sizing: border-box; padding: 2px; vertical-align: top; text-align: center; border: 1px solid #888888;\">6</td>\n<td class=\"number\" style=\"box-sizing: border-box; padding: 2px; vertical-align: top; text-align: center; border: 1px solid #888888;\">6</td>\n<td class=\"number\" style=\"box-sizing: border-box; padding: 2px; vertical-align: top; text-align: center; border: 1px solid #888888;\">6</td>\n<td class=\"number\" style=\"box-sizing: border-box; padding: 2px; vertical-align: top; text-align: center; border: 1px solid #888888;\">5</td>\n<td class=\"number\" style=\"box-sizing: border-box; padding: 2px; vertical-align: top; text-align: center; border: 1px solid #888888;\">4</td>\n<td class=\"number\" style=\"box-sizing: border-box; padding: 2px; vertical-align: top; text-align: center; border: 1px solid #888888;\">3</td>\n<td class=\"marker\" style=\"box-sizing: border-box; padding: 2px; vertical-align: top; text-align: center; border: 1px solid #888888;\">—</td>\n</tr>\n<tr style=\"box-sizing: border-box;\">\n<td class=\"number\" style=\"box-sizing: border-box; padding: 2px; vertical-align: top; text-align: center; border: 1px solid #888888;\">15th</td>\n<td class=\"number\" style=\"box-sizing: border-box; padding: 2px; vertical-align: top; text-align: center; border: 1px solid #888888;\">6</td>\n<td class=\"number\" style=\"box-sizing: border-box; padding: 2px; vertical-align: top; text-align: center; border: 1px solid #888888;\">6</td>\n<td class=\"number\" style=\"box-sizing: border-box; padding: 2px; vertical-align: top; text-align: center; border: 1px solid #888888;\">6</td>\n<td class=\"number\" style=\"box-sizing: border-box; padding: 2px; vertical-align: top; text-align: center; border: 1px solid #888888;\">5</td>\n<td class=\"number\" style=\"box-sizing: border-box; padding: 2px; vertical-align: top; text-align: center; border: 1px solid #888888;\">4</td>\n<td class=\"number\" style=\"box-sizing: border-box; padding: 2px; vertical-align: top; text-align: center; border: 1px solid #888888;\">4</td>\n<td class=\"marker\" style=\"box-sizing: border-box; padding: 2px; vertical-align: top; text-align: center; border: 1px solid #888888;\">—</td>\n</tr>\n<tr style=\"box-sizing: border-box; background-color: #f3f3f3;\">\n<td class=\"number\" style=\"box-sizing: border-box; padding: 2px; vertical-align: top; text-align: center; border: 1px solid #888888;\">16th</td>\n<td class=\"number\" style=\"box-sizing: border-box; padding: 2px; vertical-align: top; text-align: center; border: 1px solid #888888;\">6</td>\n<td class=\"number\" style=\"box-sizing: border-box; padding: 2px; vertical-align: top; text-align: center; border: 1px solid #888888;\">6</td>\n<td class=\"number\" style=\"box-sizing: border-box; padding: 2px; vertical-align: top; text-align: center; border: 1px solid #888888;\">6</td>\n<td class=\"number\" style=\"box-sizing: border-box; padding: 2px; vertical-align: top; text-align: center; border: 1px solid #888888;\">5</td>\n<td class=\"number\" style=\"box-sizing: border-box; padding: 2px; vertical-align: top; text-align: center; border: 1px solid #888888;\">5</td>\n<td class=\"number\" style=\"box-sizing: border-box; padding: 2px; vertical-align: top; text-align: center; border: 1px solid #888888;\">4</td>\n<td class=\"number\" style=\"box-sizing: border-box; padding: 2px; vertical-align: top; text-align: center; border: 1px solid #888888;\">2</td>\n</tr>\n<tr style=\"box-sizing: border-box;\">\n<td class=\"number\" style=\"box-sizing: border-box; padding: 2px; vertical-align: top; text-align: center; border: 1px solid #888888;\">17th</td>\n<td class=\"number\" style=\"box-sizing: border-box; padding: 2px; vertical-align: top; text-align: center; border: 1px solid #888888;\">6</td>\n<td class=\"number\" style=\"box-sizing: border-box; padding: 2px; vertical-align: top; text-align: center; border: 1px solid #888888;\">6</td>\n<td class=\"number\" style=\"box-sizing: border-box; padding: 2px; vertical-align: top; text-align: center; border: 1px solid #888888;\">6</td>\n<td class=\"number\" style=\"box-sizing: border-box; padding: 2px; vertical-align: top; text-align: center; border: 1px solid #888888;\">6</td>\n<td class=\"number\" style=\"box-sizing: border-box; padding: 2px; vertical-align: top; text-align: center; border: 1px solid #888888;\">5</td>\n<td class=\"number\" style=\"box-sizing: border-box; padding: 2px; vertical-align: top; text-align: center; border: 1px solid #888888;\">4</td>\n<td class=\"number\" style=\"box-sizing: border-box; padding: 2px; vertical-align: top; text-align: center; border: 1px solid #888888;\">3</td>\n</tr>\n<tr style=\"box-sizing: border-box; background-color: #f3f3f3;\">\n<td class=\"number\" style=\"box-sizing: border-box; padding: 2px; vertical-align: top; text-align: center; border: 1px solid #888888;\">18th</td>\n<td class=\"number\" style=\"box-sizing: border-box; padding: 2px; vertical-align: top; text-align: center; border: 1px solid #888888;\">6</td>\n<td class=\"number\" style=\"box-sizing: border-box; padding: 2px; vertical-align: top; text-align: center; border: 1px solid #888888;\">6</td>\n<td class=\"number\" style=\"box-sizing: border-box; padding: 2px; vertical-align: top; text-align: center; border: 1px solid #888888;\">6</td>\n<td class=\"number\" style=\"box-sizing: border-box; padding: 2px; vertical-align: top; text-align: center; border: 1px solid #888888;\">6</td>\n<td class=\"number\" style=\"box-sizing: border-box; padding: 2px; vertical-align: top; text-align: center; border: 1px solid #888888;\">5</td>\n<td class=\"number\" style=\"box-sizing: border-box; padding: 2px; vertical-align: top; text-align: center; border: 1px solid #888888;\">4</td>\n<td class=\"number\" style=\"box-sizing: border-box; padding: 2px; vertical-align: top; text-align: center; border: 1px solid #888888;\">4</td>\n</tr>\n<tr style=\"box-sizing: border-box;\">\n<td class=\"number\" style=\"box-sizing: border-box; padding: 2px; vertical-align: top; text-align: center; border: 1px solid #888888;\">19th</td>\n<td class=\"number\" style=\"box-sizing: border-box; padding: 2px; vertical-align: top; text-align: center; border: 1px solid #888888;\">6</td>\n<td class=\"number\" style=\"box-sizing: border-box; padding: 2px; vertical-align: top; text-align: center; border: 1px solid #888888;\">6</td>\n<td class=\"number\" style=\"box-sizing: border-box; padding: 2px; vertical-align: top; text-align: center; border: 1px solid #888888;\">6</td>\n<td class=\"number\" style=\"box-sizing: border-box; padding: 2px; vertical-align: top; text-align: center; border: 1px solid #888888;\">6</td>\n<td class=\"number\" style=\"box-sizing: border-box; padding: 2px; vertical-align: top; text-align: center; border: 1px solid #888888;\">5</td>\n<td class=\"number\" style=\"box-sizing: border-box; padding: 2px; vertical-align: top; text-align: center; border: 1px solid #888888;\">5</td>\n<td class=\"number\" style=\"box-sizing: border-box; padding: 2px; vertical-align: top; text-align: center; border: 1px solid #888888;\">4</td>\n</tr>\n<tr style=\"box-sizing: border-box; background-color: #f3f3f3;\">\n<td class=\"number\" style=\"box-sizing: border-box; padding: 2px; vertical-align: top; text-align: center; border: 1px solid #888888;\">20th</td>\n<td class=\"number\" style=\"box-sizing: border-box; padding: 2px; vertical-align: top; text-align: center; border: 1px solid #888888;\">6</td>\n<td class=\"number\" style=\"box-sizing: border-box; padding: 2px; vertical-align: top; text-align: center; border: 1px solid #888888;\">6</td>\n<td class=\"number\" style=\"box-sizing: border-box; padding: 2px; vertical-align: top; text-align: center; border: 1px solid #888888;\">6</td>\n<td class=\"number\" style=\"box-sizing: border-box; padding: 2px; vertical-align: top; text-align: center; border: 1px solid #888888;\">6</td>\n<td class=\"number\" style=\"box-sizing: border-box; padding: 2px; vertical-align: top; text-align: center; border: 1px solid #888888;\">6</td>\n<td class=\"number\" style=\"box-sizing: border-box; padding: 2px; vertical-align: top; text-align: center; border: 1px solid #888888;\">5</td>\n<td class=\"number\" style=\"box-sizing: border-box; padding: 2px; vertical-align: top; text-align: center; border: 1px solid #888888;\">5</td>\n</tr>\n</tbody>\n</table>\n<h2>Orisons</h2>\n<p>Hunters learn a number of orisons, or 0-level spells, as noted on&nbsp;Table: Hunter Spells Known. These spells are cast like any other spell, but they do not consume any slots and may be used again.</p>\n<h2>Animal Companion (Ex)</h2>\n<p>At 1st level, a hunter forms a bond with an&nbsp;<a href=\"https://www.d20pfsrd.com/classes/core-classes/druid/animal-companions\">animal companion</a>. A hunter may begin play with any of the&nbsp;<a href=\"https://www.d20pfsrd.com/bestiary/rules-for-monsters/creature-types#TOC-Animal\">animals</a>&nbsp;available to a&nbsp;<a href=\"https://www.d20pfsrd.com/classes/core-classes/druid\">druid</a>. This animal is a loyal companion that accompanies the hunter on her adventures. This ability functions like the&nbsp;<a href=\"https://www.d20pfsrd.com/classes/core-classes/druid\">druid</a>&nbsp;<a href=\"https://www.d20pfsrd.com/classes/core-classes/druid/animal-companions\">animal companion</a>&nbsp;ability (which is part of the&nbsp;<a href=\"https://www.d20pfsrd.com/classes/core-classes/druid#TOC-Nature-Bond-Ex-\">nature bond</a>&nbsp;class feature). The hunter’s effective&nbsp;<a href=\"https://www.d20pfsrd.com/classes/core-classes/druid\">druid</a>&nbsp;level is equal to her hunter level. If a character receives an&nbsp;<a href=\"https://www.d20pfsrd.com/classes/core-classes/druid/animal-companions\">animal companion</a>&nbsp;from more than one source, her effective&nbsp;<a href=\"https://www.d20pfsrd.com/classes/core-classes/druid\">druid</a>&nbsp;levels stack for the purposes of determining the companion’s statistics and abilities. A hunter may teach her companion hunter’s tricks from the skirmisher&nbsp;<a href=\"https://www.d20pfsrd.com/classes/core-classes/ranger\">ranger</a>&nbsp;archetype instead of standard tricks.&nbsp;The&nbsp;<a href=\"https://www.d20pfsrd.com/classes/core-classes/druid/animal-companions\">animal companion</a>&nbsp;can use skirmisher tricks when commanded, a number of times per day equal to half its&nbsp;<a href=\"https://www.d20pfsrd.com/basics-ability-scores/glossary#TOC-Hit-Dice-HD-\">Hit Dice</a>&nbsp;plus its&nbsp;<a href=\"https://www.d20pfsrd.com/basics-ability-scores/ability-scores#TOC-Wisdom-Wis-\">Wisdom</a>&nbsp;modifier.</p>\n<p>If a hunter releases her companion from service or her&nbsp;<a href=\"https://www.d20pfsrd.com/classes/core-classes/druid/animal-companions\">animal companion</a>&nbsp;perishes, she may gain a new one by performing a ceremony requiring 24 uninterrupted hours of prayer in the environment where the new companion typically lives. While the hunter’s&nbsp;<a href=\"https://www.d20pfsrd.com/classes/core-classes/druid/animal-companions\">animal companion</a>&nbsp;is&nbsp;<a href=\"https://www.d20pfsrd.com/gamemastering/conditions#TOC-Dead\">dead</a>, any&nbsp;<a href=\"https://www.d20pfsrd.com/bestiary/rules-for-monsters/creature-types#TOC-Animal\">animal</a>&nbsp;she summons with a&nbsp;<a href=\"https://www.d20pfsrd.com/magic/all-spells/s/summon-natures-ally\">summon nature’s ally</a>&nbsp;spell remains for 1 minute per level instead of 1 round per level. A hunter cannot have more than one&nbsp;<a href=\"https://www.d20pfsrd.com/magic/all-spells/s/summon-natures-ally\">summon nature’s ally</a>&nbsp;spell active in this way at one time. If this ability is used again, any existing&nbsp;<a href=\"https://www.d20pfsrd.com/magic/all-spells/s/summon-natures-ally\">summon nature’s ally</a>&nbsp;immediately ends.</p>\n<h2>Animal Focus (Su)</h2>\n<p>At 1st level, a hunter can take on the aspect of an animal as a&nbsp;<a href=\"https://www.d20pfsrd.com/gamemastering/combat#TOC-Swift-Actions\">swift action</a>. She must select one type of animal to emulate, gaining a bonus or special ability based on the type of animal emulated and her hunter level. The hunter can use this ability for a number of minutes per day equal to her level. This duration does not need to be consecutive, but must be spent in 1-minute increments. The hunter can emulate only one animal at a time.</p>\n<p>The hunter can also apply one of these aspects to her&nbsp;<a href=\"https://www.d20pfsrd.com/classes/core-classes/druid/animal-companions\">animal companion</a>. Unlike with the hunter herself, there is no duration on the animal aspect applied to her&nbsp;<a href=\"https://www.d20pfsrd.com/classes/core-classes/druid/animal-companions\">animal companion</a>. An aspect applied in this way does not count against the hunter’s minutes of duration per day—it remains in effect until the hunter changes it. The companion’s aspect can be the same aspect the hunter has taken on or a different one. The hunter can select or change the animal foci on both herself and her&nbsp;<a href=\"https://www.d20pfsrd.com/classes/core-classes/druid/animal-companions\">animal companion</a>&nbsp;as part of the same&nbsp;<a href=\"https://www.d20pfsrd.com/gamemastering/combat#TOC-Swift-Actions\">swift action</a>.</p>\n<p>If the hunter’s&nbsp;<a href=\"https://www.d20pfsrd.com/classes/core-classes/druid/animal-companions\">animal companion</a>&nbsp;is&nbsp;<a href=\"https://www.d20pfsrd.com/gamemastering/conditions#TOC-Dead\">dead</a>, the hunter can apply her companion’s animal focus to herself instead of her&nbsp;<a href=\"https://www.d20pfsrd.com/classes/core-classes/druid/animal-companions\">animal companion</a>. This is in addition to the normal one she can choose, and (as with a companion’s focus) remains in effect until the hunter changes it instead of counting against her minutes per day.</p>\n<div>\n<p><strong>Bat</strong>: The creature gains&nbsp;<a href=\"https://www.d20pfsrd.com/gamemastering/special-abilities#TOC-Darkvision\">darkvision</a>&nbsp;to a range of 60 feet. At 8th level, the range increases by 30 feet. At 15th level, the creature also gains&nbsp;<a href=\"https://www.d20pfsrd.com/gamemastering/special-abilities#TOC-Blindsight-and-Blindsense\">blindsense</a>&nbsp;to a range of 10 feet.</p>\n<p><strong>Bear</strong>: The creature gains a +2&nbsp;<a href=\"https://www.d20pfsrd.com/basics-ability-scores/glossary#TOC-Enhancement-Bonus\">enhancement bonus</a>&nbsp;to&nbsp;<a href=\"https://www.d20pfsrd.com/basics-ability-scores/ability-scores#TOC-Constitution-Con-\">Constitution</a>. This bonus increases to +4 at 8th level and +6 at 15th level.</p>\n<p><strong>Bull</strong>: The creature gains a +2&nbsp;<a href=\"https://www.d20pfsrd.com/basics-ability-scores/glossary#TOC-Enhancement-Bonus\">enhancement bonus</a>&nbsp;to&nbsp;<a href=\"https://www.d20pfsrd.com/basics-ability-scores/ability-scores#TOC-Strength-Str-\">Strength</a>. This bonus increases to +4 at 8th level and +6 at 15th level.</p>\n<p><strong>Falcon</strong>: The creature gains a +4&nbsp;<a href=\"https://www.d20pfsrd.com/basics-ability-scores/glossary#TOC-Competence-Bonus\">competence bonus</a>&nbsp;on&nbsp;<a href=\"https://www.d20pfsrd.com/skills/perception\">Perception</a>&nbsp;checks. This bonus increases to +6 at 8th level and +8 at 15th level.</p>\n<p><strong>Frog</strong>: The creature gains a +4&nbsp;<a href=\"https://www.d20pfsrd.com/basics-ability-scores/glossary#TOC-Competence-Bonus\">competence bonus</a>&nbsp;on&nbsp;<a href=\"https://www.d20pfsrd.com/skills/swim\">Swim</a>&nbsp;checks and on&nbsp;<a href=\"https://www.d20pfsrd.com/skills/acrobatics\">Acrobatics</a>&nbsp;checks to jump. These bonuses increase to +6 at 8th level and +8 at 15th level.</p>\n<p><strong>Monkey</strong>: The creature gains a +4&nbsp;<a href=\"https://www.d20pfsrd.com/basics-ability-scores/glossary#TOC-Competence-Bonus\">competence bonus</a>&nbsp;on&nbsp;<a href=\"https://www.d20pfsrd.com/skills/climb\">Climb</a>&nbsp;checks. This bonus increases to +6 at 8th level and +8 at 15th level.</p>\n<p><strong>Mouse</strong>: The creature gains&nbsp;<a href=\"https://www.d20pfsrd.com/classes/core-classes/rogue#TOC-Evasion-Ex-\">evasion</a>, as the&nbsp;<a href=\"https://www.d20pfsrd.com/classes/core-classes/rogue\">rogue</a>&nbsp;class feature. At 12th level, this increases to&nbsp;<a href=\"https://www.d20pfsrd.com/classes/core-classes/rogue#TOC-Improved-Evasion-Ex-\">improved evasion</a>, as the&nbsp;<a href=\"https://www.d20pfsrd.com/classes/core-classes/rogue\">rogue</a>&nbsp;<a href=\"https://www.d20pfsrd.com/classes/core-classes/rogue#TOC-Rogue-Talents\">advanced talent</a>.</p>\n<p><strong>Owl</strong>: The creature gains a +4&nbsp;<a href=\"https://www.d20pfsrd.com/basics-ability-scores/glossary#TOC-Competence-Bonus\">competence bonus</a>&nbsp;on&nbsp;<a href=\"https://www.d20pfsrd.com/skills/stealth\">Stealth</a>&nbsp;checks. This bonus increases to +6 at 8th level and +8 at 15th level.</p>\n<p><strong>Snake</strong>: The creature gains a +2 bonus on&nbsp;<a href=\"https://www.d20pfsrd.com/gamemastering/combat#TOC-Attack-Roll\">attack rolls</a>&nbsp;when making&nbsp;<a href=\"https://www.d20pfsrd.com/gamemastering/combat#TOC-Attacks-of-Opportunity\">attacks of opportunity</a>&nbsp;and a +2&nbsp;<a href=\"https://www.d20pfsrd.com/basics-ability-scores/glossary#TOC-Dodge-Bonus\">dodge bonus</a>&nbsp;to AC against&nbsp;<a href=\"https://www.d20pfsrd.com/gamemastering/combat#TOC-Attacks-of-Opportunity\">attacks of opportunity</a>. These bonuses increase to +4 at 8th level and +6 at 15th level.</p>\n<p><strong>Stag</strong>: The creature gains a 5-foot&nbsp;<a href=\"https://www.d20pfsrd.com/basics-ability-scores/glossary#TOC-Enhancement-Bonus\">enhancement bonus</a>&nbsp;to its base land speed. This bonus increases to 10 feet at 8th level and 20 feet at 15th level.</p>\n<p><strong>Tiger</strong>: The creature gains a +2&nbsp;<a href=\"https://www.d20pfsrd.com/basics-ability-scores/glossary#TOC-Enhancement-Bonus\">enhancement bonus</a>&nbsp;to&nbsp;<a href=\"https://www.d20pfsrd.com/basics-ability-scores/ability-scores#TOC-Dexterity-Dex-\">Dexterity</a>. This bonus increases to +4 at 8th level and +6 at 15th level.</p>\n<p><strong>Wolf</strong>: The creature gains the&nbsp;<a href=\"https://www.d20pfsrd.com/bestiary/rules-for-monsters/universal-monster-rules#TOC-Scent-Ex-\">scent</a>&nbsp;ability with a range of 10 feet. The range of this sense increases to 20 feet at 8th level and 30 feet at 15th level. The range doubles if the opponent is upwind, and is halved if the opponent is downwind.</p>\n<h2>Nature Training (Ex)</h2>\n<p>A hunter counts her total hunter level as both&nbsp;<a href=\"https://www.d20pfsrd.com/classes/core-classes/druid\">druid</a>&nbsp;levels and&nbsp;<a href=\"https://www.d20pfsrd.com/classes/core-classes/ranger\">ranger</a>&nbsp;levels for the purpose of qualifying for feats, traits, and options that modify or improve an&nbsp;<a href=\"https://www.d20pfsrd.com/classes/core-classes/druid/animal-companions\">animal companion</a>.</p>\n<h2>Wild Empathy (Ex)</h2>\n<p>A hunter can improve the initial attitude of an&nbsp;<a href=\"https://www.d20pfsrd.com/bestiary/rules-for-monsters/creature-types#TOC-Animal\">animal</a>. This ability functions as a&nbsp;<a href=\"https://www.d20pfsrd.com/skills/diplomacy\">Diplomacy</a>&nbsp;check to improve the attitude of a person. The hunter rolls 1d20 and adds her hunter level and her&nbsp;<a href=\"https://www.d20pfsrd.com/basics-ability-scores/ability-scores#TOC-Charisma-Cha-\">Charisma</a>&nbsp;modifier to determine the&nbsp;<a href=\"https://www.d20pfsrd.com/classes/core-classes/druid#TOC-Wild-Empathy-Ex-\">wild empathy</a>&nbsp;check result. The typical domestic&nbsp;<a href=\"https://www.d20pfsrd.com/bestiary/rules-for-monsters/creature-types#TOC-Animal\">animal</a>&nbsp;has a starting attitude of indifferent, while wild&nbsp;<a href=\"https://www.d20pfsrd.com/bestiary/rules-for-monsters/creature-types#TOC-Animal\">animals</a>&nbsp;are usually unfriendly.</p>\n<p>To use&nbsp;<a href=\"https://www.d20pfsrd.com/classes/core-classes/druid#TOC-Wild-Empathy-Ex-\">wild empathy</a>, the hunter and the&nbsp;<a href=\"https://www.d20pfsrd.com/bestiary/rules-for-monsters/creature-types#TOC-Animal\">animal</a>&nbsp;must be within 30 feet of one another under normal conditions. Generally, influencing an&nbsp;<a href=\"https://www.d20pfsrd.com/bestiary/rules-for-monsters/creature-types#TOC-Animal\">animal</a>&nbsp;in this way takes 1 minute but, as with influencing people, it might take more or less time.</p>\n<p>The hunter can also use this ability to influence a&nbsp;<a href=\"https://www.d20pfsrd.com/bestiary/rules-for-monsters/creature-types#TOC-Magical-Beast\">magical beast</a>&nbsp;with an&nbsp;<a href=\"https://www.d20pfsrd.com/basics-ability-scores/ability-scores#TOC-Intelligence-Int-\">Intelligence</a>&nbsp;score of 1 or 2, but she takes a –4 penalty on the check.</p>\n<h2>Precise Companion (Ex)</h2>\n<p>At 2nd level, a hunter chooses either&nbsp;<a href=\"https://www.d20pfsrd.com/feats/combat-feats/precise-shot-combat\">Precise Shot</a>&nbsp;or&nbsp;<a href=\"https://www.d20pfsrd.com/feats/combat-feats/outflank-combat-teamwork\">Outflank</a>&nbsp;as a bonus feat. She does not need to meet the prerequisites for this feat. If she chooses&nbsp;<a href=\"https://www.d20pfsrd.com/feats/combat-feats/outflank-combat-teamwork\">Outflank</a>, she automatically grants this feat to her&nbsp;<a href=\"https://www.d20pfsrd.com/classes/core-classes/druid/animal-companions\">animal companion</a>&nbsp;as well.</p>\n<h2>Track (Ex)</h2>\n<p>At 2nd level, a hunter adds 1/2 her level to&nbsp;<a href=\"https://www.d20pfsrd.com/skills/survival\">Survival</a>&nbsp;skill checks made to follow tracks.</p>\n<h2>Hunter Tactics (Ex)</h2>\n<p>At 3rd level, the hunter automatically grants her teamwork feats to her&nbsp;<a href=\"https://www.d20pfsrd.com/classes/core-classes/druid/animal-companions\">animal companion</a>. The companion doesn’t need to meet the prerequisites of these teamwork feats.</p>\n<h2>Teamwork Feat</h2>\n<p>At 3rd level and every 3 levels thereafter, the hunter gains a bonus teamwork feat in addition to those gained from normal advancement. The hunter must meet the prerequisites of the selected bonus teamwork feat.</p>\n<p>As a&nbsp;<a href=\"https://www.d20pfsrd.com/gamemastering/combat#TOC-Standard-Actions\">standard action</a>, the hunter can choose to learn a new bonus teamwork feat in place of the most recent bonus teamwork feat she has already learned. In effect, the hunter loses the bonus feat in exchange for the new one. She can change only the most recent teamwork feat gained, and must meet the prerequisites for the newly selected feat. A hunter can change her most recent teamwork feat a number of times per day equal to her&nbsp;<a href=\"https://www.d20pfsrd.com/basics-ability-scores/ability-scores#TOC-Wisdom-Wis-\">Wisdom</a>&nbsp;modifier (minimum 1). Whenever she gains a new teamwork feat, her previous teamwork feats become permanent.</p>\n<h2>Improved Empathic Link (Su)</h2>\n<p>At 4th level, the hunter gains an empathic link with her&nbsp;<a href=\"https://www.d20pfsrd.com/classes/core-classes/druid/animal-companions\">animal companion</a>. This functions like an empathic link with a&nbsp;<a href=\"https://www.d20pfsrd.com/classes/core-classes/wizard#TOC-Arcane-Bond-Ex-or-Sp-\">familiar</a>, except the hunter can also see through a companion’s eyes as a&nbsp;<a href=\"https://www.d20pfsrd.com/gamemastering/combat#TOC-Swift-Actions\">swift action</a>, maintaining this connection as long as she likes (as long as the companion is within 1 mile) and ending it as a&nbsp;<a href=\"https://www.d20pfsrd.com/gamemastering/combat#TOC-Free-Actions\">free action</a>. The hunter is&nbsp;<a href=\"https://www.d20pfsrd.com/gamemastering/conditions#TOC-Blinded\">blinded</a>&nbsp;while maintaining this connection.</p>\n<h2>Woodland Stride (Ex)</h2>\n<p>At 5th level, a hunter and her&nbsp;<a href=\"https://www.d20pfsrd.com/classes/core-classes/druid/animal-companions\">animal companion</a>&nbsp;may move through any sort of undergrowth (such as natural thorns, briars, overgrown areas, and similar terrain) at their normal speed and without taking damage or suffering any other impairment.</p>\n<p>Thorns, briars, and overgrown areas that are enchanted or magically manipulated to impede motion will still affect the hunter and her&nbsp;<a href=\"https://www.d20pfsrd.com/classes/core-classes/druid/animal-companions\">animal companion</a>.</p>\n<h2>Bonus Tricks (Ex)</h2>\n<p>At 7th level and every 6 levels thereafter, a hunter’s&nbsp;<a href=\"https://www.d20pfsrd.com/classes/core-classes/druid/animal-companions\">animal companion</a>&nbsp;learns a bonus trick (in addition to the bonus tricks gained from the hunter’s effective&nbsp;<a href=\"https://www.d20pfsrd.com/classes/core-classes/druid\">druid</a>&nbsp;level).</p>\n<h2>Second Animal Focus (Su)</h2>\n<p>At 8th level, whenever a hunter uses her animal focus ability, she selects two different&nbsp;<a href=\"https://www.d20pfsrd.com/bestiary/rules-for-monsters/creature-types#TOC-Animal\">animal</a>&nbsp;aspects for herself instead of one, and can assign two aspects to her companion instead of one. As with the companion’s previous aspect, the second one does not count against the minutes per day a hunter can take on an aspect.</p>\n<p>If the hunter’s&nbsp;<a href=\"https://www.d20pfsrd.com/classes/core-classes/druid/animal-companions\">animal companion</a>&nbsp;is&nbsp;<a href=\"https://www.d20pfsrd.com/gamemastering/conditions#TOC-Dead\">dead</a>&nbsp;and the hunter has applied the companion’s&nbsp;<a href=\"https://www.d20pfsrd.com/magic/all-spells/a/animal-aspect\">animal aspect</a>&nbsp;to herself, that aspect does not count toward her maximum of two aspects at once. The hunter can still apply only one of her&nbsp;<a href=\"https://www.d20pfsrd.com/gamemastering/conditions#TOC-Dead\">dead</a>&nbsp;companion’s aspects to herself, not both.</p>\n<h2>Swift Tracker (Ex)</h2>\n<p>At 8th level, a hunter can move at her normal speed while using&nbsp;<a href=\"https://www.d20pfsrd.com/skills/survival\">Survival</a>&nbsp;to follow tracks without taking the normal –5 penalty. She takes only a –10 penalty (instead of the normal –20) when moving at up to twice normal speed while tracking.</p>\n<h2>Raise Animal Companion (Sp)</h2>\n<p>At 10th level, a hunter gains&nbsp;<a href=\"https://www.d20pfsrd.com/magic/all-spells/r/raise-animal-companion\">raise animal companion</a>&nbsp;as a&nbsp;<a href=\"https://www.d20pfsrd.com/magic#TOC-Spell-Like-Abilities-Sp-\">spell-like ability</a>; this is not restricted to raising only her own&nbsp;<a href=\"https://www.d20pfsrd.com/classes/core-classes/druid/animal-companions\">animal companion</a>. Using this&nbsp;<a href=\"https://www.d20pfsrd.com/magic#TOC-Spell-Like-Abilities-Sp-\">spell-like ability</a>&nbsp;gives the hunter a permanent&nbsp;<a href=\"https://www.d20pfsrd.com/gamemastering/special-abilities#TOC-Energy-Drain-and-Negative-Levels\">negative level</a>. This&nbsp;<a href=\"https://www.d20pfsrd.com/gamemastering/special-abilities#TOC-Energy-Drain-and-Negative-Levels\">negative level</a>&nbsp;cannot be overcome in any way (including by&nbsp;<a href=\"https://www.d20pfsrd.com/magic/all-spells/r/restoration\">restoration</a>), but automatically ends after 24 hours. At 16th level, this functions as&nbsp;<a href=\"https://www.d20pfsrd.com/magic/all-spells/r/resurrection\">resurrection</a>&nbsp;instead of&nbsp;<a href=\"https://www.d20pfsrd.com/magic/all-spells/r/raise-dead\">raise dead</a>, but otherwise operates as normal.</p>\n<h2>Speak with Master (Ex)</h2>\n<p>At 11th level, a hunter and her&nbsp;<a href=\"https://www.d20pfsrd.com/classes/core-classes/druid/animal-companions\">animal companion</a>&nbsp;can communicate verbally, as if they were using a common language. Other creatures cannot understand the communication without magical aid.</p>\n<h2>Greater Empathic Link (Su)</h2>\n<p>At 14th level, the range of the hunter’s empathic link with her&nbsp;<a href=\"https://www.d20pfsrd.com/classes/core-classes/druid/animal-companions\">animal companion</a>&nbsp;increases to 10 miles. If the&nbsp;<a href=\"https://www.d20pfsrd.com/classes/core-classes/druid/animal-companions\">animal companion</a>&nbsp;is within 1 mile, the hunter can communicate with it telepathically.</p>\n<h2>One with the Wild (Ex)</h2>\n<p>At 17th level, the hunter and her&nbsp;<a href=\"https://www.d20pfsrd.com/classes/core-classes/druid/animal-companions\">animal companion</a>&nbsp;are respected or even feared by other&nbsp;<a href=\"https://www.d20pfsrd.com/bestiary/rules-for-monsters/creature-types#TOC-Animal\">animals</a>, so long as the&nbsp;<a href=\"https://www.d20pfsrd.com/bestiary/rules-for-monsters/creature-types#TOC-Animal\">animals</a>&nbsp;are approximately of the same type as any of the hunter’s current animal foci: bat for bats, tiger with felines, falcon for birds, snake for reptiles, and so on. No&nbsp;<a href=\"https://www.d20pfsrd.com/bestiary/rules-for-monsters/creature-types#TOC-Animal\">animal</a>&nbsp;in this category (including dire varieties) willingly attacks the hunter or her companion unless magically compelled to or if the hunter or companion attacks it first.</p>\n<p>The hunter and her companion can attempt to demoralize&nbsp;<a href=\"https://www.d20pfsrd.com/bestiary/rules-for-monsters/creature-types#TOC-Animal\">animals</a>&nbsp;in the appropriate category as a&nbsp;<a href=\"https://www.d20pfsrd.com/gamemastering/combat#TOC-Swift-Actions\">swift action</a>, rolling 1d20 and adding the hunter’s level and her&nbsp;<a href=\"https://www.d20pfsrd.com/basics-ability-scores/ability-scores#TOC-Charisma-Cha-\">Charisma</a>&nbsp;modifier to determine the&nbsp;<a href=\"https://www.d20pfsrd.com/skills/intimidate\">Intimidate</a>&nbsp;check result.</p>\n<h2>Master Hunter (Ex)</h2>\n<p>At 20th level, a hunter becomes a master hunter, able to track down foes with ease. She can always move at full speed while using&nbsp;<a href=\"https://www.d20pfsrd.com/skills/survival\">Survival</a>&nbsp;to follow tracks without penalty.</p>\n<p>Additionally, each day when the hunter regains her spell slots, she chooses one animal focus to be active on herself for the entire day. This focus is in addition to using her animal focus class ability (including the additional focus ability she is able to use on herself if her&nbsp;<a href=\"https://www.d20pfsrd.com/classes/core-classes/druid/animal-companions\">animal companion</a>&nbsp;is&nbsp;<a href=\"https://www.d20pfsrd.com/gamemastering/conditions#TOC-Dead\">dead</a>).</p>\n</div>",
      "chat": "",
      "unidentified": ""
    },
    "damage": {
      "parts": [],
      "critParts": [],
      "nonCritParts": []
    },
    "preparation": {
      "maxAmount": 0
    },
    "weaponData": {
      "critRange": 20,
      "critMult": 2
    },
    "uses": {
      "value": 0,
      "max": 0
    }
  },
  "flags": {},
  "img": "systems/pf1/icons/skills/blue_29.jpg",
  "effects": []
}