{
  "_id": "Fv3FbmXptuDRiL5y",
  "name": "Inquisitor",
  "permission": {
    "default": 0
  },
  "type": "class",
  "data": {
    "description": {
      "value": "<p>Grim and determined, the inquisitor roots out enemies of the faith, using trickery and guile when righteousness and purity is not enough. Although inquisitors are dedicated to a deity, they are above many of the normal rules and conventions of the church. They answer to their deity and their own sense of justice alone, and are willing to take extreme measures to meet their goals.</p>\n<p><strong>Role</strong>: Inquisitors tend to move from place to place, chasing down enemies and researching emerging threats. As a result, they often travel with others, if for no other reason than to mask their presence. Inquisitors work with members of their faith whenever possible, but even such allies are not above suspicion.</p>\n<p><strong>Alignment</strong>: An inquisitor’s alignment must be within one step of her deity’s, along either the law/chaos axis or the good/evil axis.</p>\n<p><strong>Hit Dice</strong>: d8.</p>\n<p><strong>Starting Wealth</strong>: 4d6 × 10 gp (average 140gp.) In addition, each character begins play with an outfit worth 10 gp or less.</p>\n<h2><span id=\"Class_Skills\">Class Skills</span></h2>\n<p>The inquisitor’s class skills are <a href=\"https://www.d20pfsrd.com/skills/bluff\">Bluff</a>&nbsp;(<a href=\"https://www.d20pfsrd.com/basics-ability-scores/ability-scores#TOC-Charisma-Cha-\">Cha</a>), <a href=\"https://www.d20pfsrd.com/skills/climb\">Climb</a>&nbsp;(<a href=\"https://www.d20pfsrd.com/basics-ability-scores/ability-scores#TOC-Strength-Str-\">Str</a>), <a href=\"https://www.d20pfsrd.com/skills/craft\">Craft</a>&nbsp;(<a href=\"https://www.d20pfsrd.com/basics-ability-scores/ability-scores#TOC-Intelligence-Int-\">Int</a>), <a href=\"https://www.d20pfsrd.com/skills/diplomacy\">Diplomacy</a>&nbsp;(<a href=\"https://www.d20pfsrd.com/basics-ability-scores/ability-scores#TOC-Charisma-Cha-\">Cha</a>), <a href=\"https://www.d20pfsrd.com/skills/disguise\">Disguise</a>&nbsp;(<a href=\"https://www.d20pfsrd.com/basics-ability-scores/ability-scores#TOC-Charisma-Cha-\">Cha</a>), <a href=\"https://www.d20pfsrd.com/skills/heal\">Heal</a>&nbsp;(<a href=\"https://www.d20pfsrd.com/basics-ability-scores/ability-scores#TOC-Wisdom-Wis-\">Wis</a>), <a href=\"https://www.d20pfsrd.com/skills/intimidate\">Intimidate</a>&nbsp;(<a href=\"https://www.d20pfsrd.com/basics-ability-scores/ability-scores#TOC-Charisma-Cha-\">Cha</a>), <a href=\"https://www.d20pfsrd.com/skills/knowledge\">Knowledge</a>&nbsp;(arcana) (<a href=\"https://www.d20pfsrd.com/basics-ability-scores/ability-scores#TOC-Intelligence-Int-\">Int</a>), <a href=\"https://www.d20pfsrd.com/skills/knowledge\">Knowledge</a>&nbsp;(dungeoneering) (<a href=\"https://www.d20pfsrd.com/basics-ability-scores/ability-scores#TOC-Intelligence-Int-\">Int</a>), <a href=\"https://www.d20pfsrd.com/skills/knowledge\">Knowledge</a>&nbsp;(nature) (<a href=\"https://www.d20pfsrd.com/basics-ability-scores/ability-scores#TOC-Intelligence-Int-\">Int</a>), <a href=\"https://www.d20pfsrd.com/skills/knowledge\">Knowledge</a>&nbsp;(planes) (<a href=\"https://www.d20pfsrd.com/basics-ability-scores/ability-scores#TOC-Intelligence-Int-\">Int</a>), <a href=\"https://www.d20pfsrd.com/skills/knowledge\">Knowledge</a>&nbsp;(religion) (<a href=\"https://www.d20pfsrd.com/basics-ability-scores/ability-scores#TOC-Intelligence-Int-\">Int</a>), <a href=\"https://www.d20pfsrd.com/skills/perception\">Perception</a>&nbsp;(<a href=\"https://www.d20pfsrd.com/basics-ability-scores/ability-scores#TOC-Wisdom-Wis-\">Wis</a>), <a href=\"https://www.d20pfsrd.com/skills/profession\">Profession</a>&nbsp;(<a href=\"https://www.d20pfsrd.com/basics-ability-scores/ability-scores#TOC-Wisdom-Wis-\">Wis</a>), <a href=\"https://www.d20pfsrd.com/skills/ride\">Ride</a>&nbsp;(<a href=\"https://www.d20pfsrd.com/basics-ability-scores/ability-scores#TOC-Dexterity-Dex-\">Dex</a>), <a href=\"https://www.d20pfsrd.com/skills/sense-motive\">Sense Motive</a>&nbsp;(<a href=\"https://www.d20pfsrd.com/basics-ability-scores/ability-scores#TOC-Wisdom-Wis-\">Wis</a>), <a href=\"https://www.d20pfsrd.com/skills/spellcraft\">Spellcraft</a>&nbsp;(<a href=\"https://www.d20pfsrd.com/basics-ability-scores/ability-scores#TOC-Intelligence-Int-\">Int</a>), <a href=\"https://www.d20pfsrd.com/skills/stealth\">Stealth</a>&nbsp;(<a href=\"https://www.d20pfsrd.com/basics-ability-scores/ability-scores#TOC-Dexterity-Dex-\">Dex</a>), <a href=\"https://www.d20pfsrd.com/skills/survival\">Survival</a>&nbsp;(<a href=\"https://www.d20pfsrd.com/basics-ability-scores/ability-scores#TOC-Wisdom-Wis-\">Wis</a>), and <a href=\"https://www.d20pfsrd.com/skills/swim\">Swim</a>&nbsp;(<a href=\"https://www.d20pfsrd.com/basics-ability-scores/ability-scores#TOC-Strength-Str-\">Str</a>).</p>\n<p><strong>Skill Ranks per Level</strong>: 6 +&nbsp;<a href=\"https://www.d20pfsrd.com/basics-ability-scores/ability-scores#TOC-Intelligence-Int-\">Int</a> modifier.</p>",
      "chat": "",
      "unidentified": ""
    },
    "tags": [],
    "changes": [],
    "changeFlags": {
      "loseDexToAC": false,
      "noStr": false,
      "noDex": false,
      "oneInt": false,
      "oneWis": false,
      "oneCha": false,
      "noEncumbrance": false,
      "mediumArmorFullSpeed": false,
      "heavyArmorFullSpeed": false
    },
    "links": {
      "children": [],
      "classAssociations": [
        {
          "id": "pf1.class-abilities.dMtxCqoMLtD9nEjU",
          "dataType": "compendium",
          "name": "Domain (INQ)",
          "img": "systems/pf1/icons/skills/light_06.jpg",
          "hiddenLinks": {},
          "level": 1,
          "_index": 0
        },
        {
          "id": "pf1.class-abilities.qI4IouTn4uvDPSXv",
          "dataType": "compendium",
          "name": "Judgment",
          "img": "systems/pf1/icons/skills/yellow_38.jpg",
          "hiddenLinks": {},
          "level": 1,
          "_index": 1
        },
        {
          "id": "pf1.class-abilities.L9DSWVtX0siTfaXL",
          "dataType": "compendium",
          "name": "Second Judgment",
          "img": "systems/pf1/icons/skills/yellow_38.jpg",
          "hiddenLinks": {},
          "level": 8,
          "_index": 2
        },
        {
          "id": "pf1.class-abilities.QXskUuwbmQtFoFti",
          "dataType": "compendium",
          "name": "Third Judgment",
          "img": "systems/pf1/icons/skills/yellow_38.jpg",
          "hiddenLinks": {},
          "level": 16,
          "_index": 3
        },
        {
          "id": "pf1.class-abilities.1SnLu7RJAq1hJzYg",
          "dataType": "compendium",
          "name": "True Judgment",
          "img": "systems/pf1/icons/skills/yellow_38.jpg",
          "hiddenLinks": {},
          "level": 20,
          "_index": 4
        },
        {
          "id": "pf1.class-abilities.9Y9dpXEcjXGtH6Pe",
          "dataType": "compendium",
          "name": "Monster Lore",
          "img": "systems/pf1/icons/skills/blue_02.jpg",
          "hiddenLinks": {},
          "level": 1,
          "_index": 5
        },
        {
          "id": "pf1.class-abilities.CzEGD1Fv60Sa4UXe",
          "dataType": "compendium",
          "name": "Stern Gaze",
          "img": "systems/pf1/icons/spells/evil-eye-eerie-1.jpg",
          "hiddenLinks": {},
          "level": 1,
          "_index": 6
        },
        {
          "id": "pf1.class-abilities.FkPoMSAx3FTGvnXy",
          "dataType": "compendium",
          "name": "Cunning Initiative",
          "img": "systems/pf1/icons/spells/haste-fire-1.jpg",
          "hiddenLinks": {},
          "level": 2,
          "_index": 7
        },
        {
          "id": "pf1.class-abilities.KGjeQOeDKBMUt98q",
          "dataType": "compendium",
          "name": "Detect Alignment",
          "img": "systems/pf1/icons/spells/evil-eye-red-1.jpg",
          "hiddenLinks": {},
          "level": 2,
          "_index": 8
        },
        {
          "id": "pf1.class-abilities.r8wPs0bB3WhOLxbX",
          "dataType": "compendium",
          "name": "Track",
          "img": "systems/pf1/icons/skills/beast_01.jpg",
          "hiddenLinks": {},
          "level": 2,
          "_index": 9
        },
        {
          "id": "pf1.class-abilities.10EysX8x5hvz48lr",
          "dataType": "compendium",
          "name": "Solo Tactics",
          "img": "systems/pf1/icons/skills/blue_35.jpg",
          "hiddenLinks": {},
          "level": 3,
          "_index": 10
        },
        {
          "id": "pf1.class-abilities.717fyDCcfLtD345B",
          "dataType": "compendium",
          "name": "Teamwork Feat",
          "img": "systems/pf1/icons/skills/gray_08.jpg",
          "hiddenLinks": {},
          "level": 3,
          "_index": 11
        },
        {
          "id": "pf1.class-abilities.MpvhQz62qw68D2pd",
          "dataType": "compendium",
          "name": "Bane",
          "img": "systems/pf1/icons/skills/fire_13.jpg",
          "hiddenLinks": {},
          "level": 5,
          "_index": 12
        },
        {
          "id": "pf1.class-abilities.S9lYCsz7oA7v3GzR",
          "dataType": "compendium",
          "name": "Discern Lies",
          "img": "systems/pf1/icons/skills/emerald_11.jpg",
          "hiddenLinks": {},
          "level": 5,
          "_index": 13
        },
        {
          "id": "pf1.class-abilities.igyMWtX3cB2HZeSF",
          "dataType": "compendium",
          "name": "Stalwart",
          "img": "systems/pf1/icons/skills/blue_18.jpg",
          "hiddenLinks": {},
          "level": 11,
          "_index": 14
        },
        {
          "id": "pf1.class-abilities.TNYCH3v1Y9lUQDPT",
          "dataType": "compendium",
          "name": "Greater Bane",
          "img": "systems/pf1/icons/skills/weapon_29.jpg",
          "hiddenLinks": {},
          "level": 12,
          "_index": 15
        },
        {
          "id": "pf1.class-abilities.UGtjpdIwNF8mAh4z",
          "dataType": "compendium",
          "name": "Exploit Weakness",
          "img": "systems/pf1/icons/skills/yellow_32.jpg",
          "hiddenLinks": {},
          "level": 14,
          "_index": 16
        },
        {
          "id": "pf1.class-abilities.cbRqq4Zwspgr3681",
          "dataType": "compendium",
          "name": "Slayer",
          "img": "systems/pf1/icons/skills/yellow_43.jpg",
          "hiddenLinks": {},
          "level": 17,
          "_index": 17
        }
      ]
    },
    "tag": "inquisitor",
    "useCustomTag": true,
    "armorProf": {
      "value": [
        "lgt",
        "med",
        "shl"
      ],
      "custom": ""
    },
    "weaponProf": {
      "value": [
        "sim"
      ],
      "custom": "Hand Crossbow;Longbow;Repeating Crossbow;Shortbow;Favored Weapon"
    },
    "classType": "base",
    "levels": {
      "value": 0,
      "_deprecated": true
    },
    "level": 1,
    "hd": 8,
    "hp": 8,
    "bab": "med",
    "skillsPerLevel": 6,
    "savingThrows": {
      "fort": {
        "value": "high"
      },
      "ref": {
        "value": "low"
      },
      "will": {
        "value": "high"
      }
    },
    "fc": {
      "hp": {
        "value": 0
      },
      "skill": {
        "value": 0
      },
      "alt": {
        "value": 0
      }
    },
    "classSkills": {
      "acr": false,
      "apr": false,
      "art": false,
      "blf": true,
      "clm": true,
      "crf": true,
      "dip": true,
      "dev": false,
      "dis": true,
      "esc": false,
      "fly": false,
      "han": false,
      "hea": true,
      "int": true,
      "kar": true,
      "kdu": true,
      "ken": false,
      "kge": false,
      "khi": false,
      "klo": false,
      "kna": true,
      "kno": false,
      "kpl": true,
      "kre": true,
      "lin": false,
      "lor": false,
      "per": true,
      "prf": false,
      "pro": true,
      "rid": true,
      "sen": true,
      "slt": false,
      "spl": true,
      "ste": true,
      "sur": true,
      "swm": true,
      "umd": false
    },
    "extraDescription": {
      "value": "<h2>Weapon and Armor Proficiency</h2>\n<p>An inquisitor is proficient with all simple weapons, plus the hand crossbow, longbow, repeating crossbow, shortbow, and the favored weapon of her deity. She is also proficient with light&nbsp;<a href=\"https://www.d20pfsrd.com/basics-ability-scores/glossary#TOC-Armor-Bonus\">armor</a>, medium&nbsp;<a href=\"https://www.d20pfsrd.com/basics-ability-scores/glossary#TOC-Armor-Bonus\">armor</a>, and shields (except tower shields).</p>\n<h2>Spells</h2>\n<p>An inquisitor casts divine spells drawn from the&nbsp;<a href=\"https://www.d20pfsrd.com/magic/spell-lists-and-domains/spell-lists-inquisitor\">inquisitor spell list</a>. She can cast any spell she knows at any time without preparing it ahead of time, assuming she has not yet used up her allotment of spells per day for the spell’s level.</p>\n<p>To learn or cast a spell, an inquisitor must have a&nbsp;<a href=\"https://www.d20pfsrd.com/basics-ability-scores/ability-scores#TOC-Wisdom-Wis-\">Wisdom</a>&nbsp;score equal to at least 10 + the spell level. The Difficulty Class for a&nbsp;<a href=\"https://www.d20pfsrd.com/gamemastering/combat#TOC-Saving-Throws\">saving throw</a>&nbsp;against an inquisitor’s spell is 10 + the spell level + the inquisitor’s&nbsp;<a href=\"https://www.d20pfsrd.com/basics-ability-scores/ability-scores#TOC-Wisdom-Wis-\">Wisdom</a>&nbsp;modifier.</p>\n<p>An inquisitor can cast only a certain number of spells of each spell level each day. Her base daily spell allotment is given on&nbsp;Table: Inquisitor. In addition, she receives bonus spells per day if she has a high&nbsp;<a href=\"https://www.d20pfsrd.com/basics-ability-scores/ability-scores#TOC-Wisdom-Wis-\">Wisdom</a>&nbsp;score (see&nbsp;<a href=\"https://www.d20pfsrd.com/basics-ability-scores/ability-scores#TOC-Abilities-and-Spellcasters\">Table: Ability Modifiers and Bonus Spells</a>).</p>\n<p>An inquisitor’s selection of spells is extremely limited. An inquisitor begins play knowing four 0-level spells and two 1st-level spells of the inquisitor’s choice. At each new inquisitor level, she gains one or more new spells as indicated on&nbsp;Table: Inquisitor Spells Known. (Unlike spells per day, the number of spells an inquisitor knows is not affected by her&nbsp;<a href=\"https://www.d20pfsrd.com/basics-ability-scores/ability-scores#TOC-Wisdom-Wis-\">Wisdom</a>&nbsp;score. The numbers on&nbsp;Table: Inquisitor Spells Known&nbsp;are fixed.)</p>\n<p>Upon reaching 5th level, and at every third inquisitor level thereafter (8th, 11th, and so on), an inquisitor can choose to learn a new spell in place of one she already knows. In effect, the inquisitor “loses” the old spell in exchange for the new one. The new spell’s level must be the same as that of the spell being exchanged, and it must be at least one level lower than the highest-level inquisitor spell she can cast. The inquisitor may swap out only a single spell at any given level and must choose whether or not to swap the spell at the same time that she gains new spells known for the level.</p>\n<table style=\"box-sizing: border-box; border-spacing: 0px; background-color: #ffffff; margin: 10px; table-layout: fixed; border-color: #888888; min-width: 200px; color: #333333; font-family: Varela, sans-serif;\" border=\"1\" cellpadding=\"5\">\n<thead style=\"box-sizing: border-box; background-color: #cfe2f3;\">\n<tr style=\"box-sizing: border-box;\">\n<th class=\"text\" style=\"box-sizing: border-box; padding: 2px; text-align: left; border: 1px solid #888888;\" rowspan=\"2\">Level</th>\n<th class=\"text\" style=\"box-sizing: border-box; padding: 2px; text-align: left; border: 1px solid #888888;\" colspan=\"7\">Spells Known</th>\n</tr>\n<tr style=\"box-sizing: border-box; background-color: #f3f3f3;\">\n<th class=\"number\" style=\"box-sizing: border-box; padding: 2px; text-align: left; background-color: #cfe2f3; border: 1px solid #888888;\">0th</th>\n<th class=\"number\" style=\"box-sizing: border-box; padding: 2px; text-align: left; background-color: #cfe2f3; border: 1px solid #888888;\">1st</th>\n<th class=\"number\" style=\"box-sizing: border-box; padding: 2px; text-align: left; background-color: #cfe2f3; border: 1px solid #888888;\">2nd</th>\n<th class=\"number\" style=\"box-sizing: border-box; padding: 2px; text-align: left; background-color: #cfe2f3; border: 1px solid #888888;\">3rd</th>\n<th class=\"number\" style=\"box-sizing: border-box; padding: 2px; text-align: left; background-color: #cfe2f3; border: 1px solid #888888;\">4th</th>\n<th class=\"number\" style=\"box-sizing: border-box; padding: 2px; text-align: left; background-color: #cfe2f3; border: 1px solid #888888;\">5th</th>\n<th class=\"number\" style=\"box-sizing: border-box; padding: 2px; text-align: left; background-color: #cfe2f3; border: 1px solid #888888;\">6th</th>\n</tr>\n</thead>\n<tbody style=\"box-sizing: border-box;\">\n<tr style=\"box-sizing: border-box;\">\n<td class=\"number\" style=\"box-sizing: border-box; padding: 2px; vertical-align: top; text-align: center; border: 1px solid #888888;\">1st</td>\n<td class=\"number\" style=\"box-sizing: border-box; padding: 2px; vertical-align: top; text-align: center; border: 1px solid #888888;\">4</td>\n<td class=\"number\" style=\"box-sizing: border-box; padding: 2px; vertical-align: top; text-align: center; border: 1px solid #888888;\">2</td>\n<td class=\"marker\" style=\"box-sizing: border-box; padding: 2px; vertical-align: top; text-align: center; border: 1px solid #888888;\">—</td>\n<td class=\"marker\" style=\"box-sizing: border-box; padding: 2px; vertical-align: top; text-align: center; border: 1px solid #888888;\">—</td>\n<td class=\"marker\" style=\"box-sizing: border-box; padding: 2px; vertical-align: top; text-align: center; border: 1px solid #888888;\">—</td>\n<td class=\"marker\" style=\"box-sizing: border-box; padding: 2px; vertical-align: top; text-align: center; border: 1px solid #888888;\">—</td>\n<td class=\"marker\" style=\"box-sizing: border-box; padding: 2px; vertical-align: top; text-align: center; border: 1px solid #888888;\">—</td>\n</tr>\n<tr style=\"box-sizing: border-box; background-color: #f3f3f3;\">\n<td class=\"number\" style=\"box-sizing: border-box; padding: 2px; vertical-align: top; text-align: center; border: 1px solid #888888;\">2nd</td>\n<td class=\"number\" style=\"box-sizing: border-box; padding: 2px; vertical-align: top; text-align: center; border: 1px solid #888888;\">5</td>\n<td class=\"number\" style=\"box-sizing: border-box; padding: 2px; vertical-align: top; text-align: center; border: 1px solid #888888;\">3</td>\n<td class=\"marker\" style=\"box-sizing: border-box; padding: 2px; vertical-align: top; text-align: center; border: 1px solid #888888;\">—</td>\n<td class=\"marker\" style=\"box-sizing: border-box; padding: 2px; vertical-align: top; text-align: center; border: 1px solid #888888;\">—</td>\n<td class=\"marker\" style=\"box-sizing: border-box; padding: 2px; vertical-align: top; text-align: center; border: 1px solid #888888;\">—</td>\n<td class=\"marker\" style=\"box-sizing: border-box; padding: 2px; vertical-align: top; text-align: center; border: 1px solid #888888;\">—</td>\n<td class=\"marker\" style=\"box-sizing: border-box; padding: 2px; vertical-align: top; text-align: center; border: 1px solid #888888;\">—</td>\n</tr>\n<tr style=\"box-sizing: border-box;\">\n<td class=\"number\" style=\"box-sizing: border-box; padding: 2px; vertical-align: top; text-align: center; border: 1px solid #888888;\">3rd</td>\n<td class=\"number\" style=\"box-sizing: border-box; padding: 2px; vertical-align: top; text-align: center; border: 1px solid #888888;\">6</td>\n<td class=\"number\" style=\"box-sizing: border-box; padding: 2px; vertical-align: top; text-align: center; border: 1px solid #888888;\">4</td>\n<td class=\"marker\" style=\"box-sizing: border-box; padding: 2px; vertical-align: top; text-align: center; border: 1px solid #888888;\">—</td>\n<td class=\"marker\" style=\"box-sizing: border-box; padding: 2px; vertical-align: top; text-align: center; border: 1px solid #888888;\">—</td>\n<td class=\"marker\" style=\"box-sizing: border-box; padding: 2px; vertical-align: top; text-align: center; border: 1px solid #888888;\">—</td>\n<td class=\"marker\" style=\"box-sizing: border-box; padding: 2px; vertical-align: top; text-align: center; border: 1px solid #888888;\">—</td>\n<td class=\"marker\" style=\"box-sizing: border-box; padding: 2px; vertical-align: top; text-align: center; border: 1px solid #888888;\">—</td>\n</tr>\n<tr style=\"box-sizing: border-box; background-color: #f3f3f3;\">\n<td class=\"number\" style=\"box-sizing: border-box; padding: 2px; vertical-align: top; text-align: center; border: 1px solid #888888;\">4th</td>\n<td class=\"number\" style=\"box-sizing: border-box; padding: 2px; vertical-align: top; text-align: center; border: 1px solid #888888;\">6</td>\n<td class=\"number\" style=\"box-sizing: border-box; padding: 2px; vertical-align: top; text-align: center; border: 1px solid #888888;\">4</td>\n<td class=\"number\" style=\"box-sizing: border-box; padding: 2px; vertical-align: top; text-align: center; border: 1px solid #888888;\">2</td>\n<td class=\"marker\" style=\"box-sizing: border-box; padding: 2px; vertical-align: top; text-align: center; border: 1px solid #888888;\">—</td>\n<td class=\"marker\" style=\"box-sizing: border-box; padding: 2px; vertical-align: top; text-align: center; border: 1px solid #888888;\">—</td>\n<td class=\"marker\" style=\"box-sizing: border-box; padding: 2px; vertical-align: top; text-align: center; border: 1px solid #888888;\">—</td>\n<td class=\"marker\" style=\"box-sizing: border-box; padding: 2px; vertical-align: top; text-align: center; border: 1px solid #888888;\">—</td>\n</tr>\n<tr style=\"box-sizing: border-box;\">\n<td class=\"number\" style=\"box-sizing: border-box; padding: 2px; vertical-align: top; text-align: center; border: 1px solid #888888;\">5th</td>\n<td class=\"number\" style=\"box-sizing: border-box; padding: 2px; vertical-align: top; text-align: center; border: 1px solid #888888;\">6</td>\n<td class=\"number\" style=\"box-sizing: border-box; padding: 2px; vertical-align: top; text-align: center; border: 1px solid #888888;\">4</td>\n<td class=\"number\" style=\"box-sizing: border-box; padding: 2px; vertical-align: top; text-align: center; border: 1px solid #888888;\">3</td>\n<td class=\"marker\" style=\"box-sizing: border-box; padding: 2px; vertical-align: top; text-align: center; border: 1px solid #888888;\">—</td>\n<td class=\"marker\" style=\"box-sizing: border-box; padding: 2px; vertical-align: top; text-align: center; border: 1px solid #888888;\">—</td>\n<td class=\"marker\" style=\"box-sizing: border-box; padding: 2px; vertical-align: top; text-align: center; border: 1px solid #888888;\">—</td>\n<td class=\"marker\" style=\"box-sizing: border-box; padding: 2px; vertical-align: top; text-align: center; border: 1px solid #888888;\">—</td>\n</tr>\n<tr style=\"box-sizing: border-box; background-color: #f3f3f3;\">\n<td class=\"number\" style=\"box-sizing: border-box; padding: 2px; vertical-align: top; text-align: center; border: 1px solid #888888;\">6th</td>\n<td class=\"number\" style=\"box-sizing: border-box; padding: 2px; vertical-align: top; text-align: center; border: 1px solid #888888;\">6</td>\n<td class=\"number\" style=\"box-sizing: border-box; padding: 2px; vertical-align: top; text-align: center; border: 1px solid #888888;\">4</td>\n<td class=\"number\" style=\"box-sizing: border-box; padding: 2px; vertical-align: top; text-align: center; border: 1px solid #888888;\">4</td>\n<td class=\"marker\" style=\"box-sizing: border-box; padding: 2px; vertical-align: top; text-align: center; border: 1px solid #888888;\">—</td>\n<td class=\"marker\" style=\"box-sizing: border-box; padding: 2px; vertical-align: top; text-align: center; border: 1px solid #888888;\">—</td>\n<td class=\"marker\" style=\"box-sizing: border-box; padding: 2px; vertical-align: top; text-align: center; border: 1px solid #888888;\">—</td>\n<td class=\"marker\" style=\"box-sizing: border-box; padding: 2px; vertical-align: top; text-align: center; border: 1px solid #888888;\">—</td>\n</tr>\n<tr style=\"box-sizing: border-box;\">\n<td class=\"number\" style=\"box-sizing: border-box; padding: 2px; vertical-align: top; text-align: center; border: 1px solid #888888;\">7th</td>\n<td class=\"number\" style=\"box-sizing: border-box; padding: 2px; vertical-align: top; text-align: center; border: 1px solid #888888;\">6</td>\n<td class=\"number\" style=\"box-sizing: border-box; padding: 2px; vertical-align: top; text-align: center; border: 1px solid #888888;\">5</td>\n<td class=\"number\" style=\"box-sizing: border-box; padding: 2px; vertical-align: top; text-align: center; border: 1px solid #888888;\">4</td>\n<td class=\"number\" style=\"box-sizing: border-box; padding: 2px; vertical-align: top; text-align: center; border: 1px solid #888888;\">2</td>\n<td class=\"marker\" style=\"box-sizing: border-box; padding: 2px; vertical-align: top; text-align: center; border: 1px solid #888888;\">—</td>\n<td class=\"marker\" style=\"box-sizing: border-box; padding: 2px; vertical-align: top; text-align: center; border: 1px solid #888888;\">—</td>\n<td class=\"marker\" style=\"box-sizing: border-box; padding: 2px; vertical-align: top; text-align: center; border: 1px solid #888888;\">—</td>\n</tr>\n<tr style=\"box-sizing: border-box; background-color: #f3f3f3;\">\n<td class=\"number\" style=\"box-sizing: border-box; padding: 2px; vertical-align: top; text-align: center; border: 1px solid #888888;\">8th</td>\n<td class=\"number\" style=\"box-sizing: border-box; padding: 2px; vertical-align: top; text-align: center; border: 1px solid #888888;\">6</td>\n<td class=\"number\" style=\"box-sizing: border-box; padding: 2px; vertical-align: top; text-align: center; border: 1px solid #888888;\">5</td>\n<td class=\"number\" style=\"box-sizing: border-box; padding: 2px; vertical-align: top; text-align: center; border: 1px solid #888888;\">4</td>\n<td class=\"number\" style=\"box-sizing: border-box; padding: 2px; vertical-align: top; text-align: center; border: 1px solid #888888;\">3</td>\n<td class=\"marker\" style=\"box-sizing: border-box; padding: 2px; vertical-align: top; text-align: center; border: 1px solid #888888;\">—</td>\n<td class=\"marker\" style=\"box-sizing: border-box; padding: 2px; vertical-align: top; text-align: center; border: 1px solid #888888;\">—</td>\n<td class=\"marker\" style=\"box-sizing: border-box; padding: 2px; vertical-align: top; text-align: center; border: 1px solid #888888;\">—</td>\n</tr>\n<tr style=\"box-sizing: border-box;\">\n<td class=\"number\" style=\"box-sizing: border-box; padding: 2px; vertical-align: top; text-align: center; border: 1px solid #888888;\">9th</td>\n<td class=\"number\" style=\"box-sizing: border-box; padding: 2px; vertical-align: top; text-align: center; border: 1px solid #888888;\">6</td>\n<td class=\"number\" style=\"box-sizing: border-box; padding: 2px; vertical-align: top; text-align: center; border: 1px solid #888888;\">5</td>\n<td class=\"number\" style=\"box-sizing: border-box; padding: 2px; vertical-align: top; text-align: center; border: 1px solid #888888;\">4</td>\n<td class=\"number\" style=\"box-sizing: border-box; padding: 2px; vertical-align: top; text-align: center; border: 1px solid #888888;\">4</td>\n<td class=\"marker\" style=\"box-sizing: border-box; padding: 2px; vertical-align: top; text-align: center; border: 1px solid #888888;\">—</td>\n<td class=\"marker\" style=\"box-sizing: border-box; padding: 2px; vertical-align: top; text-align: center; border: 1px solid #888888;\">—</td>\n<td class=\"marker\" style=\"box-sizing: border-box; padding: 2px; vertical-align: top; text-align: center; border: 1px solid #888888;\">—</td>\n</tr>\n<tr style=\"box-sizing: border-box; background-color: #f3f3f3;\">\n<td class=\"number\" style=\"box-sizing: border-box; padding: 2px; vertical-align: top; text-align: center; border: 1px solid #888888;\">10th</td>\n<td class=\"number\" style=\"box-sizing: border-box; padding: 2px; vertical-align: top; text-align: center; border: 1px solid #888888;\">6</td>\n<td class=\"number\" style=\"box-sizing: border-box; padding: 2px; vertical-align: top; text-align: center; border: 1px solid #888888;\">5</td>\n<td class=\"number\" style=\"box-sizing: border-box; padding: 2px; vertical-align: top; text-align: center; border: 1px solid #888888;\">5</td>\n<td class=\"number\" style=\"box-sizing: border-box; padding: 2px; vertical-align: top; text-align: center; border: 1px solid #888888;\">4</td>\n<td class=\"number\" style=\"box-sizing: border-box; padding: 2px; vertical-align: top; text-align: center; border: 1px solid #888888;\">2</td>\n<td class=\"marker\" style=\"box-sizing: border-box; padding: 2px; vertical-align: top; text-align: center; border: 1px solid #888888;\">—</td>\n<td class=\"marker\" style=\"box-sizing: border-box; padding: 2px; vertical-align: top; text-align: center; border: 1px solid #888888;\">—</td>\n</tr>\n<tr style=\"box-sizing: border-box;\">\n<td class=\"number\" style=\"box-sizing: border-box; padding: 2px; vertical-align: top; text-align: center; border: 1px solid #888888;\">11th</td>\n<td class=\"number\" style=\"box-sizing: border-box; padding: 2px; vertical-align: top; text-align: center; border: 1px solid #888888;\">6</td>\n<td class=\"number\" style=\"box-sizing: border-box; padding: 2px; vertical-align: top; text-align: center; border: 1px solid #888888;\">6</td>\n<td class=\"number\" style=\"box-sizing: border-box; padding: 2px; vertical-align: top; text-align: center; border: 1px solid #888888;\">5</td>\n<td class=\"number\" style=\"box-sizing: border-box; padding: 2px; vertical-align: top; text-align: center; border: 1px solid #888888;\">4</td>\n<td class=\"number\" style=\"box-sizing: border-box; padding: 2px; vertical-align: top; text-align: center; border: 1px solid #888888;\">3</td>\n<td class=\"marker\" style=\"box-sizing: border-box; padding: 2px; vertical-align: top; text-align: center; border: 1px solid #888888;\">—</td>\n<td class=\"marker\" style=\"box-sizing: border-box; padding: 2px; vertical-align: top; text-align: center; border: 1px solid #888888;\">—</td>\n</tr>\n<tr style=\"box-sizing: border-box; background-color: #f3f3f3;\">\n<td class=\"number\" style=\"box-sizing: border-box; padding: 2px; vertical-align: top; text-align: center; border: 1px solid #888888;\">12th</td>\n<td class=\"number\" style=\"box-sizing: border-box; padding: 2px; vertical-align: top; text-align: center; border: 1px solid #888888;\">6</td>\n<td class=\"number\" style=\"box-sizing: border-box; padding: 2px; vertical-align: top; text-align: center; border: 1px solid #888888;\">6</td>\n<td class=\"number\" style=\"box-sizing: border-box; padding: 2px; vertical-align: top; text-align: center; border: 1px solid #888888;\">5</td>\n<td class=\"number\" style=\"box-sizing: border-box; padding: 2px; vertical-align: top; text-align: center; border: 1px solid #888888;\">4</td>\n<td class=\"number\" style=\"box-sizing: border-box; padding: 2px; vertical-align: top; text-align: center; border: 1px solid #888888;\">4</td>\n<td class=\"marker\" style=\"box-sizing: border-box; padding: 2px; vertical-align: top; text-align: center; border: 1px solid #888888;\">—</td>\n<td class=\"marker\" style=\"box-sizing: border-box; padding: 2px; vertical-align: top; text-align: center; border: 1px solid #888888;\">—</td>\n</tr>\n<tr style=\"box-sizing: border-box;\">\n<td class=\"number\" style=\"box-sizing: border-box; padding: 2px; vertical-align: top; text-align: center; border: 1px solid #888888;\">13th</td>\n<td class=\"number\" style=\"box-sizing: border-box; padding: 2px; vertical-align: top; text-align: center; border: 1px solid #888888;\">6</td>\n<td class=\"number\" style=\"box-sizing: border-box; padding: 2px; vertical-align: top; text-align: center; border: 1px solid #888888;\">6</td>\n<td class=\"number\" style=\"box-sizing: border-box; padding: 2px; vertical-align: top; text-align: center; border: 1px solid #888888;\">5</td>\n<td class=\"number\" style=\"box-sizing: border-box; padding: 2px; vertical-align: top; text-align: center; border: 1px solid #888888;\">5</td>\n<td class=\"number\" style=\"box-sizing: border-box; padding: 2px; vertical-align: top; text-align: center; border: 1px solid #888888;\">4</td>\n<td class=\"number\" style=\"box-sizing: border-box; padding: 2px; vertical-align: top; text-align: center; border: 1px solid #888888;\">2</td>\n<td class=\"marker\" style=\"box-sizing: border-box; padding: 2px; vertical-align: top; text-align: center; border: 1px solid #888888;\">—</td>\n</tr>\n<tr style=\"box-sizing: border-box; background-color: #f3f3f3;\">\n<td class=\"number\" style=\"box-sizing: border-box; padding: 2px; vertical-align: top; text-align: center; border: 1px solid #888888;\">14th</td>\n<td class=\"number\" style=\"box-sizing: border-box; padding: 2px; vertical-align: top; text-align: center; border: 1px solid #888888;\">6</td>\n<td class=\"number\" style=\"box-sizing: border-box; padding: 2px; vertical-align: top; text-align: center; border: 1px solid #888888;\">6</td>\n<td class=\"number\" style=\"box-sizing: border-box; padding: 2px; vertical-align: top; text-align: center; border: 1px solid #888888;\">6</td>\n<td class=\"number\" style=\"box-sizing: border-box; padding: 2px; vertical-align: top; text-align: center; border: 1px solid #888888;\">5</td>\n<td class=\"number\" style=\"box-sizing: border-box; padding: 2px; vertical-align: top; text-align: center; border: 1px solid #888888;\">4</td>\n<td class=\"number\" style=\"box-sizing: border-box; padding: 2px; vertical-align: top; text-align: center; border: 1px solid #888888;\">3</td>\n<td class=\"marker\" style=\"box-sizing: border-box; padding: 2px; vertical-align: top; text-align: center; border: 1px solid #888888;\">—</td>\n</tr>\n<tr style=\"box-sizing: border-box;\">\n<td class=\"number\" style=\"box-sizing: border-box; padding: 2px; vertical-align: top; text-align: center; border: 1px solid #888888;\">15th</td>\n<td class=\"number\" style=\"box-sizing: border-box; padding: 2px; vertical-align: top; text-align: center; border: 1px solid #888888;\">6</td>\n<td class=\"number\" style=\"box-sizing: border-box; padding: 2px; vertical-align: top; text-align: center; border: 1px solid #888888;\">6</td>\n<td class=\"number\" style=\"box-sizing: border-box; padding: 2px; vertical-align: top; text-align: center; border: 1px solid #888888;\">6</td>\n<td class=\"number\" style=\"box-sizing: border-box; padding: 2px; vertical-align: top; text-align: center; border: 1px solid #888888;\">5</td>\n<td class=\"number\" style=\"box-sizing: border-box; padding: 2px; vertical-align: top; text-align: center; border: 1px solid #888888;\">4</td>\n<td class=\"number\" style=\"box-sizing: border-box; padding: 2px; vertical-align: top; text-align: center; border: 1px solid #888888;\">4</td>\n<td class=\"marker\" style=\"box-sizing: border-box; padding: 2px; vertical-align: top; text-align: center; border: 1px solid #888888;\">—</td>\n</tr>\n<tr style=\"box-sizing: border-box; background-color: #f3f3f3;\">\n<td class=\"number\" style=\"box-sizing: border-box; padding: 2px; vertical-align: top; text-align: center; border: 1px solid #888888;\">16th</td>\n<td class=\"number\" style=\"box-sizing: border-box; padding: 2px; vertical-align: top; text-align: center; border: 1px solid #888888;\">6</td>\n<td class=\"number\" style=\"box-sizing: border-box; padding: 2px; vertical-align: top; text-align: center; border: 1px solid #888888;\">6</td>\n<td class=\"number\" style=\"box-sizing: border-box; padding: 2px; vertical-align: top; text-align: center; border: 1px solid #888888;\">6</td>\n<td class=\"number\" style=\"box-sizing: border-box; padding: 2px; vertical-align: top; text-align: center; border: 1px solid #888888;\">5</td>\n<td class=\"number\" style=\"box-sizing: border-box; padding: 2px; vertical-align: top; text-align: center; border: 1px solid #888888;\">5</td>\n<td class=\"number\" style=\"box-sizing: border-box; padding: 2px; vertical-align: top; text-align: center; border: 1px solid #888888;\">4</td>\n<td class=\"number\" style=\"box-sizing: border-box; padding: 2px; vertical-align: top; text-align: center; border: 1px solid #888888;\">2</td>\n</tr>\n<tr style=\"box-sizing: border-box;\">\n<td class=\"number\" style=\"box-sizing: border-box; padding: 2px; vertical-align: top; text-align: center; border: 1px solid #888888;\">17th</td>\n<td class=\"number\" style=\"box-sizing: border-box; padding: 2px; vertical-align: top; text-align: center; border: 1px solid #888888;\">6</td>\n<td class=\"number\" style=\"box-sizing: border-box; padding: 2px; vertical-align: top; text-align: center; border: 1px solid #888888;\">6</td>\n<td class=\"number\" style=\"box-sizing: border-box; padding: 2px; vertical-align: top; text-align: center; border: 1px solid #888888;\">6</td>\n<td class=\"number\" style=\"box-sizing: border-box; padding: 2px; vertical-align: top; text-align: center; border: 1px solid #888888;\">6</td>\n<td class=\"number\" style=\"box-sizing: border-box; padding: 2px; vertical-align: top; text-align: center; border: 1px solid #888888;\">5</td>\n<td class=\"number\" style=\"box-sizing: border-box; padding: 2px; vertical-align: top; text-align: center; border: 1px solid #888888;\">4</td>\n<td class=\"number\" style=\"box-sizing: border-box; padding: 2px; vertical-align: top; text-align: center; border: 1px solid #888888;\">3</td>\n</tr>\n<tr style=\"box-sizing: border-box; background-color: #f3f3f3;\">\n<td class=\"number\" style=\"box-sizing: border-box; padding: 2px; vertical-align: top; text-align: center; border: 1px solid #888888;\">18th</td>\n<td class=\"number\" style=\"box-sizing: border-box; padding: 2px; vertical-align: top; text-align: center; border: 1px solid #888888;\">6</td>\n<td class=\"number\" style=\"box-sizing: border-box; padding: 2px; vertical-align: top; text-align: center; border: 1px solid #888888;\">6</td>\n<td class=\"number\" style=\"box-sizing: border-box; padding: 2px; vertical-align: top; text-align: center; border: 1px solid #888888;\">6</td>\n<td class=\"number\" style=\"box-sizing: border-box; padding: 2px; vertical-align: top; text-align: center; border: 1px solid #888888;\">6</td>\n<td class=\"number\" style=\"box-sizing: border-box; padding: 2px; vertical-align: top; text-align: center; border: 1px solid #888888;\">5</td>\n<td class=\"number\" style=\"box-sizing: border-box; padding: 2px; vertical-align: top; text-align: center; border: 1px solid #888888;\">4</td>\n<td class=\"number\" style=\"box-sizing: border-box; padding: 2px; vertical-align: top; text-align: center; border: 1px solid #888888;\">4</td>\n</tr>\n<tr style=\"box-sizing: border-box;\">\n<td class=\"number\" style=\"box-sizing: border-box; padding: 2px; vertical-align: top; text-align: center; border: 1px solid #888888;\">19th</td>\n<td class=\"number\" style=\"box-sizing: border-box; padding: 2px; vertical-align: top; text-align: center; border: 1px solid #888888;\">6</td>\n<td class=\"number\" style=\"box-sizing: border-box; padding: 2px; vertical-align: top; text-align: center; border: 1px solid #888888;\">6</td>\n<td class=\"number\" style=\"box-sizing: border-box; padding: 2px; vertical-align: top; text-align: center; border: 1px solid #888888;\">6</td>\n<td class=\"number\" style=\"box-sizing: border-box; padding: 2px; vertical-align: top; text-align: center; border: 1px solid #888888;\">6</td>\n<td class=\"number\" style=\"box-sizing: border-box; padding: 2px; vertical-align: top; text-align: center; border: 1px solid #888888;\">5</td>\n<td class=\"number\" style=\"box-sizing: border-box; padding: 2px; vertical-align: top; text-align: center; border: 1px solid #888888;\">5</td>\n<td class=\"number\" style=\"box-sizing: border-box; padding: 2px; vertical-align: top; text-align: center; border: 1px solid #888888;\">4</td>\n</tr>\n<tr style=\"box-sizing: border-box; background-color: #f3f3f3;\">\n<td class=\"number\" style=\"box-sizing: border-box; padding: 2px; vertical-align: top; text-align: center; border: 1px solid #888888;\">20th</td>\n<td class=\"number\" style=\"box-sizing: border-box; padding: 2px; vertical-align: top; text-align: center; border: 1px solid #888888;\">6</td>\n<td class=\"number\" style=\"box-sizing: border-box; padding: 2px; vertical-align: top; text-align: center; border: 1px solid #888888;\">6</td>\n<td class=\"number\" style=\"box-sizing: border-box; padding: 2px; vertical-align: top; text-align: center; border: 1px solid #888888;\">6</td>\n<td class=\"number\" style=\"box-sizing: border-box; padding: 2px; vertical-align: top; text-align: center; border: 1px solid #888888;\">6</td>\n<td class=\"number\" style=\"box-sizing: border-box; padding: 2px; vertical-align: top; text-align: center; border: 1px solid #888888;\">6</td>\n<td class=\"number\" style=\"box-sizing: border-box; padding: 2px; vertical-align: top; text-align: center; border: 1px solid #888888;\">5</td>\n<td class=\"number\" style=\"box-sizing: border-box; padding: 2px; vertical-align: top; text-align: center; border: 1px solid #888888;\">5</td>\n</tr>\n</tbody>\n</table>\n<h2>Domain (or Inquisition)</h2>\n<p>Like a&nbsp;<a href=\"https://www.d20pfsrd.com/classes/core-classes/cleric\">cleric’s</a>&nbsp;deity, an inquisitor’s deity influences her alignment, what magic she can perform, and her values. Although not as tied to the tenets of the deity as a&nbsp;<a href=\"https://www.d20pfsrd.com/classes/core-classes/cleric\">cleric</a>, an inquisitor must still hold such guidelines in high regard, despite that fact she can go against them if it serves the greater good of the faith. An inquisitor can select one&nbsp;<a href=\"https://www.d20pfsrd.com/classes/core-classes/cleric/domains\">domain</a>&nbsp;from among those belonging to her deity. She can select an alignment domain only if her alignment matches that domain. With the GM’s approval, an inquisitor can be devoted to an ideal instead of a deity, selecting one domain to represent her personal inclination and abilities. The restriction on alignment domains still applies.</p>\n<p>Each&nbsp;<a href=\"https://www.d20pfsrd.com/classes/core-classes/cleric/domains\">domain</a>&nbsp;grants a number of domain powers, depending on the level of the inquisitor. An inquisitor does not gain the bonus spells listed for each domain, nor does she gain bonus spell slots. The inquisitor uses her level as her effective&nbsp;<a href=\"https://www.d20pfsrd.com/classes/core-classes/cleric\">cleric</a>&nbsp;level when determining the power and effect of her domain powers. If the inquisitor has&nbsp;<a href=\"https://www.d20pfsrd.com/classes/core-classes/cleric\">cleric</a>&nbsp;levels, one of her two domain selections must be the same domain selected as an inquisitor. Levels of&nbsp;<a href=\"https://www.d20pfsrd.com/classes/core-classes/cleric\">cleric</a>&nbsp;and inquisitor stack for the purpose of determining domain powers and abilities, but not for bonus spells.</p>\n<p>A complete listing of domains can be found here:&nbsp;<a href=\"https://www.d20pfsrd.com/classes/core-classes/cleric/domains\">Domains</a>. Inquisitors also have access to Inquisitions, which are similar to Domains but do not include Domain spells. A complete listing of Inquisitions can be found here:&nbsp;<a href=\"https://www.d20pfsrd.com/classes/base-classes/inquisitor/inquisitions\">Inquisitions</a>.</p>\n<h2>Judgement (Su)</h2>\n<p>Starting at 1st level, an inquisitor can pronounce judgment upon her foes as a&nbsp;<a href=\"https://www.d20pfsrd.com/gamemastering/combat#TOC-Swift-Actions\">swift action</a>. Starting when the judgment is made, the inquisitor receives a bonus or special ability based on the type of judgment made.</p>\n<p>At 1st level, an inquisitor can use this ability once per day. At 4th level and every three levels thereafter, the inquisitor can use this ability one additional time per day. Once activated, this ability lasts until the combat ends, at which point all of the bonuses immediately end. The inquisitor must participate in the combat to gain these bonuses. If she is&nbsp;<a href=\"https://www.d20pfsrd.com/gamemastering/conditions#TOC-Frightened\">frightened</a>,&nbsp;<a href=\"https://www.d20pfsrd.com/gamemastering/conditions#TOC-Panicked\">panicked</a>,&nbsp;<a href=\"https://www.d20pfsrd.com/gamemastering/conditions#TOC-Paralyzed\">paralyzed</a>,&nbsp;<a href=\"https://www.d20pfsrd.com/gamemastering/conditions#TOC-Stunned\">stunned</a>,&nbsp;<a href=\"https://www.d20pfsrd.com/gamemastering/conditions#TOC-Unconscious\">unconscious</a>, or otherwise prevented from participating in the combat, the ability does not end, but the bonuses do not resume until she can participate in the combat again.</p>\n<p>When the inquisitor uses this ability, she must select one type of judgment to make. As a&nbsp;<a href=\"https://www.d20pfsrd.com/gamemastering/combat#TOC-Swift-Actions\">swift action</a>, she can change this judgment to another type. If the inquisitor is&nbsp;<a href=\"https://www.d20pfsrd.com/bestiary/rules-for-monsters/creature-types#TOC-Evil\">evil</a>, she receives profane bonuses instead of sacred, as appropriate.&nbsp;<a href=\"https://www.d20pfsrd.com/alignment-description/additional-rules\">Neutral</a>&nbsp;inquisitors must select profane or sacred bonuses. Once made, this choice cannot be changed.</p>\n<div>\n<p><a name=\"judgment-destruction\"></a><strong>Destruction</strong>: The inquisitor is filled with divine wrath, gaining a +1&nbsp;<a href=\"https://www.d20pfsrd.com/basics-ability-scores/glossary#TOC-Sacred-Bonus\">sacred bonus</a>&nbsp;on all weapon damage rolls. This bonus increases by +1 for every three inquisitor levels she possesses.</p>\n<p><a name=\"judgment-healing\"></a><strong>Healing</strong>: The inquisitor is surrounded by a healing light, gaining fast healing 1. This causes the inquisitor to heal 1 point of damage each round as long as the inquisitor is alive and the judgment lasts. The amount of healing increases by 1 point for every three inquisitor levels she possesses.</p>\n<p><a name=\"judgment-justice\"></a><strong>Justice</strong>: This judgment spurs the inquisitor to seek justice, granting a +1&nbsp;<a href=\"https://www.d20pfsrd.com/basics-ability-scores/glossary#TOC-Sacred-Bonus\">sacred bonus</a>&nbsp;on all attack rolls. This bonus increases by +1 for every five inquisitor levels she possesses. At 10th level, this bonus is doubled on all attack rolls made to confirm critical hits.</p>\n<p><a name=\"judgment-piercing\"></a><strong>Piercing</strong>: This judgment gives the inquisitor great focus and makes her spells more potent. This benefit grants a +1&nbsp;<a href=\"https://www.d20pfsrd.com/basics-ability-scores/glossary#TOC-Sacred-Bonus\">sacred bonus</a>&nbsp;on&nbsp;<a href=\"https://www.d20pfsrd.com/magic#TOC-Concentration\">concentration</a>&nbsp;checks and&nbsp;<a href=\"https://www.d20pfsrd.com/magic#TOC-Caster-Level\">caster level</a>&nbsp;checks made to overcome a target’s&nbsp;<a href=\"https://www.d20pfsrd.com/gamemastering/special-abilities#TOC-Spell-Resistance\">spell resistance</a>. This bonus increases by +1 for every three inquisitor levels she possesses.</p>\n<p><a name=\"judgment-protection\"></a><strong>Protection</strong>: The inquisitor is surrounded by a protective aura, granting a +1&nbsp;<a href=\"https://www.d20pfsrd.com/basics-ability-scores/glossary#TOC-Sacred-Bonus\">sacred bonus</a>&nbsp;to&nbsp;<a href=\"https://www.d20pfsrd.com/gamemastering/combat#TOC-Armor-Class\">Armor Class</a>. This bonus increases by +1 for every five inquisitor levels she possesses. At 10th level, this bonus is doubled against attack rolls made to confirm critical hits against the inquisitor.</p>\n<p><a name=\"judgment-purity\"></a><strong>Purity</strong>: The inquisitor is protected from the vile taint of her foes, gaining a +1&nbsp;<a href=\"https://www.d20pfsrd.com/basics-ability-scores/glossary#TOC-Sacred-Bonus\">sacred bonus</a>&nbsp;on all&nbsp;<a href=\"https://www.d20pfsrd.com/gamemastering/combat#TOC-Saving-Throws\">saving throws</a>. This bonus increases by +1 for every five inquisitor levels she possesses. At 10th level, the bonus is doubled against curses, diseases, and poisons.</p>\n<p><a name=\"judgment-resiliency\"></a><strong>Resiliency</strong>: This judgment makes the inquisitor resistant to harm, granting&nbsp;<a href=\"https://www.d20pfsrd.com/bestiary/rules-for-monsters/universal-monster-rules#TOC-Damage-Reduction-Ex-or-Su-\">DR</a>&nbsp;1/magic. This&nbsp;<a href=\"https://www.d20pfsrd.com/bestiary/rules-for-monsters/universal-monster-rules#TOC-Damage-Reduction-Ex-or-Su-\">DR</a>&nbsp;increases by 1 for every five levels she possesses. At 10th level, this&nbsp;<a href=\"https://www.d20pfsrd.com/bestiary/rules-for-monsters/universal-monster-rules#TOC-Damage-Reduction-Ex-or-Su-\">DR</a>&nbsp;changes from magic to an alignment (<a href=\"https://www.d20pfsrd.com/bestiary/rules-for-monsters/creature-types#TOC-Chaotic\">chaotic</a>,&nbsp;<a href=\"https://www.d20pfsrd.com/bestiary/rules-for-monsters/creature-types#TOC-Evil\">evil</a>,&nbsp;<a href=\"https://www.d20pfsrd.com/bestiary/rules-for-monsters/creature-types#TOC-Good\">good</a>, or&nbsp;<a href=\"https://www.d20pfsrd.com/bestiary/rules-for-monsters/creature-types#TOC-Lawful\">lawful</a>) that is opposite the inquisitor’s. If she is&nbsp;<a href=\"https://www.d20pfsrd.com/alignment-description/additional-rules\">neutral</a>, the inquisitor does not receive this increase.</p>\n<p><a name=\"judgment-resistance\"></a><strong>Resistance</strong>: The inquisitor is shielded by a flickering aura, gaining 2 points of&nbsp;<a href=\"https://www.d20pfsrd.com/gamemastering/special-abilities#TOC-Energy-Resistance\">energy resistance</a>&nbsp;against one energy type (acid, cold, electricity, fire, or sonic) chosen when the judgment is declared. The protection increases by 2 for every three inquisitor levels she possesses.</p>\n<p><a name=\"judgment-smiting\"></a><strong>Smiting</strong>: This judgment bathes the inquisitor’s weapons in a divine light. The inquisitor’s weapons count as magic for the purposes of bypassing&nbsp;<a href=\"https://www.d20pfsrd.com/gamemastering/special-abilities#TOC-Damage-Reduction\">damage reduction</a>. At 6th level, the inquisitor’s weapons also count as one alignment type (<a href=\"https://www.d20pfsrd.com/bestiary/rules-for-monsters/creature-types#TOC-Chaotic\">chaotic</a>,&nbsp;<a href=\"https://www.d20pfsrd.com/bestiary/rules-for-monsters/creature-types#TOC-Evil\">evil</a>,&nbsp;<a href=\"https://www.d20pfsrd.com/bestiary/rules-for-monsters/creature-types#TOC-Good\">good</a>, or&nbsp;<a href=\"https://www.d20pfsrd.com/bestiary/rules-for-monsters/creature-types#TOC-Lawful\">lawful</a>) for the purpose of bypassing&nbsp;<a href=\"https://www.d20pfsrd.com/gamemastering/special-abilities#TOC-Damage-Reduction\">damage reduction</a>. The type selected must match one of the inquisitor’s alignments. If the inquisitor is&nbsp;<a href=\"https://www.d20pfsrd.com/alignment-description/additional-rules\">neutral</a>, she does not receive this bonus. At 10th level, the inquisitor’s weapons also count as adamantine for the purpose of overcoming&nbsp;<a href=\"https://www.d20pfsrd.com/gamemastering/special-abilities#TOC-Damage-Reduction\">damage reduction</a>&nbsp;(but not for reducing hardness).</p>\n<h2>Monster Lore (Ex)</h2>\n<p>The inquisitor adds her&nbsp;<a href=\"https://www.d20pfsrd.com/basics-ability-scores/ability-scores#TOC-Wisdom-Wis-\">Wisdom</a>&nbsp;modifier on&nbsp;<a href=\"https://www.d20pfsrd.com/skills/knowledge\">Knowledge</a>&nbsp;skill checks in addition to her&nbsp;<a href=\"https://www.d20pfsrd.com/basics-ability-scores/ability-scores#TOC-Intelligence-Int-\">Intelligence</a>&nbsp;modifier, when making skill checks to identify the abilities and weaknesses of creatures.</p>\n<h2>Orisons</h2>\n<p>Inquisitors learn a number of orisons, or 0-level spells, as noted on&nbsp;Table: Inquisitor Spells Known. These spells are cast like any other spell, but they are not expended when cast and may be used again. Orisons prepared using other spell slots, such as those due to&nbsp;<a href=\"https://www.d20pfsrd.com/feats#TOC-Metamagic-Feats\">metamagic</a>&nbsp;feats, are expended normally.</p>\n<h2>Stern Gaze (Ex)</h2>\n<p>Inquisitors are skilled at sensing deception and intimidating their foes. An inquisitor receives a&nbsp;<a href=\"https://www.d20pfsrd.com/basics-ability-scores/glossary#TOC-Morale-Bonus\">morale bonus</a>&nbsp;on all&nbsp;<a href=\"https://www.d20pfsrd.com/skills/intimidate\">Intimidate</a>&nbsp;and&nbsp;<a href=\"https://www.d20pfsrd.com/skills/sense-motive\">Sense Motive</a>&nbsp;checks equal to 1/2 her inquisitor level (minimum +1).</p>\n<h2>Cunning Initiative (Ex)</h2>\n<p>At 2nd level, an inquisitor adds her&nbsp;<a href=\"https://www.d20pfsrd.com/basics-ability-scores/ability-scores#TOC-Wisdom-Wis-\">Wisdom</a>&nbsp;modifier on&nbsp;<a href=\"https://www.d20pfsrd.com/gamemastering/combat#TOC-Initiative\">initiative</a>&nbsp;checks, in addition to her&nbsp;<a href=\"https://www.d20pfsrd.com/basics-ability-scores/ability-scores#TOC-Dexterity-Dex-\">Dexterity</a>&nbsp;modifier.</p>\n<h2>Detect Alignment (Sp)</h2>\n<p>At 2nd level, at will, an inquisitor can use&nbsp;<a href=\"https://www.d20pfsrd.com/magic/all-spells/d/detect-chaos\">detect chaos</a>,&nbsp;<a href=\"https://www.d20pfsrd.com/magic/all-spells/d/detect-evil\">detect evil</a>,&nbsp;<a href=\"https://www.d20pfsrd.com/magic/all-spells/d/detect-good\">detect good</a>, or&nbsp;<a href=\"https://www.d20pfsrd.com/magic/all-spells/d/detect-law\">detect law</a>. She can only use one of these at any given time.</p>\n<h2>Track (Ex)</h2>\n<p>At 2nd level, an inquisitor adds half her level on&nbsp;<a href=\"https://www.d20pfsrd.com/skills/survival\">Survival</a>&nbsp;skill checks made to follow or identify tracks.</p>\n<h2>Solo Tactics (Ex)</h2>\n<p>At 3rd level, all of the inquisitor’s allies are treated as if they possessed the same teamwork feats as the inquisitor for the purpose of determining whether the inquisitor receives a bonus from her teamwork feats. Her allies do not receive any bonuses from these feats unless they actually possess the feats themselves. The allies’ positioning and actions must still meet the prerequisites listed in the teamwork feat for the inquisitor to receive the listed bonus.</p>\n<h2>Teamwork Feat</h2>\n<p>At 3rd level, and every three levels thereafter, the inquisitor gains a bonus feat in addition to those gained from normal advancement. These bonus feats must be selected from those listed as&nbsp;<a href=\"https://www.d20pfsrd.com/feats/teamwork-feats\">teamwork feats</a>. The inquisitor must meet the prerequisites of the selected bonus feat.</p>\n<p>As a&nbsp;<a href=\"https://www.d20pfsrd.com/gamemastering/combat#TOC-Standard-Actions\">standard action</a>, the inquisitor can choose to learn a new bonus&nbsp;<a href=\"https://www.d20pfsrd.com/feats/teamwork-feats\">teamwork feat</a>&nbsp;in place of the most recent bonus&nbsp;<a href=\"https://www.d20pfsrd.com/feats/teamwork-feats\">teamwork feat</a>&nbsp;she has already learned. In effect, the inquisitor loses the bonus feat in exchange for the new one. She can only change the most recent&nbsp;<a href=\"https://www.d20pfsrd.com/feats/teamwork-feats\">teamwork feat</a>&nbsp;gained. Whenever she gains a new&nbsp;<a href=\"https://www.d20pfsrd.com/feats/teamwork-feats\">teamwork feat</a>, the previous&nbsp;<a href=\"https://www.d20pfsrd.com/feats/teamwork-feats\">teamwork feat</a>&nbsp;becomes set and cannot be changed again. An inquisitor can change her most recent&nbsp;<a href=\"https://www.d20pfsrd.com/feats/teamwork-feats\">teamwork feat</a>&nbsp;a number of times per day equal to her&nbsp;<a href=\"https://www.d20pfsrd.com/basics-ability-scores/ability-scores#TOC-Wisdom-Wis-\">Wisdom</a>&nbsp;modifier.</p>\n<h2>Bane (Su)</h2>\n<p>At 5th level, an inquisitor can imbue one of her weapons with the&nbsp;<a href=\"https://www.d20pfsrd.com/magic-items/magic-weapons/magic-weapon-special-abilities/bane/\">bane weapon special ability</a>&nbsp;as a&nbsp;<a href=\"https://www.d20pfsrd.com/gamemastering/combat#TOC-Swift-Actions\">swift action</a>. She must select one creature type when she uses this ability (and a subtype if the creature type selected is&nbsp;<a href=\"https://www.d20pfsrd.com/bestiary/rules-for-monsters/creature-types#TOC-Humanoid\">humanoid</a>&nbsp;or&nbsp;<a href=\"https://www.d20pfsrd.com/bestiary/rules-for-monsters/creature-types#TOC-Outsider\">outsider</a>). Once selected, the type can be changed as a&nbsp;<a href=\"https://www.d20pfsrd.com/gamemastering/combat#TOC-Swift-Actions\">swift action</a>. This ability only functions while the inquisitor wields the weapon. If dropped or taken, the weapon resumes granting this ability if it is returned to the inquisitor before the duration expires. This ability lasts for a number of rounds per day equal to the inquisitor’s level. These rounds do not need to be consecutive.</p>\n<h2>Discern Lies (Sp)</h2>\n<p>At 5th level, an inquisitor can&nbsp;<a href=\"https://www.d20pfsrd.com/magic/all-spells/d/discern-lies\">discern lies</a>, as per the spell, for a number of rounds per day equal to her inquisitor level. These rounds do not need to be consecutive. Activating this ability is an immediate action.</p>\n<h2>Second Judgement (Ex)</h2>\n<p>At 8th level, whenever an inquisitor uses her judgment ability, she selects two different judgments, instead of one. This only consumes one use of her judgment ability. As a&nbsp;<a href=\"https://www.d20pfsrd.com/gamemastering/combat#TOC-Swift-Actions\">swift action</a>, she can change one of these judgments to another type.</p>\n<h2>Stalwart (Ex)</h2>\n<p>At 11th level, an inquisitor can use mental and physical resiliency to avoid certain attacks. If she makes a&nbsp;<a href=\"https://www.d20pfsrd.com/gamemastering/combat#TOC-Fortitude\">Fortitude</a>&nbsp;or&nbsp;<a href=\"https://www.d20pfsrd.com/gamemastering/combat#TOC-Will\">Will</a>&nbsp;<a href=\"https://www.d20pfsrd.com/gamemastering/combat#TOC-Saving-Throws\">saving throw</a>&nbsp;against an attack that has a reduced effect on a successful save, she instead avoids the effect entirely. This ability can only be used if the inquisitor is wearing light&nbsp;<a href=\"https://www.d20pfsrd.com/basics-ability-scores/glossary#TOC-Armor-Bonus\">armor</a>, medium&nbsp;<a href=\"https://www.d20pfsrd.com/basics-ability-scores/glossary#TOC-Armor-Bonus\">armor</a>, or no armor. A&nbsp;<a href=\"https://www.d20pfsrd.com/gamemastering/conditions#TOC-Helpless\">helpless</a>&nbsp;inquisitor does not gain the benefit of the stalwart ability.</p>\n<h2>Greater Bane (Su)</h2>\n<p>At 12th level, whenever an inquisitor uses her bane ability, the amount of bonus damage dealt by the weapon against creatures of the selected type increases to 4d6.</p>\n<h2>Exploit Weakness (Ex)</h2>\n<p>At 14th level, the inquisitor learns to take advantage of any opportunity that presents itself. Whenever the inquisitor scores a critical hit, she ignores any&nbsp;<a href=\"https://www.d20pfsrd.com/gamemastering/special-abilities#TOC-Damage-Reduction\">damage reduction</a>&nbsp;the target might have. In addition, if the target has regeneration, the creature loses&nbsp;<a href=\"https://www.d20pfsrd.com/bestiary/rules-for-monsters/universal-monster-rules#TOC-Regeneration-Ex-\">regeneration</a>&nbsp;on the round following the critical hit and can die normally during that round. Creatures whose&nbsp;<a href=\"https://www.d20pfsrd.com/bestiary/rules-for-monsters/universal-monster-rules#TOC-Regeneration-Ex-\">regeneration</a>&nbsp;always functions are immune to this ability. Finally, if the inquisitor deals energy damage to a creature with&nbsp;<a href=\"https://www.d20pfsrd.com/gamemastering/special-abilities#TOC-Energy-Immunity-and-Vulnerability\">vulnerability</a>&nbsp;to that energy type, she deals +1 point of damage per die rolled.</p>\n<h2>Third Judgement (Ex)</h2>\n<p>At 16th level, whenever an inquisitor uses her judgment ability, she selects three different judgments, instead of just two. This only consumes one use of her judgment ability. As a&nbsp;<a href=\"https://www.d20pfsrd.com/gamemastering/combat#TOC-Swift-Actions\">swift action</a>, the inquisitor can change one of these judgments to another type.</p>\n<h2>Slayer (Ex)</h2>\n<p>At 17th level, an inquisitor learns to focus her judgment. Whenever an inquisitor uses her judgment ability, she must select one type of judgment. She is treated as if she were 5 levels higher for the purposes of determining the bonus granted by this judgment. Unlike other types of judgment, the one enhanced by this ability cannot be changed for the remainder of the judgment.</p>\n<h2>True Judgement (Su)</h2>\n<p>At 20th level, an inquisitor can call true judgment down upon a foe during combat. Whenever an inquisitor uses her judgment ability, the inquisitor can invoke true judgment on a foe as a swift action. Once declared, the inquisitor can make a single melee (or ranged attack, if the foe is within 30 feet) against the target. If the attack hits, it deals damage normally and the target must make a&nbsp;<a href=\"https://www.d20pfsrd.com/gamemastering/combat/#TOC-Fortitude\">Fortitude</a>&nbsp;save or die. The DC of this save is equal to 10 + 1/2 the inquisitor’s level + the inquisitor’s Wisdom modifier. Regardless of whether or not the save is made, the target creature is immune to the inquisitor’s true judgment ability for 24 hours. Once this ability has been used, it cannot be used again for 1d4 rounds.</p>\n</div>",
      "chat": "",
      "unidentified": ""
    },
    "damage": {
      "parts": [],
      "critParts": [],
      "nonCritParts": []
    },
    "preparation": {
      "maxAmount": 0
    },
    "weaponData": {
      "critRange": 20,
      "critMult": 2
    },
    "uses": {
      "value": 0,
      "max": 0
    }
  },
  "flags": {},
  "img": "systems/pf1/icons/items/inventory/book-red.jpg",
  "effects": []
}