{
  "_id": "s27zdYVFenYBVtfu",
  "name": "Investigator",
  "permission": {
    "default": 0
  },
  "type": "class",
  "data": {
    "description": {
      "value": "<p>Whether on the trail of a fugitive, a long-lost treasure trove, or a criminal mastermind, investigators are motivated by an intense curiosity about the world and use knowledge of it as a weapon. Mixing gumption and learnedness into a personal alchemy of daring, investigators are full of surprises. Observing the world around them, they gain valuable knowledge about the situation they’re in, process that information using inspiration and deduction, and cut to the quick of the matter in unexpected ways. Investigators are always evaluating situations they encounter, sizing up potential foes, and looking out for secret dangers, all while using their vast knowledge and powers of perception to find solutions to the most perplexing problems.</p>\n<p><strong>Role</strong>: Investigators live to solve mysteries and find inventive ways to get out of jams. They serve as advisors and support for their adventuring parties, but can take center stage when knowledge and cunning are needed. No slouches in battle, they know how to make surprise attacks and use inspiration to bring those attacks home.</p>\n<p><strong>Alignment</strong>: Any.</p>\n<p><strong>Hit Die</strong>: d8.</p>\n<p><strong>Parent Classes</strong>:&nbsp;<a href=\"https://www.d20pfsrd.com/classes/base-classes/alchemist\">Alchemist</a>&nbsp;and&nbsp;<a href=\"https://www.d20pfsrd.com/classes/core-classes/rogue\">rogue</a>.</p>\n<p><strong>Starting Wealth</strong>: 3d6 × 10 gp (average 105 gp.) In addition, each character begins play with an outfit worth 10 gp or less.</p>\n<h2><span id=\"Class_Skills\">Class Skills</span></h2>\n<p>The investigator’s class skills are <a href=\"https://www.d20pfsrd.com/skills/acrobatics\">Acrobatics</a>&nbsp;(<a href=\"https://www.d20pfsrd.com/basics-ability-scores/ability-scores#TOC-Dexterity-Dex-\">Dex</a>), <a href=\"https://www.d20pfsrd.com/skills/appraise\">Appraise</a>&nbsp;(<a href=\"https://www.d20pfsrd.com/basics-ability-scores/ability-scores#TOC-Intelligence-Int-\">Int</a>), <a href=\"https://www.d20pfsrd.com/skills/bluff\">Bluff</a>&nbsp;(<a href=\"https://www.d20pfsrd.com/basics-ability-scores/ability-scores#TOC-Charisma-Cha-\">Cha</a>), <a href=\"https://www.d20pfsrd.com/skills/climb\">Climb</a>&nbsp;(<a href=\"https://www.d20pfsrd.com/basics-ability-scores/ability-scores#TOC-Strength-Str-\">Str</a>), <a href=\"https://www.d20pfsrd.com/skills/craft\">Craft</a>&nbsp;(<a href=\"https://www.d20pfsrd.com/basics-ability-scores/ability-scores#TOC-Intelligence-Int-\">Int</a>), <a href=\"https://www.d20pfsrd.com/skills/diplomacy\">Diplomacy</a>&nbsp;(<a href=\"https://www.d20pfsrd.com/basics-ability-scores/ability-scores#TOC-Charisma-Cha-\">Cha</a>), <a href=\"https://www.d20pfsrd.com/skills/disable-device\">Disable Device</a>&nbsp;(<a href=\"https://www.d20pfsrd.com/basics-ability-scores/ability-scores#TOC-Dexterity-Dex-\">Dex</a>), <a href=\"https://www.d20pfsrd.com/skills/disguise\">Disguise</a>&nbsp;(<a href=\"https://www.d20pfsrd.com/basics-ability-scores/ability-scores#TOC-Charisma-Cha-\">Cha</a>), <a href=\"https://www.d20pfsrd.com/skills/escape-artist\">Escape Artist</a>&nbsp;(<a href=\"https://www.d20pfsrd.com/basics-ability-scores/ability-scores#TOC-Dexterity-Dex-\">Dex</a>), <a href=\"https://www.d20pfsrd.com/skills/heal\">Heal</a>&nbsp;(<a href=\"https://www.d20pfsrd.com/basics-ability-scores/ability-scores#TOC-Wisdom-Wis-\">Wis</a>), <a href=\"https://www.d20pfsrd.com/skills/intimidate\">Intimidate</a>&nbsp;(<a href=\"https://www.d20pfsrd.com/basics-ability-scores/ability-scores#TOC-Charisma-Cha-\">Cha</a>), <a href=\"https://www.d20pfsrd.com/skills/knowledge\">Knowledge</a>&nbsp;(all) (<a href=\"https://www.d20pfsrd.com/basics-ability-scores/ability-scores#TOC-Intelligence-Int-\">Int</a>), <a href=\"https://www.d20pfsrd.com/skills/linguistics\">Linguistics</a>&nbsp;(<a href=\"https://www.d20pfsrd.com/basics-ability-scores/ability-scores#TOC-Intelligence-Int-\">Int</a>), <a href=\"https://www.d20pfsrd.com/skills/perception\">Perception</a>&nbsp;(<a href=\"https://www.d20pfsrd.com/basics-ability-scores/ability-scores#TOC-Wisdom-Wis-\">Wis</a>), <a href=\"https://www.d20pfsrd.com/skills/perform\">Perform</a>&nbsp;(<a href=\"https://www.d20pfsrd.com/basics-ability-scores/ability-scores#TOC-Charisma-Cha-\">Cha</a>), <a href=\"https://www.d20pfsrd.com/skills/profession\">Profession</a>&nbsp;(<a href=\"https://www.d20pfsrd.com/basics-ability-scores/ability-scores#TOC-Wisdom-Wis-\">Wis</a>), <a href=\"https://www.d20pfsrd.com/skills/sense-motive\">Sense Motive</a>&nbsp;(<a href=\"https://www.d20pfsrd.com/basics-ability-scores/ability-scores#TOC-Wisdom-Wis-\">Wis</a>), <a href=\"https://www.d20pfsrd.com/skills/sleight-of-hand\">Sleight of Hand</a>&nbsp;(<a href=\"https://www.d20pfsrd.com/basics-ability-scores/ability-scores#TOC-Dexterity-Dex-\">Dex</a>), <a href=\"https://www.d20pfsrd.com/skills/spellcraft\">Spellcraft</a>&nbsp;(<a href=\"https://www.d20pfsrd.com/basics-ability-scores/ability-scores#TOC-Intelligence-Int-\">Int</a>), <a href=\"https://www.d20pfsrd.com/skills/stealth\">Stealth</a>&nbsp;(<a href=\"https://www.d20pfsrd.com/basics-ability-scores/ability-scores#TOC-Dexterity-Dex-\">Dex</a>), and <a href=\"https://www.d20pfsrd.com/skills/use-magic-device\">Use Magic Device</a>&nbsp;(<a href=\"https://www.d20pfsrd.com/basics-ability-scores/ability-scores#TOC-Charisma-Cha-\">Cha</a>).</p>\n<p><strong>Skill Ranks per Level</strong>: 6 +&nbsp;<a href=\"https://www.d20pfsrd.com/basics-ability-scores/ability-scores#TOC-Intelligence-Int-\">Int</a>&nbsp;<a href=\"https://www.d20pfsrd.com/basics-ability-scores/ability-scores#TOC-Determine-Bonuses\">modifier</a>.</p>",
      "chat": "",
      "unidentified": ""
    },
    "tags": [],
    "changes": [],
    "changeFlags": {
      "loseDexToAC": false,
      "noStr": false,
      "noDex": false,
      "oneInt": false,
      "oneWis": false,
      "oneCha": false,
      "noEncumbrance": false,
      "mediumArmorFullSpeed": false,
      "heavyArmorFullSpeed": false
    },
    "links": {
      "children": [],
      "classAssociations": [
        {
          "id": "pf1.class-abilities.7GNdI4zKfTcxNCk4",
          "dataType": "compendium",
          "name": "Alchemy",
          "img": "systems/pf1/icons/items/potions/magic-yellow.jpg",
          "hiddenLinks": {},
          "level": 1,
          "_index": 0
        },
        {
          "id": "pf1.class-abilities.nKbyztRQCU5XMbbs",
          "dataType": "compendium",
          "name": "Inspiration",
          "img": "systems/pf1/icons/skills/emerald_11.jpg",
          "hiddenLinks": {},
          "level": 1,
          "_index": 1
        },
        {
          "id": "pf1.class-abilities.pEODJDoTk7uhCZY7",
          "dataType": "compendium",
          "name": "Trapfinding",
          "img": "systems/pf1/icons/items/inventory/lockpick.jpg",
          "hiddenLinks": {},
          "level": 1,
          "_index": 2
        },
        {
          "id": "pf1.class-abilities.C7UgLJt7yRHnAqyG",
          "dataType": "compendium",
          "name": "Poison Lore",
          "img": "systems/pf1/icons/items/potions/minor-green.jpg",
          "hiddenLinks": {},
          "level": 2,
          "_index": 3
        },
        {
          "id": "pf1.class-abilities.p3gcIBgwB4NOMrjx",
          "dataType": "compendium",
          "name": "Poison Resistance (INV)",
          "img": "systems/pf1/icons/skills/violet_16.jpg",
          "hiddenLinks": {},
          "level": 2,
          "_index": 4
        },
        {
          "id": "pf1.class-abilities.AOnFqb1h3gXbFUup",
          "dataType": "compendium",
          "name": "Investigator Talent",
          "img": "systems/pf1/icons/skills/gray_04.jpg",
          "hiddenLinks": {},
          "level": 3,
          "_index": 5
        },
        {
          "id": "pf1.class-abilities.rJBdkI8mlJBNWcU2",
          "dataType": "compendium",
          "name": "Keen Recollection",
          "img": "systems/pf1/icons/skills/red_26.jpg",
          "hiddenLinks": {},
          "level": 3,
          "_index": 6
        },
        {
          "id": "pf1.class-abilities.BoEkMviJrW0PKmhj",
          "dataType": "compendium",
          "name": "Trap Sense",
          "img": "systems/pf1/icons/items/inventory/hook-hand.jpg",
          "hiddenLinks": {},
          "level": 3,
          "_index": 7
        },
        {
          "id": "pf1.class-abilities.nVwveeNV71Bg7YnY",
          "dataType": "compendium",
          "name": "Studied Combat",
          "img": "systems/pf1/icons/skills/weapon_44.jpg",
          "hiddenLinks": {},
          "level": 4,
          "_index": 8
        },
        {
          "id": "pf1.class-abilities.3WsfpUeW7oe4GOuh",
          "dataType": "compendium",
          "name": "Studied Strike",
          "img": "systems/pf1/icons/skills/weapon_29.jpg",
          "hiddenLinks": {},
          "level": 4,
          "_index": 9
        },
        {
          "id": "pf1.class-abilities.kEVqxs23oyNDxbc1",
          "dataType": "compendium",
          "name": "Swift Alchemy (INV)",
          "img": "systems/pf1/icons/skills/violet_25.jpg",
          "hiddenLinks": {},
          "level": 4,
          "_index": 10
        },
        {
          "id": "pf1.class-abilities.H2Iac6ELVKBU6Ayu",
          "dataType": "compendium",
          "name": "True Inspiration",
          "img": "systems/pf1/icons/skills/shadow_12.jpg",
          "hiddenLinks": {},
          "level": 20,
          "_index": 11
        }
      ]
    },
    "tag": "investigator",
    "useCustomTag": true,
    "armorProf": {
      "value": [
        "lgt"
      ],
      "custom": ""
    },
    "weaponProf": {
      "value": [
        "sim"
      ],
      "custom": "Hand Crossbow;Rapier;Sap;Shortbow;Short Sword; Sword Cane"
    },
    "classType": "base",
    "levels": {
      "value": 0,
      "_deprecated": true
    },
    "level": 1,
    "hd": 8,
    "hp": 8,
    "bab": "med",
    "skillsPerLevel": 6,
    "savingThrows": {
      "fort": {
        "value": "low"
      },
      "ref": {
        "value": "high"
      },
      "will": {
        "value": "high"
      }
    },
    "fc": {
      "hp": {
        "value": 0
      },
      "skill": {
        "value": 0
      },
      "alt": {
        "value": 0
      }
    },
    "classSkills": {
      "acr": true,
      "apr": true,
      "art": false,
      "blf": true,
      "clm": true,
      "crf": true,
      "dip": true,
      "dev": true,
      "dis": true,
      "esc": true,
      "fly": false,
      "han": false,
      "hea": true,
      "int": true,
      "kar": true,
      "kdu": true,
      "ken": true,
      "kge": true,
      "khi": true,
      "klo": true,
      "kna": true,
      "kno": true,
      "kpl": true,
      "kre": true,
      "lin": true,
      "lor": false,
      "per": true,
      "prf": true,
      "pro": true,
      "rid": false,
      "sen": true,
      "slt": true,
      "spl": true,
      "ste": true,
      "sur": false,
      "swm": false,
      "umd": true
    },
    "extraDescription": {
      "value": "<h2>Weapon and Armor Proficiency</h2>\n<p>Investigators are proficient with&nbsp;<a href=\"https://www.d20pfsrd.com/equipment/weapons#weapons-simple\">simple weapons</a>, plus the&nbsp;<a href=\"https://www.d20pfsrd.com/equipment/weapons/weapon-descriptions/crossbow-hand\">hand crossbow</a>,&nbsp;<a href=\"https://www.d20pfsrd.com/equipment/weapons/weapon-descriptions/rapier\">rapier</a>,&nbsp;<a href=\"https://www.d20pfsrd.com/equipment/weapons/weapon-descriptions/sap\">sap</a>,&nbsp;<a href=\"https://www.d20pfsrd.com/equipment/weapons/weapon-descriptions/shortbow\">shortbow</a>,&nbsp;<a href=\"https://www.d20pfsrd.com/equipment/weapons/weapon-descriptions/shortsword\">short sword</a>, and&nbsp;<a href=\"https://www.d20pfsrd.com/equipment/weapons/weapon-descriptions/swordcane\">sword cane</a>. They are proficient in light armors, but not shields.</p>\n<h2>Alchemy (Su)</h2>\n<p>Investigators are highly trained in the creation of mundane alchemical substances and magical potion-like extracts.</p>\n<p>When using&nbsp;<a href=\"https://www.d20pfsrd.com/skills/craft\">Craft</a>&nbsp;(alchemy) to create an alchemical item, an investigator gains a&nbsp;<a href=\"https://www.d20pfsrd.com/basics-ability-scores/glossary#TOC-Competence-Bonus\">competence bonus</a>&nbsp;equal to his class level on the skill check. In addition, an investigator can use&nbsp;<a href=\"https://www.d20pfsrd.com/skills/craft\">Craft</a>&nbsp;(alchemy) to identify&nbsp;<a href=\"https://www.d20pfsrd.com/magic-items/potions\">potions</a>&nbsp;as if using&nbsp;<a href=\"https://www.d20pfsrd.com/magic/all-spells/d/detect-magic\">detect magic</a>. He must hold the&nbsp;<a href=\"https://www.d20pfsrd.com/magic-items/potions\">potion</a>&nbsp;for 1 round to attempt such a check.</p>\n<p>Like an&nbsp;<a href=\"https://www.d20pfsrd.com/classes/base-classes/alchemist\">alchemist</a>, an investigator prepares his spells by mixing ingredients and a tiny fraction of his own magical power into a number of extracts, and then effectively casts the spell by drinking the extract. These extracts have powerful effects, but they are also bound to their creator. Extracts behave like spells in&nbsp;<a href=\"https://www.d20pfsrd.com/magic-items/potions\">potion</a>&nbsp;form, and as such their effects can be dispelled by&nbsp;<a href=\"https://www.d20pfsrd.com/magic/all-spells/d/dispel-magic\">dispel magic</a>&nbsp;and similar effects, using the investigator’s level as the&nbsp;<a href=\"https://www.d20pfsrd.com/magic#TOC-Caster-Level\">caster level</a>.</p>\n<p>An investigator can create only a certain number of extracts of each level per day. His base daily allotment of extracts per day is given on&nbsp;Table: Investigator. In addition, he receives bonus extracts per day if he has a high&nbsp;<a href=\"https://www.d20pfsrd.com/basics-ability-scores/ability-scores#TOC-Intelligence-Int-\">Intelligence</a>&nbsp;score, in the same way a&nbsp;<a href=\"https://www.d20pfsrd.com/classes/core-classes/wizard\">wizard</a>&nbsp;receives bonus spells per day.</p>\n<p>When an investigator mixes an extract, he infuses the chemicals and reagents in the extract with magic siphoned from his own magical aura. An extract immediately become inert if it leaves the investigator’s possession, reactivating as soon as it returns to his keeping—an investigator cannot normally pass out his extracts for allies to use. An extract, once created, remains potent for 1 day before losing its magic, so an investigator must reprepare his extracts every day. Mixing an extract takes 1 minute of work.</p>\n<p>Creating extracts consumes raw material, but the cost of those materials is insignificant—comparable to the valueless material&nbsp;<a href=\"https://www.d20pfsrd.com/magic#TOC-Components\">components</a>&nbsp;of most spells. If a spell normally has a costly material component, that component is expended during the consumption of that particular extract. Extracts cannot be made from spells that have focus requirements; extracts that duplicate divine spells never have a divine focus requirement.</p>\n<p>An investigator uses the&nbsp;<a href=\"https://www.d20pfsrd.com/classes/base-classes/alchemist\">alchemist</a>&nbsp;<a href=\"https://www.d20pfsrd.com/magic/spell-lists-and-domains/formulae-lists-alchemist\">formulae list</a>&nbsp;to determine the extracts he can know. An investigator can prepare an extract of any formulae he knows. To learn or use an extract, an investigator must have at least an&nbsp;<a href=\"https://www.d20pfsrd.com/basics-ability-scores/ability-scores#TOC-Intelligence-Int-\">Intelligence</a>&nbsp;score equal to 10 + the extract’s level. The saving throw DC for an investigator’s extract is equal to 10 + the extract’s level + the investigator’s&nbsp;<a href=\"https://www.d20pfsrd.com/basics-ability-scores/ability-scores#TOC-Intelligence-Int-\">Intelligence</a>&nbsp;modifier.</p>\n<p>An investigator may know any number of formulae. He stores his formulae in a special tome called a formula book. He must refer to this book whenever he prepares an extract. At 1st level, an investigator starts with two 1st-level formulae of his choice, plus a number of additional formulae equal to his&nbsp;<a href=\"https://www.d20pfsrd.com/basics-ability-scores/ability-scores#TOC-Intelligence-Int-\">Intelligence</a>&nbsp;modifier. At each new investigator level, he gains one new formula for any level that he can create. An investigator can also add formulae to his book just like a wizard adds spells to his spellbook, using the same costs, pages, and time requirements. A formula book costs as much as a&nbsp;<a href=\"https://www.d20pfsrd.com/equipment/goods-and-services/books-paper-writing-supplies#TOC-Spellbook\">spellbook</a>. An investigator can study a wizard’s spellbook to learn any formula that is equivalent to a spell the spellbook contains. A wizard, however, cannot learn spells from a formula book. An investigator can also learn formulae from another investigator’s or an alchemist’s formula book (and vice versa). An investigator does not need to decipher arcane writing before copying that formulae.</p>\n<h2>Inspiration (Ex)</h2>\n<p>An investigator is beyond knowledgeable and skilled—he also possesses keen powers of observation and deduction that far surpass the abilities of others. An investigator typically uses these powers to aid in their investigations, but can also use these flashes of inspiration in other situations.</p>\n<p>An investigator has the ability to augment skill checks and ability checks through his brilliant inspiration. The investigator has an inspiration pool equal to 1/2 his investigator level + his&nbsp;<a href=\"https://www.d20pfsrd.com/basics-ability-scores/ability-scores#TOC-Intelligence-Int-\">Intelligence</a>&nbsp;modifier (minimum 1). An investigator’s inspiration pool refreshes each day, typically after he gets a restful night’s sleep. As a&nbsp;<a href=\"https://www.d20pfsrd.com/gamemastering/combat#TOC-Free-Actions\">free action</a>, he can expend one use of inspiration from his pool to add 1d6 to the result of that check, including any on which he takes 10 or 20. This choice is made after the check is rolled and before the results are revealed. An investigator can only use inspiration once per check or roll. The investigator can use inspiration on any&nbsp;<a href=\"https://www.d20pfsrd.com/skills/knowledge\">Knowledge</a>,&nbsp;<a href=\"https://www.d20pfsrd.com/skills/linguistics\">Linguistics</a>, or&nbsp;<a href=\"https://www.d20pfsrd.com/skills/spellcraft\">Spellcraft</a>&nbsp;skill checks without expending a use of inspiration, provided he’s trained in the skill.</p>\n<p>Inspiration can also be used on&nbsp;<a href=\"https://www.d20pfsrd.com/gamemastering/combat#TOC-Attack-Roll\">attack rolls</a>&nbsp;and saving throws, at the cost of expending two uses of inspiration each time from the investigator’s pool. In the case of saving throws, using inspiration is an&nbsp;<a href=\"https://www.d20pfsrd.com/gamemastering/combat#TOC-Immediate-Actions\">immediate action</a>&nbsp;rather than a&nbsp;<a href=\"https://www.d20pfsrd.com/gamemastering/combat#TOC-Free-Actions\">free action</a>.</p>\n<h2>Trapfinding</h2>\n<p>An investigator adds 1/2 his level to&nbsp;<a href=\"https://www.d20pfsrd.com/skills/perception\">Perception</a>&nbsp;skill checks made to locate traps and to&nbsp;<a href=\"https://www.d20pfsrd.com/skills/disable-device\">Disable Device</a>&nbsp;checks (minimum 1). An investigator can use&nbsp;<a href=\"https://www.d20pfsrd.com/skills/disable-device\">Disable Device</a>&nbsp;to disarm magical traps.</p>\n<h2>Poison Lore (Ex)</h2>\n<p>An investigator has a deep understanding and appreciation for poisons. At 2nd level, he cannot accidentally&nbsp;<a href=\"https://www.d20pfsrd.com/gamemastering/afflictions/poison\">poison</a>&nbsp;himself when applying&nbsp;<a href=\"https://www.d20pfsrd.com/gamemastering/afflictions/poison\">poison</a>&nbsp;to a weapon. If the investigator spends 1 minute physically examining the&nbsp;<a href=\"https://www.d20pfsrd.com/gamemastering/afflictions/poison\">poison</a>, he can attempt a&nbsp;<a href=\"https://www.d20pfsrd.com/skills/knowledge\">Knowledge</a>&nbsp;(nature) check to identify any natural&nbsp;<a href=\"https://www.d20pfsrd.com/gamemastering/afflictions/poison\">poison</a>&nbsp;or&nbsp;<a href=\"https://www.d20pfsrd.com/skills/knowledge\">Knowledge</a>&nbsp;(arcana) check to identify any magical&nbsp;<a href=\"https://www.d20pfsrd.com/gamemastering/afflictions/poison\">poison</a>&nbsp;(DC = the&nbsp;<a href=\"https://www.d20pfsrd.com/gamemastering/afflictions/poison\">poison’s</a>&nbsp;saving throw DC). Lastly, once a&nbsp;<a href=\"https://www.d20pfsrd.com/gamemastering/afflictions/poison\">poison</a>&nbsp;is identified, he can spend 1 minute and attempt a&nbsp;<a href=\"https://www.d20pfsrd.com/skills/craft\">Craft</a>&nbsp;(alchemy) check (DC = the&nbsp;<a href=\"https://www.d20pfsrd.com/gamemastering/afflictions/poison\">poison’s</a>&nbsp;saving throw DC) to neutralize 1 dose of the&nbsp;<a href=\"https://www.d20pfsrd.com/gamemastering/afflictions/poison\">poison</a>. Success renders the dose harmless. The investigator has no chance of accidentally poisoning himself when examining or attempting to neutralize a&nbsp;<a href=\"https://www.d20pfsrd.com/gamemastering/afflictions/poison\">poison</a>.</p>\n<h2>Poison Resistance (Ex)</h2>\n<p>At 2nd level, an investigator gains a +2 bonus on all saving throws against&nbsp;<a href=\"https://www.d20pfsrd.com/gamemastering/afflictions/poison\">poison</a>. This bonus increases to +4 at 5th level, and to +6 at 8th level. At 11th level, the investigator becomes completely immune to&nbsp;<a href=\"https://www.d20pfsrd.com/gamemastering/afflictions/poison\">poison</a>.</p>\n<h2>Investigator Talent (Ex) or (Su)</h2>\n<p>At 3rd level and every 2 levels thereafter, an investigator gains an investigator talent. Except where otherwise noted, each investigator talent can only be selected once.</p>\n<p>Investigator talents marked with an asterisk (*) add effects to an investigator’s studied combat or studied strike. Only one of these talents can be applied to an individual attack, but the decision can be made when the damage is dealt..</p>\n<ul>\n<li>A complete listing of investigator talents can be found here:&nbsp;<a href=\"https://www.d20pfsrd.com/classes/hybrid-classes/investigator/investigator-talents#TABLE-Investigator-Talents\">Investigator Talents</a></li>\n</ul>\n<h2>Keen Recollection</h2>\n<p>At 3rd level, an investigator can attempt all&nbsp;<a href=\"https://www.d20pfsrd.com/skills/knowledge\">Knowledge</a>&nbsp;skill checks untrained.</p>\n<h2>Trap Sense (Ex)</h2>\n<p>At 3rd level, an investigator gains an intuitive sense that alerts him to danger from traps, granting him a +1 bonus on&nbsp;<a href=\"https://www.d20pfsrd.com/gamemastering/combat#TOC-Reflex\">Reflex</a>&nbsp;saving throws to avoid traps and a +1&nbsp;<a href=\"https://www.d20pfsrd.com/basics-ability-scores/glossary#TOC-Dodge-Bonus\">dodge bonus</a>&nbsp;to AC against attacks by traps. At 6th level and every 3 levels thereafter, these bonuses increase by 1 (to a maximum of +6 at 18th level).</p>\n<h2>Studied Combat (Ex)</h2>\n<p>With a keen eye and calculating mind, an investigator can assess the mettle of his opponent to take advantage of gaps in talent and training. At 4th level, an investigator can use a&nbsp;<a href=\"https://www.d20pfsrd.com/gamemastering/combat#TOC-Move-Actions\">move action</a>&nbsp;to study a single enemy that he can see. Upon doing so, he adds 1/2 his investigator level as an&nbsp;<a href=\"https://www.d20pfsrd.com/basics-ability-scores/glossary#TOC-Insight-Bonus\">insight bonus</a>&nbsp;on melee&nbsp;<a href=\"https://www.d20pfsrd.com/gamemastering/combat#TOC-Attack-Roll\">attack rolls</a>&nbsp;and as a bonus on damage rolls against the creature. This effect lasts for a number of rounds equal to his&nbsp;<a href=\"https://www.d20pfsrd.com/basics-ability-scores/ability-scores#TOC-Intelligence-Int-\">Intelligence</a>&nbsp;modifier (minimum 1) or until he deals damage with a studied strike, whichever comes first. The bonus on damage rolls is precision damage, and is not multiplied on a&nbsp;<a href=\"https://www.d20pfsrd.com/gamemastering/combat#TOC-Critical-Hits\">critical hit</a>.</p>\n<p>An investigator can only have one target of studied combat at a time, and once a creature has become the target of an investigator’s studied combat, he cannot become the target of the same investigator’s studied combat again for 24 hours unless the investigator expends one use of inspiration when taking the&nbsp;<a href=\"https://www.d20pfsrd.com/gamemastering/combat#TOC-Move-Actions\">move action</a>&nbsp;to use this ability.</p>\n<h2>Studied Strike (Ex)</h2>\n<p>At 4th level, an investigator can choose to make a studied strike against the target of his studied combat as a&nbsp;<a href=\"https://www.d20pfsrd.com/gamemastering/combat#TOC-Free-Actions\">free action</a>, upon successfully hitting his studied target with a melee attack, to deal additional damage. The damage is 1d6 at 4th level, and increases by 1d6 for every 2 levels thereafter (to a maximum of 9d6 at 20th level). The damage of studied strike is precision damage and is not multiplied on a&nbsp;<a href=\"https://www.d20pfsrd.com/gamemastering/combat#TOC-Critical-Hits\">critical hit</a>; creatures that are immune to&nbsp;<a href=\"https://www.d20pfsrd.com/classes/core-classes/rogue#TOC-Sneak-Attack\">sneak attacks</a>&nbsp;are also immune to studied strike.</p>\n<p>If the investigator’s attack used a weapon that deals&nbsp;<a href=\"https://www.d20pfsrd.com/gamemastering/combat#TOC-Nonlethal-Damage\">nonlethal damage</a>&nbsp;(like a&nbsp;<a href=\"https://www.d20pfsrd.com/equipment/weapons/weapon-descriptions/sap\">sap</a>,&nbsp;<a href=\"https://www.d20pfsrd.com/equipment/weapons/weapon-descriptions/whip\">whip</a>, or an&nbsp;<a href=\"https://www.d20pfsrd.com/equipment/weapons/weapon-descriptions/strike-unarmed\">unarmed strike</a>), he may choose to have the additional damage from studied strike be&nbsp;<a href=\"https://www.d20pfsrd.com/gamemastering/combat#TOC-Nonlethal-Damage\">nonlethal damage</a>&nbsp;instead of lethal damage. If the investigator chose to make an attack with a lethal weapon instead deal&nbsp;<a href=\"https://www.d20pfsrd.com/gamemastering/combat#TOC-Nonlethal-Damage\">nonlethal damage</a>&nbsp;(with the usual –4 penalty), the studied strike damage may also deal&nbsp;<a href=\"https://www.d20pfsrd.com/gamemastering/combat#TOC-Nonlethal-Damage\">nonlethal damage</a>.</p>\n<p>The investigator must be able to see the target well enough to pick out a vital spot and must be able to reach such a spot. An investigator cannot use studied strike against a creature with&nbsp;<a href=\"https://www.d20pfsrd.com/gamemastering/combat#TOC-Concealment\">concealment</a>.</p>\n<h2>Swift Alchemy (Ex)</h2>\n<p>At 4th level, an investigator can create alchemical items with astounding speed. It takes an investigator half the normal amount of time to create alchemical items. He can also apply&nbsp;<a href=\"https://www.d20pfsrd.com/gamemastering/afflictions/poison\">poison</a>&nbsp;to a weapon as a&nbsp;<a href=\"https://www.d20pfsrd.com/gamemastering/combat#TOC-Move-Actions\">move action</a>&nbsp;instead of a&nbsp;<a href=\"https://www.d20pfsrd.com/gamemastering/combat#TOC-Standard-Actions\">standard action</a>.</p>\n<h2>True Inspiration (Ex)</h2>\n<p>At 20th level, an investigator can use inspiration on all skill checks—even ones he isn’t trained in—and all ability checks without spending inspiration.</p>\n<p>In addition, whenever he expends inspiration on an ability check, attack roll, saving throw, or skill check, he adds 2d6 rather than 1d6 to the result. Some talents can affect this. If using the amazing inspiration investigator talent, he rolls 2d8 instead. If using this with empathy, tenacious inspiration, underworld inspiration, or a similar talent, he rolls two sets of inspiration dice and uses the higher of the two results.</p>",
      "chat": "",
      "unidentified": ""
    },
    "damage": {
      "parts": [],
      "critParts": [],
      "nonCritParts": []
    },
    "preparation": {
      "maxAmount": 0
    },
    "weaponData": {
      "critRange": 20,
      "critMult": 2
    },
    "uses": {
      "value": 0,
      "max": 0
    }
  },
  "flags": {},
  "img": "systems/pf1/icons/items/inventory/pipe.jpg",
  "effects": []
}