{
  "_id": "xtRbNEKYYq4cRiwI",
  "name": "Medium",
  "permission": {
    "default": 0
  },
  "type": "class",
  "data": {
    "description": {
      "value": "<p>Mediums channel spirits into themselves, using their own bodies as vessels for astral entities spawned from myths and legends. A medium balances his need for the spirits’ power with the danger of allowing such beings influence over his mind.</p>\n<p><strong>Role:</strong> Mediums are very versatile, filling whatever role the party needs at the moment by channeling the right spirit.</p>\n<p><strong>Alignment</strong>: Any.</p>\n<p><strong>Hit Die</strong>: d8.</p>\n<p><strong>Starting Wealth</strong>: 4d6 × 10 gp (average 140 gp.) In addition, each character begins play with an outfit worth 10 gp or less.</p>\n<h2><span id=\"Class_Skills\">Class Skills</span></h2>\n<p>The medium’s class skills are <a href=\"https://www.d20pfsrd.com/skills/bluff\">Bluff</a>&nbsp;(<a href=\"https://www.d20pfsrd.com/basics-ability-scores/ability-scores#TOC-Charisma-Cha-\">Cha</a>), <a href=\"https://www.d20pfsrd.com/skills/craft\">Craft</a>&nbsp;(<a href=\"https://www.d20pfsrd.com/basics-ability-scores/ability-scores#TOC-Intelligence-Int-\">Int</a>), <a href=\"https://www.d20pfsrd.com/skills/diplomacy\">Diplomacy</a>&nbsp;(<a href=\"https://www.d20pfsrd.com/basics-ability-scores/ability-scores#TOC-Charisma-Cha-\">Cha</a>), <a href=\"https://www.d20pfsrd.com/skills/fly\">Fly</a>&nbsp;(<a href=\"https://www.d20pfsrd.com/basics-ability-scores/ability-scores#TOC-Dexterity-Dex-\">Dex</a>), <a href=\"https://www.d20pfsrd.com/skills/heal\">Heal</a>&nbsp;(<a href=\"https://www.d20pfsrd.com/basics-ability-scores/ability-scores#TOC-Wisdom-Wis-\">Wis</a>), <a href=\"https://www.d20pfsrd.com/skills/intimidate\">Intimidate</a>&nbsp;(<a href=\"https://www.d20pfsrd.com/basics-ability-scores/ability-scores#TOC-Charisma-Cha-\">Cha</a>), <a href=\"https://www.d20pfsrd.com/skills/knowledge\">Knowledge</a>&nbsp;(arcana) (<a href=\"https://www.d20pfsrd.com/basics-ability-scores/ability-scores#TOC-Intelligence-Int-\">Int</a>), <a href=\"https://www.d20pfsrd.com/skills/knowledge\">Knowledge</a>&nbsp;(planes) (<a href=\"https://www.d20pfsrd.com/basics-ability-scores/ability-scores#TOC-Intelligence-Int-\">Int</a>), <a href=\"https://www.d20pfsrd.com/skills/knowledge\">Knowledge</a>&nbsp;(religion) (<a href=\"https://www.d20pfsrd.com/basics-ability-scores/ability-scores#TOC-Intelligence-Int-\">Int</a>), <a href=\"https://www.d20pfsrd.com/skills/linguistics\">Linguistics</a>&nbsp;(<a href=\"https://www.d20pfsrd.com/basics-ability-scores/ability-scores#TOC-Intelligence-Int-\">Int</a>), <a href=\"https://www.d20pfsrd.com/skills/perception\">Perception</a>&nbsp;(<a href=\"https://www.d20pfsrd.com/basics-ability-scores/ability-scores#TOC-Wisdom-Wis-\">Wis</a>), <a href=\"https://www.d20pfsrd.com/skills/perform\">Perform</a>&nbsp;(<a href=\"https://www.d20pfsrd.com/basics-ability-scores/ability-scores#TOC-Charisma-Cha-\">Cha</a>), <a href=\"https://www.d20pfsrd.com/skills/profession\">Profession</a>&nbsp;(<a href=\"https://www.d20pfsrd.com/basics-ability-scores/ability-scores#TOC-Wisdom-Wis-\">Wis</a>), <a href=\"https://www.d20pfsrd.com/skills/sense-motive\">Sense Motive</a>&nbsp;(<a href=\"https://www.d20pfsrd.com/basics-ability-scores/ability-scores#TOC-Wisdom-Wis-\">Wis</a>), <a href=\"https://www.d20pfsrd.com/skills/spellcraft\">Spellcraft</a>&nbsp;(<a href=\"https://www.d20pfsrd.com/basics-ability-scores/ability-scores#TOC-Intelligence-Int-\">Int</a>), and&nbsp;<a href=\"https://www.d20pfsrd.com/skills/use-magic-device\">Use Magic Device</a>&nbsp;(<a href=\"https://www.d20pfsrd.com/basics-ability-scores/ability-scores#TOC-Wisdom-Wis-\">Wis</a>).</p>\n<p><strong>Skill Ranks per Level</strong>: 4 +&nbsp;<a href=\"https://www.d20pfsrd.com/basics-ability-scores/ability-scores#TOC-Intelligence-Int-\">Int</a>&nbsp;modifier.</p>",
      "chat": "",
      "unidentified": ""
    },
    "tags": [],
    "changes": [],
    "changeFlags": {
      "loseDexToAC": false,
      "noStr": false,
      "noDex": false,
      "oneInt": false,
      "oneWis": false,
      "oneCha": false,
      "noEncumbrance": false,
      "mediumArmorFullSpeed": false,
      "heavyArmorFullSpeed": false
    },
    "links": {
      "children": [],
      "classAssociations": [
        {
          "id": "pf1.class-abilities.FXSiQ0ppo3K6Xsrg",
          "dataType": "compendium",
          "name": "Spirit Bonus",
          "img": "systems/pf1/icons/skills/affliction_05.jpg",
          "hiddenLinks": {},
          "level": 1,
          "_index": 0
        },
        {
          "id": "pf1.class-abilities.FSCREL7v6iMkIbAZ",
          "dataType": "compendium",
          "name": "Spirit Surge",
          "img": "systems/pf1/icons/skills/blue_22.jpg",
          "hiddenLinks": {},
          "level": 1,
          "_index": 1
        },
        {
          "id": "pf1.class-abilities.0aMIOpu0ZbBvQpao",
          "dataType": "compendium",
          "name": "Shared Seance",
          "img": "systems/pf1/icons/skills/emerald_11.jpg",
          "hiddenLinks": {},
          "level": 2,
          "_index": 2
        },
        {
          "id": "pf1.class-abilities.zx0lJIxpj8ZCDh97",
          "dataType": "compendium",
          "name": "Taboo",
          "img": "systems/pf1/icons/skills/affliction_23.jpg",
          "hiddenLinks": {},
          "level": 2,
          "_index": 3
        },
        {
          "id": "pf1.class-abilities.zRzEkAuvEzxj7Cmn",
          "dataType": "compendium",
          "name": "Haunt Channeler",
          "img": "systems/pf1/icons/spells/light-royal-1.jpg",
          "hiddenLinks": {},
          "level": 3,
          "_index": 4
        },
        {
          "id": "pf1.class-abilities.ijE8aHAZOvoFPFr4",
          "dataType": "compendium",
          "name": "Location Channel",
          "img": "systems/pf1/icons/skills/blue_38.jpg",
          "hiddenLinks": {},
          "level": 5,
          "_index": 5
        },
        {
          "id": "pf1.class-abilities.wxPsA25DTWBHcX9O",
          "dataType": "compendium",
          "name": "Connection Channel",
          "img": "systems/pf1/icons/skills/ice_17.jpg",
          "hiddenLinks": {},
          "level": 7,
          "_index": 6
        },
        {
          "id": "pf1.class-abilities.YJ0NcsmHi9AIkwlX",
          "dataType": "compendium",
          "name": "Propitiation",
          "img": "systems/pf1/icons/skills/shadow_12.jpg",
          "hiddenLinks": {},
          "level": 9,
          "_index": 7
        },
        {
          "id": "pf1.class-abilities.fX0nacm4MAQCJ5fB",
          "dataType": "compendium",
          "name": "Ask the Spirits",
          "img": "systems/pf1/icons/skills/blue_15.jpg",
          "hiddenLinks": {},
          "level": 13,
          "_index": 8
        },
        {
          "id": "pf1.class-abilities.nlcLhyRFeHkJRwIy",
          "dataType": "compendium",
          "name": "Astral Journey",
          "img": "systems/pf1/icons/skills/emerald_09.jpg",
          "hiddenLinks": {},
          "level": 14,
          "_index": 9
        },
        {
          "id": "pf1.class-abilities.NHMFpVAXvR6jBOio",
          "dataType": "compendium",
          "name": "Trance of Three",
          "img": "systems/pf1/icons/skills/violet_03.jpg",
          "hiddenLinks": {},
          "level": 15,
          "_index": 10
        },
        {
          "id": "pf1.class-abilities.da7y3jU5mLVcBXsj",
          "dataType": "compendium",
          "name": "Spacious Soul",
          "img": "systems/pf1/icons/skills/blue_06.jpg",
          "hiddenLinks": {},
          "level": 18,
          "_index": 11
        },
        {
          "id": "pf1.class-abilities.8u2spZD9qVCOi7Lw",
          "dataType": "compendium",
          "name": "Spirit Mastery",
          "img": "systems/pf1/icons/skills/red_01.jpg",
          "hiddenLinks": {},
          "level": 19,
          "_index": 12
        },
        {
          "id": "pf1.class-abilities.d6zcYlRQmpj9D5oy",
          "dataType": "compendium",
          "name": "Astral Beacon",
          "img": "systems/pf1/icons/skills/emerald_03.jpg",
          "hiddenLinks": {},
          "level": 20,
          "_index": 13
        }
      ]
    },
    "tag": "medium",
    "useCustomTag": true,
    "armorProf": {
      "value": [
        "lgt",
        "med"
      ],
      "custom": ""
    },
    "weaponProf": {
      "value": [
        "sim"
      ],
      "custom": ""
    },
    "classType": "base",
    "levels": {
      "value": 0,
      "_deprecated": true
    },
    "level": 1,
    "hd": 8,
    "hp": 8,
    "bab": "med",
    "skillsPerLevel": 4,
    "savingThrows": {
      "fort": {
        "value": "low"
      },
      "ref": {
        "value": "low"
      },
      "will": {
        "value": "high"
      }
    },
    "fc": {
      "hp": {
        "value": 0
      },
      "skill": {
        "value": 0
      },
      "alt": {
        "value": 0
      }
    },
    "classSkills": {
      "blf": true,
      "acr": false,
      "apr": false,
      "art": false,
      "clm": false,
      "crf": true,
      "dip": true,
      "dev": false,
      "dis": false,
      "esc": false,
      "fly": true,
      "han": false,
      "hea": true,
      "int": true,
      "kar": true,
      "kdu": false,
      "ken": false,
      "kge": false,
      "khi": false,
      "klo": false,
      "kna": false,
      "kno": false,
      "kpl": true,
      "kre": true,
      "lin": true,
      "lor": false,
      "per": true,
      "prf": true,
      "pro": true,
      "rid": false,
      "sen": true,
      "slt": false,
      "spl": true,
      "ste": false,
      "sur": false,
      "swm": false,
      "umd": true
    },
    "damage": {
      "parts": [],
      "critParts": [],
      "nonCritParts": []
    },
    "preparation": {
      "maxAmount": 0
    },
    "weaponData": {
      "critRange": 20,
      "critMult": 2
    },
    "uses": {
      "value": 0,
      "max": 0
    }
  },
  "flags": {},
  "img": "systems/pf1/icons/skills/blue_37.jpg",
  "effects": []
}