{
  "_id": "5uUzVl0gLZ23vY96",
  "name": "Occultist",
  "permission": {
    "default": 0
  },
  "type": "class",
  "data": {
    "description": {
      "value": "<p>The occultist focuses on the world around him, grounded in the powers that flow throughout his environment. He studies the magic that infuses everything, from psychic resonances left in everyday items to powerful incantations that fuel the mightiest spells.</p>\n<p>The occultist channels his psychic might through implements—items that allow him to focus his power and produce incredible effects. For him, implements are more than simple tools. They are a repository of history and a tie to the events of the past. The occultist uses these implements to influence and change the present, adding his legend to theirs. Though some of these implements might be magic items in their own right, most of them are merely of historical or personal significance to the occultist.</p>\n<p><strong>Role:</strong> Occultists are always eager to travel in the company of adventurers, explorers, and archaeologists, as those three groups of people have a knack for finding items with rich histories and great significance.</p>\n<p><strong>Alignment:</strong> Any.</p>\n<p><strong>Hit Die:</strong> d8.</p>\n<p><strong>Starting Wealth</strong>: 4d6 × 10 gp (average 140 gp.) In addition, each character begins play with an outfit worth 10 gp or less.</p>\n<h2><span id=\"Class_Skills\">Class Skills</span></h2>\n<p>The occultist’s class skills are&nbsp;<a href=\"https://www.d20pfsrd.com/skills/appraise\">Appraise</a>&nbsp;(<a href=\"https://www.d20pfsrd.com/basics-ability-scores/ability-scores#TOC-Intelligence-Int-\">Int</a>), <a href=\"https://www.d20pfsrd.com/skills/craft\">Craft</a>&nbsp;(<a href=\"https://www.d20pfsrd.com/basics-ability-scores/ability-scores#TOC-Intelligence-Int-\">Int</a>), <a href=\"https://www.d20pfsrd.com/skills/diplomacy\">Diplomacy</a>&nbsp;(<a href=\"https://www.d20pfsrd.com/basics-ability-scores/ability-scores#TOC-Charisma-Cha-\">Cha</a>), <a href=\"https://www.d20pfsrd.com/skills/disable-device\">Disable Device</a>&nbsp;(<a href=\"https://www.d20pfsrd.com/basics-ability-scores/ability-scores#TOC-Dexterity-Dex-\">Dex</a>), <a href=\"https://www.d20pfsrd.com/skills/disguise\">Disguise</a>&nbsp;(<a href=\"https://www.d20pfsrd.com/basics-ability-scores/ability-scores#TOC-Charisma-Cha-\">Cha</a>), <a href=\"https://www.d20pfsrd.com/skills/fly\">Fly</a>&nbsp;(<a href=\"https://www.d20pfsrd.com/basics-ability-scores/ability-scores#TOC-Dexterity-Dex-\">Dex</a>), <a href=\"https://www.d20pfsrd.com/skills/knowledge\">Knowledge</a>&nbsp;(arcana) (<a href=\"https://www.d20pfsrd.com/basics-ability-scores/ability-scores#TOC-Intelligence-Int-\">Int</a>), <a href=\"https://www.d20pfsrd.com/skills/knowledge\">Knowledge</a>&nbsp;(engineering) (<a href=\"https://www.d20pfsrd.com/basics-ability-scores/ability-scores#TOC-Intelligence-Int-\">Int</a>), <a href=\"https://www.d20pfsrd.com/skills/knowledge\">Knowledge</a>&nbsp;(history) (<a href=\"https://www.d20pfsrd.com/basics-ability-scores/ability-scores#TOC-Intelligence-Int-\">Int</a>), <a href=\"https://www.d20pfsrd.com/skills/knowledge\">Knowledge</a>&nbsp;(planes) (<a href=\"https://www.d20pfsrd.com/basics-ability-scores/ability-scores#TOC-Intelligence-Int-\">Int</a>), <a href=\"https://www.d20pfsrd.com/skills/knowledge\">Knowledge</a>&nbsp;(religion) (<a href=\"https://www.d20pfsrd.com/basics-ability-scores/ability-scores#TOC-Intelligence-Int-\">Int</a>), <a href=\"https://www.d20pfsrd.com/skills/linguistics\">Linguistics</a>&nbsp;(<a href=\"https://www.d20pfsrd.com/basics-ability-scores/ability-scores#TOC-Intelligence-Int-\">Int</a>), <a href=\"https://www.d20pfsrd.com/skills/perception\">Perception</a>&nbsp;(<a href=\"https://www.d20pfsrd.com/basics-ability-scores/ability-scores#TOC-Wisdom-Wis-\">Wis</a>), <a href=\"https://www.d20pfsrd.com/skills/profession\">Profession</a>&nbsp;(<a href=\"https://www.d20pfsrd.com/basics-ability-scores/ability-scores#TOC-Wisdom-Wis-\">Wis</a>), <a href=\"https://www.d20pfsrd.com/skills/sense-motive\">Sense Motive</a>&nbsp;(<a href=\"https://www.d20pfsrd.com/basics-ability-scores/ability-scores#TOC-Wisdom-Wis-\">Wis</a>), <a href=\"https://www.d20pfsrd.com/skills/sleight-of-hand\">Sleight of Hand</a>&nbsp;(<a href=\"https://www.d20pfsrd.com/basics-ability-scores/ability-scores#TOC-Dexterity-Dex-\">Dex</a>), <a href=\"https://www.d20pfsrd.com/skills/spellcraft\">Spellcraft</a>&nbsp;(<a href=\"https://www.d20pfsrd.com/basics-ability-scores/ability-scores#TOC-Intelligence-Int-\">Int</a>) ,and&nbsp;<a href=\"https://www.d20pfsrd.com/skills/use-magic-device\">Use Magic Device</a>&nbsp;(<a href=\"https://www.d20pfsrd.com/basics-ability-scores/ability-scores#TOC-Charisma-Cha-\">Cha</a>).</p>\n<p><strong>Skill Ranks per Level</strong>: 4 +&nbsp;<a href=\"https://www.d20pfsrd.com/basics-ability-scores/ability-scores#TOC-Intelligence-Int-\">Int</a>&nbsp;modifier.</p>",
      "chat": "",
      "unidentified": ""
    },
    "tags": [],
    "changes": [],
    "changeFlags": {
      "loseDexToAC": false,
      "noStr": false,
      "noDex": false,
      "oneInt": false,
      "oneWis": false,
      "oneCha": false,
      "noEncumbrance": false,
      "mediumArmorFullSpeed": false,
      "heavyArmorFullSpeed": false
    },
    "links": {
      "children": [],
      "classAssociations": [
        {
          "id": "pf1.class-abilities.F7PCKVItCxiXoBi6",
          "dataType": "compendium",
          "name": "Focus Powers",
          "img": "systems/pf1/icons/skills/blue_23.jpg",
          "hiddenLinks": {},
          "level": 1,
          "_index": 0
        },
        {
          "id": "pf1.class-abilities.Zpd2gNTIy9U84n79",
          "dataType": "compendium",
          "name": "Implements",
          "img": "systems/pf1/icons/items/jewelry/necklace-teeth.jpg",
          "hiddenLinks": {},
          "level": 1,
          "_index": 1
        },
        {
          "id": "pf1.class-abilities.dv8TDGs9c7h4awY2",
          "dataType": "compendium",
          "name": "Mental Focus",
          "img": "systems/pf1/icons/items/inventory/scroll-magic.jpg",
          "hiddenLinks": {},
          "level": 1,
          "_index": 2
        },
        {
          "id": "pf1.class-abilities.mMVzwNJo1A7g7TO4",
          "dataType": "compendium",
          "name": "Magic Item Skill",
          "img": "systems/pf1/icons/items/equipment/belt-gems.jpg",
          "hiddenLinks": {},
          "level": 2,
          "_index": 3
        },
        {
          "id": "pf1.class-abilities.oI2zqavECPLFkIHv",
          "dataType": "compendium",
          "name": "Object Reading",
          "img": "systems/pf1/icons/items/inventory/rune-purple.jpg",
          "hiddenLinks": {},
          "level": 2,
          "_index": 4
        },
        {
          "id": "pf1.class-abilities.lkVGkpsywFpdtoIs",
          "dataType": "compendium",
          "name": "Shift Focus",
          "img": "systems/pf1/icons/skills/violet_04.jpg",
          "hiddenLinks": {},
          "level": 4,
          "_index": 5
        },
        {
          "id": "pf1.class-abilities.kVqL3rw5mcAMhiEq",
          "dataType": "compendium",
          "name": "Aura Sight",
          "img": "systems/pf1/icons/skills/shadow_12.jpg",
          "hiddenLinks": {},
          "level": 5,
          "_index": 6
        },
        {
          "id": "pf1.class-abilities.GH57XmJVGC97z6hM",
          "dataType": "compendium",
          "name": "Magic Circles",
          "img": "systems/pf1/icons/spells/runes-orange-1.jpg",
          "hiddenLinks": {},
          "level": 8,
          "_index": 7
        },
        {
          "id": "pf1.class-abilities.FE7Ab3fEPntAwdNw",
          "dataType": "compendium",
          "name": "Outside Contact",
          "img": "systems/pf1/icons/spells/runes-orange-2.jpg",
          "hiddenLinks": {},
          "level": 8,
          "_index": 8
        },
        {
          "id": "pf1.class-abilities.y5VEa0kjV1UKYnZW",
          "dataType": "compendium",
          "name": "Binding Circles",
          "img": "systems/pf1/icons/spells/runes-orange-3.jpg",
          "hiddenLinks": {},
          "level": 12,
          "_index": 9
        },
        {
          "id": "pf1.class-abilities.OpfGzOdY5kGrK3fA",
          "dataType": "compendium",
          "name": "Fast Circles",
          "img": "systems/pf1/icons/spells/runes-royal-3.jpg",
          "hiddenLinks": {},
          "level": 16,
          "_index": 10
        },
        {
          "id": "pf1.class-abilities.0R8c0js1gWlCtbCY",
          "dataType": "compendium",
          "name": "Implement Mastery",
          "img": "systems/pf1/icons/items/equipment/belt-girdle.jpg",
          "hiddenLinks": {},
          "level": 20,
          "_index": 11
        }
      ]
    },
    "tag": "occultist",
    "useCustomTag": true,
    "armorProf": {
      "value": [
        "lgt",
        "med",
        "shl"
      ],
      "custom": ""
    },
    "weaponProf": {
      "value": [
        "sim",
        "mar"
      ],
      "custom": ""
    },
    "classType": "base",
    "levels": {
      "value": 0,
      "_deprecated": true
    },
    "level": 1,
    "hd": 8,
    "hp": 8,
    "bab": "med",
    "skillsPerLevel": 4,
    "savingThrows": {
      "fort": {
        "value": "high"
      },
      "ref": {
        "value": "low"
      },
      "will": {
        "value": "high"
      }
    },
    "fc": {
      "hp": {
        "value": 0
      },
      "skill": {
        "value": 0
      },
      "alt": {
        "value": 0
      }
    },
    "classSkills": {
      "apr": true,
      "acr": false,
      "art": false,
      "blf": false,
      "clm": false,
      "crf": true,
      "dip": true,
      "dev": true,
      "dis": true,
      "esc": false,
      "fly": true,
      "han": false,
      "hea": false,
      "int": false,
      "kar": true,
      "kdu": false,
      "ken": true,
      "kge": false,
      "khi": true,
      "klo": false,
      "kna": false,
      "kno": false,
      "kpl": true,
      "kre": true,
      "lin": true,
      "lor": false,
      "per": true,
      "prf": false,
      "pro": true,
      "rid": false,
      "sen": true,
      "slt": true,
      "spl": true,
      "ste": false,
      "sur": false,
      "swm": false,
      "umd": true
    },
    "damage": {
      "parts": [],
      "critParts": [],
      "nonCritParts": []
    },
    "preparation": {
      "maxAmount": 0
    },
    "weaponData": {
      "critRange": 20,
      "critMult": 2
    },
    "uses": {
      "value": 0,
      "max": 0
    }
  },
  "flags": {},
  "img": "systems/pf1/icons/items/inventory/book-purple.jpg",
  "effects": []
}