{
  "_id": "16mfrGi2UHTsME4W",
  "name": "Shifter",
  "permission": {
    "default": 0
  },
  "type": "class",
  "data": {
    "description": {
      "value": "<p>Whether riding on the wind as a falcon or hiding in some fetid bog waiting to strike, the shifter is a true master of the wild. Both a devoted defender of druidic circles and a fierce predator, the shifter can take on the forms of nature and even fuse them together with devastating effect and unbridled savagery. By way of the druidic discipline of&nbsp;<a href=\"https://www.d20pfsrd.com/classes/base-classes/Shifter/#TOC-Wild-Shape-Su-\">wild shape</a>, they become living aspects of the wild. At first, they are able to assume only a minor aspect, but with time and practice they can fully transform into ever more powerful forms.</p>\n<p>The shifter class offers players a way to experience a shapeshifting character that is more martially inclined than a spellcasting&nbsp;<a href=\"https://www.d20pfsrd.com/classes/core-classes/druid\">druid</a>. With each new level, the shifter’s powers grow in new and surprising ways, creating a character that thrives in battle, exploration, and stealth.</p>\n<p>Shifters are protectors of druidic circles and avengers of nature, yet a shifter’s magic is different from that of her druidic kin. Rather than invoking spells from the natural world or forging alliances with&nbsp;<a href=\"https://www.d20pfsrd.com/bestiary/rules-for-monsters/creature-types#TOC-Animal\">animals</a>, shifters focus their supernatural powers inward to gain control over their own forms. Their ability to change their forms is as varied as the wonders of the wilds themselves but always remains at least partially rooted in the natural world. There are many paths to becoming a shifter; most are trained in that role by druidic circles and have their powers unlocked via rituals of initiation. Yet some stumble upon the gift naturally, as if their blood bore the secrets of shifter transformation.</p>\n<p>For those leaning toward the causes of law and good, the path of the shifter is one of contemplation and understanding. They become one with nature through mental and physical mimicry and gain an ever deeper spiritual understanding of the ebb and flow of the natural world. Those leaning toward the chaotic and evil teachings of druidic philosophy find such enlightenment through more violent means. These are typically quicker transformations, both brutal and painful, imparting the dark lessons of nature through its most catastrophic forms. Shifters who lean toward true neutrality are the most diverse when it comes to their command of metamorphic secrets.</p>\n<p><strong>Role</strong>: The shifter is so attuned to nature and the wild beasts of the world that she can call upon those powers to mystically fortify her being. Fluid in form and function, she can shape herself to overcome hardships and support those she befriends or serves.</p>\n<p><strong>Alignment</strong>: Any neutral.</p>\n<p><strong>Hit Die</strong>: d10.</p>\n<p><strong>Starting Wealth</strong>: 3d6x10 gp (average 105 gp).</p>\n<h2><span id=\"Class_Skills\">Class Skills</span></h2>\n<p>The shifter’s class skills are <a href=\"https://www.d20pfsrd.com/skills/acrobatics\">Acrobatics</a>&nbsp;(<a href=\"https://www.d20pfsrd.com/basics-ability-scores/ability-scores#TOC-Dexterity-Dex-\">Dex</a>), <a href=\"https://www.d20pfsrd.com/skills/climb\">Climb</a>&nbsp;(<a href=\"https://www.d20pfsrd.com/basics-ability-scores/ability-scores#TOC-Strength-Str-\">Str</a>), <a href=\"https://www.d20pfsrd.com/skills/craft\">Craft</a>&nbsp;(<a href=\"https://www.d20pfsrd.com/basics-ability-scores/ability-scores#TOC-Intelligence-Int-\">Int</a>), <a href=\"https://www.d20pfsrd.com/skills/fly\">Fly</a>&nbsp;(<a href=\"https://www.d20pfsrd.com/basics-ability-scores/ability-scores#TOC-Dexterity-Dex-\">Dex</a>), <a href=\"https://www.d20pfsrd.com/skills/handle-animal\">Handle Animal</a>&nbsp;(<a href=\"https://www.d20pfsrd.com/basics-ability-scores/ability-scores#TOC-Charisma-Cha-\">Cha</a>), <a href=\"https://www.d20pfsrd.com/skills/knowledge\">Knowledge</a>&nbsp;(nature) (<a href=\"https://www.d20pfsrd.com/basics-ability-scores/ability-scores#TOC-Intelligence-Int-\">Int</a>), <a href=\"https://www.d20pfsrd.com/skills/perception\">Perception</a>&nbsp;(<a href=\"https://www.d20pfsrd.com/basics-ability-scores/ability-scores#TOC-Wisdom-Wis-\">Wis</a>), <a href=\"https://www.d20pfsrd.com/skills/profession\">Profession</a>&nbsp;(<a href=\"https://www.d20pfsrd.com/basics-ability-scores/ability-scores#TOC-Wisdom-Wis-\">Wis</a>), <a href=\"https://www.d20pfsrd.com/skills/ride\">Ride</a>&nbsp;(<a href=\"https://www.d20pfsrd.com/basics-ability-scores/ability-scores#TOC-Dexterity-Dex-\">Dex</a>), <a href=\"https://www.d20pfsrd.com/skills/stealth\">Stealth</a>&nbsp;(<a href=\"https://www.d20pfsrd.com/basics-ability-scores/ability-scores#TOC-Dexterity-Dex-\">Dex</a>), <a href=\"https://www.d20pfsrd.com/skills/survival\">Survival</a>&nbsp;(<a href=\"https://www.d20pfsrd.com/basics-ability-scores/ability-scores#TOC-Wisdom-Wis-\">Wis</a>), and <a href=\"https://www.d20pfsrd.com/skills/swim\">Swim</a>&nbsp;(<a href=\"https://www.d20pfsrd.com/basics-ability-scores/ability-scores#TOC-Strength-Str-\">Str</a>).</p>\n<p><strong>Skill Ranks per Level</strong>: 4 +&nbsp;<a href=\"https://www.d20pfsrd.com/basics-ability-scores/ability-scores#TOC-Intelligence-Int-\">Int</a>&nbsp;modifier.</p>",
      "chat": "",
      "unidentified": ""
    },
    "tags": [],
    "changes": [],
    "changeFlags": {
      "loseDexToAC": false,
      "noStr": false,
      "noDex": false,
      "oneInt": false,
      "oneWis": false,
      "oneCha": false,
      "noEncumbrance": false,
      "mediumArmorFullSpeed": false,
      "heavyArmorFullSpeed": false
    },
    "links": {
      "children": [],
      "classAssociations": [
        {
          "id": "pf1.class-abilities.ph7qA9fJX3iPuqxa",
          "dataType": "compendium",
          "name": "Shifter Aspect",
          "img": "systems/pf1/icons/items/inventory/badge-tiger.jpg",
          "hiddenLinks": {},
          "level": 1,
          "_index": 0
        },
        {
          "id": "pf1.class-abilities.fi5PsRq1XW7MStPM",
          "dataType": "compendium",
          "name": "Shifter Claws",
          "img": "systems/pf1/icons/items/weapons/kumade.png",
          "hiddenLinks": {},
          "level": 1,
          "_index": 1
        },
        {
          "id": "pf1.class-abilities.Yr8dfM2d8JEWoYkr",
          "dataType": "compendium",
          "name": "Wild Empathy",
          "img": "systems/pf1/icons/skills/green_13.jpg",
          "hiddenLinks": {},
          "level": 1,
          "_index": 2
        },
        {
          "id": "pf1.class-abilities.l52geoeGQcQz84AE",
          "dataType": "compendium",
          "name": "Defensive Instinct",
          "img": "systems/pf1/icons/skills/weapon_13.jpg",
          "hiddenLinks": {},
          "level": 2,
          "_index": 3
        },
        {
          "id": "pf1.class-abilities.r8wPs0bB3WhOLxbX",
          "dataType": "compendium",
          "name": "Track",
          "img": "systems/pf1/icons/skills/beast_01.jpg",
          "hiddenLinks": {},
          "level": 2,
          "_index": 4
        },
        {
          "id": "pf1.class-abilities.5iXq1igb1Cq0qobT",
          "dataType": "compendium",
          "name": "Woodland Stride",
          "img": "systems/pf1/icons/skills/green_16.jpg",
          "hiddenLinks": {},
          "level": 3,
          "_index": 5
        },
        {
          "id": "pf1.class-abilities.qjpLIatoQIzmcehq",
          "dataType": "compendium",
          "name": "Wild Shape (SHI)",
          "img": "systems/pf1/icons/skills/blue_29.jpg",
          "hiddenLinks": {},
          "level": 4,
          "_index": 6
        },
        {
          "id": "pf1.class-abilities.adslhIPLFgIaHBfh",
          "dataType": "compendium",
          "name": "Trackless Step",
          "img": "systems/pf1/icons/skills/green_24.jpg",
          "hiddenLinks": {},
          "level": 5,
          "_index": 7
        },
        {
          "id": "pf1.class-abilities.eM1RMYR1EUBuUVTv",
          "dataType": "compendium",
          "name": "Shifter's Fury",
          "img": "systems/pf1/icons/skills/blood_06.jpg",
          "hiddenLinks": {},
          "level": 6,
          "_index": 8
        },
        {
          "id": "pf1.class-abilities.jPNCx02S3ZlIPOmL",
          "dataType": "compendium",
          "name": "Chimeric Aspect",
          "img": "systems/pf1/icons/skills/blue_26.jpg",
          "hiddenLinks": {},
          "level": 9,
          "_index": 9
        },
        {
          "id": "pf1.class-abilities.bXxt8L2PITMstpka",
          "dataType": "compendium",
          "name": "Greater Chimeric Aspect",
          "img": "systems/pf1/icons/skills/blue_34.jpg",
          "hiddenLinks": {},
          "level": 14,
          "_index": 10
        },
        {
          "id": "pf1.class-abilities.cBwQdqQ4KmVBck3t",
          "dataType": "compendium",
          "name": "A Thousand Faces",
          "img": "systems/pf1/icons/skills/violet_03.jpg",
          "hiddenLinks": {},
          "level": 18,
          "_index": 11
        },
        {
          "id": "pf1.class-abilities.5JlthJkVGEHPZypG",
          "dataType": "compendium",
          "name": "Timeless Body",
          "img": "systems/pf1/icons/skills/green_15.jpg",
          "hiddenLinks": {},
          "level": 18,
          "_index": 12
        },
        {
          "id": "pf1.class-abilities.joNziZgJl9ZOJZlF",
          "dataType": "compendium",
          "name": "Final Asepct",
          "img": "systems/pf1/icons/skills/blue_17.jpg",
          "hiddenLinks": {},
          "level": 20,
          "_index": 13
        }
      ]
    },
    "tag": "shifter",
    "useCustomTag": true,
    "armorProf": {
      "value": [
        "lgt",
        "med",
        "shl"
      ],
      "custom": "No Metal Armor"
    },
    "weaponProf": {
      "value": [],
      "custom": "Club;Dagger;Dart;Quarterstaff;Scimitar;Scythe;Sickle;Shortspear;Sling;Spear;Natural Attacks"
    },
    "classType": "base",
    "levels": {
      "value": 0,
      "_deprecated": true
    },
    "level": 1,
    "hd": 10,
    "hp": 10,
    "bab": "high",
    "skillsPerLevel": 4,
    "savingThrows": {
      "fort": {
        "value": "high"
      },
      "ref": {
        "value": "high"
      },
      "will": {
        "value": "low"
      }
    },
    "fc": {
      "hp": {
        "value": 0
      },
      "skill": {
        "value": 0
      },
      "alt": {
        "value": 0
      }
    },
    "classSkills": {
      "acr": true,
      "apr": false,
      "art": false,
      "blf": false,
      "clm": true,
      "crf": true,
      "dip": false,
      "dev": false,
      "dis": false,
      "esc": false,
      "fly": true,
      "han": true,
      "hea": false,
      "int": false,
      "kar": false,
      "kdu": false,
      "ken": false,
      "kge": false,
      "khi": false,
      "klo": false,
      "kna": true,
      "kno": false,
      "kpl": false,
      "kre": false,
      "lin": false,
      "lor": false,
      "per": true,
      "prf": false,
      "pro": true,
      "rid": true,
      "sen": false,
      "slt": false,
      "spl": false,
      "ste": true,
      "sur": true,
      "swm": true,
      "umd": false
    },
    "extraDescription": {
      "value": "<h2>Weapon and Armor Proficiency</h2>\n<p>A shifter is proficient with the following weapons:&nbsp;<a href=\"https://www.d20pfsrd.com/equipment/weapons/weapon-descriptions/club\">club</a>,&nbsp;<a href=\"https://www.d20pfsrd.com/equipment/weapons/weapon-descriptions/dagger\">dagger</a>,&nbsp;<a href=\"https://www.d20pfsrd.com/equipment/weapons/weapon-descriptions/ammunition/ammunition-thrown-darts\">dart</a>,&nbsp;<a href=\"https://www.d20pfsrd.com/equipment/weapons/weapon-descriptions/quarterstaff\">quarterstaff</a>,&nbsp;<a href=\"https://www.d20pfsrd.com/equipment/weapons/weapon-descriptions/scimitar\">scimitar</a>,&nbsp;<a href=\"https://www.d20pfsrd.com/equipment/weapons/weapon-descriptions/scythe\">scythe</a>,&nbsp;<a href=\"https://www.d20pfsrd.com/equipment/weapons/weapon-descriptions/sickle\">sickle</a>,&nbsp;<a href=\"https://www.d20pfsrd.com/equipment/weapons/weapon-descriptions/shortspear\">shortspear</a>,&nbsp;<a href=\"https://www.d20pfsrd.com/equipment/weapons/weapon-descriptions/sling\">sling</a>, and&nbsp;<a href=\"https://www.d20pfsrd.com/equipment/weapons/weapon-descriptions/spear\">spear</a>. She is also proficient with the&nbsp;<a href=\"https://www.d20pfsrd.com/bestiary/rules-for-monsters/universal-monster-rules#TOC-Natural-Attacks\">natural attacks</a>&nbsp;(claw, bite, and so forth) from the shifter claws class feature and of forms she assumes with&nbsp;<a href=\"https://www.d20pfsrd.com/classes/base-classes/Shifter/#TOC-Wild-Shape-Su-\">wild shape</a>.</p>\n<p>Shifters are proficient with light and medium armor but are prohibited from wearing metal armor. A shifter can wear wooden armor that has been altered by the&nbsp;<a href=\"https://www.d20pfsrd.com/magic/all-spells/i/ironwood\">ironwood</a>&nbsp;spell so that it functions as if it were steel. Shifters are proficient with shields (except tower shields) but must use only those crafted from wood.</p>\n<p>A shifter who wears prohibited armor or uses a prohibited shield is unable to use her shifter aspect, shifter claws,&nbsp;<a href=\"https://www.d20pfsrd.com/classes/base-classes/Shifter/#TOC-Wild-Shape-Su-\">wild shape</a>, and other shifter&nbsp;<a href=\"https://www.d20pfsrd.com/magic#TOC-Supernatural-Abilities-Su-\">supernatural</a>&nbsp;or&nbsp;<a href=\"https://www.d20pfsrd.com/magic#TOC-Spell-Like-Abilities-Sp-\">spell-like abilities</a>&nbsp;while doing so and for 24 hours thereafter.</p>\n<h2>Bonus Languages</h2>\n<p>A shifter’s bonus language options include Sylvan, the language of woodland creatures, and Aklo, the tongue spoken by certain sinister&nbsp;<a href=\"https://www.d20pfsrd.com/bestiary/rules-for-monsters/creature-types#TOC-Fey\">fey</a>&nbsp;or otherworldly denizens of reaches of the wild rarely explored by humanity. These choices are in addition to the bonus languages available to the character because of her race.</p>\n<p>A shifter speaks Druidic, a secret language known only to&nbsp;<a href=\"https://www.d20pfsrd.com/classes/core-classes/druid\">druids</a>&nbsp;and shifters, which she learns upon becoming a 1st-level shifter. Druidic is a free language for a shifter; that is, she knows it in addition to her regular allotment of languages, and it doesn’t take up a language slot. Shifters are forbidden to teach this language to non-<a href=\"https://www.d20pfsrd.com/classes/core-classes/druid\">druids</a>&nbsp;or non-shifters.</p>\n<p>For the purposes of teaching and learning the Druidic language, shifters are considered to be&nbsp;<a href=\"https://www.d20pfsrd.com/classes/core-classes/druid\">druids</a>—the nuances of the language are instrumental in teaching characters of both classes to use and control their abilities. While the rare druidic circle might bar shifters from its order, and while some eccentric shifters may view&nbsp;<a href=\"https://www.d20pfsrd.com/classes/core-classes/druid\">druids</a>&nbsp;as competitors or even enemies, all shifters are assumed to speak it.</p>\n<h2>Shifter Aspect (Su)</h2>\n<p>At 1st level, a shifter gains her first&nbsp;<a href=\"https://www.d20pfsrd.com/classes/base-classes/Shifter/#TOC-Aspects\">aspect</a>—a category of&nbsp;<a href=\"https://www.d20pfsrd.com/bestiary/rules-for-monsters/creature-types#TOC-Animal\">animal</a>&nbsp;to which her body and soul have become supernaturally attuned. She can shift into her aspect’s minor form (see&nbsp;<a href=\"https://www.d20pfsrd.com/classes/base-classes/Shifter/#TOC-Aspects\">Aspects</a>) for a number of minutes per day equal to 3 + her shifter level. The duration need not be consecutive but must be spent in 1-minute increments. Shifting into a minor form is a&nbsp;<a href=\"https://www.d20pfsrd.com/gamemastering/combat#TOC-Swift-Actions\">swift action</a>, while ending the effect is a&nbsp;<a href=\"https://www.d20pfsrd.com/gamemastering/combat#TOC-Free-Actions\">free action</a>&nbsp;that can be taken only on the shifter’s turn. Until a shifter reaches 9th level and gains the&nbsp;<a href=\"https://www.d20pfsrd.com/classes/base-classes/Shifter/#TOC-Chimeric-Aspect-Su-\">chimeric aspect</a>&nbsp;class feature, she can assume only one minor form at a time. Shifting to a new&nbsp;<a href=\"https://www.d20pfsrd.com/classes/base-classes/Shifter/#TOC-Aspects\">aspect</a>&nbsp;(or aspects, in the case of&nbsp;<a href=\"https://www.d20pfsrd.com/classes/base-classes/Shifter/#TOC-Chimeric-Aspect-Su-\">chimeric aspects</a>&nbsp;or&nbsp;<a href=\"https://www.d20pfsrd.com/classes/base-classes/Shifter/#TOC-Greater-Chimeric-Aspect-Su-\">greater chimeric aspects</a>) ends all minor forms currently manifested. The minor forms of aspects are not&nbsp;<a href=\"https://www.d20pfsrd.com/magic/all-spells/p/polymorph\">polymorph</a>&nbsp;effects, and the shifter does not lose the benefits of a minor form while affected by&nbsp;<a href=\"https://www.d20pfsrd.com/magic/all-spells/p/polymorph\">polymorph</a>&nbsp;effects.</p>\n<p>As the shifter gains levels, she gains more&nbsp;<a href=\"https://www.d20pfsrd.com/classes/base-classes/Shifter/#TOC-Aspects\">aspects</a>; she gains her second aspect at 5th level, a third aspect at 10th level, and a fourth at 15th level.</p>\n<h2>Shifter Claws (Su)</h2>\n<p>At will, a shifter in her natural form can extend her claws as a&nbsp;<a href=\"https://www.d20pfsrd.com/gamemastering/combat#TOC-Swift-Actions\">swift action</a>&nbsp;to use as a weapon. This magical transformation is fueled as much by the shifter’s faith in the natural world as it is by inborn talent. The claws on each hand can be used as a primary&nbsp;<a href=\"https://www.d20pfsrd.com/bestiary/rules-for-monsters/universal-monster-rules#TOC-Natural-Attacks\">natural attack</a>, dealing 1d4 points of piercing and slashing damage (1d3 if she is Small). If she uses one of her claw attacks in concert with a weapon held in the other hand, the claw acts as a secondary&nbsp;<a href=\"https://www.d20pfsrd.com/bestiary/rules-for-monsters/universal-monster-rules#TOC-Natural-Attacks\">natural attack</a>&nbsp;instead.</p>\n<p>As the shifter gains levels, the power of her claws increases.</p>\n<p>At 3rd level, her claws count as magic weapons<a href=\"http://paizo.com/paizo/faq/v5748nruor1hj#v5748eaic9wan\" target=\"_blank\" rel=\"nofollow noopener\">SOURCE</a>, ignore&nbsp;<a href=\"https://www.d20pfsrd.com/bestiary/rules-for-monsters/universal-monster-rules#TOC-Damage-Reduction-Ex-or-Su-\">DR</a>/<a href=\"https://www.d20pfsrd.com/equipment/special-materials#TOC-Iron-Cold\">cold iron</a>&nbsp;and&nbsp;<a href=\"https://www.d20pfsrd.com/bestiary/rules-for-monsters/universal-monster-rules#TOC-Damage-Reduction-Ex-or-Su-\">DR</a>/silver. At 7th level, her claw damage increases to 1d6 (1d4 if Small). At 11th level, her claw damage increases to 1d8 (1d6 if Small). At 13th level, her claw damage increases to 1d10 (1d8 if Small). At 17th level, the damage die does not increase, but the critical multiplier becomes ×3. Lastly, at 19th level, the claws ignore&nbsp;<a href=\"https://www.d20pfsrd.com/bestiary/rules-for-monsters/universal-monster-rules#TOC-Damage-Reduction-Ex-or-Su-\">DR</a>/<a href=\"https://www.d20pfsrd.com/equipment/special-materials#TOC-Adamantine\">adamantine</a>&nbsp;and&nbsp;<a href=\"https://www.d20pfsrd.com/bestiary/rules-for-monsters/universal-monster-rules#TOC-Damage-Reduction-Ex-or-Su-\">DR</a>/—.</p>\n<p>While a shifter uses&nbsp;<a href=\"https://www.d20pfsrd.com/classes/base-classes/Shifter/#TOC-Wild-Shape-Su-\">wild shape</a>&nbsp;to assume her&nbsp;<a href=\"https://www.d20pfsrd.com/classes/base-classes/Shifter/#TOC-Aspects\">aspect</a>‘s major form, her&nbsp;<a href=\"https://www.d20pfsrd.com/bestiary/rules-for-monsters/universal-monster-rules#TOC-Natural-Attacks\">natural attacks</a>&nbsp;gain the same benefits granted by her shifter claws ability. If the form she takes has claw attacks, she can use either the base damage of her shifter claws or the damage of the form’s claws, whichever is greater. If the form does not have claw attacks, she can choose up to two&nbsp;<a href=\"https://www.d20pfsrd.com/bestiary/rules-for-monsters/universal-monster-rules#TOC-Natural-Attacks\">natural attacks</a>&nbsp;that would deal less damage than her shifter claw damage and have those attacks instead deal the same damage as her shifter claws.</p>\n<h2>Wild Empathy (Ex)</h2>\n<p>A shifter can improve the attitude of an animal. This ability functions as a&nbsp;<a href=\"https://www.d20pfsrd.com/skills/diplomacy\">Diplomacy</a>&nbsp;check to improve the attitude of a person. The shifter rolls 1d20 and adds her shifter level and&nbsp;<a href=\"https://www.d20pfsrd.com/basics-ability-scores/ability-scores#TOC-Charisma-Cha-\">Charisma</a>&nbsp;modifier to determine the&nbsp;<a href=\"https://www.d20pfsrd.com/classes/base-classes/Shifter/#TOC-Wild-Empathy-Ex-\">wild empathy</a>&nbsp;check result. The typical domestic&nbsp;<a href=\"https://www.d20pfsrd.com/bestiary/rules-for-monsters/creature-types#TOC-Animal\">animal</a>&nbsp;has a starting attitude of indifferent, while wild&nbsp;<a href=\"https://www.d20pfsrd.com/bestiary/rules-for-monsters/creature-types#TOC-Animal\">animals</a>&nbsp;are usually unfriendly.</p>\n<p>To use&nbsp;<a href=\"https://www.d20pfsrd.com/classes/base-classes/Shifter/#TOC-Wild-Empathy-Ex-\">wild empathy</a>, the shifter and the animal must be within 30 feet of one another and under normal conditions. Generally, influencing an animal in this way takes 1 minute but, as with influencing people, it might take more or less time.</p>\n<p>The shifter can also use this ability to influence a&nbsp;<a href=\"https://www.d20pfsrd.com/bestiary/rules-for-monsters/creature-types#TOC-Magical-Beast\">magical beast</a>&nbsp;with an&nbsp;<a href=\"https://www.d20pfsrd.com/basics-ability-scores/ability-scores#TOC-Intelligence-Int-\">Intelligence</a>&nbsp;score of 1 or 2, but she takes a –4 penalty on the check.</p>\n<h2>Defensive Instinct (Ex)</h2>\n<p>At 2nd level, when unarmored, not using a shield, unencumbered, and conscious, the shifter adds her&nbsp;<a href=\"https://www.d20pfsrd.com/basics-ability-scores/ability-scores#TOC-Wisdom-Wis-\">Wisdom</a>&nbsp;bonus (if any) to her AC and&nbsp;<a href=\"https://www.d20pfsrd.com/gamemastering/combat#TOC-Combat-Maneuver-Defense\">CMD</a>. If she is wearing nonmetal armor or using a nonmetal shield, she instead adds half her&nbsp;<a href=\"https://www.d20pfsrd.com/basics-ability-scores/ability-scores#TOC-Wisdom-Wis-\">Wisdom</a>&nbsp;bonus to her AC (minimum 0). In addition, the shifter gains a +1 bonus to her AC and&nbsp;<a href=\"https://www.d20pfsrd.com/gamemastering/combat#TOC-Combat-Maneuver-Defense\">CMD</a>&nbsp;at 4th level. This bonus increases by 1 for every 4 shifter levels thereafter (up to a maximum of +5 at 20th level).</p>\n<p>These bonuses to AC apply even against&nbsp;<a href=\"https://www.d20pfsrd.com/gamemastering/combat#TOC-Touch-Attacks\">touch</a>&nbsp;attacks and when the shifter is&nbsp;<a href=\"https://www.d20pfsrd.com/gamemastering/conditions#TOC-Flat-Footed\">flat-footed</a>. She loses these bonuses when she is immobilized or&nbsp;<a href=\"https://www.d20pfsrd.com/gamemastering/conditions#TOC-Helpless\">helpless</a>. These bonuses do not stack with the&nbsp;<a href=\"https://www.d20pfsrd.com/classes/core-classes/monk\">monk</a>&nbsp;AC bonus class feature.</p>\n<h2>Track (Ex)</h2>\n<p>At 2nd level, a shifter adds half her level as a bonus on&nbsp;<a href=\"https://www.d20pfsrd.com/skills/survival\">Survival</a>&nbsp;checks to follow tracks.</p>\n<h2>Woodland Stride (Ex)</h2>\n<p>At 3rd level, a shifter can move through any sort of undergrowth (such as briars, natural thorns, overgrown areas, and similar terrain) at her normal&nbsp;<a href=\"https://www.d20pfsrd.com/magic-items/magic-weapons/magic-weapon-special-abilities/speed\">speed</a>&nbsp;and without taking damage or suffering any other impairment. Briars, thorns, and overgrown areas that are enchanted or magically manipulated to impede motion still affect the shifter.</p>\n<h2>Wild Shape (Su)</h2>\n<p>At 4th level, a shifter gains the ability to turn herself into the major form of one of her&nbsp;<a href=\"https://www.d20pfsrd.com/classes/base-classes/Shifter/#TOC-Aspects\">aspects</a>&nbsp;and back again. This ability functions as&nbsp;<a href=\"https://www.d20pfsrd.com/magic/all-spells/b/beast-shape\">beast shape II</a>, except as noted here. The shifter can turn into the major form of only one of her&nbsp;<a href=\"https://www.d20pfsrd.com/classes/base-classes/Shifter/#TOC-Aspects\">aspects</a>&nbsp;at a time. Using&nbsp;<a href=\"https://www.d20pfsrd.com/classes/base-classes/Shifter/#TOC-Wild-Shape-Su-\">wild shape</a>&nbsp;to change to a major form or back is a&nbsp;<a href=\"https://www.d20pfsrd.com/gamemastering/combat#TOC-Standard-Actions\">standard action</a>&nbsp;that doesn’t provoke&nbsp;<a href=\"https://www.d20pfsrd.com/gamemastering/combat#TOC-Attacks-of-Opportunity\">attacks of opportunity</a>. Often a particular aspect’s major form grants abilities beyond the normal effect of&nbsp;<a href=\"https://www.d20pfsrd.com/magic/all-spells/b/beast-shape\">beast shape II</a>. Each major form details the abilities the shifter gains with that major form and at what level; she gains these instead of the form abilities from&nbsp;<a href=\"https://www.d20pfsrd.com/magic/all-spells/b/beast-shape\">beast shape II</a>, but she still gains&nbsp;<a href=\"https://www.d20pfsrd.com/magic/all-spells/b/beast-shape\">beast shape II</a>&nbsp;abilities that are size dependent.</p>\n<p>A shifter loses her ability to speak while in animal form because she is limited to the sounds that a normal, untrained&nbsp;<a href=\"https://www.d20pfsrd.com/bestiary/rules-for-monsters/creature-types#TOC-Animal\">animal</a>&nbsp;of that form can make, but she can communicate with other&nbsp;<a href=\"https://www.d20pfsrd.com/bestiary/rules-for-monsters/creature-types#TOC-Animal\">animals</a>&nbsp;of the same general grouping as her form. She can also communicate in nonverbal ways with allies.</p>\n<p>A shifter can use wild shape for a number of hours each day equal to her shifter level + her Wisdom modifier. It need not be consecutive but must be spent in 1 hour increments. For abilities that function based on ‘uses of wild shape,’ each hour of wild shape counts as a use.</p>\n<p>Shifters can take feats and other abilities that require&nbsp;<a href=\"https://www.d20pfsrd.com/classes/base-classes/Shifter/#TOC-Wild-Shape-Su-\">wild shape</a>; for the purpose of qualifying for prerequisites, her effective&nbsp;<a href=\"https://www.d20pfsrd.com/classes/core-classes/druid\">druid</a>&nbsp;level is equal to her shifter level.</p>\n<h2>Trackless Step (Ex)</h2>\n<p>At 5th level, a shifter leaves no trail in natural surroundings and cannot be tracked. She can choose to leave a trail if she so desires.</p>\n<h2>Shifter's Fury (Ex)</h2>\n<p>At 6th level, a shifter gains the ability to make several ferocious attacks with the same natural weapon. Instead of attacking with all her natural weapons, the shifter can choose a single natural weapon and make a full attack with that natural weapon, gaining a second iterative attack at a –5 as if it was a manufactured weapon. When she does so, all her other natural attacks count as secondary attacks and don’t benefit from shifter’s claws.</p>\n<p>At 11th level, she gains a third iterative attack at a –10 and at 16th level, she gains a fourth iterative attack at –15.</p>\n<h2>Chimeric Aspect (Su)</h2>\n<p>At 9th level, when a shifter uses her&nbsp;<a href=\"https://www.d20pfsrd.com/classes/base-classes/Shifter/#TOC-Shifter-Aspect-Su-\">shifter aspect</a>&nbsp;ability to take on a minor form, she can choose two&nbsp;<a href=\"https://www.d20pfsrd.com/classes/base-classes/Shifter/#TOC-Aspects\">aspects</a>&nbsp;and assume the minor form of each&nbsp;<a href=\"https://www.d20pfsrd.com/classes/base-classes/Shifter/#TOC-Aspects\">aspect</a>.</p>\n<h2>Greater Chimeric Aspect (Su)</h2>\n<p>At 14th level, when a shifter uses her&nbsp;<a href=\"https://www.d20pfsrd.com/classes/base-classes/Shifter/#TOC-Shifter-Aspect-Su-\">shifter aspect</a>&nbsp;ability to take on a minor form, she can choose up to three&nbsp;<a href=\"https://www.d20pfsrd.com/classes/base-classes/Shifter/#TOC-Aspects\">aspects</a>&nbsp;and assume the minor form of each&nbsp;<a href=\"https://www.d20pfsrd.com/classes/base-classes/Shifter/#TOC-Aspects\">aspect</a>.</p>\n<h2>A Thousand Faces (Ex)</h2>\n<p>At 18th level, a shifter gains the ability to change her appearance at will, as if using the&nbsp;<a href=\"https://www.d20pfsrd.com/magic/all-spells/a/alter-self\">alter self</a>&nbsp;spell, but only while in her normal form.</p>\n<h2>Timeless Body (Ex)</h2>\n<p>After attaining 18th level, a shifter no longer takes ability score penalties for aging and cannot be magically aged. Any penalties she may have already incurred, however, remain in place. Bonuses still accrue, and the shifter still dies of old age when her time is up.</p>\n<h2>Final Aspect (Su)</h2>\n<p>At 20th level, a shifter gains access to a fifth&nbsp;<a href=\"https://www.d20pfsrd.com/classes/base-classes/Shifter/#TOC-Aspects\">aspect</a>, when she uses&nbsp;<a href=\"https://www.d20pfsrd.com/classes/base-classes/Shifter/#TOC-Shifter-Aspect-Su-\">shifter aspect</a>&nbsp;she can assume the minor forms of all her&nbsp;<a href=\"https://www.d20pfsrd.com/classes/base-classes/Shifter/#TOC-Aspects\">aspects</a>, and the shifter can use her major and minor forms at will.</p>",
      "chat": "",
      "unidentified": ""
    },
    "damage": {
      "parts": [],
      "critParts": [],
      "nonCritParts": []
    },
    "preparation": {
      "maxAmount": 0
    },
    "weaponData": {
      "critRange": 20,
      "critMult": 2
    },
    "uses": {
      "value": 0,
      "max": 0
    }
  },
  "flags": {},
  "img": "systems/pf1/icons/skills/blue_34.jpg",
  "effects": []
}